<?xml version="1.0" encoding="UTF-8" standalone="no"?>
<svg
   xmlns:dc="http://purl.org/dc/elements/1.1/"
   xmlns:cc="http://creativecommons.org/ns#"
   xmlns:rdf="http://www.w3.org/1999/02/22-rdf-syntax-ns#"
   xmlns:svg="http://www.w3.org/2000/svg"
   xmlns="http://www.w3.org/2000/svg"
   viewBox="0 0 1438.5822 2194.2773"
   height="2194.2773"
   width="1438.5822"
   id="svg1734"
   version="1.1">
  <metadata
     id="metadata1740">
    <rdf:RDF>
      <cc:Work
         rdf:about="">
        <dc:format>image/svg+xml</dc:format>
        <dc:type
           rdf:resource="http://purl.org/dc/dcmitype/StillImage" />
        <dc:title></dc:title>
      </cc:Work>
    </rdf:RDF>
  </metadata>
  <defs
     id="defs1738" />
  <path
     id="path1744"
     d="m 549.30298,2194.1229 c -17.4206,-0.773 -51.2304,-5.0168 -75,-9.4138 -42.2273,-7.8114 -85.8363,-23.4241 -140,-50.1221 -103.7267,-51.1282 -132.7165,-67.5525 -150.9563,-85.5252 -11.3525,-11.1863 -12.9868,-16.839 -10.069,-34.8283 4.1655,-25.6819 7.2541,-176.2675 4.4914,-218.9745 -1.4883,-23.0051 -4.6571,-50.0506 -7.5552,-64.4829 -3.6025,-17.9396 -8.2228,-30.8096 -17.3115,-48.2212 -14.9752,-28.6887 -17.1892,-39.4582 -19.0732,-92.7788 -0.6142,-17.3803 -1.3218,-25.953 -2.4351,-29.5 -0.8632,-2.75 -1.5743,-6.2307 -1.5803,-7.735 -0.01,-1.5042 -1.3503,-4.912 -2.9876,-7.5728 -9.9245,-16.1294 -18.7773,-39.6562 -22.5263,-59.8649 -5.379698,-28.9984 -5.380098,-51.858 0,-120.1531 3.2281,-40.9954 3.9918,-63.9174 2.6102,-78.3422 -1.2304,-12.8457 -0.556,-16.832 2.8475,-16.832 2.6171,0 4.5895,3.2493 5.9484,9.7992 2.0932,10.0895 1.2816,47.2089 -1.9287,88.2008 -4.9141,62.7472 -4.9936,87.0158 -0.3739,114 5.9415,34.7047 23.0214,67.1556 41.6628,79.1572 9.7122,6.253 28.709,12.0689 50.7392,15.534 15.7528,2.4777 84.7343,2.4768 121.6928,0 38.4595,-2.5792 47.8909,-2.26 50.5419,1.7102 1.1296,1.6917 0.9299,2.4357 -1.2347,4.6003 -1.8152,1.8152 -3.3333,2 -16.4296,2 -7.9362,0 -25.3737,0.7404 -38.75,1.6452 -31.0756,2.1022 -94.8289,2.4166 -109.8204,0.5415 -27.8023,-3.4774 -52.9942,-11.1396 -64.5,-19.6178 -5.1793,-3.8165 -5.1409,-3.8362 -4.3796,2.2486 0.3909,3.1254 0.7488,12.9297 0.7952,21.7873 0.1624,31.0006 3.188,54.0684 9.0092,68.6896 1.5778,3.9631 6.268,13.7306 10.4227,21.7056 12.8339,24.6351 17.7496,43.8931 22.0795,86.5 3.1709,31.2024 3.8192,52.9028 3.1671,106 -0.9526,77.5524 -2.8645,124.122 -5.9529,145 -0.9084,6.141 -1.0297,10.0985 -0.3819,12.4578 1.9213,6.9972 19.185,21.4196 43.7407,36.5418 9.8881,6.0894 101.8814,52.7208 131.5,66.6574 31.133,14.6491 66.3203,27.8564 91,34.1562 26.7331,6.8239 65.3608,12.8863 94.72,14.8659 29.8102,2.0099 60.2733,-1.4622 98.28,-11.2017 67.588,-17.3198 91.405,-27.0918 196.5,-80.6231 53.0189,-27.0057 75.2857,-35.3424 142.2766,-53.2681 71.13032,-19.0334 99.45742,-29.5439 109.63412,-40.6789 2.7097,-2.9648 5.1939,-6.6318 5.5204,-8.1489 0.3963,-1.8411 -0.5661,-5.9913 -2.894,-12.48 -6.019,-16.7774 -7.8545,-27.8639 -7.8278,-47.2784 0.044,-31.9733 6.5547,-64.2619 25.8098,-128 9.2409,-30.589 17.9716,-54.8877 32.6972,-91 17.0354,-41.777 21.7588,-54.3631 27.2601,-72.6377 4.1703,-13.8531 11.4707,-41.1162 12.9502,-48.3623 0.3369,-1.65 -4.2606,6.45 -10.2168,18 -10.6945,20.7384 -18.8818,34.6875 -30.1821,51.4224 -7.6253,11.2925 -39.0389,53.0208 -49.0179,65.1131 -10.9452,13.2629 -39.9505,41.386 -49.2892,47.7901 -16.022,10.987 -31.8824,16.1744 -49.45312,16.1744 -20.5385,0 -36.1824,-4.9759 -83.9283,-26.6956 l -34.6367,-15.7563 -4.9825,5.476 c -16.1275,17.7249 -35.2304,44.0578 -43.8713,60.4756 -17.1966,32.6737 -26.9121,78.6564 -25.5659,121.0003 0.626,19.6908 2.5164,31.6521 7.4109,46.8918 2.8777,8.96 3.3023,11.3216 2.3938,13.3156 -1.5655,3.4358 -5.9072,2.7986 -8.2268,-1.2074 -2.5465,-4.3977 -6.6842,-19.389 -8.882,-32.1805 -7.5914,-44.1831 1.3198,-104.8091 21.6143,-147.0504 8.3805,-17.4432 29.9296,-48.0645 45.6529,-64.8728 l 5.7958,-6.1958 -9.2708,-4.9686 c -14.595,-7.8221 -38.9213,-22.6206 -50.9971,-31.0232 -20.9071,-14.5475 -29.7762,-24.9274 -29.7762,-34.8471 0,-5.6362 4.1105,-16.764 10.2859,-27.8457 2.7639,-4.9597 7.5901,-14.2931 10.7251,-20.7409 3.1349,-6.4478 6.3089,-12.4572 7.0533,-13.3542 2.5421,-3.0631 5.397,-3.3624 13.0681,-1.3702 4.0522,1.0524 8.6274,1.9211 10.1673,1.9306 5.9216,0.036 10.9018,-4.4345 17.591,-15.7918 3.4758,-5.9013 15.2023,-32.4314 14.6008,-33.0329 -0.2105,-0.2105 -9.9697,3.666 -21.6871,8.6145 -32.8721,13.8824 -40.652,16.4849 -63.3044,21.1767 -55.4241,11.4795 -122.7745,14.2814 -168.5,7.0098 -39.409,-6.2671 -66.6159,-13.9718 -71.9245,-20.3682 -1.6914,-2.0381 -0.6162,-6.2846 1.7843,-7.0465 1.0465,-0.3322 4.7448,0.7077 8.485,2.3859 10.4008,4.6665 20.8615,7.6421 40.2261,11.4425 34.7515,6.8202 38.207,7.1307 78.9291,7.0916 39.0822,-0.038 52.8512,-0.893 80.5,-5.002 39.6297,-5.8894 51.9098,-9.436 93.9262,-27.1268 l 27.99,-11.7851 6.6359,-14.5253 c 7.8259,-17.1303 28.0485,-56.8147 37.0818,-72.7686 3.8916,-6.873 6.3661,-12.4045 6.3661,-14.2306 0,-4.0397 7.2287,-38.4564 11.4523,-54.5261 1.8793,-7.15 6.3982,-22.45 10.0421,-34 3.6439,-11.55 9.7496,-31.4565 13.5682,-44.2366 3.8186,-12.7801 7.6708,-25.0558 8.5604,-27.2792 1.7896,-4.4726 4.4275,-6.4203 7.4124,-5.4729 2.9498,0.9362 3.3099,4.4833 1.0703,10.5428 -1.107,2.9953 -4.7678,14.6709 -8.1351,25.9459 -3.3674,11.275 -9.266,30.4 -13.1081,42.5 -6.4098,20.1863 -15.9181,56.3633 -17.3466,66 l -0.593,4 1.7886,-2.4826 c 14.1353,-19.6212 43.5236,-48.122 59.6742,-57.872 16.25852,-9.8153 39.11862,-13.6729 57.61432,-9.7223 21.1958,4.5273 52.5965,19.3932 72.4726,34.3104 11.7913,8.8496 24.0782,20.6704 41.3342,39.7665 22.4713,24.8675 32.1588,38.811 38.4242,55.3055 l 3.2107,8.4524 2.2169,-9.0581 c 1.2192,-4.982 2.8685,-10.3275 3.665,-11.879 1.4096,-2.7457 1.2128,-3.2178 -7.3869,-17.7226 -16.785,-28.3105 -21.2533,-37.2691 -44.9381,-90.0982 -16.9216,-37.7435 -37.9446,-69.3846 -62.4928,-94.0559 -14.239,-14.3104 -31.8173,-25.1717 -49.2931,-30.4574 -7.3871,-2.2343 -10.2127,-4.029 -10.2127,-6.4867 0,-2.1545 2.9204,-4.5 5.603,-4.5 3.8448,0 13.9634,3.6548 24.897,8.9928 18.7097,9.1344 29.7859,17.8941 45.5294,36.0072 25.8747,29.7691 40.1728,53.3261 60.9993,100.5 13.5057,30.5915 25.7015,54.411 40.3728,78.8513 22.9992,38.3134 42.6614,60.0477 73.3533,81.0839 6.1901,4.2427 11.6812,8.5109 12.2024,9.4848 1.1467,2.1426 -1.2339,6.08 -3.676,6.08 -3.6979,0 -24.7487,-14.3918 -38.0704,-26.0276 -8.9464,-7.8143 -25.6979,-26.3392 -33.6589,-37.2224 -2.7157,-3.7125 -5.2072,-6.75 -5.5368,-6.75 -0.6406,0 -2.8861,9.1468 -14.6075,59.5 -21.971,94.3848 -25.0132,104.4143 -51.4132,169.5 -19.184,47.2955 -28.1363,73.2079 -41.0192,118.7292 -17.9283,63.3494 -21.8676,99.7479 -14.1136,130.4054 1.6185,6.399 3.8868,13.7687 5.0406,16.3771 4.3883,9.9206 2.1252,18.6269 -7.2616,27.9351 -11.7798,11.6813 -42.5985,23.2146 -109.64062,41.0312 -42.2244,11.2212 -55.8097,15.3208 -76.7137,23.1499 -22.9412,8.5919 -42.7524,17.3848 -64.1372,28.4663 -9.707,5.0301 -26.1991,13.5672 -36.6491,18.9714 -41.0225,21.2146 -85.6757,40.7914 -113.5,49.7607 -19.6901,6.3471 -59.0663,16.8224 -75.5,20.0854 -23.7954,4.7247 -51.3864,7.2611 -70,6.4351 z m 464.58492,-417.4375 c 14.4219,-3.9966 26.3587,-11.571 44.106,-27.9872 15.8736,-14.6831 28.3341,-29.1553 51.0001,-59.2342 32.9627,-43.7432 45.6649,-64.1974 64.0807,-103.1879 18.8206,-39.8478 23.3638,-52.4265 24.4102,-67.5842 0.8056,-11.6688 -1.3319,-20.7358 -8.1356,-34.5106 -6.5602,-13.2816 -13.2476,-22.4716 -30.1238,-41.3966 -29.2339,-32.7832 -44.1118,-45.076 -71.2031,-58.8315 -22.9652,-11.6605 -38.553,-16.3514 -54.2471,-16.3251 -25.2119,0.042 -39.48372,7.6242 -68.00282,36.1262 -26.5426,26.5266 -39.6627,46.45 -68.3688,103.8205 -11.8789,23.7407 -20.7109,42.855 -32.0883,69.4464 -11.9842,28.0094 -19.9766,38.6486 -31.3304,41.7059 -3.5096,0.945 -5.8264,0.8301 -12.8998,-0.6401 -6.5576,-1.3629 -8.7186,-1.5016 -9.0261,-0.5792 -0.2223,0.667 -3.7466,7.6377 -7.8317,15.4905 -14.771,28.3944 -15.7925,30.7188 -16.2443,36.964 l -0.4256,5.8843 8.3728,8.241 c 9.4767,9.3275 28.0442,22.0592 53.8727,36.9403 20.7398,11.9491 23.4929,13.3162 62.8028,31.1838 43.1076,19.5938 54.2895,23.7447 71.6972,26.6149 7.2933,1.2026 21.13312,0.2009 29.58492,-2.1412 z m -34.58492,-21.556 c -17.0623,-2.7454 -53.1921,-18.4692 -74.1021,-32.2495 -23.1078,-15.2288 -35.7437,-37.7468 -37.0938,-66.1038 -1.1096,-23.3044 5.6011,-45.7075 29.6547,-99 19.7265,-43.7055 41.6361,-81.9086 61.0985,-106.5352 24.7158,-31.274 39.9743,-44.3078 60.07502,-51.3158 12.8301,-4.4732 22.9335,-5.7667 33.7723,-4.3236 8.1077,1.0795 10.1526,1.8611 24.2253,9.26 21.6636,11.39 34.0293,18.9775 48.666,29.8613 22.9181,17.0419 38.0637,34.4345 43.3749,49.8103 3.4655,10.0326 3.2735,23.5195 -0.516,36.243 -4.78,16.0492 -11.5558,33.8414 -18.4703,48.5 -15.0758,31.9608 -46.8221,90.6158 -58.7242,108.5 -27.3699,41.1264 -57.9155,68.5747 -83.9603,75.4469 -6.1905,1.6335 -22.70732,2.758 -28.00002,1.9064 z m 24.03992,-10.8592 c 15.0068,-3.7916 32.1267,-15.0797 48.0555,-31.6856 25.2302,-26.3026 43.1409,-54.8773 80.424,-128.3085 13.5462,-26.6798 21.0408,-44.6752 26.6544,-64 3.0979,-10.6647 3.4444,-13.0194 3.1137,-21.1608 -0.3398,-8.3644 -0.7351,-9.8932 -4.5468,-17.5856 -9.8991,-19.9772 -39.0061,-43.9147 -79.7519,-65.5878 -9.3562,-4.9766 -19.0312,-9.5138 -21.5,-10.0827 -16.0842,-3.7059 -38.6683,2.1977 -54.6396,14.283 -11.72512,8.8723 -33.87122,34.3515 -47.05232,54.1339 -15.6517,23.4903 -30.3022,49.8439 -42.806,77 -19.4165,42.1696 -27.702,63.5769 -31.534,81.4745 -3.0979,14.4689 -2.4981,32.835 1.4541,44.5255 5.6266,16.6434 14.5519,27.9955 29.7161,37.7959 18.8954,12.2119 50.3399,26.4361 66.3729,30.0245 4.7741,1.0685 20.5179,0.5689 26.03992,-0.8263 z m -569.93292,65.9241 c -1.2283,-3.2008 -0.5342,-7.3192 2.449,-14.5307 13.6617,-33.0253 17.7555,-50.1542 19.9549,-83.4929 3.0046,-45.544 -5.2676,-92.0438 -22.4671,-126.2933 -8.7856,-17.4946 -13.2567,-23.8609 -62.6061,-89.1431 -19.722,-26.0894 -30.8233,-48.692 -35.9132,-73.1203 -2.5423,-12.2017 -4.4067,-31.6863 -3.7378,-39.0633 0.4644,-5.1215 0.3237,-5.7904 -1.128,-5.3621 -11.3046,3.3345 -34.42,7.9782 -67.6587,13.5921 -13.2,2.2295 -33.675,5.9264 -45.5,8.2154 -17.558,3.3987 -23.7002,4.1726 -33.5,4.2209 -10.6181,0.052 -12.4879,-0.2015 -16.2365,-2.2044 -5.876,-3.1393 -7.4937,-6.8622 -13.2575,-30.5091 -5.683,-23.3155 -7.164,-33.4427 -5.9045,-40.3738 1.2394,-6.8198 4.4418,-9.4017 15.1802,-12.2385 4.7951,-1.2667 8.7183,-2.7867 8.7183,-3.3778 0,-0.9419 -6.5279,-26.3743 -24.0997,-93.8913 -9.8736,-37.9379 -13.3727,-66.6453 -13.3889,-109.846 -0.012,-32.3609 0.6226,-39.5257 5.094,-57.5 6.1288,-24.6371 16.8819,-41.4293 35.5261,-55.47824 14.3873,-10.8411 33.1938,-18.1147 60.4477,-23.3787 20.1029,-3.8827 31.4163,-4.988 51.4208,-5.0234 56.1617,-0.099 85.806,17.0395 108.7607,62.88034 11.3154,22.5971 33.1489,89.7278 40.8053,125.4626 6.2092,28.9807 6.9103,36.2478 6.901,71.5374 -0.01,29.3666 -0.1917,32.8351 -2.2358,42.1478 -2.6076,11.8799 -8.1202,28.1927 -12.4313,36.7863 -8.6518,17.2463 -23.026,34.3266 -36.5533,43.4345 -8.6329,5.8126 -26.5946,14.4239 -39.7466,19.0555 l -11,3.8737 0.1011,15.3511 c 0.1149,17.4398 1.8307,28.9315 6.4926,43.485 7.3069,22.8106 12.918,32.0071 47.8139,78.3661 15.1112,20.075 30.5753,41.225 34.3648,47 13.2034,20.1212 22.5419,42.3081 28.6213,68 5.9035,24.9487 6.6065,31.8154 6.6036,64.5 0,30.7913 -0.7236,39.878 -4.6111,58.1345 -2.7681,12.9992 -13.3708,43.5543 -18.8199,54.2355 -2.8177,5.5231 -7.1843,7.8708 -8.4593,4.5482 z m -222.9116,-417.9247 c 10.3425,-1.9285 33.1099,-5.9818 50.5941,-9.0072 72.8754,-12.6102 100.7454,-20.983 125.5542,-37.7195 23.0656,-15.5605 40.3452,-45.5618 45.6477,-79.2549 4.402,-27.9705 2.4434,-68.0444 -5.0693,-103.723 -5.1278,-24.352 -22.2723,-80.3332 -32.3279,-105.5584 -20.0561,-50.3125 -43.0785,-70.32774 -86.4577,-75.16484 -39.6013,-4.4158 -94.0656,5.0478 -121.455,21.10384 -3.1248,1.8318 -10.2059,7.8305 -15.7357,13.3305 -8.4877,8.442 -10.6923,11.3243 -14.1501,18.5 -13.7296,28.4919 -17.0884,65.0476 -11.2612,122.5606 2.4645,24.3231 5.8195,42.5036 12.6091,68.3272 12.6429,48.0859 23.3324,90.797 23.344,93.2733 0.019,3.9932 -4.5005,7.1186 -14.0749,9.7341 -4.627,1.264 -8.9752,2.7597 -9.6627,3.3239 -2.6324,2.1602 -0.9764,13.8371 5.8041,40.9266 4.8209,19.2607 5.3538,20.6818 8.1814,21.8178 4.9811,2.0011 19.4733,1.0704 38.4599,-2.47 z m 51.8568,-37.1456 c -20.1693,-4.3226 -34.4207,-15.0626 -47.1263,-35.5148 -17.2621,-27.7867 -32.3481,-78.6973 -40.8431,-137.8331 -3.7666,-26.2202 -4.7147,-37.7175 -4.7003,-57 0.028,-37.1281 10.5903,-70.9903 26.8754,-86.1577 10.9803,-10.2268 31.4043,-20.3552 49.1854,-24.3914 18.1359,-4.1167 37.0895,-7.4581 49.1383,-8.6628 21.1893,-2.1185 35.3265,1.7365 46.9196,12.7945 18.4771,17.6241 32.4033,49.9195 47.8736,111.0209 7.6727,30.304 13.8695,60.1593 16.7909,80.8965 2.5606,18.1761 2.5686,55.2222 0.015,67.874 -5.6894,28.1842 -17.0197,47.857 -33.1411,57.5429 -11.3876,6.8417 -37.8582,15.1502 -60.543,19.0031 -14.9613,2.541 -39.6088,2.7501 -50.4441,0.4279 z m 48.9571,-9.8761 c 19.5869,-3.4127 42.4199,-10.2829 53.6308,-16.1368 17.0734,-8.9151 27.3009,-26.0932 32.0285,-53.7944 1.8038,-10.5698 1.9912,-14.8501 1.5341,-35.0406 -0.7205,-31.8226 -3.9632,-51.4343 -17.3609,-105 -14.0754,-56.2755 -25.4317,-85.3274 -40.884,-104.591 -9.3523,-11.6588 -19.0279,-15.909 -36.2176,-15.909 -6.4586,0 -10.2592,0.4756 -12.3211,1.5419 -1.6766,0.8669 -7.8922,1.9613 -14.2004,2.5003 -24.0692,2.0562 -39.9365,6.2798 -56.8789,15.1398 -22.7441,11.8941 -32.1267,26.573 -39.0303,61.0626 -7.3312,36.6259 3.5864,118.9993 23.8092,179.6402 8.0772,24.2204 19.8864,45.925 30.7647,56.5432 8.2507,8.0534 20.4877,13.6933 33.7778,15.5678 8.5366,1.204 30.2933,0.4021 41.3481,-1.524 z M 31.908952,1547.4038 c -2.46372,-2.9686 -8.9094,-38.4244 -12.02295,-66.1348 -4.33187,-38.5533 -6.70609,-76.9868 -9.08042,-146.9929 -0.9474399,-27.9348 -4.5270999,-81.2014 -8.5347399,-127 -3.55231,-40.5951 -2.99840001,-66.061 2.09607,-96.3659 4.79143,-28.5023 11.4760599,-49.9974 23.0099499,-73.9907 21.44898,-44.61924 43.03031,-65.81194 94.906718,-93.19764 22.5758,-11.91784 47.7429,-20.46344 88.0194,-29.88739 48.3276,-11.30775 101.2693,-26.13625 130.8366,-36.64613 36.431,-12.94964 59.4718,-25.30785 72.6634,-38.97385 3.575,-3.70358 7.5125,-7.73143 8.75,-8.95077 2.7947,-2.75372 2.8196,-5.0341 0.2464,-22.56045 -2.1112,-14.37982 -7.2949,-34.83306 -11.4785,-45.29035 -1.3848,-3.46158 -2.5179,-6.82097 -2.5179,-7.46532 0,-0.81938 -3.089,-1.17154 -10.2762,-1.17154 -20.8754,0 -38.0229,-3.64164 -54.4302,-11.55938 -13.9784,-6.74566 -24.8309,-18.64771 -30.3585,-33.2948 -1.1719,-3.1052 -7.8938,-28.37082 -14.9375,-56.14582 -7.0437,-27.775 -15.3054,-59.275 -18.3593,-70 -16.6884,-58.60872 -18.6287,-74.10458 -16.1527,-129 2.1218,-47.04317 1.9959,-63.14569 -0.5864,-75 -8.9547,-41.1061 -8.9431,-63.35961 0.051,-98.30819 3.6365,-14.12952 4.0253,-16.97087 5.0293,-36.7526 1.5944,-31.4141 3.7179,-45.09106 10.6262,-68.43921 14.8091,-50.05149 41.2227,-92.909562 72.5503,-117.718572 23.6018,-18.690743 49.7676,-31.473585 86.8105,-42.409742 37.3787,-11.0353184 65.2649,-14.96076836 99.5331,-14.01096336 54.8362,1.51988496 103.8488,14.04945336 151.3729,38.69689236 34.7926,18.044483 68.205,45.542403 89.3241,73.512405 23.8884,31.63764 35.1464,55.47186 45.8287,97.0232 6.2551,24.33096 7.9892,38.66271 8.6403,71.40678 0.512,25.75494 -0.5675,57.00184 -2.1074,61 -0.4824,1.25249 0.7026,1.50542 7.1818,1.53284 6.1755,0.0261 8.6783,0.51492 12.2596,2.39428 7.8276,4.10765 10.8839,7.0917 14.2346,13.89781 2.9374,5.96678 3.2835,7.63221 3.6182,17.41096 0.5947,17.37453 -2.3571,33.11561 -11.7697,62.76411 -13.4342,42.31571 -21.541,59.03366 -34.1035,70.32842 -9.1826,8.25596 -20.0278,11.59893 -31.7223,9.77825 -3.6196,-0.56352 -6.9197,-0.81529 -7.3336,-0.5595 -1.4969,0.92511 -9.9404,38.53352 -14.3582,63.95283 -2.4853,14.3 -6.5949,36.575 -9.1324,49.5 -5.6066,28.55704 -6.3533,37.75464 -3.9469,48.61288 3.5106,15.8403 9.3524,27.99195 34.319,71.38712 25.8562,44.94154 39.7047,65.39877 53.8415,79.53558 17.3354,17.33541 61.8796,31.04644 161.85332,49.81962 13.2,2.47871 35.925,6.36977 50.5,8.6468 45.9031,7.17136 104.0889,17.02218 115.0003,19.46949 20.8909,4.68559 46.2971,14.15802 70.9997,26.47143 26.5626,13.24058 43.7843,26.48878 67.7352,52.10668 40.7793,43.61774 58.1914,67.42704 78.2304,106.97244 28.2568,55.7626 44.3655,124.1705 49.1192,208.5917 1.2736,22.6178 0.9122,27.7824 -2.0554,29.3706 -4.8387,2.5896 -7.0294,-1.5605 -7.0294,-13.3165 0,-27.0146 -4.6573,-71.2248 -11.0789,-105.1678 -14.3928,-76.0764 -41.1982,-135.2978 -84.4159,-186.5 -32.4043,-38.39114 -55.1165,-60.21554 -76.3034,-73.32124 -21.23,-13.13236 -54.9756,-27.55627 -78.961,-33.7504 -12.2744,-3.16993 -61.3128,-11.79131 -110.7404,-19.46921 -114.50172,-17.78627 -192.50562,-37.18582 -218.81942,-54.42034 -16.9988,-11.13354 -33.9802,-34.34421 -67.3376,-92.03885 -25.3256,-43.80299 -32.8837,-60.68911 -35.3596,-79 -1.4291,-10.56944 -1.2176,-12.35906 6.0287,-51 3.249,-17.325 7.7204,-41.71033 9.9365,-54.18963 2.2161,-12.4793 5.9988,-30.33931 8.4058,-39.68892 l 4.3765,-16.99928 -5.6155,-3.31108 c -5.1203,-3.01913 -5.6154,-3.6197 -5.6154,-6.81109 0,-3.06638 0.3374,-3.53888 2.7233,-3.81385 1.7029,-0.19624 5.0754,0.99183 9,3.17059 8.8251,4.89918 16.7727,6.99767 24.2339,6.39876 8.1153,-0.65142 12.9532,-3.30138 20.2314,-11.08172 8.0948,-8.6534 15.357,-23.54809 23.7317,-48.67378 15.9701,-47.91299 19.9268,-74.00303 13.229,-87.22915 -5.0872,-10.04557 -17.8894,-13.5808 -30.5953,-8.44867 -12.2284,4.93929 -22.0548,11.67459 -32.721,22.42782 -5.5918,5.6375 -10.4589,10.25 -10.8157,10.25 -0.3568,0 -1.5192,-0.46583 -2.583,-1.03518 -3.5441,-1.89672 -2.369,-5.92859 3.8288,-13.13762 8.6752,-10.09045 16.384,-16.01996 32.0184,-24.62807 7.9382,-4.37066 6.9164,1.74688 7.8132,-46.78094 0.9043,-48.93302 -1.1611,-68.53457 -10.6353,-100.93425 -10.4359,-35.68853 -21.55,-57.51815 -44.0315,-86.48394 -43.6194,-56.200552 -124.1518,-96.269055 -208.9279,-103.951089 -25.6147,-2.3210914 -58.5987,-0.9188974 -82,3.48593 -25.8975,4.874687 -61.8036,16.2904 -81.5,25.91146 -23.6541,11.554267 -46.3555,28.403777 -59.6729,44.290607 -19.7252,23.530762 -33.7811,49.799892 -45.4124,84.871352 -8.7586,26.40967 -10.5476,37.4895 -13.3837,82.89174 -0.7781,12.45517 -1.6513,18.3263 -3.9413,26.5 -3.7178,13.27007 -5.7524,24.07269 -6.6702,35.41489 -0.6889,8.51428 -0.6359,8.87846 1.1796,8.10402 1.0455,-0.44598 6.8509,-2.36462 12.9009,-4.26365 10.2596,-3.22035 11.6395,-3.41526 20.5,-2.89562 10.4529,0.61303 30.2601,3.7825 36.4489,5.83238 4.8584,1.60926 7.3067,5.47675 9.2076,14.54531 1.6609,7.9238 1.2475,9.54083 -3.1311,12.24697 l -3.3713,2.08361 -11.3466,-2.94609 c -12.6008,-3.27173 -36.3108,-6.62639 -41.2122,-5.831 -1.7406,0.28247 -7.1091,1.71667 -11.93,3.18712 l -8.7651,2.67354 0.6406,4.67426 c 0.3523,2.57084 2.0469,10.74926 3.7658,18.17426 3.0391,13.1282 3.1239,14.14721 3.0806,37 -0.024,12.925 -0.6369,35.8258 -1.3608,50.89066 -2.3291,48.47116 -0.2841,64.58586 15.0772,118.80755 3.8646,13.64099 12.8095,47.52679 19.8777,75.30179 7.0681,27.775 13.6064,52.27479 14.5294,54.44399 2.4697,5.80404 8.7099,14.61913 13.2566,18.72685 5.9404,5.36676 11.5833,8.33729 23.2327,12.23003 15.057,5.03144 22.4993,5.94003 43.5,5.31069 20.9593,-0.6281 48.7698,-4.89794 63.7183,-9.7829 4.9885,-1.63015 21.2149,-9.06925 36.0588,-16.53132 30.323,-15.24347 89.0783,-42.39734 91.7389,-42.39734 2.5935,0 4.298,2.61272 3.5775,5.48361 -0.7446,2.96651 -3.5742,4.45712 -38.0935,20.06706 -13.2,5.96917 -36.15,17.00682 -51,24.52813 -35.6832,18.073 -42.5273,20.45617 -71.5,24.89682 -7.425,1.13804 -14.8868,2.29026 -16.5817,2.5605 l -3.0817,0.49135 4.7888,14.23627 c 7.4093,22.02669 11.0153,43.04008 12.7392,74.23626 0.9185,16.62094 0.8242,20.65516 -0.9695,41.5 -1.1688,13.58352 -2.4516,17 -6.383,17 -4.003,0 -4.7587,-2.82885 -3.5479,-13.28117 1.8262,-15.76427 2.5192,-42.30205 1.1271,-43.16239 -0.7506,-0.46392 -3.4041,1.34515 -6.9904,4.76591 -15.1128,14.41515 -47.9273,30.87837 -85.8532,43.07304 -37.9537,12.20359 -69.2896,20.70276 -131.2477,35.59799 -44.0613,10.59269 -75.1653,23.96062 -109.499998,47.06112 -17.91523,12.0534 -29.4913,23.6076 -41.02299,40.94554 -32.48466,48.8406 -46.0069499,110.7873 -40.05605,183.5 5.10894,62.4249 7.68394,98.8178 8.59679,121.5 4.08535,101.5114 4.58533,110.5984 8.03304,146 2.41452,24.7926 4.86274,42.0419 9.10927,64.1808 2.65921,13.8636 2.97966,16.9459 1.89733,18.25 -1.60599,1.9351 -5.41918,2.0431 -6.95142,0.1969 z M 337.80298,336.84116 c 0,-1.0642 -0.4224,-3.046 -0.9388,-4.404 -1.104,-2.90388 -3.4386,-3.51826 -25.2935,-6.65629 -16.177,-2.32278 -16.956,-2.2427 -33.6929,3.46363 -4.0838,1.39236 -8.2463,2.53156 -9.25,2.53156 -1.2798,0 -1.8248,0.74665 -1.8248,2.5 0,1.375 0.2724,2.5 0.6054,2.5 0.3329,0 4.4954,-1.21858 9.25,-2.70795 5.8534,-1.83361 10.7433,-2.69007 15.1446,-2.65255 8.0696,0.0688 27.3696,2.88519 36.5845,5.3387 8.9461,2.38192 9.4155,2.38626 9.4155,0.0869 z m 381.1089,1150.40404 c -12.0355,-3.3494 -19.245,-8.4412 -20.9331,-14.7843 -2.9582,-11.1159 10.3418,-21.74 27.1234,-21.6664 6.6616,0.029 20.3386,2.7544 24.4448,4.8706 14.9216,7.6902 16.3517,23.3205 2.7546,30.1052 -4.3325,2.1617 -6.531,2.5262 -16.4986,2.7346 -7.8315,0.1638 -13.2197,-0.2381 -16.8911,-1.2597 z m 28.7989,-9.818 c 3.5376,-1.6913 4.6929,-4.0469 3.5538,-7.2462 -2.0121,-5.6508 -7.6527,-7.8256 -23.4616,-9.0461 -9.1693,-0.7078 -14.6723,0.646 -18.3873,4.5235 -2.4125,2.5182 -2.6322,3.2127 -1.6165,5.1106 1.5441,2.8852 10.2902,6.8239 17.6416,7.9448 6.8744,1.0481 18.8312,0.3573 22.27,-1.2866 z m -556.4078,-6.3312 c -13.5168,-3.0284 -20.5,-9.0807 -20.5,-17.7674 0,-2.6504 0.8866,-4.5281 3.5084,-7.4301 4.2863,-4.7445 10.5323,-7.5243 20.7115,-9.2179 6.809,-1.1328 8.5968,-1.0776 15.1524,0.4678 12.9438,3.0515 20.6277,9.4533 20.6277,17.1858 0,7.2313 -6.4919,12.8749 -18.5,16.0825 -4.7364,1.2653 -16.6629,1.651 -21,0.6793 z m 21.6954,-10.8708 c 2.5034,-0.853 5.549,-2.6126 6.768,-3.9101 2.207,-2.3493 2.208,-2.3676 0.2413,-4.3343 -1.0863,-1.0863 -4.3893,-2.8664 -7.3399,-3.9559 -4.5481,-1.6792 -6.7466,-1.8775 -14.4416,-1.3027 -17.9077,1.3378 -23.2421,8.7894 -9.7394,13.6051 5.2474,1.8714 18.8863,1.8146 24.5116,-0.1021 z m 396.3185,-462.07804 c -0.8959,-0.896 -1.378,-2.2828 -1.0714,-3.0818 0.3066,-0.7991 0.5575,-1.6295 0.5575,-1.8454 0,-1.33 7.6318,-3.6818 22.5,-6.9334 34.5748,-7.5615 47.3201,-12.1454 87,-31.2899 42.1747,-20.34822 61.8712,-28.11183 87,-34.29196 16.1143,-3.96313 24.5421,-4.74371 26.8033,-2.48253 4.3793,4.37938 0.7982,6.91693 -13.3115,9.43243 -26.4151,4.7093 -59.6382,17.37726 -104.247,39.74946 -17.0579,8.5549 -27.9121,13.1146 -43.7448,18.3767 -13.3489,4.4365 -52.7795,13.9953 -57.7318,13.9953 -1.1689,0 -2.8584,-0.733 -3.7543,-1.6289 z m -157.5139,-5.9703 c -26.9109,-6.9352 -36.8817,-10.5209 -61.5,-22.1161 -9.9,-4.6629 -22.5,-9.9893 -28,-11.8365 -9.5147,-3.1956 -28.4326,-6.4482 -37.5042,-6.4482 -5.4062,0 -8.9958,-1.8108 -8.9958,-4.5381 0,-3.911 2.5748,-4.97722 11.4002,-4.7209 23.4685,0.6816 37.178,4.7282 73.2152,21.611 17.9758,8.4214 33.9671,14.0225 51.8846,18.1732 12.1183,2.8073 15.5,4.4283 15.5,7.4298 0,4.2215 -5.7182,5.0956 -16,2.4458 z m -94,-362.32532 c -11.1856,-0.86632 -13.6452,-1.54408 -15.0362,-4.1432 -1.141,-2.13182 0.048,-5.36855 2.2584,-6.14707 0.7028,-0.24755 4.8778,-0.10751 9.2778,0.3112 12.8806,1.22573 27.2761,1.00091 37.837,-0.59092 10.9673,-1.65308 13.663,-1.05987 13.663,3.00664 0,1.4305 -0.9318,3.04984 -2.25,3.91001 -4.7062,3.07104 -28.6162,4.98036 -45.75,3.65334 z m -23,-23.86218 c -3.3527,-1.70304 -3.4944,-1.99504 -3.3666,-6.9389 0.1966,-7.60919 3.469,-13.69809 8.4283,-15.68241 5.8925,-2.35771 20.7434,-4.52857 35.4383,-5.18028 14.2421,-0.63162 11.9473,-1.04842 41.5,7.53745 32.9724,9.57938 37.0339,11.03104 38.2343,13.66582 0.9519,2.0891 0.7958,2.79939 -1.0128,4.60795 -2.0378,2.03779 -2.4569,2.07925 -8.9298,0.88347 -12.953,-2.39288 -27.6879,-2.95353 -52.7917,-2.00867 -13.75,0.51752 -29.5,1.67239 -35,2.56638 -15.2386,2.47693 -18.546,2.55766 -22.5,0.54919 z m 48.5,-12.49722 22,-1.23493 -8.1203,-2.24058 c -11.6245,-3.20746 -30.3963,-2.88742 -49.0509,0.83627 -4.4923,0.89672 -5.3128,1.43851 -6.25,4.12692 -0.5933,1.70208 -1.0788,3.17246 -1.0788,3.26752 0,0.0951 4.6125,-0.65811 10.25,-1.67371 5.6375,-1.0156 20.15,-2.40227 32.25,-3.08149 z m -30,-74.28572 c -11.2505,-2.6688 -14.1697,-4.03331 -19.0339,-8.89699 -3.1718,-3.17147 -5.4837,-6.55593 -6.25,-9.14939 -2.4933,-8.43875 -1.1071,-21.5899 4.2048,-39.8905 1.4357,-4.94642 4.1977,-17.98851 6.1379,-28.98243 4.059,-23.00105 6.5054,-33.09291 13.0927,-54.01105 4.4061,-13.99158 4.7209,-15.70589 4.6815,-25.5 -0.023,-5.775 -0.5947,-13.74124 -1.27,-17.70276 -1.3126,-7.70071 -0.9082,-10.75893 1.5475,-11.70127 1.9004,-0.72927 5.0322,0.8678 6.2823,3.20377 1.5082,2.81798 3.1072,16.57234 3.1072,26.72684 0,8.22855 -0.571,11.32364 -4.6445,25.17764 -7.5531,25.68749 -9.9952,35.78984 -13.27,54.89547 -1.7063,9.95483 -4.0053,21.42983 -5.109,25.5 -4.5804,16.89166 -6.0927,24.40963 -6.2794,31.21516 -0.251,9.15024 2.3164,13.89332 9.213,17.02042 6.3888,2.89687 23.2635,3.45666 35.5899,1.18064 14.416,-2.66185 17.337,-2.89604 18.9919,-1.52261 2.0327,1.68699 1.9011,4.3411 -0.3148,6.34641 -2.8586,2.58698 -19.4055,5.70446 -32.6771,6.15642 -6.6,0.22477 -12.9,0.19517 -14,-0.0658 z m 459.7,-39.63036 c -1.9804,-1.98035 -1.4626,-4.11458 4.8078,-19.81961 13.23,-33.13586 18.7241,-53.26231 19.7265,-72.26417 l 0.5704,-10.81217 -2.9024,1.26256 c -12.2152,5.31376 -29.1257,22.3469 -36.2805,36.54355 -1.2902,2.56009 -2.1218,6.10703 -2.1218,9.05 0,5.31949 -1.2316,7.23984 -4.6433,7.23984 -3.1648,0 -5.3568,-3.67221 -5.3559,-8.97251 0,-15.54703 27.7385,-47.1301 47.0102,-53.53116 5.417,-1.79923 6.8834,-1.39929 10.989,2.9971 2.3747,2.54287 2.4943,3.23679 2.387,13.84182 -0.1332,13.16303 -3.5105,30.99972 -8.9789,47.42069 -4.3501,13.06284 -16.0336,42.88831 -18.0172,45.99406 -1.5592,2.44137 -5.2593,2.98164 -7.1909,1.05 z m -337.983,-86.91343 c -7.6154,-1.26796 -12.7894,-4.27472 -19.2845,-11.20669 -5.4419,-5.80796 -5.8429,-6.04171 -8.3811,-4.88526 -4.7236,2.1522 -7.8788,-1.17199 -5.9308,-6.24839 0.3414,-0.88954 3.4858,-3.66184 6.9876,-6.16067 8.0501,-5.74447 14.8972,-7.07356 41.113,-7.98047 21.6389,-0.74857 26.4731,-0.10579 38.6966,5.14538 9.6011,4.1246 12.1134,6.29248 11.1935,9.65924 -0.8287,3.03283 -4.5498,5.4858 -20.1574,13.28785 -17.8611,8.92851 -28.6773,10.97969 -44.2369,8.38901 z m 27.3895,-11.39051 c 7.7889,-2.61465 20.849,-8.806 21.7911,-10.33045 0.3006,-0.4863 -1.3534,-1.69877 -3.6755,-2.69437 -3.2741,-1.40374 -7.7023,-1.90658 -19.7221,-2.23953 -14.7735,-0.40923 -38.9983,1.10833 -41.6839,2.61129 -0.8824,0.49379 0.3091,2.44602 3.961,6.49019 6.3045,6.98172 10.3837,8.50391 23.0466,8.59991 6.8909,0.0522 10.4576,-0.48158 16.2828,-2.43704 z m -210.7356,1.93927 c -7.3398,-2.25999 -14.2601,-11.20781 -16.3346,-21.12018 -0.5076,-2.42514 -0.2058,-3.64561 1.265,-5.11643 2.3449,-2.34488 6.2954,-2.92333 25.6987,-3.76288 18.8292,-0.81471 25.5337,0.25135 30.3032,4.81844 4.1204,3.94566 9.1746,12.43886 9.1874,15.43902 0.011,2.64954 -3.4072,5.27203 -5.9914,4.59624 -1.0293,-0.26916 -4.7126,0.49644 -8.1853,1.70133 -13.8655,4.81084 -27.3185,6.10006 -35.943,3.44446 z m 29.8791,-11.49285 c 3.9875,-1.23875 7.25,-2.56687 7.25,-2.95136 0,-0.38449 -1.1035,-1.88978 -2.4523,-3.3451 -2.3965,-2.58587 -2.7318,-2.64586 -14.75,-2.63891 -6.7637,0.004 -15.3278,0.29329 -19.0313,0.64307 l -6.7335,0.63596 2.2191,3.94841 c 1.2205,2.17163 3.3506,4.59486 4.7336,5.38495 3.6982,2.11283 19.5377,1.18936 28.7644,-1.67702 z m 97.607,-21.93406 c -1.1787,-0.47565 -2.8538,-1.87964 -3.7226,-3.11998 -1.8917,-2.70073 -5.0704,-16.30997 -4.2866,-18.35248 2.8113,-7.32595 38.5823,-14.68322 78.6522,-16.17689 18.9739,-0.70728 27.1976,0.43576 45.3661,6.30557 19.4603,6.28718 26.3751,9.73841 32.3126,16.12754 6.5169,7.01255 7.1927,8.78083 4.417,11.55658 l -2.1137,2.1137 -24.9283,-6.32941 c -28.7786,-7.30701 -29.4753,-7.35615 -58.5537,-4.1294 -19.4671,2.16021 -32.2837,4.58655 -52.5,9.93892 -12.8174,3.39348 -11.7324,3.24041 -14.643,2.06585 z m 24.4543,-14.37012 c 16.5622,-4.13313 27.5333,-5.88497 51.8778,-8.28368 17.2528,-1.69997 25.7307,-1.39574 36.3109,1.30299 1.375,0.35073 2.2653,0.37408 1.9785,0.0519 -1.1371,-1.2774 -18.4551,-5.7069 -26.0214,-6.65564 -8.9679,-1.12448 -40.0043,0.7734 -56.7724,3.47165 -12.1704,1.95842 -28.4894,5.46686 -29.3904,6.31867 -0.3881,0.36696 -0.2352,2.52064 0.3398,4.78596 1.0129,3.99072 1.1437,4.09483 4.2057,3.34916 1.7381,-0.42328 9.6003,-2.37672 17.4715,-4.34099 z"
     style="fill:#000000" />
</svg>
