<?xml version="1.0" encoding="UTF-8" standalone="no"?>
<svg
   xmlns:dc="http://purl.org/dc/elements/1.1/"
   xmlns:cc="http://creativecommons.org/ns#"
   xmlns:rdf="http://www.w3.org/1999/02/22-rdf-syntax-ns#"
   xmlns:svg="http://www.w3.org/2000/svg"
   xmlns="http://www.w3.org/2000/svg"
   viewBox="0 0 124.45217 142.92838"
   height="142.92838"
   width="124.45217"
   id="svg176"
   version="1.1">
  <metadata
     id="metadata182">
    <rdf:RDF>
      <cc:Work
         rdf:about="">
        <dc:format>image/svg+xml</dc:format>
        <dc:type
           rdf:resource="http://purl.org/dc/dcmitype/StillImage" />
        <dc:title></dc:title>
      </cc:Work>
    </rdf:RDF>
  </metadata>
  <defs
     id="defs180" />
  <g
     transform="translate(-275.45754,-226.94952)"
     id="g629">
    <path
       d="m 292.25977,206.89062 c -0.0252,0.0132 -0.0511,0.0261 -0.0762,0.0391 0.10226,0.0562 0.21666,0.1189 0.28125,0.14843 0.28294,0.12946 0.56208,0.32054 0.87305,0.33204 0.11089,0.004 0.22425,0.005 0.33594,0.01 -0.34236,-0.14211 -0.7929,-0.31632 -1.41406,-0.5293 z m -0.0117,2.36329 c -0.0985,-0.0101 -0.19457,-0.006 -0.28711,0.0117 -1.31961,-0.006 -2.6394,0.003 -3.95899,0.0117 0.59045,0.64026 0.26537,1.52759 -1.11328,4.25977 -2.8241,5.59675 -3.57087,13.77472 -1.86328,20.4043 0.77911,3.025 1.73205,9.44377 2.11719,14.26367 0.60505,7.57207 0.99379,8.91667 2.85937,9.89844 2.84873,1.49917 3.62408,2.78535 3.64258,6.02929 0.008,1.48004 0.42317,2.94178 0.92188,3.25 0.49871,0.30822 0.66382,-0.45119 0.36523,-1.68945 -0.44479,-1.8451 -0.30157,-2.02598 0.79297,-1.00195 1.1073,1.03596 0.91696,2.06137 -1.10938,6 -2.36831,4.60338 -2.44421,5.41579 -2.44921,26.25 -0.006,22.21496 0.6096,26 4.23242,26 0.8299,0 3.29221,-2.025 5.4707,-4.5 4.69274,-5.33122 6.79102,-5.78024 6.79102,-1.45118 0,4.71048 2.6817,9.13751 5.30859,8.76368 1.87406,-0.2667 2.26886,-1.11084 2.72266,-5.8125 0.29198,-3.025 1.06876,-6.46307 1.72656,-7.64063 1.04838,-1.87677 3.19049,-16.30148 3.24609,-21.85937 0.0116,-1.16227 1.0918,0.22638 2.57813,3.31445 2.00095,4.15728 2.30318,5.61879 1.38867,6.7207 -0.86378,1.04079 -0.89544,2.65709 -0.11719,6.1875 0.57925,2.62771 1.5489,7.32922 2.1543,10.44922 0.6054,3.12 1.79802,6.25159 2.65039,6.95899 0.85236,0.7074 1.94278,2.31802 2.42187,3.57812 0.97798,2.57226 4.65752,3.13668 5.53516,0.84961 0.43841,-1.14255 1.05151,-1.21161 2.96484,-0.33984 1.96518,0.8954 2.78731,0.75884 4.43946,-0.73633 2.34941,-2.12619 3.83044,-1.20854 5.48047,3.39648 0.55,1.53498 3.25,4.7768 6,7.20508 4.33541,3.82822 4.95769,4.84789 4.68554,7.67188 -0.35917,3.72694 1.84326,5.29565 4.42578,3.15234 1.13966,-0.94584 1.42268,-2.31101 1.00977,-4.85547 -0.73387,-4.52229 1.13844,-8.77312 4.11328,-9.3418 2.71027,-0.5181 3.63516,0.55071 2.78711,3.22266 -0.44351,1.39739 -0.0726,2.00297 1.36914,2.24023 0.66105,0.10876 3.59433,3.42318 8.2207,9.1875 1.59795,-1.21569 3.35022,-2.17347 5.22461,-2.85546 -7.52221,-9.83891 -9.34623,-12.76384 -16.11132,-25.50586 -2.48209,-4.675 -6.14321,-10.75 -8.13672,-13.5 -1.99352,-2.75 -5.74383,-8.15 -8.33399,-12 -19.07853,-22.63327 -32.36123,-43.13339 -47.80467,-62.62896 -7.40129,-9.70862 -13.30698,-23.24464 -16.36133,-23.55859 z m 0.625,3.76171 c 0.12954,0.004 0.23748,0.0422 0.31445,0.11915 0.30789,0.30789 -0.24815,0.86665 -1.23438,1.24218 -1.42518,0.54268 -1.53885,0.42708 -0.55859,-0.56054 0.50875,-0.51257 1.08989,-0.81224 1.47852,-0.80079 z m -3.27149,4.4668 c 0.54957,-0.0973 0.99991,3.67321 1.36719,11.35156 0.5987,12.51653 0.98408,14.18896 4.64453,20.10743 0.51024,0.825 1.18762,2.7375 1.50586,4.25 0.31828,1.5125 1.16807,2.75 1.88672,2.75 1.54096,0 5.6543,4.15185 5.6543,5.70703 0,0.59321 -0.66393,1.33463 -1.47657,1.64648 -1.09226,0.41913 -1.45557,2.14384 -1.39257,6.61719 0.0574,4.07514 -0.45773,6.87896 -1.57618,8.58594 -1.57283,2.40043 -1.54646,2.71913 0.48243,6.00195 1.9734,3.19303 2.0406,3.85689 0.86914,8.42773 -1.45653,5.68306 -0.4048,8.87414 3.63671,11.03711 3.56271,1.9067 5.31431,0.56629 8.5254,-6.51562 1.6232,-3.57987 3.23468,-6.50781 3.58007,-6.50781 1.15528,0 -0.73028,15.16292 -2.40625,19.35156 -1.5592,3.89683 -1.68932,3.99277 -2.26757,1.64258 -0.53686,-2.1819 -1.0984,-2.46508 -4.47852,-2.25391 -3.05884,0.19111 -4.6424,1.07659 -7.60156,4.25 -2.05588,2.20474 -3.90943,4.00977 -4.11914,4.00977 -0.20972,0 -0.39847,-5.0625 -0.41797,-11.25 -0.0195,-6.1875 -0.14174,-14.91577 -0.27344,-19.39453 -0.20409,-6.94154 0.14029,-8.97487 2.33789,-13.7793 1.41794,-3.09995 2.57813,-6.50052 2.57813,-7.55664 0,-2.43743 -5.53138,-10.69771 -8.07422,-12.0586 -1.61664,-0.8652 -1.92578,-2.14294 -1.92578,-7.94726 0,-3.80382 -0.66102,-9.45361 -1.46875,-12.55469 -0.89165,-3.42348 -1.23188,-7.46908 -0.86524,-10.29883 0.47612,-3.67468 0.89936,-5.55256 1.27539,-5.61914 z m 52.28906,22.61125 c -0.1263,0.78135 -0.21233,1.55346 -0.21679,2.08594 -0.009,1.20274 -0.70514,1.66483 -2.25977,1.5 -2.92997,-0.31065 -3.64628,3.50013 -1.01758,5.41406 1.01719,0.74061 1.91426,2.36016 1.99414,3.59766 1.90232,2.07379 7.99116,1.99994 5.26953,-2.00401 0,-0.7404 0.48997,-1.83567 1.08789,-2.43359 0.78285,-0.78285 0.78285,-1.27595 0,-1.75977 -0.80936,-0.50023 -1.1304,-2.91129 -0.99805,-5.93164 -1.27654,-0.0896 -2.53974,-0.23557 -3.85938,-0.46875 z m 10.51755,7.96508 c -0.64098,0.013 -0.77007,0.32714 -0.55078,0.99219 0.25229,0.76512 1.46149,1.53717 2.68555,1.7168 1.29305,0.18976 0.49061,4.19318 1.05939,5.68919 2.72297,2.28975 4.78845,-0.38078 5.40789,2.68152 0.57559,0.4493 0.46763,2.44581 0.82125,5.11164 0.60189,5.88316 0.13947,5.4402 4.01807,5.4085 h 3.5332 4.22657 3.27343 c 8.62995,-0.0264 14.61525,-1.85636 22.82212,-3.26228 1.26916,-3.78266 8.97492,-1.59383 8.50829,-6.67011 1.3784,-2.6655 -1.57912,-5.17192 -3.05114,-7.4185 -1.94063,-2.96182 -3.53467,-2.67207 -5.30664,0.96289 l -8.49024,3.59961 c 1.7082,1.02215 1.69719,1.15201 -0.20507,2.64453 -1.1,0.86306 -2.67177,1.95274 -3.49219,2.42383 -2.70464,1.55303 -0.084,2.36248 4.35937,1.3457 3.79849,-0.86922 4.51082,-0.76128 5.50586,0.83203 1.04255,1.66939 0.75882,1.83008 -3.23828,1.83008 -2.41051,0 -6.28637,0.67121 -8.61328,1.49219 -5.47431,1.93145 -9.02148,1.10497 -9.02148,-2.10156 0,-1.31537 -0.56707,-2.39063 -1.25977,-2.39063 -0.6927,0 -1.82084,-0.9 -2.50781,-2 -1.48502,-2.3779 -4.77337,-2.63918 -5.61524,-0.44531 -0.32838,0.85574 0.0503,3.10574 0.8418,5 1.3862,3.31765 1.35845,3.44436 -0.75976,3.44336 -1.99582,-9.8e-4 -3.59548,-1.04028 -5.72398,-11.25 -0.69959,-3.35564 -1.45386,-5.96442 -1.97437,-8.36813 -2.42699,-0.88998 -3.70187,-0.52015 -5.51064,-0.97174 -0.78908,-0.19805 -1.3576,-0.29881 -1.74219,-0.29102 z m 54.96485,0.97852 c 0.0166,0.0548 0.0323,0.10779 0.0488,0.16211 0.0235,0.0396 0.10971,0.15997 0.12695,0.1914 -0.0599,-0.12743 -0.11594,-0.23251 -0.17578,-0.35351 z m 0.17578,0.35351 c 0.15649,0.28569 0.0662,0.24504 -0.0117,0.19141 0.002,0.008 0.006,0.0157 0.008,0.0234 -0.056,-0.0438 -0.0996,-0.0902 0.22461,0.25586 -0.0717,-0.16767 -0.14726,-0.31452 -0.2207,-0.47071 z m -93.02721,26.55075 c 0.47372,0 0.64567,1.125 0.38282,2.5 -0.26285,1.375 -0.65044,2.5 -0.86133,2.5 -0.21088,0 -0.38281,-1.125 -0.38281,-2.5 0,-1.375 0.38759,-2.5 0.86132,-2.5 z m 4.64844,0.84961 2.42578,2.58203 c 2.37429,2.52731 2.38613,2.61317 0.4961,4.04297 -3.51073,2.65585 -4.61089,1.63945 -3.59571,-3.32422 z m 12.36133,27.0332 c 0.34486,0.10192 0.6471,1.48459 0.64063,4.07031 -0.007,2.68284 -0.34922,5.21584 -0.76172,5.62891 -0.80779,0.80885 -1.07486,-1.29784 -0.77149,-6.08203 0.16106,-2.54004 0.54773,-3.71911 0.89258,-3.61719 z m 19.94727,9.11719 c 0.58488,0 1.36011,0.47981 1.72265,1.0664 1.07627,1.74144 -0.14994,2.10963 -1.52148,0.45703 -0.78875,-0.95039 -0.86427,-1.52343 -0.20117,-1.52343 z m -7.27735,0.57031 c 0.16757,-0.0159 0.34455,-0.0184 0.52344,0.004 0.23853,0.0252 0.48058,0.083 0.7168,0.17383 1.43028,0.54972 1.3001,0.77572 -0.78125,1.35547 -3.76487,1.0487 -6.8094,1.01409 -7.49024,-0.0879 -0.37514,-0.60698 0.51565,-0.76132 2.32031,-0.40039 1.62958,0.32592 3.21654,0.11752 3.58008,-0.4707 0.20211,-0.32703 0.62812,-0.52667 1.13086,-0.57422 z m 6.00391,4.6543 c 0.40949,0.0561 1.24149,1.23313 1.99609,2.87109 2.63969,5.72977 5.87276,10.60904 8.36719,12.62891 1.30705,1.05838 2.19994,2.37574 1.98437,2.92773 -0.55146,1.41207 -6.48694,-4.83863 -8.38476,-8.83008 -0.86879,-1.8272 -2.2796,-4.59432 -3.13477,-6.14844 -0.85518,-1.5542 -1.29426,-3.08652 -0.97656,-3.40429 0.0397,-0.0397 0.0899,-0.0529 0.14844,-0.0449 z m -5.92578,0.81836 c 0.32374,0.059 -0.0437,0.67629 -1.10938,2.30273 -2.06678,3.15432 -3.50976,3.42302 -3.50976,0.6543 0,-1.1 0.41297,-2 0.91796,-2 0.50503,0 1.68663,-0.29419 2.625,-0.6543 0.39824,-0.15281 0.69612,-0.26015 0.89454,-0.29492 0.0744,-0.013 0.13539,-0.01 0.18164,-0.008 z m 23.24023,6.11132 c 0.0698,9.8e-4 0.14089,0.0125 0.21485,0.0371 0.59125,0.19708 1.07617,0.7861 1.07617,1.3086 0,0.5225 -0.48495,1.11151 -1.07617,1.30859 -0.59126,0.19709 -1.07422,-0.39192 -1.07422,-1.30859 0,-0.80209 0.37069,-1.35252 0.85937,-1.34571 z m -7.41015,0.16016 c 0.23378,0.0249 0.57914,0.14324 1.05078,0.32422 0.825,0.31659 1.5,1.20259 1.5,1.96875 0,1.89454 -1.64288,1.76419 -2.39258,-0.18945 -0.54165,-1.41155 -0.71294,-2.00601 -0.35547,-2.09571 0.0536,-0.0135 0.1193,-0.01 0.19727,-0.008 z M 370.5332,337 c -1.00017,0.0996 -1.62799,1.90467 -1.16992,4.24023 0.37379,1.90561 1.06816,2.6905 2.17383,2.45899 1.7594,-0.3684 1.82148,-4.46037 0.0937,-6.1875 C 371.24204,337.1223 370.8666,336.9668 370.5332,337 Z"
       style="fill:#e6e6e6;fill-opacity:1"
       transform="translate(-8.660302,20.058901)"
       id="path637" />
  </g>
  <path
     d="m 3.7726797,6.12156 c -2.66263,4.51282 -3.57052002,14.09066 -1.97851,20.87696 0.66925,2.85285 1.52175,8.99999 1.89453,13.66015 0.60365,7.54624 0.93458,8.60046 3.02148,9.63868 2.55202,1.26954 6.1562503,6.51935 6.1562503,8.96679 0,0.84189 -0.99177,3.64424 -2.20508,6.22656 -2.0835103,4.43439 -2.1946503,5.86157 -1.9726503,25.69532 0.21881,19.54862 0.3751,21.13822 2.2500003,22.99999 l 2.01367,2 4.20703,-4.67774 c 2.31377,-2.57248 5.21953,-4.96432 6.45703,-5.3164 2.09251,-0.59535 2.25,-0.32827 2.25,3.8164 0,5.72539 2.88751,9.84518 5.42383,7.74024 1.10502,-0.91709 1.60075,-2.72821 1.49609,-5.4668 -0.0861,-2.25276 0.61241,-5.86823 1.55274,-8.0332 0.98743,-2.27341 1.94205,-7.83101 2.25976,-13.15624 0.50008,-8.3821 0.76537,-9.33365 2.90821,-10.48047 1.29642,-0.69382 2.47514,-1.07375 2.62109,-0.84375 1.36649,2.1534 5.7451,12.24514 5.44336,12.54687 -0.21509,0.21509 -1.20026,-1.40053 -2.1875,-3.58984 -0.98724,-2.1893 -2.63243,-4.73751 -3.65625,-5.66406 -1.74615,-1.58026 -1.86133,-1.57934 -1.86133,0.0195 0,0.93756 0.76254,3.14412 1.69336,4.9043 1.24475,2.35379 1.63473,5.28127 1.47852,11.06445 -0.21079,7.80394 -0.18504,7.88812 3.29882,11.17382 2.86898,2.70576 3.40844,3.82669 2.95704,6.13672 -0.34713,1.77622 0.0281,3.56925 1.00976,4.82617 1.54399,1.97685 1.57988,1.97718 3.0625,0.0586 0.825,-1.06762 1.5,-3.41012 1.5,-5.20508 0,-2.94621 0.34511,-3.32707 3.54688,-3.92773 1.95064,-0.36593 3.82499,-0.3878 4.16601,-0.0469 0.34103,0.34102 -0.13021,0.6211 -1.04687,0.6211 -2.00204,0 -2.23296,3.28399 -0.3418,4.85351 0.92525,0.76789 1.64052,0.78126 2.375,0.0469 0.73448,-0.73448 1.74133,0.37903 3.34766,3.69726 2.33699,4.82759 9.07352,12.40235 11.02929,12.40235 0.59145,0 0.99228,1.2375 0.89258,2.75 -0.30175,4.5764 -0.0482,5.25 1.96485,5.25 2.38522,0 3.67067,-3.5667 2.00781,-5.57032 -1.6685,-2.01043 1.57841,-9.42968 4.12695,-9.42968 0.97064,0 1.95532,-0.5625 2.1875,-1.25 0.23217,-0.6875 1.1816,0.2125 2.10938,2 0.92968,1.79115 1.22543,3.25 0.66015,3.25 -0.56412,0 -1.02539,0.49857 -1.02539,1.10742 0,0.60884 0.61466,0.87005 1.36524,0.58203 C 99.53795,120.49772 86.26075,121.5948 85.8566,118.17402 77.63374,103.80828 75.37931,96.22289 58.41236,72.2156 51.99868,63.1406 44.20749,52.96532 41.65947,49.32251 39.11145,45.6797 35.10696,40.05967 32.19752,36.55248 c -2.90944,-3.50719 -6.29404,-8.42677 -6.95797,-9.52677 -0.66393,-1.1 -2.6208,-4.17741 -4.06786,-6.55809 -1.44706,-2.38067 -3.3509,-6.5976 -3.10735,-6.84116 C 8.5348797,-1.68611 7.6653697,-0.49996 3.7726797,6.12156 Z m 5.48821,-0.86745 c 0.70027,0.0702 1.2473403,0.77377 2.0703103,2.36523 1.76978,3.42237 1.95064,5.06641 0.55469,5.06641 -0.53952,0 -1.26802,-1.14402 -1.61914,-2.54297 C 9.9156397,8.74382 9.1731397,7.74885 8.6183097,7.93379 c -2.7178,0.90594 -0.36137,24.87238 3.0800803,31.32813 1.15042,2.15805 2.31541,5.04883 2.58985,6.42383 0.30831,1.54467 1.63466,2.99709 3.4707,3.80273 3.9269,1.72307 4.7758,5.67092 2.61523,12.17578 -1.5726,4.73467 -1.41998,7.02149 0.46875,7.02149 0.47171,0 1.32007,-1.2375 1.88672,-2.75 0.89543,-2.39007 0.9562,-2.19686 0.45899,1.48242 -0.43193,3.19626 -0.21079,4.37288 0.90429,4.80078 0.92268,0.35407 1.30984,1.44112 1.03125,2.89844 -0.24526,1.28298 0.0235,2.62364 0.59766,2.97851 1.30829,0.80857 2.75841,-1.8313 3.66797,-6.67968 0.84894,-4.52521 2.58554,-4.98438 2.23047,-0.58985 -0.40373,4.9966 2.08465,4.72775 2.89062,-0.3125 0.38021,-2.37771 0.89691,-3.64993 1.14844,-2.82617 0.25154,0.82375 1.61794,2.74284 3.03711,4.26562 l 2.58008,2.76954 -3.7793,3.11523 c -2.82562,2.32912 -3.64697,3.65079 -3.25,5.23242 0.79283,3.1589 -1.77371,18.67477 -3.6582,22.11523 l -1.64258,3 -0.0391,-2.78125 c -0.022,-1.52977 -0.71938,-3.04304 -1.54883,-3.36133 -2.25355,-0.86476 -7.87455,2.17411 -11.35547,6.13867 -3.06152,3.48687 -4.11381,4.18354 -4.16211,2.75391 -0.0139,-0.4125 -0.12645,-9.74999 -0.25,-20.74999 -0.21402,-19.0532 -0.11809,-20.20009 2.02539,-24.21094 1.2375,-2.31559 2.25,-5.29541 2.25,-6.62305 0,-3.22643 -4.66268,-11.42392 -6.9023403,-12.13476 -1.79605,-0.57005 -1.99693,-1.70173 -4.76953,-26.87696 -0.64623,-5.86778 1.28234,-13.37461 3.77929,-14.71093 0.37277,-0.1995 0.68977,-0.32696 0.97656,-0.36719 0.10759,-0.0151 0.21051,-0.017 0.31055,-0.008 z M 21.00894,25.83028 c 0.0967,-0.0481 0.29774,0.01 0.58203,0.18554 0.5686,0.35142 1.27066,1.54573 1.56055,2.6543 0.64681,2.47339 -0.11115,2.68085 -0.97071,0.26563 -0.34254,-0.9625 -0.84787,-2.15682 -1.12304,-2.6543 -0.13759,-0.24874 -0.14567,-0.40304 -0.0488,-0.45117 z m 16.7207,22.61719 c 0.13914,0.01 0.59676,0.44714 1.35352,1.23828 1.98005,2.07003 10.43313,14.10772 13.16601,18.75 0.40472,0.6875 0.26955,1.25 -0.29883,1.25 -0.56833,0 -1.67602,-1.2375 -2.46289,-2.75 -0.78686,-1.5125 -2.59813,-3.84046 -4.02539,-5.17383 -1.42725,-1.33338 -2.5957,-2.85983 -2.5957,-3.39063 0,-0.53079 -1.39,-3.26534 -3.08789,-6.07617 -1.6282,-2.69547 -2.28072,-3.86427 -2.04883,-3.84765 z m -9.80469,17.23828 c 0.58246,0 0.78133,0.45 0.44141,1 -0.33992,0.55 -0.81605,1 -1.05859,1 -0.24254,0 -0.44141,-0.45 -0.44141,-1 0,-0.55 0.47613,-1 1.05859,-1 z m 29.32618,10.32617 c 0.2721,-0.0721 0.67595,0.38823 0.96093,1.13086 0.67618,1.76211 0.0993,2.07202 -0.88672,0.47656 -0.36252,-0.58659 -0.44377,-1.28084 -0.18164,-1.54297 0.0328,-0.0328 0.0686,-0.0541 0.10743,-0.0644 z m -30.3086,3.57226 c -0.80582,-0.15508 -2.09883,1.23277 -2.91797,3.9668 -0.63706,2.12631 -1.1582,4.15131 -1.1582,4.5 0,1.10807 1.71349,0.68388 2.87109,-0.71094 0.61408,-0.73992 1.40104,-2.76492 1.74805,-4.5 0.41622,-2.08106 0.0838,-3.13524 -0.54297,-3.25586 z m 21.34766,14.83008 c 0.46447,-0.16743 0.51833,1.55365 0.54101,6.52149 0.0195,4.26249 -0.17403,7.74999 -0.42968,7.74999 -0.25565,0 -0.93065,-0.86976 -1.5,-1.9336 -1.45317,-2.71528 -1.22668,-8.10738 0.46484,-11.06639 0.4164,-0.72842 0.7127,-1.19538 0.92383,-1.27149 z m 6.01172,3.95117 c 0.31843,-0.0129 0.83889,0.629 1.33008,1.70704 0.74727,1.64008 0.81544,2.61327 0.18164,2.61327 -1.21661,0 -2.28533,-2.48581 -1.75391,-4.08007 0.0525,-0.15763 0.13604,-0.23592 0.24219,-0.24024 z m 13.11719,4.83788 c 1.12639,0.126 2.74912,2.15752 4.65429,5.91602 1.13382,2.2368 3.33763,5.52927 4.89649,7.31641 1.6168,1.85357 2.5863,3.89396 2.25781,4.75 -0.85837,2.23687 -2.04789,1.82618 -3.625,-1.25 -3.42628,-6.68302 -6.00922,-10.65085 -7.96485,-12.23438 -1.39807,-1.13209 -1.87633,-2.29852 -1.42578,-3.47265 0.28666,-0.747 0.69504,-1.08263 1.20704,-1.0254 z m -7.25586,1.48243 c 1.44163,0 8.07704,8.08447 11.2539,13.71289 1.92878,3.41722 4.43386,6.86357 5.56836,7.6582 1.1345,0.79464 1.91024,2.1867 1.72266,3.09375 -0.53621,2.59282 -6.95304,-4.81929 -10.79102,-12.46484 -4.35815,-8.68178 -5.04355,-9.33363 -8.44336,-8.04102 -2.87103,1.09156 -6.60742,-0.056 -6.60742,-2.0293 0,-0.61698 0.83253,-0.5547 2.17188,0.16211 1.76769,0.94604 2.39085,0.85969 3.35937,-0.46484 0.65417,-0.89463 1.44841,-1.62695 1.76563,-1.62695 z m -30.93164,6.3457 c 0.0909,0.0138 0.19865,0.16765 0.31835,0.4668 0.28891,0.72187 0.25237,1.58372 -0.0801,1.91601 -0.33229,0.33229 -0.56879,-0.25834 -0.52539,-1.3125 0.03,-0.72809 0.13552,-1.09326 0.28711,-1.07031 z m 54.3164,5.56445 c 0.62865,-0.0154 1.41416,0.50039 2.3086,1.57813 1.00347,1.20911 0.91728,1.60979 -0.46094,2.13867 -0.93296,0.35801 -2.07972,1.60073 -2.54883,2.76172 -0.67503,1.6706 -0.86581,1.22484 -0.91601,-2.13867 -0.042,-2.81518 0.56944,-4.31412 1.61718,-4.33985 z m 3.31836,14.08985 c -0.55,0 -1,0.45 -1,1 0,0.55 0.45,1 1,1 0.55,0 1,-0.45 1,-1 0,-0.55 -0.45,-1 -1,-1 z m 1,3 c -0.55,0 -1,0.70113 -1,1.55859 0,0.85748 0.45,1.28133 1,0.94141 0.55,-0.33992 1,-1.04106 1,-1.5586 0,-0.51754 -0.45,-0.9414 -1,-0.9414 z"
     style="fill:#aaaaaa;fill-opacity:1"
     id="path635" />
  <path
     d="m 0.10715968,-3.71465 c -0.0804,0.002 -0.13635,0.0172 -0.16602,0.0469 -0.23736,0.23732 0.93142,1.1364 2.59766002,1.99804 4.32278,2.2354 4.43601,2.82531 1.54492,7.99805 -2.38395,4.26535 -2.54467,5.30125 -2.01758,12.86133 0.31526,4.5218 1.14854,12.89444 1.85157,18.60742 1.1091,9.01273 1.55543,10.48984 3.37695,11.16211 2.099,0.77468 6.4054803,7.00697 6.3964803,9.25781 -0.003,0.65606 -1.11132,3.89336 -2.46289,7.19336 -2.3980903,5.85522 -2.4459803,6.4826 -1.9589803,26 0.60656,24.30909 1.1109203,25.50542 7.6796903,18.24023 2.33536,-2.58295 5.48359,-4.9795 6.99609,-5.32617 2.7387,-0.62774 2.75,-0.60887 2.75,4.77735 0,5.34259 1.16765,7.80859 3.69922,7.80859 0.88899,0 1.30078,-1.54125 1.30078,-4.87695 0,-2.68283 0.63087,-6.39533 1.40234,-8.25 0.77148,-1.85466 1.96849,-7.87305 2.66016,-13.37305 1.37142,-10.90528 2.06197,-12.5 5.4043,-12.5 1.85022,0 2.74756,1.34701 5.37695,8.06445 2.536,6.47883 3.15625,9.52564 3.15625,15.5 0,7.74035 -0.81221,8.96938 -3.44336,5.21289 -1.82855,-2.61063 -1.96701,-5.67112 -0.48047,-10.66211 0.95137,-3.1942 0.76793,-4.16933 -1.58398,-8.36523 -3.18725,-5.68616 -4.16469,-6.21192 -1.85938,-1 1.11658,2.52439 1.60818,6.13644 1.50586,11.05273 -0.17056,8.19569 0.81261,10.84782 4.54688,12.26758 2.29243,0.87158 2.50057,1.36964 1.9707,4.70313 -0.32589,2.05013 -0.2074,4.3475 0.26367,5.10547 1.49303,2.4023 3.08008,0.16092 3.08008,-4.34961 0,-4.31132 0.038,-4.36044 4.06641,-5.04102 2.23707,-0.3779 4.21178,-0.53 4.38671,-0.33789 0.17499,0.1921 1.85946,3.3745 3.74415,7.07227 3.37283,6.61721 10.90194,15.77732 12.96875,15.77732 0.31227,0 0.50689,0.29482 0.58789,0.82227 h 0.58007 0.47461 c 0.0691,-1.9e-4 0.13347,0.006 0.20118,0.008 0.51379,-1.12341 1.1495,-2.18119 1.90234,-3.15625 0.18686,-0.88959 0.40824,-1.80022 0.67578,-2.69336 2.18265,-7.28649 4.47204,-8.26674 7.80859,-3.16992 0.63881,-0.20938 1.30305,-0.3858 1.98438,-0.53711 -1.4718,-2.36543 -2.83941,-4.64521 -3.94531,-6.61524 C 82.41675,105.60883 74.37634,93.33671 60.67552,74.13515 56.85886,68.78613 51.26791,60.746 48.25169,56.26796 45.23548,51.78993 38.79889,43.01493 33.947,36.76796 24.1763,24.18785 20.72985,18.94086 15.08567,8.04726 12.9876,3.99781 10.58015,0.49126 9.7341097,0.25429 8.8880697,0.01732 6.4341897,-1.05929 4.2829397,-2.13829 2.4005997,-3.0824 0.66964968,-3.72692 0.10715968,-3.71446 Z M 8.7165297,3.27754 C 10.07512,3.11008 11.41599,4.75593 13.27513,8.30683 c 1.57971,3.01722 2.65827,5.67405 2.39648,5.9043 -0.26178,0.23024 -1.71406,0.71527 -3.22656,1.07813 -2.4946203,0.59846 -2.7518003,0.40253 -2.7656203,-2.10938 -0.008,-1.52298 -0.49558,-3.44453 -1.08204,-4.26953 -1.7652,-2.48317 -0.19621,15.62839 1.9921903,23 3.56175,11.99773 4.75323,14.44776 7.51758,15.44922 3.77621,1.36803 4.986,6.58034 3.16016,13.61914 -1.68453,6.49401 -1.20624,7.69447 0.98046,2.46094 l 1.57813,-3.77735 2.93359,2.81055 c 1.61402,1.54633 2.93555,2.31526 2.93555,1.70898 0,-0.60628 -1.29933,-2.32793 -2.88672,-3.82617 -2.47591,-2.33686 -2.81141,-3.27206 -2.36719,-6.58398 0.28481,-2.12337 0.11707,-3.86133 -0.37109,-3.86133 -0.48816,0 -1.53236,-1.4625 -2.32031,-3.25 -1.76484,-4.00361 -3.42875,-5.75 -5.48242,-5.75 -0.98902,0 -1.57227,-0.88278 -1.57227,-2.38281 0,-2.97224 3.90508,-4.38176 5.6543,-2.04102 2.15216,2.87993 2.24313,-0.17979 0.23828,-8.00586 -1.09877,-4.28909 -1.78985,-8.00703 -1.53516,-8.26172 0.25469,-0.25469 2.39392,2.38535 4.75391,5.86524 2.35999,3.47989 5.13736,7.22617 6.17187,8.32617 1.63245,1.73578 6.29722,7.78872 12.71485,16.5 1.01296,1.375 3.81833,5.425 6.23437,9 2.41604,3.575 7.06448,10.2745 10.33008,14.88672 3.26561,4.61222 7.17015,10.13394 8.67773,12.27148 5.15436,7.30817 6.83313,11.53123 6.19141,15.58008 -0.47109,2.97226 -0.0898,4.50642 1.81641,7.30664 1.32726,1.9497 2.90301,4.94985 3.50195,6.66797 1.17286,3.36447 -0.29273,6.94282 -2.25977,5.51758 -1.19133,-0.86319 -6.49023,-8.89522 -6.49023,-9.83789 0,-0.35763 -1.51754,-2.33094 -3.37305,-4.38477 -1.85552,-2.05384 -3.84519,-4.57457 -4.41992,-5.60156 -0.9513,-1.69987 -1.37736,-1.7469 -4.75,-0.52734 -4.50697,1.62974 -5.41849,0.69867 -5.44141,-5.55664 -0.009,-2.45751 -0.66625,-4.83033 -1.5957,-5.75977 -2.42058,-2.42058 -1.1943,-3.93181 1.30274,-1.60547 3.18127,2.96381 4.27269,2.53074 4.30859,-1.70703 0.0304,-3.57979 0.10187,-3.65922 1.57617,-1.75 0.84943,1.1 2.21422,3.27157 3.0332,4.82617 1.3961,2.6501 1.36016,2.86083 -0.57617,3.36719 -2.29072,0.59904 -2.75284,3.49259 -0.81445,5.0957 1.68771,1.39578 6.47321,0.37518 7.20703,-1.53711 0.35865,-0.93462 -1.68119,-4.8346 -5.18359,-9.91211 -3.17575,-4.60396 -6.22344,-9.17545 -6.77344,-10.16015 -0.55,-0.98469 -2.8,-3.61655 -5,-5.84766 C 45.29798,66.27606 41.20043,60.86892 41.17943,59.3459 41.15493,57.56576 32.00177,41.70035 28.78685,37.86543 c -1.59343,-1.90072 -3.24583,-3.11355 -3.67188,-2.69531 -0.42606,0.41824 0.38445,1.99324 1.80078,3.5 3.29974,3.51044 6.7804,9.30926 6.7461,11.24023 -0.0188,1.05829 -0.36688,0.91105 -1.18164,-0.5 -1.33359,-2.30962 -3.3842,-4.5 -4.21289,-4.5 -0.31429,0 -0.57227,0.9 -0.57227,2 0,2.57093 3.72599,6.31934 5.57617,5.60938 0.95881,-0.36794 2.26276,1.11078 4.00195,4.54296 2.86868,5.66106 2.29609,7.5112 -1.83789,5.93946 -3.0567,-1.16216 -5.94567,1.1012 -3.95117,3.0957 0.60695,0.6069 0.87167,2.50169 0.58985,4.20898 -0.44008,2.66603 -0.3462,2.84205 0.66015,1.25391 0.64442,-1.01703 0.9031,-3.18565 0.57617,-4.82031 -0.49086,-2.45433 -0.28976,-2.91435 1.14649,-2.64063 0.95659,0.18231 1.87421,1.28374 2.04101,2.44727 0.16679,1.16353 1.40429,3.14984 2.75,4.41406 3.14739,2.95683 3.07574,4.08549 -0.38671,6.05469 -2.65556,1.51029 -2.89469,2.21529 -4.07032,12 -0.68695,5.71748 -2.0871,12.30135 -3.11132,14.63281 -1.26036,2.86885 -1.67182,5.41781 -1.27149,7.88477 0.4633,2.85497 0.28801,3.54472 -0.81055,3.18164 -0.95926,-0.31704 -1.49747,-2.44936 -1.70312,-6.74805 l -0.30078,-6.28711 -3.19922,0.60156 c -2.05737,0.38634 -4.72801,2.25936 -7.48242,5.24805 -2.35578,2.55614 -4.60578,4.32431 -5,3.92969 -0.64373,-0.64438 -1.08894,-12.20086 -1.29102,-33.54883 -0.0519,-5.48813 0.48559,-8.79554 2.00195,-12.33203 1.13974,-2.65809 2.07227,-5.86487 2.07227,-7.125 0,-3.07595 -4.8166103,-11.54297 -6.5664103,-11.54297 -1.59086,0 -1.87585,-1.08289 -3.55664,-13.5 -1.92501,-14.22139 -1.7126,-22.38334 0.68946,-26.49609 1.33123,-2.27931 2.3984,-3.50648 3.45507,-3.63672 z M 22.6013,40.60371 c -0.14945,0.0128 -0.2798,0.1024 -0.38672,0.27539 -0.38018,0.61515 0.10054,2.32761 1.06836,3.80469 2.17045,3.31253 2.99836,1.58557 1.04492,-2.17969 -0.66006,-1.27231 -1.2782,-1.93871 -1.72656,-1.90039 z m 2.89453,21.80664 -0.80078,2.5 c -0.44035,1.375 -0.81388,3.4 -0.83008,4.5 l -0.0293,2 0.85938,-2 c 0.47269,-1.1 0.84628,-3.125 0.83008,-4.5 z m 2.86133,4.77148 c -0.099,-0.0153 -0.2331,0.0616 -0.40039,0.22852 -0.5511,0.55 -1.25631,2.6875 -1.56836,4.75 -0.31307,2.06923 -0.14796,3.75 0.36914,3.75 0.51542,0 0.9375,-0.61875 0.9375,-1.375 0,-0.75625 0.28508,-2.89375 0.63281,-4.75 0.31667,-1.69042 0.32636,-2.55771 0.0293,-2.60352 z m 41.15625,33.72852 c -0.6631,0 -0.58758,0.57305 0.20117,1.52344 0.69572,0.83829 1.47096,1.3181 1.72266,1.0664 0.69349,-0.6935 -0.71528,-2.58984 -1.92383,-2.58984 z m -9.57813,2 c 1.85437,0 8.58811,8.0278 12.32032,14.6875 1.90701,3.40282 4.36065,6.46968 5.45312,6.81641 1.3869,0.44019 1.98633,1.51683 1.98633,3.56445 0,1.73751 -0.5094,2.88692 -1.25,2.82226 -2.21053,-0.19258 -7.75878,-7.19226 -11.40625,-14.39062 -4.49743,-8.87578 -4.58722,-8.95988 -8.16992,-7.71094 -3.30341,1.15157 -7.17383,-0.65358 -7.17383,-3.3457 0,-1.73551 0.49179,-1.78637 3.21289,-0.33008 1.66691,0.89211 2.26099,0.79263 2.98438,-0.5 0.49668,-0.88751 1.41578,-1.61328 2.04296,-1.61328 z m 1.16211,10.18945 c -0.28605,-0.0677 -0.40234,0.23987 -0.40234,0.94336 0,0.84334 0.32747,1.86263 0.72852,2.26367 0.40104,0.40104 0.90244,0.21063 1.11328,-0.42187 0.21083,-0.6325 -0.11665,-1.64985 -0.72852,-2.26172 -0.30625,-0.30625 -0.53931,-0.48284 -0.71094,-0.52344 z m 21.50196,0.72461 c 0.73469,0.0458 1.75761,0.74785 3.0957,2.08594 2.47777,2.47777 2.53091,3.69692 0.19141,4.43945 -0.99516,0.31585 -2.29821,1.80965 -2.89453,3.31836 -1.21963,3.08562 -1.31775,2.83785 -1.80079,-4.50781 -0.24103,-3.66534 0.18372,-5.41225 1.40821,-5.33594 z"
     style="fill:#000000"
     id="path702" />
  <path
     d="m 139.17513,-220.89062 c -0.80348,0 -3.32938,2.475 -5.61328,5.5 -3.06217,4.05582 -4.79965,5.5 -6.61719,5.5 -3.06089,0 -9.77611,5.90724 -11.53125,10.14453 -1.12677,2.72026 -1.07767,3.28168 0.38281,4.34961 0.92227,0.67438 1.67774,1.50026 1.67774,1.83594 0,1.74961 -12.74446,17.14427 -19.625,23.70508 -5.71429,5.44875 -10.66665,8.99407 -17.88868,12.81054 -5.49259,2.90256 -10.91981,6.39558 -12.06054,7.76172 -1.9319,2.31366 -6.29365,5.13445 -25.42578,16.44336 -5.59234,3.30561 -11.50608,8.4786 -23.25,20.33594 -8.6625,8.74616 -15.7500003,16.30658 -15.7500003,16.80078 0,0.4942 -1.96318,3.01653 -4.36133002,5.60547 -5.58479998,6.02909 -17.42412968,22.88344 -20.56249968,29.27344 -1.33245,2.71299 -2.68245,4.9092 -3,4.8789 -0.31754,-0.0303 -3.05117,-3.45065 -6.07617,-7.59961 -6.9395,-9.51792 -14.52678,-16.58926 -25.71094,-23.96289 -8.8544,-5.83763 -27.53015,-14.4649 -36.78906,-16.99414 -10.32025,-2.81909 -31.44278,-1.15492 -52.875,4.16406 -5.56901,1.3821 -16.65,3.19628 -24.625,4.03125 -22.42582,2.34793 -56.36712,7.18404 -76.5,10.9004 -4.4,0.81216 -8.5625,1.48529 -9.25,1.49609 -0.6875,0.0108 -1.25,0.46953 -1.25,1.01953 0,1.51572 4.09294,1.21182 20.3457,-1.51172 8.16574,-1.36837 15.59074,-2.48696 16.5,-2.48633 1.50374,0.001 1.65886,3.05218 1.71289,33.75 0.0457,25.96135 0.43877,36.28629 1.70508,44.74805 0.90539,6.05 1.92507,15.05 2.26562,20 0.91973,13.36851 6.1614,41.54412 9.95313,53.5 1.8315,5.775 5.65581,17.025 8.49609,25 2.84032,7.975 5.38936,15.21488 5.66602,16.08789 0.58462,1.84473 -7.17493,5.32294 -28.39453,12.72852 -7.68851,2.68327 -13.25,5.16171 -13.25,5.90429 0,0.70384 0.18881,1.2793 0.41992,1.2793 1.07876,0 23.64494,-8.02233 28.08008,-9.98242 6.62384,-2.92738 29.27008,-11.79962 48.5,-19.00196 8.525,-3.19292 21.18991,-8.0939 28.14453,-10.89062 23.67679,-9.52133 31.61436,-12.12002 32.76758,-10.73047 1.84761,2.22623 3.82387,7.96831 4.50976,13.10547 0.36716,2.75 1.04613,6.125 1.50977,7.5 0.46363,1.375 1.62815,5.425 2.58789,9 0.95973,3.575 2.96652,10.1 4.45898,14.5 1.49246,4.4 4.62368,13.85 6.95899,21 5.22117,15.9856 13.23534,30.54115 23.32422,42.35938 1.58214,1.85331 2.61635,4.01519 2.30664,4.82226 -0.30872,0.80452 0.56265,2.93443 1.93554,4.73438 1.37288,1.79994 2.4961,3.61621 2.4961,4.03515 0,2.7046 16.79407,20.18695 25.5,26.54492 3.3,2.41001 7.35,5.58632 9,7.0586 9.99159968,8.91536 12.6831897,11.09337 18.9999997,15.375 3.8500003,2.60958 9.8820203,7.29149 13.4042903,10.40625 3.52227,3.11476 8.02227,6.75782 10,8.0957 1.97773,1.33787 8.29988,6.85037 14.05079,12.25 9.13866,8.58046 13.97319,11.92147 12.87695,8.89844 -0.58837,-1.62253 -21.17284,-20.59462 -25.83203,-23.8086 -2.475,-1.70729 -7.5074,-5.7291 -11.1836,-8.9375 -3.6762,-3.2084 -8.51448,-6.97025 -10.75195,-8.35937 -6.3798003,-3.96087 -32.62253,-25.6712 -41.25391,-34.12891 -5.85536,-5.73756 -7.81054,-8.31724 -7.81054,-10.30273 0,-1.73865 -2.4908,-5.94577 -7.25,-12.24609 -10.80251,-14.3015 -15.39963,-21.03377 -19.66407,-28.79688 -4.48693,-8.16815 -17.68848,-47.71463 -21.53125,-64.5 -1.44802,-6.325 -3.11298,-12.85 -3.70117,-14.5 -2.22133,-6.23127 -1.93306,-6.66684 5.56446,-8.40039 3.80475,-0.87973 7.10345,-2.16211 7.33203,-2.84961 0.53945,-1.62252 0.26856,-1.60044 -9.74024,0.79883 -9.79033,2.3469 -30.18981,9.56519 -47.50976,16.81055 -6.6,2.76094 -16.05,6.44049 -21,8.17578 -4.95,1.73529 -14.04561,5.19215 -20.21289,7.68164 -6.16728,2.4895 -11.88189,4.26993 -12.69727,3.95703 -0.81539,-0.31289 -2.15203,-2.72989 -2.9707,-5.3711 -0.81871,-2.64121 -3.12593,-9.30273 -5.12696,-14.80273 -2.00103,-5.5 -4.33129,-12.25 -5.17968,-15 -0.8484,-2.75 -2.13692,-6.62414 -2.86328,-8.60938 -3.07329,-8.39956 -9.80625,-49.28615 -9.69727,-58.89062 0.009,-0.825 -0.63239,-5.775 -1.42773,-11 -1.70268,-11.18563 -2.96021,-69.43815 -1.62891,-75.45312 l 0.875,-3.95313 8.74023,-1.71875 c 4.80737,-0.94621 11.76643,-2.02129 15.46485,-2.38867 23.01247,-2.28596 40.00208,-4.68613 48.72461,-6.88281 20.39971,-5.13747 37.65272,-6.65473 47.28711,-4.15821 10.09601,2.61614 28.13442,10.72483 37.64453,16.92383 10.91762,7.11646 17.86034,13.61196 26.58008,24.86524 l 6.76757,8.73437 0.10743,7.07422 c 0.13399,8.80224 2.49987,14.61219 10.13671,24.89648 5.8608397,7.8926 16.1318197,18.82166 19.3476597,20.58789 1.79109,0.98371 2.50161,1.51947 0.12276,5.02491 0.37602,0.83135 0.96305,-1.26061 2.58409,-2.89866 L 9.2532497,2.875 12.01497,7.58985 c 1.74461,2.97695 2.27303,4.24835 1.90625,5.01172 1.55014,1.853 2.05985,2.1299 4.00977,4.00781 3.60825,7.10593 1.54931,4.18395 4.63867,9.19727 1.27819,2.09143 5.05752,7.17773 8.39844,11.30273 3.34093,4.125 7.53017,9.525 9.30859,12 7.83676,10.90632 26.97769,38.71231 28.11133,40.83594 3.63874,3.29445 2.60425,3.22648 4.72538,7.44934 9.54762,11.27266 12.50025,19.63858 12.75376,20.01753 4.02685,4.6882 3.69867,5.9304 5.1094,8.4063 1.97816,3.74624 25.07444,35.22921 34.32617,46.79102 2.64066,3.3 6.31734,8.2267 8.16992,10.94727 1.85258,2.72056 8.79882,10.63028 15.43555,17.57812 6.63672,6.94783 13.19141,14.48032 14.56641,16.73828 1.375,2.25795 3.43248,4.53854 4.57226,5.06836 1.13978,0.52983 3.74993,4.04759 5.80078,7.81641 6.43169,11.81943 10.35093,17.58673 17.85352,26.27734 4.00053,4.63399 8.04002,9.58399 8.97656,11 0.93655,1.416 3.72379,4.82422 6.19531,7.57422 3.34791,3.72515 4.78309,4.71233 5.62891,3.86914 0.84627,-0.84365 -0.20516,-2.57324 -4.12891,-6.78906 -2.89509,-3.11058 -5.93959,-6.65025 -6.76757,-7.86719 -0.82798,-1.21694 -4.27963,-5.36289 -7.66993,-9.21289 -6.40974,-7.27886 -12.88054,-16.72702 -18.49023,-27 -1.80201,-3.3 -4.125,-7.125 -5.16211,-8.5 -1.03711,-1.375 -3.98768,-5.38764 -6.55664,-8.91602 -2.56896,-3.52838 -9.41337,-11.18052 -15.21094,-17.00586 -11.75181,-11.80801 -23.43694,-25.47796 -31.59179,-36.95898 -2.97644,-4.19046 -8.96183,-12.27306 -13.30079,-17.96094 C 99.28409,133.57982 92.72269,123.5656 89.04297,117.01381 82.84377,105.97606 65.66266,80.06086 52.53125,61.94349 49.47523,57.72712 45.39961,51.95002 43.47461,49.1056 41.54961,46.26118 37.02742,40.26082 33.42578,35.77162 23.70408,23.65818 13.11907,6.10938 15.52864,6.10938 c 0.60248,0 -0.28915,-2.475 -1.98046,-5.5 -7.8377603,-14.01826 -8.9131403,-16.22102 -9.5273503,-19.5 -0.36058,-1.925 -1.80938,-8 -3.21875002,-13.5 -2.16186998,-8.43667 -2.45891998,-11.25067 -1.90233998,-18 0.69780998,-8.46193 3.37048,-15.74511 8.01172,-21.83008 1.40909,-1.84741 2.5625,-3.65309 2.5625,-4.01367 0,-3.5467 -8.06952,7.47098 -10.51953,14.36328 -0.87597,2.46427 -1.85388,8.12309 -2.17383,12.57422 -0.47281,6.5775 -0.19349,9.29273 1.48828,14.5 1.13807998,3.52387 2.82827,9.78125 3.75781,13.90625 1.75693,7.79673 3.34044,11.5853 6.79492,16.25781 1.5517403,2.09888 1.7603703,3.03456 0.87305,3.92188 -1.98897,1.98897 -7.97093,-2.06527 -14.09766,-9.55469 C -21.69796,-31.40731 -24.366,-37.93355 -21.84831,-52.93164 c 0.73899,-4.40224 2.5415,-7.97946 8.77149,-17.41406 4.3125997,-6.53095 10.0211197,-14.16426 12.68553968,-16.96094 2.66442002,-2.79668 4.84947002,-5.58179 4.85547002,-6.18945 0.006,-0.60766 3.27227,-4.44765 7.2597703,-8.53515 3.9875,-4.08752 10.20381,-10.56667 13.81445,-14.39649 3.61063,-3.82981 9.01063,-8.56752 12,-10.5293 13.6467,-8.95568 19.73503,-12.77587 22.95703,-14.40234 1.91269,-0.96552 5.50352,-3.40496 7.97852,-5.42188 5.6692,-4.61992 9.01768,-6.75928 16.2832,-10.40039 6.17095,-3.09256 19.86006,-15.43746 25.7168,-23.1914 1.925,-2.54858 4.45678,-5.82546 5.62695,-7.28321 l 2.12695,-2.65039 2.60352,5.13672 c 2.62825,5.18663 4.64258,7.42956 4.64258,5.16992 0,-0.67548 -1.36803,-3.65236 -3.03907,-6.61328 -2.45163,-4.34405 -2.71278,-5.32426 -1.35351,-5.08007 3.24631,0.58319 2.51033,-2.17247 -1.03125,-3.86133 -1.96711,-0.93805 -3.57617,-2.06543 -3.57617,-2.50391 0,-0.43847 2.00193,-2.88727 4.44922,-5.44141 2.8919,-3.01815 4.98957,-4.43552 5.99218,-4.05078 0.84847,0.32559 7.95904,2.17437 15.80078,4.10938 35.47966,8.75485 48.13006,16.25361 57.42383,34.03906 2.01492,3.85595 4.66896,8.36172 5.89649,10.01172 4.13075,5.55237 7.07947,18.36665 4.58203,19.91016 -1.50084,0.92756 -4.92614,-3.75979 -6.14649,-8.41016 -2.48572,-9.47224 -7.86797,-15.93657 -16.73242,-20.09766 -3.42875,-1.60949 -10.11151,-5.50819 -14.85156,-8.66406 -4.74004,-3.15587 -10.48637,-6.9726 -12.76758,-8.48047 -2.28121,-1.50786 -6.61683,-3.6785 -9.63476,-4.82422 -3.01793,-1.14571 -5.80566,-2.59802 -6.19532,-3.22851 -0.38967,-0.63049 -1.04346,-0.81201 -1.45312,-0.40235 -1.2153,1.2153 1.74524,3.37514 8.15625,5.95118 3.31055,1.33022 8.71055,4.30251 12,6.60546 11.73868,8.21828 16.8038,11.37899 22.73828,14.18555 9.65514,4.56616 12.95342,8.44141 16.87305,19.83399 1.05099,3.05478 3.13761,6.84059 4.63867,8.41211 2.54373,2.66311 2.61154,2.94401 0.98047,4.14257 -2.09013,1.5359 -2.25392,2.56641 -0.40625,2.56641 3.20502,0 5.09668,-3.99095 5.12695,-10.82227 0.0163,-3.67273 -0.32976,-7.80388 -0.76758,-9.17968 -0.75444,-2.3708 -0.29742,-2.74789 8.75,-7.24219 5.25032,-2.60809 9.54688,-5.23259 9.54688,-5.83203 0,-0.59945 -0.3375,-0.93794 -0.75,-0.75196 -0.4125,0.18599 -4.73439,2.28264 -9.60352,4.66016 l -8.85351,4.32227 -2.19141,-2.0586 c -1.20564,-1.13263 -3.91535,-5.40971 -6.02148,-9.5039 -2.12046,-4.12191 -6.78328,-10.6806 -10.44922,-14.69727 -5.43977,-5.96021 -8.04962,-7.91891 -14.62696,-10.98437 -7.92316,-3.6927 -24.48676,-9.05692 -37.98828,-12.30079 -3.84108,-0.92285 -7.31352,-2.00689 -7.7168,-2.41015 -0.40325,-0.40326 1.31306,-3.31364 3.81446,-6.4668 2.87092,-3.61896 4.01007,-5.73242 3.08789,-5.73242 z m -14.53906,19.97852 c -1.19917,0.0814 1.47506,2.24311 8.09765,5.6621 3.43204,1.77184 6.35274,3.25331 6.49024,3.29102 0.1375,0.0377 0.25,-0.50984 0.25,-1.2168 0,-0.70695 -2.93412,-2.73195 -6.51953,-4.5 -4.24702,-2.0943 -6.92953,-3.09681 -8.02735,-3.22461 -0.11435,-0.0133 -0.21107,-0.0171 -0.29101,-0.0117 z m 21.07226,18.18945 c -0.15312,0.0215 -0.23437,0.10986 -0.23437,0.27344 0,0.85714 0.36559,1.55859 0.8125,1.55859 0.44692,0 4.15942,3.08323 8.25,6.85156 4.09059,3.76833 10.1375,8.36331 13.4375,10.21094 9.35428,5.23734 15.22467,9.75523 17.53906,13.5 1.16819,1.89017 2.53783,3.4375 3.04297,3.4375 1.46325,0 1.09342,-1.13746 -1.65235,-5.09961 -2.77982,-4.01128 -10.95078,-10.13142 -18.92968,-14.17773 -2.75,-1.3946 -6.35,-3.97567 -8,-5.73438 -4.67156,-4.97934 -12.78549,-11.02843 -14.26563,-10.82031 z m 58.77149,52.08398 c -0.16675,0.0101 -0.35216,0.05 -0.55274,0.12696 -0.85049,0.32636 -5.90801,1.33718 -11.24023,2.24609 -11.79121,2.00989 -16.84589,4.07439 -21.5918,8.82031 l -3.62109,3.6211 v -4.53321 c 0,-2.49333 -0.45,-4.5332 -1,-4.5332 -0.55,0 -1,2.13999 -1,4.75586 0,6.35026 -2.75122,29.59547 -4.10547,34.68555 -0.90215,3.39073 -4.61545,13.75061 -7.90625,22.05859 -0.43572,1.1 -1.31927,5.21619 -1.96289,9.14648 -1.59942,9.76686 -6.90693,24.58878 -11.8125,32.98829 -3.43624,5.88365 -5.60111,8.11668 -13.89258,14.33398 -5.40174,4.05046 -12.41221,9.34749 -15.58008,11.77148 -4.88408,3.73719 -15.89593,9.25777 -18.4707,9.25977 -1.15574,9.8e-4 -0.34191,-28.07504 0.90625,-31.26758 1.18854,-3.04004 6.99408,-8.05038 10.64844,-9.18945 1.46864,-0.45778 3.09575,-2.4413 4.41796,-5.38477 2.68093,-5.96823 3.33399,-23.36586 1.12305,-29.89062 -1.28686,-3.79767 -1.26132,-4.49555 0.23633,-6.78125 0.91822,-1.40134 1.35751,-2.85887 0.97852,-3.23828 -0.37942,-0.37941 -1.00218,-0.19631 -1.38477,0.40625 -0.3826,0.60256 -2.38257,3.06418 -4.44336,5.4707 -2.06079,2.40651 -6.22329,7.7477 -9.25,11.87109 -4.30903,5.87033 -5.50195,8.29461 -5.50195,11.16797 0,2.04464 -0.55352,3.85543 -1.25,4.08985 -0.97752,0.32899 -0.98676,0.73846 -0.0469,1.8789 0.85802,1.04021 1.20489,7.94136 1.21289,24.06641 0.009,18.78083 -0.29684,23.71383 -1.80273,29.14453 -1.88601,6.80153 -5.84851,12.57691 -10.00586,14.58594 -2.13715,1.03278 -2.68785,0.80623 -5.18164,-2.13672 -1.5347,-1.81112 -3.89286,-6.44297 -5.24219,-10.29297 -3.72991,-10.64242 -4.19659,-16.19452 -4.875,-58 l -0.30859,-19 3.31054,-10.5 c 1.82113,-5.775 4.19313,-11.73182 5.27149,-13.23828 1.32408,-1.84978 1.75534,-3.5576 1.32812,-5.25977 -0.97054,-3.86695 -2.41015,-4.02023 -2.41015,-0.25586 0,2.05852 -1.00123,4.70337 -2.57813,6.81055 -1.41763,1.89435 -3.49872,5.24336 -4.625,7.44336 -1.12629,2.2 -4.22138,6.31303 -6.87695,9.14062 -2.65558,2.82761 -5.12879,6.34514 -5.49805,7.81641 -0.40783,1.62492 0.35571,7.06592 1.94727,13.85938 1.44107,6.15112 3.07755,16.13359 3.63476,22.18359 0.55722,6.05 1.68344,13.46139 2.50391,16.46875 0.90979,3.33481 1.49219,9.85553 1.49219,16.71484 0,10.47918 -0.14657,11.32421 -2.14649,12.39453 -1.18512,0.63428 -4.13495,0.9247 -6.58593,0.64844 C 45.60726,25.25723 40.57073,21.07747 37.25909,14.64844 34.7465,9.77064 24.8722,-19.20039 23.91144,-24.51367 c -0.38563,-2.13264 -1.54287,-7.21163 -2.57032,-11.28711 -2.225,-8.82564 -2.3947,-16.79617 -0.45507,-21.30664 3.49368,-8.12434 7.46569,-19.23744 7.03125,-19.67187 -0.97817,-0.97817 -2.33344,1.67266 -6.33594,12.39453 -2.72677,7.30445 -4.10742,12.63149 -4.10742,15.83984 0,7.03041 5.08871,27.90174 11.00976,45.1543 2.83138,8.25 5.38995,15.7875 5.68555,16.75 0.85534,2.7851 -4.0582,2.20382 -10.29102,-1.2168 -3.43651,-1.88598 -5.40429,-2.50682 -5.40429,-1.70703 0,1.4421 8.91574,6.05796 13.75,7.11914 1.7875,0.39237 3.25,0.88753 3.25,1.09961 0,0.21208 -0.70357,2.45445 -1.5625,4.98438 -0.85894,2.52992 -1.37289,5.13335 -1.14258,5.78515 0.45403,1.28495 3.70508,-5.67981 3.70508,-7.9375 0,-2.07906 1.38234,-1.66478 4.07617,1.21875 3.99334,4.27453 7.66308,5.67297 13.58789,5.18164 2.93504,-0.24339 5.33212,-0.17962 5.32812,0.14063 -0.004,0.32025 -0.46916,3.42646 -1.0332,6.90234 -0.56403,3.47587 -1.08445,7.88124 -1.15625,9.79102 -0.0718,1.90978 -0.47463,3.68654 -0.89648,3.94726 -0.42186,0.26072 -2.71223,-1.79298 -5.08789,-4.5625 -4.76944,-5.56016 -15.43773,-13.42153 -16.30664,-12.01562 -0.30396,0.49183 1.59298,2.31762 4.21679,4.05664 2.62382,1.73901 7.76707,6.3798 11.42774,10.3125 l 6.65429,7.15039 1.29688,-3 c 0.71319,-1.65 1.3456,-3.10236 1.4043,-3.22656 0.18128,-0.38378 9.35357,3.25788 10.10937,4.01367 1.00684,1.00685 3.37891,0.88598 3.37891,-0.17188 0,-0.48612 -2.5875,-1.90828 -5.75,-3.16211 -3.1625,-1.2538 -6.33505,-2.73038 -7.05078,-3.28124 -1.46429,-1.12696 -1.01702,-7.12105 1.46289,-19.55469 1.0439,-5.23385 1.16328,-7.69219 0.40625,-8.44922 -0.58727,-0.58727 -1.04523,-2.88969 -1.01563,-5.11719 l 0.0547,-4.05078 1.97851,6 c 1.08871,3.3 2.1706,8.02181 2.4043,10.49219 0.32735,3.46033 1.10976,5.06755 3.40625,7 2.70824,2.27894 3.23119,3.78842 5.71484,16.50781 1.50356,7.7 3.16129,14.5625 3.6836,15.25 1.40988,1.85579 17.64746,1.61323 24.45312,-0.36523 3.49266,-1.01513 7.17083,-1.3942 9.9043,-1.01954 4.25563,0.5833 4.34766,0.53551 4.34766,-2.26171 0,-2.79578 0.098,-2.84774 4.5,-2.35157 2.97782,0.33564 4.5,0.12671 4.5,-0.62109 0,-0.62153 -1.4625,-1.14014 -3.25,-1.15234 -1.7875,-0.0122 -4.375,-0.90298 -5.75,-1.97852 -1.375,-1.07554 -2.89057,-1.96632 -3.36719,-1.97852 -0.87916,-0.0226 -0.46476,3.11876 0.80859,6.13282 0.5864,1.38802 -0.15504,1.73338 -4.62109,2.15234 -22.16925,2.07974 -29.17593,2.59224 -29.83399,2.18555 -0.41624,-0.25725 -1.05694,-2.61121 -1.42382,-5.23047 -0.36688,-2.61927 -1.27167,-7.01172 -2.01172,-9.76172 -0.74005,-2.75 -1.628,-6.63518 -1.97266,-8.63477 -0.56414,-3.27302 -0.378,-3.69919 1.85547,-4.25976 3.28896,-0.82547 8.30265,-6.11236 10.65625,-11.23633 2.09714,-4.56562 4.42505,-6.43037 10.41016,-8.34375 2.2,-0.70332 6.58028,-2.98381 9.73437,-5.06641 l 5.73438,-3.7871 1.08203,4.16406 c 1.23476,4.7563 4.07604,13.98343 7.44336,24.16406 3.67699,11.11691 6.54182,23.24441 5.89062,24.94141 -0.39021,1.01688 -0.036,1.55859 1.01953,1.55859 1.33503,0 1.51115,-0.74501 1,-4.25 -0.79239,-5.43341 -2.65744,-12.27748 -7.42382,-27.25 -4.27007,-13.41347 -6.98047,-22.83158 -6.98047,-24.25391 0,-0.5201 3.9375,-3.90416 8.75,-7.51953 12.19601,-9.16221 14.89864,-12.07041 19.22461,-20.68945 4.38292,-8.73251 9.50003,-24.20589 10.51171,-31.78516 0.38536,-2.88689 1.10896,-5.50247 1.60743,-5.81054 0.49848,-0.30807 0.90625,-1.65217 0.90625,-2.98829 0,-1.33609 1.52696,-6.14746 3.39258,-10.6914 3.30642,-8.05325 4.9032,-15.50777 6.16796,-28.77539 1.24217,-13.03072 9.19589,-19.60685 27.08204,-22.39258 5.86009,-0.91269 11.03783,-1.89629 11.50585,-2.18555 1.31098,-0.81023 1.02465,-2.22721 -0.14257,-2.15625 z M 63.07357,-68.7539 c 0.083,0.0211 0.0858,0.13703 0.006,0.36328 -3.19463,8.60758 -3.68079,14.95283 -2.99219,39.08594 0.383,13.42806 0.44141,24.41406 0.13086,24.41406 -0.631,0 -2.32259,-10.33402 -3.19336,-19.5 -0.3135,-3.3 -1.724,-11.4755 -3.13477,-18.16797 -2.20948,-10.48138 -2.38142,-12.50792 -1.24023,-14.61523 1.70412,-3.14684 9.62103,-11.78434 10.42383,-11.58008 z m 42.13086,5.91406 c 1.32008,-0.0535 2.24608,2.89825 2.17968,6.94922 -0.0226,1.375 0.26841,5.68631 0.64649,9.58008 0.5762,5.9344 0.35869,7.82178 -1.3418,11.66601 -1.11575,2.52234 -3.30714,5.38876 -4.87109,6.3711 -1.56395,0.98234 -4.53125,3.08271 -6.59375,4.66797 l -3.75,2.88281 v -7.58399 c 0,-8.63637 0.53876,-9.06442 6.40429,-5.08398 4.74286,3.21861 6.61135,3.20986 3.58008,-0.0176 -1.30043,-1.38425 -4.08035,-3.03039 -6.17578,-3.6582 -3.5312,-1.05797 -3.80859,-1.41399 -3.80859,-4.88281 0,-3.01231 1.21953,-5.41187 6.25,-12.29297 3.4375,-4.7021 6.80345,-8.57026 7.48047,-8.59766 z M 60.94075,-3.42968 c 0.0603,0.0225 0.12596,0.11718 0.19532,0.28906 0.27741,0.6875 0.27741,1.8125 0,2.5 -0.27741,0.6875 -0.50391,0.125 -0.50391,-1.25 0,-1.03125 0.12772,-1.60645 0.30859,-1.53906 z m 1,7 c 0.0603,0.0225 0.12596,0.11718 0.19532,0.28906 0.27741,0.6875 0.27741,1.8125 0,2.5 -0.27741,0.6875 -0.50391,0.125 -0.50391,-1.25 0,-1.03125 0.12772,-1.60645 0.30859,-1.53906 z M 92.347,22.39844 c -0.39958,0.0522 -0.7878,0.2253 -1.06836,0.50586 -0.69364,0.69364 -0.37719,1.36402 0.98633,2.09375 2.28549,1.22316 9.43787,12.14593 12.25196,18.71094 1.03761,2.42063 2.35233,4.40039 2.92187,4.40039 0.56955,0 1.03516,-0.23992 1.03516,-0.5332 0,-2.34793 -12.74798,-23.57514 -14.99024,-24.96094 -0.3257,-0.20129 -0.73714,-0.26904 -1.13672,-0.2168 z m -5.59765,101.63672 c -0.39875,-0.0412 -0.905,0.465 -1.125,1.125 -0.22,0.66 0.13883,1.01883 0.79883,0.79883 1.28914,-0.42971 1.52187,-1.80014 0.32617,-1.92383 z m -0.33399,6.07422 c -0.58246,0 -0.78132,0.45 -0.4414,1 0.33992,0.55 0.81605,1 1.05859,1 0.24254,0 0.44141,-0.45 0.44141,-1 0,-0.55 -0.47614,-1 -1.0586,-1 z m 0.66992,3.34375 c -0.35858,-0.0603 -0.61132,0.16081 -0.61132,0.59766 0,0.58246 0.45,1.05859 1,1.05859 0.55,0 1,-0.19887 1,-0.44141 0,-0.24254 -0.45,-0.71867 -1,-1.05859 -0.1375,-0.085 -0.26912,-0.13615 -0.38868,-0.15625 z"
     style="fill:#000000"
     id="path639" />
</svg>
