<?xml version="1.0" encoding="UTF-8" standalone="no"?>
<svg
   xmlns:dc="http://purl.org/dc/elements/1.1/"
   xmlns:cc="http://creativecommons.org/ns#"
   xmlns:rdf="http://www.w3.org/1999/02/22-rdf-syntax-ns#"
   xmlns:svg="http://www.w3.org/2000/svg"
   xmlns="http://www.w3.org/2000/svg"
   version="1.1"
   id="svg5282"
   width="484.53268"
   height="304.75198"
   viewBox="0 0 484.53268 304.75198">
  <metadata
     id="metadata5288">
    <rdf:RDF>
      <cc:Work
         rdf:about="">
        <dc:format>image/svg+xml</dc:format>
        <dc:type
           rdf:resource="http://purl.org/dc/dcmitype/StillImage" />
        <dc:title></dc:title>
      </cc:Work>
    </rdf:RDF>
  </metadata>
  <defs
     id="defs5286" />
  <path
     style="fill:#000000"
     d="m 285.41715,304.42495 c -6.6,-0.31779 -12.9,-1.06777 -14,-1.66663 -1.1,-0.59886 -8.3,-1.40208 -16,-1.78494 -25.47715,-1.26676 -40.33866,-4.88739 -56.5,-13.76481 -7.70734,-4.23364 -18.02239,-12.04977 -21.07521,-15.96955 -3.68219,-4.72787 -16.92479,-32.37536 -16.92479,-35.33504 0,-1.6673 2.56618,-2.01017 3.34167,-0.44649 0.27958,0.56375 0.39432,0.45798 0.25498,-0.23504 -0.13934,-0.69303 -1.63825,-1.65723 -3.33092,-2.14268 -3.81115,-1.09303 -4.01677,-1.94686 -4.89392,-20.32179 l -0.67663,-14.17451 2.90742,-2.90743 c 2.39057,-2.39056 4.06206,-3.02676 9.40241,-3.57869 3.94558,-0.40779 6.93078,-1.25879 7.60523,-2.16807 1.22739,-1.65471 2.87272,-2.08725 1.88976,-0.49679 -1.33671,2.16285 2.37042,0.84036 5.18551,-1.84989 3.91121,-3.73777 13.54116,-10.2368 19.81449,-13.37235 6.01169,-3.00479 17.12111,-6.71584 32,-10.68947 12.72742,-3.39904 11.39101,-3.92575 -3.00198,-1.18316 -18.4236,3.51063 -28.31299,7.76829 -42.94158,18.48757 -4.91896,3.60443 -9.13276,6.36431 -9.36401,6.13307 -1.61976,-1.61977 15.94913,-15.78965 23.80757,-19.20158 14.80071,-6.42609 32.3758,-10.24796 50.69455,-11.02403 l 14.19454,-0.60134 -3.07732,-2.87466 c -1.90294,-1.77761 -3.73615,-2.66555 -4.80367,-2.32673 -2.32456,0.73779 -5.0081,-0.38985 -5.0081,-2.10442 0,-0.76615 0.9,-1.39301 2,-1.39301 1.1,0 2,-0.45 2,-1 0,-0.55 -0.81135,-1 -1.803,-1 -2.02836,0 -8.69468,-4.60716 -14.697,-10.15725 -2.2,-2.03424 -5.86471,-5.04926 -8.14381,-6.70003 -2.2791,-1.65078 -4.7541,-3.87217 -5.5,-4.93643 -0.7459,-1.06425 -4.81506,-5.71401 -9.04257,-10.33278 -9.05979,-9.8983 -12.74398,-14.829159 -16.25119,-21.750309 -1.92304,-3.79493 -3.2762,-5.23606 -5.32067,-5.66658 -10.65585,-2.24386 -15.55531,-4.0835 -16.52993,-6.20662 -0.56807,-1.2375 -1.81248,-2.25 -2.76536,-2.25 -1.78638,0 -2.94647,-1.9061 -2.94647,-4.84124 0,-0.92272 -0.9,-2.23973 -2,-2.92669 -1.1,-0.68696 -2,-1.83905 -2,-2.5602 0,-0.83733 -3.63619,-2.16958 -10.0614,-3.68636 -5.53377,-1.30635 -10.28532,-2.7375 -10.55901,-3.18034 -1.0069,-1.62919 -2.37959,-0.73758 -2.37959,1.54561 0,15.34744 -20.62425,18.53425 -52.037485,8.0407 -1.23803,-0.41356 -1.79602,1.10514 -2.86484,7.79746 -2.43943,15.27412 -2.55999,14.04271 1.63387,16.68835 2.07265,1.30751 6.580955,2.86141 10.018455,3.45311 6.54623,1.12682 7.869,2.22515 3.88429,3.225249 -3.49634,0.87753 -9.860075,-1.158939 -14.065765,-4.501199 -2.21005,-1.75632 -4.3378,-2.69648 -5.28235,-2.33402 -1.24065,0.47608 -0.60264,1.53191 2.95937,4.89741 4.63335,4.377729 5.65228,4.805009 14.064365,5.897819 3.04354,0.39539 4.6655,1.0581 4.41667,1.8046 -0.21629,0.64886 -1.36825,1.1476 -2.55991,1.10831 -13.066885,-0.43078 -12.170495,-0.16924 -16.945275,-4.94402 l -4.51544,-4.515439 0.59626,-7.73456 0.59625,-7.73455 -12.69923,0.12058 c -6.98458,0.0663 -15.65671,0.62468 -19.2714,1.24079 -6.943939,1.18356 -15.601498,3.9488 -12.736847,4.06817 3.647962,0.15201 2.590462,2.03801 -2.426817,4.32812 l -5.264166,2.4028 3.072833,1.60383 c 3.438193,1.79453 6.012942,4.483269 5.13445,5.361759 -0.317745,0.31774 -2.861154,-0.18072 -5.65202,-1.10769 -7.763474,-2.578619 -9.326775,-7.429219 -3.873288,-12.018029 l 3.181975,-2.67745 -4.931975,0.66321 c -7.038333,0.94646 -7.431975,1.16118 -7.431975,4.05395 0,2.74935 -2.027315,5.45996 -4.083608,5.45996 -4.863413,0 40.530078,23.303119 58.583608,30.074379 12.29721,4.61226 14.6259,5.32485 22.499995,6.88517 6.96366,1.3799 8.93296,2.50749 7.27495,4.1655 -3.56569,3.56569 -33.406435,-6.6718 -62.274945,-21.36473 C 21.451329,102.72276 9.8588978,95.157411 12.159397,92.856921 c 0.76471,-0.76472 2.27703,-0.16622 5.493857,2.17418 l 2.2361,1.62687 -1.475275,-4.86274 c -1.795344,-5.91774 -1.892419,-9.56724 -0.296924,-11.16274 2.257855,-2.25786 2.800024,-1.19475 2.830409,5.55 0.02542,5.64268 0.22287,6.4219 1.203612,4.75 0.645263,-1.1 1.178007,-4.3625 1.183877,-7.25 0.01189,-5.84769 0.773107,-6.61487 2.480575,-2.5 1.13125,2.72623 1.216574,2.74833 9.87132,2.55698 4.801614,-0.10617 11.655207,-0.92039 15.230207,-1.80939 3.866754,-0.96155 13.0475,-1.8465 22.66208,-2.18444 l 16.16209,-0.56808 0.41054,-4.62253 c 0.2258,-2.5424 0.71759,-5.29754 1.09288,-6.12254 0.46121,-1.0139 -0.31322,-2.14814 -2.38969,-3.5 -1.68961,-1.1 -3.94954,-3.78796 -5.02207,-5.97324 -1.76001,-3.58604 -1.84446,-4.74441 -0.86658,-11.88647 0.59591,-4.35227 1.73492,-8.90745 2.53113,-10.12263 1.60774,-2.45371 5.47584,-4.51766 8.46667,-4.51766 2.97143,0 2.34232,1.57271 -1.54705,3.8675 -2.53574,1.49612 -3.5,2.7631 -3.5,4.59877 0,1.46071 -0.57185,2.53373 -1.35032,2.53373 -0.96742,0 -1.40266,1.74445 -1.53491,6.15198 -0.10153,3.38359 -0.45154,6.5839 -0.7778,7.11181 -0.56626,0.91623 1.33127,2.6886 2.91303,2.7209 0.4125,0.008 0.75,-1.30813 0.75,-2.92567 0,-1.61754 0.45318,-3.22107 1.00706,-3.56339 1.04004,-0.64277 1.40048,0.0629 2.42847,4.75437 0.74884,3.41753 3.16886,3.59983 3.80226,0.28642 0.34474,-1.80341 -0.42794,-3.44492 -2.88342,-6.12569 -5.56453,-6.07504 -4.06052,-6.81258 3.89563,-1.91035 8.426375,5.19197 12.552775,6.15174 30.528545,7.10073 12.36067,0.65255 13.03283,0.58751 15.0794,-1.45906 2.74805,-2.74805 2.73448,-6.88254 -0.0323,-9.8276 l -2.17428,-2.31445 h 2.61761 c 3.72151,0 5.73102,3.39806 5.73102,9.69112 0,4.14648 0.30075,5.1307 1.43484,4.69551 0.78916,-0.30283 5.85166,0.37491 11.25,1.50609 5.39834,1.13118 11.48687,2.3105 13.53008,2.62072 4.47441,0.67934 5.75131,2.30687 3.24673,4.13826 -1.57708,1.15319 -1.60905,1.3483 -0.22087,1.3483 3.62626,0 7.08057,-8.82344 9.39579,-24 0.89911,-5.89373 1.18619,-6.39198 2.87526,-4.99018 1.23687,1.02651 1.48817,0.88196 1.48817,-0.85599 0,-1.28703 -0.49167,-1.90239 -1.27869,-1.60038 -0.70329,0.26987 -2.10672,-0.11479 -3.11876,-0.8548 -1.4461,-1.05742 -1.61616,-1.75796 -0.7943,-3.27207 0.57517,-1.05962 1.30104,-2.74422 1.61307,-3.74355 0.40473,-1.29628 1.35701,-1.72614 3.32299,-1.5 2.6605,0.30602 2.76485,0.54151 3.02079,6.81697 0.1458,3.575 0.75992,7.46687 1.3647,8.64859 1.15359,2.25406 0.91229,5.89689 -1.04997,15.85141 -2.06913,10.4966 -4.04223,15.33704 -7.15547,17.55386 -1.6084,1.14528 -2.92436,2.43008 -2.92436,2.8551 0,0.42503 2.5875,1.35176 5.75,2.05941 3.1625,0.70764 6.3125,1.5024 7,1.76612 0.6875,0.26372 1.25,-0.15944 1.25,-0.94035 0,-0.78091 1.06202,-3.64155 2.36005,-6.35699 1.29802,-2.71543 2.68829,-6.73715 3.08948,-8.93715 0.84001,-4.6063 2.16253,-6.5861 3.94312,-5.90282 1.58238,0.60721 3.4765,-7.30657 4.20163,-17.55473 0.66939,-9.46033 1.18745,-12.04245 2.41612,-12.04245 0.53476,0 3.07419,-1.60441 5.64316,-3.56536 8.46812,-6.46385 24.91467,-13.65823 42.34644,-18.5240103 l 10.5,-2.93089 -8.5,0.46503 c -17.25106,0.94381 -36.22506,8.7432503 -46.66314,19.1813303 -5.0118,5.01181 -7.0179,6.3739 -9.3875,6.3739 -5.09644,0 -12.41173,-3.87096 -10.64813,-5.63456 0.27583,-0.27583 2.87756,0.20411 5.78164,1.06653 6.38085,1.89491 7.90681,1.95595 7.9504,0.31803 0.0455,-1.71021 2.62127,-4.58429 7.96673,-8.88946 8.43136,-6.79051 22.95719,-12.7085503 37.68407,-15.3530603 13.67093,-2.45488998 43.11041,-3.64133998 62.22752,-2.50784998 27.65149,1.63951998 34.10302,2.84289998 51.87504,9.67609028 3.45764,1.32943 10.88184,4.01664 16.49822,5.97157 11.16797,3.88732 20.42683,8.8838 31.21515,16.84502 3.85,2.84111 10.85475,7.93495 15.5661,11.31966 12.6055,9.05598 20.83587,17.49341 24.81214,25.43636 2.50547,5.00488 4.61415,7.63623 8.16203,10.18513 5.0524,3.62979 5.41526,4.29496 6.4335,11.79357 0.60723,4.4718 0.85246,4.78373 4.54184,5.77717 4.55357,1.22615 5.37216,2.25281 5.57798,6.995799 0.21917,5.05058 -1.15893,6.29227 -6.15246,5.54344 l -4.17347,-0.62585 -0.69113,6.10873 c -0.38012,3.3598 -0.9162,6.69527 -1.1913,7.41216 -0.81574,2.12578 2.88359,2.91437 4.33839,0.92482 1.63263,-2.23275 1.6478,-6.06045 0.0264,-6.65497 -0.96379,-0.35339 -0.97918,-0.74632 -0.0672,-1.71611 4.14871,-4.41178 6.18673,6.36136 2.16955,11.46839 -1.68066,2.13661 -2.73352,2.61315 -4.8418,2.1915 -2.31608,-0.46322 -2.92681,-0.0509 -4.35233,2.93846 -2.11185,4.4286 -2.08602,5.40943 0.14244,5.40943 0.99034,0 2.97991,0.55653 4.42124,1.23673 4.34982,2.05279 4.34404,10.83075 -0.007,10.71938 -0.94315,-0.0241 -3.49759,-0.67887 -5.67654,-1.45495 -2.17894,-0.77608 -4.0133,-1.31883 -4.07634,-1.20611 -2.43935,4.36154 -4.95608,7.81172 -7.41242,10.16171 -2.83162,2.70901 -3.73822,2.97168 -10.82005,3.13491 -9.85776,0.22721 -22.75422,3.9397 -39.95832,11.50275 -2.32587,1.02247 -4.87247,1.61206 -5.6591,1.31021 -0.78663,-0.30186 -3.15864,-0.0542 -5.27114,0.55026 -2.1125,0.6045 -10.66684,1.34559 -19.00964,1.64687 -8.34281,0.30127 -18.23607,0.85163 -21.98502,1.22301 l -6.81628,0.67523 5.98501,3.89555 c 3.29176,2.14256 7.33502,5.11086 8.98502,6.59622 1.65,1.48536 4.8,3.98162 7,5.54724 l 4,2.84659 -4.5,-4.73862 c -2.475,-2.60624 -6.62102,-6.1805 -9.21337,-7.9428 -9.25971,-6.29481 -5.65625,-7.26167 5.42784,-1.45636 3.41039,1.78619 9.59772,6.8012 15.34552,12.43798 8.16926,8.01146 10.21132,10.68727 13.45415,17.62961 4.29865,9.20264 6.9896,18.58441 6.97822,24.32893 -0.0117,5.89974 -3.39235,15.73374 -8.14128,23.68216 -4.73778,7.92958 -14.57664,20.6735 -15.96094,20.6735 -0.48646,0 -2.57327,1.47786 -4.63736,3.28414 -4.085,3.57477 -15.84625,11.48136 -20.94407,14.0798 -1.75516,0.89463 -6.31369,2.06945 -10.13007,2.61071 -3.81639,0.54126 -10.93035,1.63374 -15.80881,2.42774 -11.09722,1.80614 -24.38031,2.33589 -39.86993,1.59007 z m 37,-2.98483 c 22.29489,-4.50909 26.69268,-5.95504 35.74571,-11.75287 9.15276,-5.8617 20.67995,-17.0223 25.56788,-24.75476 2.82313,-4.46604 6.58357,-13.42482 7.55549,-18 l 0.63729,-3 -1.53512,2.75 c -0.84432,1.5125 -1.90232,2.75 -2.35111,2.75 -0.4488,0 -2.44296,3.29195 -4.43148,7.31545 -4.48966,9.0842 -13.20975,18.73391 -23.83449,26.37541 -10.97132,7.89077 -12.62272,8.87392 -13.47457,8.02207 -1.10965,-1.10965 4.24289,-6.25875 12.62242,-12.14267 11.07202,-7.77451 13.86478,-12.04255 3.6348,-5.55489 -7.91937,5.02231 -15.6074,8.57547 -26.63682,12.31067 -10.57667,3.58188 -24.9732,6.75416 -29.86047,6.57978 -1.45174,-0.0518 1.63547,-0.92108 6.86047,-1.93174 20.13309,-3.89428 37.51337,-10.55298 43,-16.47408 1.375,-1.48388 4.70977,-3.82263 7.4106,-5.19721 6.80921,-3.46554 13.25489,-10.46438 18.77265,-20.38368 5.39887,-9.7056 6.28904,-12.58804 5.38149,-17.42568 -0.74938,-3.99457 -2.56474,-4.72428 -2.56474,-1.03094 0,7.5439 -6.65866,17.9542 -20.2415,31.64598 -8.36872,8.43585 -21.7585,15.66304 -21.7585,11.74425 0,-1.5561 -16.6218,-0.44267 -33,2.21054 -15.7487,2.55123 -45.78074,3.59704 -59.6584,2.0775 -11.86723,-1.29941 -24.51882,-5.49407 -34.632,-11.48232 -8.14385,-4.82217 -21.1573,-17.99509 -21.97294,-22.2422 -0.81657,-4.25196 0.12452,-4.37772 3.11468,-0.41624 11.36236,15.05331 26.69046,24.9578 45.53382,29.42237 l 2.88516,0.68358 -0.63207,-5.80298 c -0.72435,-6.6502 0.57252,-10.2811 2.23263,-6.25082 0.55456,1.34632 1.28648,4.57486 1.62648,7.17454 0.34001,2.59968 0.94835,4.93074 1.35188,5.18013 2.40015,1.48338 30.65039,-0.36568 51.15076,-3.34796 3.575,-0.52007 13.025,-1.2168 21,-1.54829 27.79029,-1.15513 27.94799,-2.90695 0.35049,-3.89347 -26.13434,-0.93422 -45.06192,-2.94842 -62.35049,-6.63511 -2.475,-0.52778 -10.28066,-1.43555 -17.34592,-2.01727 -13.15748,-1.08332 -20.65408,-3.10621 -20.65408,-5.5733 0,-1.72063 0.0396,-1.72014 6.34609,0.0785 2.83465,0.80846 10.77891,1.91099 17.65391,2.45008 6.875,0.53909 18.8,2.08429 26.5,3.43379 13.92673,2.44078 31.94961,4.06185 57.26621,5.15081 14.34871,0.61719 16.23379,0.97744 16.23379,3.1024 0,2.2434 2.28022,1.56145 5.39556,-1.61366 2.79064,-2.84419 2.8724,-3.20031 2.25639,-9.8284 -0.35155,-3.78251 -1.34098,-8.8545 -2.19874,-11.27111 -2.64108,-7.44085 -5.45321,-18.7035 -5.45321,-21.84026 0,-1.95975 -0.68615,-3.35042 -2,-4.05357 -1.41912,-0.75949 -2,-2.09382 -2,-4.5942 0,-2.39359 0.36752,-3.29669 1.14584,-2.81566 0.7922,0.4896 0.96185,-0.0323 0.5497,-1.69099 -0.32788,-1.31953 -1.12649,-6.55467 -1.77468,-11.63363 -0.64819,-5.07897 -1.68306,-9.61249 -2.2997,-10.07451 -2.65579,-1.98983 -13.96267,-6.16453 -19.31006,-7.12961 -16.98889,-3.06611 -34.41545,-3.07131 -71.3111,-0.0213 -27.8391,2.30136 -45.44974,5.74769 -46.31699,9.06402 -0.46057,1.76123 -9.7207,8.13826 -13.61023,9.37275 -1.87103,0.59384 -2.14932,1.18434 -1.58896,3.37152 0.37365,1.45837 1.00049,8.59693 1.39299,15.86347 0.39251,7.26654 0.91829,13.4016 1.16842,13.63346 0.25012,0.23186 3.15477,0.0362 6.45477,-0.43469 5.45959,-0.77914 6.49538,-0.61102 11.5,1.86654 4.80246,2.37748 5.75365,3.35693 7.5,7.7228 1.1,2.75 2.78333,6.10667 3.74073,7.45927 1.18129,1.6689 1.41348,2.78652 0.72248,3.47752 -1.36717,1.36717 -4.16306,-0.39637 -5.46321,-3.44595 -5.34221,-12.53054 -7.30748,-13.76278 -22.5,-14.10765 -9.66904,-0.2195 -23,0.77153 -23,1.70983 0,0.21815 3.0375,6.58353 6.75,14.14528 7.50103,15.27836 10.91444,19.32344 23.85463,28.26898 12.59988,8.71029 24.5308,13.04463 39.89537,14.49343 8.54276,0.80554 10.70211,1.36325 9.9555,2.57129 -0.94334,1.52636 -12.34121,1.0287 -21.9555,-0.95863 -14.31238,-2.95846 -25.83207,-8.98625 -40.49675,-21.19033 -5.50024,-4.57734 -6.69368,-6.32495 -12.62618,-18.4891 -3.60348,-7.38864 -6.96248,-13.43391 -7.46443,-13.43391 -0.50195,0 -0.91264,0.20878 -0.91264,0.46396 0,0.25518 3.18297,6.76812 7.07327,14.47321 8.78809,17.4056 14.17473,22.82136 31.01611,31.18376 16.96045,8.42152 26.08207,10.30975 57.90191,11.98603 29.89188,1.57471 46.74401,0.20228 65.33741,-5.32105 4.38091,-1.30138 7.17413,-1.68308 7.79238,-1.06483 2.97998,2.97998 -16.10545,8.28079 -35.47281,9.85224 -4.78663,0.38839 -8.97991,1.15427 -9.3184,1.70196 -0.69286,1.12107 25.45342,0.0908 32.17013,-1.26765 z m -35.71648,-8.74603 c 2.90594,-0.20265 7.40594,-0.20052 10,0.005 2.59406,0.20525 0.21648,0.37104 -5.28352,0.36844 -5.5,-0.003 -7.62242,-0.17053 -4.71648,-0.37317 z m -46.78352,-6.95932 c -10.34787,-1.72561 -17.63539,-3.68172 -23.11322,-6.20407 -7.59156,-3.49563 -19.0738,-11.04615 -19.68439,-12.9441 -0.23814,-0.74025 1.97306,0.30917 4.91378,2.33203 14.2383,9.79422 29.74118,14.51386 47.6746,14.51386 5.64877,0 10.36327,0.44023 10.70923,1 0.39229,0.63475 -2.29569,1 -7.3592,1 -4.38747,0 -8.57653,0.16182 -9.30901,0.35959 -0.73249,0.19777 -2.45679,0.17198 -3.83179,-0.0573 z m 88,-4.26368 c 0,-0.45198 1.08319,-1.09365 2.4071,-1.42593 1.3239,-0.33228 3.2364,-0.89729 4.25,-1.25558 1.36601,-0.48287 1.56668,-0.35008 0.77545,0.51318 -1.36261,1.48666 -7.43255,3.25747 -7.43255,2.16833 z M 183.06388,256.52616 c -4.23415,-6.0362 -10.14452,-17.59584 -10.14594,-19.84367 -0.002,-2.9558 2.19406,-0.80361 5.10159,5 1.72214,3.4375 5.10362,9.23552 7.5144,12.88448 4.79699,7.26077 5.02981,7.86552 3.02811,7.86552 -0.74531,0 -3.21948,-2.65785 -5.49816,-5.90633 z m 67.66035,-22.84367 c -6.56073,-6.03219 -15.38926,-14.8512 -19.46744,-19.44645 -3.11221,-3.50681 -4.39633,-4.01071 -16.33964,-6.41184 l -3.5,-0.70365 3,-0.88658 c 1.65,-0.48761 4.98856,-0.64061 7.41903,-0.33999 4.61557,0.5709 13.08097,4.87511 13.08097,6.65099 0,0.56549 4.8375,5.98932 10.75,12.05295 l 10.75,11.02478 4.90638,-0.65029 c 9.53096,-1.26324 12.56397,-4.36607 10.73671,-10.98387 -0.76748,-2.77956 -0.54079,-4.76934 1.08622,-9.53434 1.13086,-3.31194 2.4089,-6.02171 2.84008,-6.02171 1.56886,0 1.49002,3.6125 -0.18496,8.47522 -1.25521,3.64408 -1.43848,5.48953 -0.68497,6.89747 1.5358,2.86967 -0.65981,9.32366 -3.47151,10.20448 -1.22537,0.38387 -3.30114,1.53605 -4.61281,2.56039 -1.49805,1.1699 -4.01299,1.86244 -6.76336,1.86244 -3.83172,0 -5.02363,-0.59317 -9.5447,-4.75 z m 59.78731,-18 c -1.3434,-1.28174 -1.95819,-1.41553 -2.29762,-0.5 -0.25489,0.6875 -1.10094,1.25 -1.8801,1.25 -1.03334,0 -1.41667,-1.35294 -1.41667,-5 0,-2.75 0.19611,-5 0.43579,-5 1.16356,0 9.56421,8.47934 9.56421,9.6538 0,1.88162 -2.22388,1.67779 -4.40561,-0.4038 z m 15.01864,1.0297 c -0.39617,-0.39617 -2.33253,-0.58141 -4.30304,-0.41164 -4.11205,0.35428 -5.27224,-0.8699 -5.29468,-5.58668 -0.0114,-2.39574 0.35323,-3.07719 1.42622,-2.66544 0.79284,0.30424 1.58034,1.49732 1.75,2.65129 0.19794,1.34636 1.35268,2.37574 3.22279,2.87291 3.92702,1.04402 4.6142,0.39567 3.29235,-3.1063 -1.51844,-4.0228 -0.24284,-4.88053 2.90663,-1.95445 3.23381,3.00443 4.47431,6.02606 3.14909,7.67061 -1.09321,1.35663 -4.98702,1.69204 -6.14936,0.5297 z m 10.10556,-1.41731 c -1.30541,-0.73054 -1.66707,-2.05783 -1.47418,-5.41027 0.23233,-4.03801 0.48309,-4.43214 2.75559,-4.33118 1.81397,0.0806 1.99963,0.24044 0.67657,0.58253 -1.12606,0.29115 -1.60412,1.04296 -1.25,1.96578 0.31539,0.82188 0.57343,2.14702 0.57343,2.94476 0,0.79774 0.99583,1.81882 2.21295,2.26906 2.1702,0.80281 2.17453,0.83919 0.22418,1.88299 -1.30874,0.70041 -2.58024,0.73335 -3.71854,0.0963 z m -25.21859,-7.86239 c -0.33992,-0.55 0.0835,-1 0.94098,-1 0.85746,0 1.55902,0.45 1.55902,1 0,0.55 -0.42344,1 -0.94098,1 -0.51754,0 -1.2191,-0.45 -1.55902,-1 z m 6.5,-2.39301 c 0,-0.94863 2.99338,-1.42672 3.52699,-0.56332 0.32508,0.52598 -0.33551,0.95633 -1.46797,0.95633 -1.13246,0 -2.05902,-0.17686 -2.05902,-0.39301 z m -109.75,-1.7443 c -2.99913,-3.02958 -0.0388,-7.20396 6.95907,-9.81319 1.81001,-0.67488 4.58739,-1.92237 6.17195,-2.77221 7.48211,-4.01282 42.97581,3.22239 49.93176,10.17835 3.08072,3.08072 1.75222,3.2216 -4.06278,0.43084 -8.44841,-4.0546 -26.0868,-8.0281 -36.26876,-8.17046 -8.21056,-0.1148 -8.80291,0.0308 -14.70298,3.61494 -3.76293,2.28587 -6.27004,4.52201 -6.463,5.76449 -0.25335,1.63127 -0.56075,1.78195 -1.56526,0.76724 z m 160.78308,48.38731 c 12.1981,-13.02221 16.29733,-23.7617 12.16301,-31.86563 -2.93528,-5.75362 -21.67349,-22.50728 -31.56511,-28.22207 l -3.86901,-2.23529 0.6469,4.78649 c 2.20182,16.29133 7.59516,41.61161 10.19612,47.86804 0.70459,1.69485 1.59378,6.53235 1.97598,10.75 0.38219,4.21765 1.04611,7.66846 1.47538,7.66846 0.42926,0 4.46879,-3.9375 8.97673,-8.75 z m 28.62999,-21.47441 -1.48654,-6.27559 -0.24671,5.5 c -0.44207,9.85535 0.61933,14.44357 2.26141,9.77559 0.67295,-1.91303 0.51566,-4.59339 -0.52816,-9 z m -5.4483,0.97441 c 0.23581,-0.6875 0.23401,-3.44575 -0.004,-6.12943 -0.54449,-6.13936 -2.17348,-4.18836 -2.19546,2.62943 -0.0142,4.41741 1.21426,6.37232 2.19946,3.5 z m -207.37601,-3.25543 c 0.21034,-0.21034 0.0572,-4.49133 -0.34024,-9.51332 l -0.72269,-9.13088 -7.13791,0.61379 c -7.59608,0.6532 -11.60045,-0.48914 -8.63792,-2.46416 1.33333,-0.88889 1.33333,-1.11111 0,-2 -1.33333,-0.88889 -1.33333,-1.10941 0,-1.98469 0.825,-0.54158 3.3,-0.99772 5.5,-1.01365 2.2,-0.0159 4.97428,-0.29031 6.16507,-0.60974 1.93112,-0.51801 2.05216,-0.90463 1.12018,-3.5781 -0.89202,-2.55885 -1.42819,-2.91281 -3.66506,-2.4195 -1.44111,0.31781 -5.46731,0.87741 -8.94713,1.24355 -5.83358,0.6138 -6.27716,0.82932 -5.68861,2.76392 0.35107,1.15402 0.90079,8.34556 1.22158,15.9812 l 0.58327,13.88299 10.08352,-0.69449 c 5.54593,-0.38197 10.25561,-0.86658 10.46594,-1.07692 z m 204.66768,-9.13047 c 2.33389,0.8956 1.77849,-1.52324 -1.55764,-6.78378 -3.50038,-5.51953 -4.69425,-5.60868 -2.4265,-0.18118 0.94996,2.27357 1.33454,5.13543 0.99489,7.40354 -0.46881,3.13059 -0.39661,3.33642 0.47101,1.3428 0.65054,-1.49481 1.57002,-2.14525 2.51824,-1.78138 z M 178.64632,205.82832 c -0.3323,-0.33229 -1.1948,-0.36781 -1.91667,-0.0789 -0.79773,0.31922 -0.56078,0.55618 0.60417,0.60416 1.05416,0.0434 1.64479,-0.19293 1.3125,-0.52522 z m 195.27083,-3.89583 c -2.42903,-2.475 -4.57012,-4.5 -4.75798,-4.5 -0.18786,0 1.35113,2.025 3.41997,4.5 2.06884,2.475 4.20994,4.5 4.75798,4.5 0.54805,0 -0.99094,-2.025 -3.41997,-4.5 z m -183.44113,-9.98626 c 1.77591,-1.35976 1.6645,-1.39399 -1.30887,-0.40218 -3.39349,1.13195 -4.17108,1.88844 -1.94113,1.88844 0.71988,0 2.18238,-0.66882 3.25,-1.48626 z m 5.13172,-7.8586 c 8.25048,-4.17821 19.73249,-8.58196 34.63755,-13.28472 20.1032,-6.34285 25.75102,-7.5287 39.67186,-8.32974 l 12.5,-0.71928 -10.57386,-0.1607 c -22.23774,-0.33796 -53.50282,6.67727 -70.62662,15.84715 -9.2337,4.9447 -18.53114,11.80837 -17.73669,13.09381 0.36304,0.58742 1.91805,0.007 3.77713,-1.40971 1.73802,-1.32451 5.49581,-3.59108 8.35063,-5.03681 z m 164.27321,4.80124 c -2.78594,-3.35685 -15.46504,-11.45557 -17.90739,-11.43826 -2.16992,0.0154 -1.80049,0.44031 2.44359,2.8107 2.75,1.53593 7.475,4.42999 10.5,6.43125 6.23777,4.12673 6.75633,4.35618 4.9638,2.19631 z m -27.9638,-12.45638 c -0.825,-0.53316 -2.4,-0.94464 -3.5,-0.9144 l -2,0.055 2,0.85943 c 1.1,0.47269 2.675,0.88417 3.5,0.9144 1.33333,0.0489 1.33333,-0.0527 0,-0.9144 z m -82.80229,-1.46591 c 6.98374,-0.78479 20.6035,-1.74375 30.26613,-2.13103 9.66263,-0.38727 17.37439,-0.89816 17.13726,-1.1353 -0.23714,-0.23714 -6.86977,-0.85819 -14.73917,-1.38011 -16.33061,-1.08309 -36.85202,0.65578 -47.36193,4.0132 l -6,1.91672 4,0.0717 c 2.2,0.0394 9.71397,-0.5704 16.69771,-1.35519 z m 64.71896,-1.89341 c -1.19443,-1.03005 -5.91667,-1.55659 -5.91667,-0.65973 0,0.56048 1.425,1.01905 3.16667,1.01905 1.74166,0 2.97916,-0.1617 2.75,-0.35932 z m 59.58333,-1.62294 c 20.77933,-1.01207 25.14873,-1.96363 26.60504,-5.79401 0.62462,-1.64288 1.27779,-2.22233 1.71239,-1.51913 1.57157,2.54284 5.9423,2.47239 12.32773,-0.19872 3.49516,-1.46206 8.82984,-3.31911 11.85484,-4.12677 3.025,-0.80766 7.75,-2.43878 10.5,-3.62472 4.81314,-2.07566 5.19756,-2.55048 10.28614,-12.70531 8.93309,-17.82696 12.84792,-34.63016 11.35022,-48.717289 -0.96053,-9.03459 -0.62406,-8.47488 -15.52008,-25.81747 -8.32693,-9.69456 -12.16864,-15.30516 -11.15047,-16.28465 0.78583,-0.75597 12.16805,10.99369 20.3361,20.99258 4.26841,5.22516 4.74251,5.53834 5.45767,3.60507 1.55187,-4.19509 -1.74174,-8.53472 -11.00958,-14.50613 -5.44501,-3.50829 -6.955,-5.93577 -3,-4.8228 3.52486,0.99192 -3.9918,-5.57338 -18.68676,-16.32162 -18.89797,-13.82242 -25.51628,-17.55561 -42.06324,-23.72659 -22.81862,-8.5099103 -29.85491,-10.4337303 -44,-12.0301803 -7.15,-0.80696 -13.82612,-1.72417 -14.83583,-2.03823 -1.58771,-0.49385 -1.68598,-0.29103 -0.72708,1.50068 0.89419,1.6708 0.7458,2.43466 -0.76679,3.94725 -1.62834,1.6283403 -2.65283,1.7652803 -7.77292,1.0389603 -16.52411,-2.3440703 -25.26122,-3.0717503 -31.27063,-2.6043903 -15.83286,1.23135 -42.87436,10.2798403 -58.23947,19.4878103 -7.39856,4.4338 -7.6837,4.74597 -8.27494,9.05954 -0.33679,2.45714 -0.61234,6.78517 -0.61234,9.61785 0,2.83268 -0.72678,7.83238 -1.61508,11.11043 -0.88829,3.27806 -1.99619,7.85381 -2.46199,10.16835 -0.77872,3.86935 -4.26169,11.42758 -7.12177,15.45462 -0.9756,1.37364 -0.32181,3.08422 3.75892,9.83492 4.94856,8.186359 23.48298,29.283959 29.87122,34.002209 3.79308,2.80151 11.9625,9.78013 17.39331,14.85801 l 3.59141,3.35801 2.29675,-2.85801 c 4.50608,-5.60723 10.13056,-18.09758 15.17018,-33.68857 4.88393,-15.109359 6.1025,-19.965849 4.1826,-16.669439 -0.48049,0.825 -3.20139,8.21885 -6.04645,16.430769 -7.13537,20.59546 -12.2526,30.56923 -15.68412,30.56923 -0.90763,0 0.10808,-2.91327 3.07619,-8.82313 4.02221,-8.00869 10.87084,-26.4951 17.10708,-46.176869 2.91904,-9.21258 7.21305,-33.3188 8.85577,-49.71559 1.23459,-12.32302 1.84903,-14.46136 3.6406,-12.66979 0.63946,0.63946 0.64441,3.57714 0.0142,8.43333 -0.53189,4.09863 -1.00482,13.07705 -1.05094,19.95205 -0.12204,18.19025 -3.78346,38.2385 -11.12485,60.914669 -5.13389,15.85758 -8.86835,24.30452 -14.14769,32.00053 l -3.02875,4.4152 2.9117,2.43289 c 3.60289,3.01043 15.37961,8.6393 21.4117,10.23406 2.475,0.65434 8.17049,2.70305 12.65664,4.55268 14.74077,6.07762 33.78131,9.57627 47.84336,8.79109 4.4,-0.24568 16.1,-0.8412 26,-1.32338 z m 31.14566,-10.01012 c -1.80637,-1.82505 -1.78937,-2.01108 0.65702,-7.19057 1.38126,-2.92438 3.16933,-7.79205 3.9735,-10.81705 0.80417,-3.025 3.05346,-9.325 4.99842,-14 4.09753,-9.849 6.28737,-20.99079 7.17381,-36.499999 0.70321,-12.30352 2.20804,-19.67391 3.56769,-17.47395 0.99196,1.60503 1.50687,-0.30285 2.57093,-9.52605 0.63736,-5.52457 0.76251,-5.76229 1.5794,-3 0.86115,2.91193 -0.53501,42.684179 -1.78475,50.842059 -0.32372,2.11313 -1.89203,7.41359 -3.48513,11.77879 -1.5931,4.3652 -2.89655,9.0114 -2.89655,10.32489 0,1.31348 -1.50631,5.23803 -3.34735,8.72121 -1.84104,3.48318 -4.12862,8.69983 -5.08352,11.59257 -0.9549,2.89273 -2.56902,5.70523 -3.58692,6.25 -2.28079,1.22064 -2.09405,1.26379 -4.33655,-1.0019 z m 12.35434,-24.11696 c 0,-0.9499 0.23536,-2.55139 0.52302,-3.55887 0.28766,-1.00749 -0.35397,-0.0318 -1.42584,2.16821 -2.39715,4.92012 -2.73293,7.92463 -0.56538,5.05887 0.80751,-1.06762 1.4682,-2.71832 1.4682,-3.66821 z m 6.69299,-24.62163 c -0.25354,-0.97297 -0.47766,-0.41903 -0.49804,1.23097 -0.0204,1.65 0.18706,2.44606 0.46099,1.76903 0.27392,-0.67703 0.29059,-2.02703 0.0371,-3 z m -33.69299,-6.82642 c -8.55622,-1.51828 -13.85001,-3.01644 -26.26834,-7.434009 -4.82258,-1.71553 -10.67258,-3.45283 -13,-3.86065 l -4.23166,-0.7415 0.29554,-6.95322 c 0.33932,-7.98309 1.60898,-12.71832 3.92096,-14.62324 1.46182,-1.20445 1.54603,-0.85801 0.89209,3.67001 -0.39716,2.75 -0.97735,7.29298 -1.28931,10.09551 l -0.5672,5.09551 6.37396,1.25117 c 3.50568,0.68814 9.02518,2.32703 12.26556,3.64197 9.34248,3.79117 19.87386,6.440439 26.58478,6.687679 5.35324,0.19722 6.4385,-0.0742 8.00219,-2.00147 1.97911,-2.439259 4.40092,-14.117859 3.44449,-16.610259 -0.62295,-1.6234 -6.05481,-3.63802 -15.42306,-5.72026 -11.36063,-2.52508 -13,-3.04507 -13,-4.12343 0,-3.33257 28.94726,3.34799 30.98212,7.15017 2.88406,5.38891 -0.87462,22.296269 -5.32668,23.960579 -4.63627,1.73318 -6.41466,1.80031 -13.65544,0.51544 z M 318.77793,78.465761 c -1.29843,-1.0817 -1.82484,-1.9817 -1.1698,-2 0.65504,-0.0183 1.4691,0.41673 1.80902,0.96673 0.33992,0.55 1.60398,1.00689 2.80902,1.01531 1.20504,0.008 2.86598,0.45153 3.69098,0.98469 1.14421,0.73944 0.75539,0.97301 -1.63922,0.98469 -1.72656,0.008 -4.20156,-0.86972 -5.5,-1.95142 z m 41.80589,-6.69994 c -1.45628,-1.45628 -0.52902,-2.44988 2.00621,-2.14975 3.44403,0.40771 4.36522,2.81642 1.07712,2.81642 -1.32917,0 -2.71667,-0.3 -3.08333,-0.66667 z m -120.16667,-2.54083 c -6.867,-1.28014 -16.6858,-3.81274 -18.5,-4.77177 -1.9948,-1.0545 -1.61419,-14.05381 0.52268,-17.8515 1.41367,-2.51241 1.48861,-2.14641 1.27555,6.22951 -0.26385,10.37235 -0.83251,9.82804 12.70177,12.1578 4.4,0.75741 9.575,1.64992 11.5,1.98337 3.7366,0.64726 11.50946,-1.90658 10.54626,-3.46506 -0.2939,-0.47554 -0.0995,-3.1576 0.43199,-5.96014 0.53149,-2.80254 0.69923,-5.79161 0.37276,-6.64237 -0.95825,-2.49716 -7.27953,-4.60086 -15.6316,-5.20216 -7.76747,-0.55922 -10.20143,-1.65885 -7.59753,-3.43248 3.21609,-2.19061 21.41139,1.69557 25.07039,5.35457 1.76317,1.76317 1.91586,2.81503 1.32822,9.14996 -0.90875,9.7966 -1.02404,10.05384 -5.36384,11.96856 -4.12559,1.8202 -8.75803,1.95417 -16.65665,0.48171 z m 87.3125,-4.47561 c 0.72187,-0.28887 1.58438,-0.25335 1.91667,0.0789 0.33229,0.33229 -0.25834,0.56864 -1.3125,0.52522 -1.16495,-0.048 -1.4019,-0.28494 -0.60417,-0.60416 z m -28.8836,103.204869 c -2.40728,-1.30908 -8.4797,-1.79758 -10.19521,-0.82017 -2.11479,1.2049 1.05635,2.29406 6.57533,2.25837 5.87121,-0.038 6.05818,-0.11225 3.61988,-1.4382 z m -17.01223,-2.15985 c 0.82849,-0.71962 -20.5159,-0.22654 -24.41667,0.56405 -2.38635,0.48366 1.64776,0.60641 10,0.30428 7.7,-0.27853 14.1875,-0.66928 14.41667,-0.86833 z m 172.8326,-12.11191 c 4.30588,-4.12194 5.60262,-6.65985 10.09726,-19.76181 3.20915,-9.35473 4.36061,-14.58072 5.24175,-23.79007 1.49926,-15.669609 0.67116,-22.186279 -3.28947,-25.886059 -1.65568,-1.54663 -3.30023,-2.81082 -3.65457,-2.80931 -0.35433,0.002 -0.66133,6.18901 -0.68221,13.75 -0.0214,7.763119 -0.61034,16.141379 -1.35287,19.247249 -3.20884,13.42209 -6.64989,23.15216 -11.20544,31.68507 -2.69704,5.05179 -4.90372,9.43929 -4.90372,9.75 0,0.31071 1.54723,0.56493 3.43828,0.56493 2.38777,0 4.31599,-0.84022 6.31099,-2.75 z m 20.25073,-9.73658 c 0,-1.61261 -6.64691,-4.84968 -8.10623,-3.94776 -1.80772,1.11723 -0.89636,4.29474 1.35623,4.72861 4.78415,0.92146 6.75,0.69405 6.75,-0.78085 z m 5.99368,-39.76342 c -0.004,-1.44904 -1.07203,-2.85641 -3,-3.95349 -2.86536,-1.630469 -2.99368,-1.623259 -2.99368,0.16821 0,1.02944 -0.2594,2.5477 -0.57645,3.37392 -0.38993,1.01612 0.17635,1.64569 1.75,1.94561 4.41034,0.84054 4.82643,0.7081 4.82013,-1.53425 z M 37.943134,92.383951 c 0.957613,-1.78932 0.843547,-1.84913 -1.494623,-0.78379 -2.563446,1.16798 -3.051961,1.97839 -1.891876,3.13848 0.865219,0.86522 2.136227,-0.0185 3.386499,-2.35469 z M 185.18072,72.182491 c 2.62163,-1.4653 3.69992,-2.76928 3.72112,-4.5 0.0261,-2.13129 -3.84856,-1.37346 -5.11285,1 -0.65919,1.2375 -1.91252,2.79819 -2.78518,3.4682 -1.42912,1.09723 -1.41155,1.22135 0.17691,1.25 0.96996,0.0175 2.76996,-0.5307 4,-1.2182 z m -45.01318,-1.81823 c 2.78138,-1.26728 4.74961,-4.73725 4.74961,-8.37351 0,-2.20097 -0.23427,-2.29323 -3.75,-1.47681 -2.0625,0.47896 -5.2125,0.88157 -7,0.89469 -3.17672,0.0233 -3.25,0.12431 -3.25,4.47855 0,4.28331 -0.13215,4.47948 -3.43511,5.09912 -4.35901,0.81775 -5.56489,0.04766 -5.56489,-3.55381 0,-3.75517 1.7595,-4.8064 2.57909,-1.5409 0.40181,1.60094 1.33749,2.5409 2.52932,2.5409 2.08755,0 2.3751,-1.59807 0.95815,-5.32493 -0.85232,-2.24176 -1.65618,-2.5189 -9.25,-3.18896 -4.57411,-0.40361 -10.55945,-1.31452 -13.30077,-2.02424 -2.74132,-0.70972 -5.27069,-1.11335 -5.620835,-0.89695 -0.35014,0.21641 -0.9085,1.75283 -1.24079,3.41427 -0.36708,1.83543 -1.22573,3.02081 -2.18818,3.02081 -5.80964,0 9.922725,5.99658 20.926655,7.97644 6.25147,1.12478 19.41692,0.52308 22.85775,-1.04467 z M 310.91715,5.4324907 c -1.375,-0.44035 -3.4,-0.81387 -4.5,-0.83003 l -2,-0.0294 2,0.85943 c 1.1,0.47269 3.125,0.8462 4.5,0.83003 l 2.5,-0.0294 z M 96.910685,177.5671 c -5.29212,-1.75537 -9.04185,-4.31402 -15.1911,-10.36573 -8.75728,-8.61839 -17.70391,-14.1487 -27.080893,-16.73989 -4.278155,-1.18221 -11.928155,-3.8688 -17,-5.9702 -5.071845,-2.10141 -10.796537,-4.1591 -12.721537,-4.57265 -9.936978,-2.13478 -21.9238202,-12.15516 -23.8923072,-19.97273 -1.78103797,-7.07315 -1.30745997,-12.05992 1.946639,-20.498079 3.122676,-8.09737 7.4916382,-14.01533 10.3468782,-14.01533 2.399771,0 1.932895,1.88146 -1.203209,4.84879 -2.4920062,2.3579 -5.6544612,8.90432 -7.8023522,16.151209 -0.407534,1.375 -0.788805,4.92446 -0.84727,7.8877 -0.09908,5.0217 0.192238,5.71974 4.288427,10.27569 5.2931672,5.88727 11.3226772,9.5718 19.5403552,11.94077 3.367561,0.97079 9.497839,3.17276 13.622839,4.89325 4.125,1.7205 10.425,3.95375 14,4.96279 3.575,1.00903 7.75634,2.32679 9.29186,2.92836 4.88249,1.91281 14.88998,9.2446 21.35126,15.64259 8.8527,8.76598 11.60712,9.87406 22.794085,9.16991 10.38473,-0.65365 17.60926,-2.90072 27.89061,-8.67491 9.5378,-5.35659 11.28376,-6.96523 13.76552,-12.68283 1.80206,-4.15168 2.0415,-6.28088 1.67671,-14.91011 -0.23406,-5.53674 -0.74432,-10.58256 -1.13391,-11.21293 -0.45897,-0.74262 -1.96648,0.24649 -4.28206,2.80956 -3.63777,4.02658 -9.84305,6.76398 -12.77901,5.63734 -2.65209,-1.0177 -1.77026,-2.29213 2.4638,-3.56068 2.46006,-0.73705 5.98319,-3.14419 9.01279,-6.15789 l 4.97393,-4.94782 -2.51896,-3.99028 c -1.38542,-2.19466 -4.42868,-5.22097 -6.76279,-6.72514 -2.33411,-1.50417 -6.00515,-4.20256 -8.15786,-5.99643 -3.03592,-2.52986 -4.21916,-3.00834 -5.27416,-2.13276 -2.37391,1.97016 -2.70306,0.047 -1.51356,-8.843199 0.75558,-5.64708 0.8195,-9.06862 0.18375,-9.83466 -0.66395,-0.8 -0.38382,-1.7097 0.87814,-2.85176 1.66814,-1.50965 1.98142,-1.52238 3.13902,-0.12756 1.0255,1.23565 1.05145,2.96928 0.12815,8.56009 l -1.15778,7.01064 2.76523,2.52161 c 1.52088,1.38688 5.04908,4.034709 7.84045,5.884059 11.75161,7.7857 15.84288,16.93976 15.87721,35.5246 0.0242,13.09112 -1.24737,17.50661 -6.54722,22.73542 -3.73474,3.68467 -16.20726,10.44407 -24.59895,13.33124 -6.22498,2.1417 -23.21268,3.42791 -27.312725,2.06795 z m 0.079,-11.76947 c -1.16385,-1.47959 -2.03489,-4.00071 -1.98663,-5.75 l 0.086,-3.11514 0.8563,2.85745 c 1.15282,3.84694 3.82722,6.63923 6.376775,6.65786 1.15225,0.008 2.77001,0.45153 3.59501,0.98469 1.10076,0.71137 0.38814,0.97345 -2.67742,0.98469 -3.332185,0.0122 -4.596765,-0.51781 -6.249995,-2.61955 z m 13.764125,-18.82418 c -1.56678,-3.43871 1.13228,-7.54974 4.93634,-7.51872 l 2.72695,0.0222 -2.40609,1.84981 c -3.48913,2.68244 -2.2354,5.16522 2.24142,4.43873 1.89191,-0.30702 4.27793,-0.0712 5.30226,0.52398 1.61966,0.94114 1.44649,1.08616 -1.32857,1.1126 -1.75504,0.0167 -3.4691,0.48041 -3.80902,1.03041 -0.33992,0.55 -1.95112,1 -3.58046,1 -2.17633,0 -3.25972,-0.65251 -4.08283,-2.45904 z m 14.16334,-6.04096 c -2.35489,-1.34618 -2.37651,-1.43119 -0.37244,-1.46456 1.17015,-0.0195 2.68775,0.63956 3.37244,1.46456 1.5537,1.87209 0.27489,1.87209 -3,0 z m -8.34501,-11.32874 c -1.96379,-2.16996 -2.12726,-5.46692 -0.42081,-8.487 1.16171,-2.05601 1.26446,-1.94939 1.75,1.81574 0.53466,4.14612 2.85581,5.58971 5.85516,3.64149 1.94888,-1.26588 -1.60998,-11.14149 -4.01504,-11.14149 -2.32653,0 -3.31888,-1.87298 -1.38545,-2.61491 3.90052,-1.49677 6.07955,0.38787 8.28246,7.16345 1.1835,3.64016 1.93186,7.19172 1.663,7.89234 -0.43856,1.14287 -6.61329,3.55912 -9.09534,3.55912 -0.53845,0 -1.72374,-0.82293 -2.63398,-1.82874 z M 7.1396608,116.87579 c -1.222378,-0.85619 -2.219996,-2.54369 -2.216929,-3.75 0.0089,-3.51645 1.939716,-9.49574 3.603539,-11.15956 1.7904322,-1.79043 7.9497922,-2.056459 8.9810202,-0.3879 0.499006,0.80741 -0.08034,0.94794 -1.961503,0.4758 -3.811256,-0.95656 -6.2919882,0.77035 -7.0708942,4.92228 -0.371255,1.97896 -0.899503,4.18313 -1.173885,4.89815 -0.274381,0.71503 0.284052,2.08298 1.240961,3.03989 1.6531152,1.65311 1.8055152,1.65001 3.0575112,-0.0622 0.724721,-0.99111 1.317674,-3.01091 1.317674,-4.48844 0,-1.47754 0.675,-3.24663 1.5,-3.93132 0.945886,-0.78502 1.5,-0.85205 1.5,-0.18146 0,0.58488 -0.45,1.34154 -1,1.68146 -0.55,0.33992 -1,1.97106 -1,3.62476 0,3.58399 -1.585812,6.87524 -3.312678,6.87524 -0.6832702,0 -2.2424372,-0.70052 -3.4648162,-1.5567 z M 114.48191,106.53727 c -0.61593,-0.99659 1.70043,-2.12191 4.26703,-2.07298 1.43904,0.0274 1.40155,0.2335 -0.27292,1.5 -2.23696,1.69195 -3.21577,1.83237 -3.99411,0.57298 z M 74.673795,91.855791 c -0.31719,-0.31718 -4.55469,-0.87968 -9.41667,-1.25 -12.730924,-0.96966 -10.418559,-2.71224 3.32368,-2.5047 10.7357,0.16214 16.04553,1.37491 14.80534,3.38157 -0.63156,1.02189 -7.75837,1.32712 -8.71235,0.37313 z m 43.467705,-7.59636 c 0.51124,-1.53372 4.76024,-1.82273 4.80674,-0.32694 0.0171,0.55 -1.15694,1.14712 -2.60898,1.32694 -1.84433,0.2284 -2.50675,-0.073 -2.19776,-1 z m -15.22435,-1.54847 c -3.029475,-1.13835 -6.999995,-4.45463 -6.999995,-5.84656 0,-1.98647 1.59783,-1.78912 4.823545,0.59576 1.50841,1.11521 4.52769,2.26936 6.70951,2.56477 6.73207,0.91151 8.46694,1.40872 8.46694,2.42661 0,1.02708 -10.40449,1.2347 -13,0.25942 z m 72.73525,-22.87655 c -0.40439,-0.40439 -0.73525,-1.45184 -0.73525,-2.32768 0,-1.17548 -2.11801,-2.06847 -8.08938,-3.41061 -4.44916,-1.00001 -7.84845,-2.05913 -7.55398,-2.35361 0.29447,-0.29447 2.6972,-0.0493 5.33938,0.54479 2.64219,0.5941 6.37898,1.20731 8.30398,1.36269 3.15731,0.25484 3.53098,0.0132 3.81642,-2.4675 0.27879,-2.42292 -0.0186,-2.75066 -2.5,-2.75558 -1.54903,-0.003 -4.53461,-0.48269 -6.63463,-1.06583 -2.81973,-0.783 -4.1893,-0.75229 -5.23726,0.11745 -1.74849,1.45111 -4.44453,0.54927 -4.44453,-1.48672 0,-0.97804 -2.00945,-2.06282 -5.75,-3.10407 -9.86697,-2.74666 -10.61314,-3.04468 -11.0723,-4.42215 -0.45331,-1.35992 3.03449,-1.19256 11.59026,0.55615 2.75657,0.56341 3.17016,0.41308 2.64301,-0.96066 -0.45447,-1.18433 -0.0554,-1.62859 1.46299,-1.62859 2.22343,0 2.84585,-1.51474 3.47239,-8.45054 0.19628,-2.17279 0.93751,-4.14408 1.64719,-4.38064 1.146,-0.382 -4.0976,-3.16882 -5.96236,-3.16882 -0.40656,0 -0.83078,3.45985 -0.9427,7.68855 -0.11193,4.2287 -0.42918,8.0537 -0.70501,8.5 -0.96139,1.55555 -3.57452,0.79687 -4.09372,-1.18855 -0.28766,-1.1 -1.05038,-2 -1.69494,-2 -0.64456,0 -2.84208,-0.85149 -4.88337,-1.8922 l -3.71144,-1.8922 v 2.20107 c 0,4.72877 -2.02448,5.81728 -11.07561,5.95508 -4.63341,0.0705 -10.11189,-0.25933 -12.17439,-0.73304 -3.35181,-0.76984 -3.75,-0.65295 -3.75,1.10078 0,1.07913 -0.50612,3.41391 -1.12471,5.1884 -0.96731,2.77483 -1.49209,3.15137 -3.75,2.69068 -2.10627,-0.42974 -1.93334,-0.20365 0.87471,1.14364 2.43957,1.17049 5.77234,1.63334 11,1.52766 13.88733,-0.28075 13.72574,-0.22484 16.0122,-5.53987 1.12387,-2.6125 2.48089,-4.75 3.0156,-4.75 1.56643,0 1.11555,5.20683 -0.77935,9 -1.93281,3.86905 -1.54533,3.76389 -16.74845,4.54525 -7.77076,0.39937 -9.7512,0.1496 -14.5,-1.82872 -5.02565,-2.09366 -5.48239,-2.54679 -5.2958,-5.2539 0.42342,-6.14315 1.41336,-9.46263 2.82198,-9.46263 1.12611,0 1.3026,0.97001 0.81877,4.5 -0.60277,4.39765 -0.55387,4.5 2.14997,4.5 2.64068,0 2.73852,-0.1709 2.14693,-3.75 -0.34091,-2.0625 -0.62479,-4.30335 -0.63084,-4.97968 -0.013,-1.45019 -7.69278,-5.59755 -8.35666,-4.51288 -0.24997,0.40841 -0.776305,3.33006 -1.169635,6.49256 -0.45872,3.68821 -1.18182,5.75 -2.0166,5.75 -2.06215,0 -2.23191,-2.00566 -0.8041,-9.5 0.7335,-3.85 1.33416,-8.2628 1.33481,-9.80623 10e-4,-2.3763 0.7289,-3.13849 4.751175,-4.97499 3.78045,-1.72607 6.58705,-2.16101 13.75,-2.13082 10.25563,0.0432 15.60635,2.07725 21.13487,8.03422 1.98093,2.13445 4.07353,3.37782 5.6849,3.37782 1.40252,0 3.70433,0.43886 5.11513,0.97525 l 2.5651,0.97525 v -8.52176 c 0,-8.38605 0.047,-8.54871 2.94816,-10.21377 1.62149,-0.93061 3.40619,-2.6972703 3.966,-3.9259103 1.26647,-2.77961 4.59809,-3.6601 11.63972,-3.07615 5.89212,0.48862 10.44612,3.52345 10.44612,6.9614003 0,2.38471 -1.14537,2.30642 -4.09699,-0.28001 -3.45603,-3.0284403 -6.89785,-4.1178503 -10.73528,-3.3979403 -3.04688,0.5716 -3.29171,0.87352 -2.68112,3.3063203 0.94872,3.78 2.21775,4.33456 8.95517,3.91339 6.52155,-0.40768 10.86312,1.11661 12.6407,4.43804 1.17464,2.19485 0.58789,4.84589 -1.07253,4.84589 -0.57906,0 -1.55413,-1.10024 -2.16684,-2.44499 -1.40641,-3.08673 -2.60537,-3.53071 -7.69217,-2.84843 l -4.09536,0.5493 2.52438,1.98568 c 2.38497,1.87601 2.43138,2.08843 0.84032,3.84653 -0.92622,1.02347 -2.4775,2.11268 -3.44727,2.42048 -1.04355,0.33121 -2.03404,2.00323 -2.42675,4.09654 -0.36494,1.9453 -0.91029,4.17996 -1.21188,4.9659 -0.39657,1.03344 0.24248,1.42833 2.30863,1.42661 2.44962,-0.002 3.26974,-0.79229 5.75171,-5.54227 2.70748,-5.18153 6.03063,-8.36334 7.35337,-7.0406 1.34114,1.34115 -7.23102,15.08012 -9.42764,15.11009 -1.00125,0.0136 -2.94545,0.4316 -4.32045,0.92877 -2.22894,0.80593 -1.84946,1.03771 3.5,2.13766 4.15636,0.85464 6.38409,0.91572 7.25,0.19878 1.70242,-1.40952 1.57471,-3.72822 -0.24378,-4.42604 -1.17803,-0.45205 -0.89585,-1.13238 1.33497,-3.21861 1.55581,-1.45497 3.04207,-3.28757 3.3028,-4.07245 0.28233,-0.84993 0.97937,-1.11474 1.72357,-0.6548 1.37752,0.85135 0.78329,4.97915 -1.45078,10.07784 -0.72394,1.65221 -1.5948,5.57985 -1.93524,8.72809 -0.60007,5.54928 -3.25025,10.67388 -4.74629,9.17784 z m -50.98525,-26.09125 c -0.9625,-0.25152 -2.5375,-0.25152 -3.5,0 -0.9625,0.25153 -0.175,0.45733 1.75,0.45733 1.925,0 2.7125,-0.2058 1.75,-0.45733 z m 10.62084,-0.10168 c 0.26888,-0.43506 -1.05457,-0.61082 -2.94099,-0.39059 -1.88642,0.22022 -3.42985,0.57618 -3.42985,0.79101 0,0.75258 5.88692,0.38257 6.37084,-0.40042 z m -2.48895,-4.11483 c 1.85282,-1.17348 -1.77173,-3.55182 -7.89697,-5.1818 -4.61522,-1.22815 -15.98492,-0.51138 -15.98492,1.00772 0,0.82853 6.17745,3.70058 9.5,4.41679 3.69863,0.79729 12.98734,0.64053 14.38189,-0.24271 z m -27.38189,-4.09416 c 0,-3.23652 -2.12582,-4.13866 -3.19386,-1.35539 -0.38639,1.0069 0.0876,2.17016 1.22251,3 1.01948,0.74546 1.8801,1.35539 1.91248,1.35539 0.0324,0 0.0589,-1.35 0.0589,-3 z m 54.82639,-9.11806 c -1.16493,-1.16493 -2.6752,-1.93234 -3.35615,-1.70535 -1.68178,0.56059 1.58104,3.82341 3.82341,3.82341 1.38732,0 1.31274,-0.33805 -0.46726,-2.11806 z m 45.35694,34.46806 c -1.0461,-1.0461 -0.78234,-11.65252 0.33198,-13.35 1.71891,-2.61846 3.11622,0.90116 2.69377,6.78519 -0.3703,5.15761 -1.65203,7.93852 -3.02575,6.56481 z"
     id="path5835" />
</svg>
