<?xml version="1.0" encoding="UTF-8" standalone="no"?>
<svg
   xmlns:dc="http://purl.org/dc/elements/1.1/"
   xmlns:cc="http://creativecommons.org/ns#"
   xmlns:rdf="http://www.w3.org/1999/02/22-rdf-syntax-ns#"
   xmlns:svg="http://www.w3.org/2000/svg"
   xmlns="http://www.w3.org/2000/svg"
   viewBox="0 0 2448.8298 2065.8049"
   height="2065.8049"
   width="2448.8298"
   id="svg96"
   version="1.1">
  <metadata
     id="metadata102">
    <rdf:RDF>
      <cc:Work
         rdf:about="">
        <dc:format>image/svg+xml</dc:format>
        <dc:type
           rdf:resource="http://purl.org/dc/dcmitype/StillImage" />
        <dc:title></dc:title>
      </cc:Work>
    </rdf:RDF>
  </metadata>
  <defs
     id="defs100" />
  <path
     id="path215"
     d="m 813.83022,2064.8758 c -4.125,-0.4755 -20.775,-3.3202 -37,-6.3214 -79.93962,-14.7868 -177.87551,-28.8812 -257.5,-37.0579 -46.21156,-4.7455 -129.50287,-16.0395 -132.02586,-17.9023 -2.57736,-1.9028 -1.88441,-11.1826 2.36098,-31.6177 7.98131,-38.4177 12.93691,-72.7514 17.10045,-118.4765 3.52428,-38.7045 4.15507,-55.5578 4.75337,-127 0.71197,-85.0155 -0.54467,-116.4985 -6.26665,-157 -3.67062,-25.9815 -5.82425,-28.7066 -32.20927,-40.756 -4.55784,-2.0815 -10.95761,-4.4075 -14.22171,-5.1689 l -5.93473,-1.3845 1.83462,3.6547 c 6.05579,12.0636 10.46919,37.0737 13.17391,74.6547 0.59376,8.25 1.32673,40.3348 1.62884,71.2996 0.81781,83.8224 -0.76296,107.9777 -14.21402,217.2004 -8.0788,65.6 -10.57483,83.2462 -12.12923,85.75 -1.61733,2.6052 -5.49744,2.983 -7.37701,0.7183 -1.03211,-1.2436 -0.95666,-3.8297 0.4012,-13.75 7.99681,-58.4237 18.49954,-147.8284 21.11222,-179.7183 2.81507,-34.3601 4.01862,-96.4492 2.64597,-136.5 -2.60036,-75.8725 -7.12763,-107.684 -17.00973,-119.5214 l -2.90404,-3.4786 -34.35965,-0.1365 c -32.65093,-0.1298 -34.65804,-0.2453 -40.35966,-2.3223 -12.09466,-4.4059 -86.48202,-25.1863 -102.48081,-28.6284 -33.69485,-7.2493 -65.738373,-11.0564 -101.929713,-12.1103 -18.9489,-0.5519 -21.62201,-0.835 -23.25,-2.463 -2.34144,-2.3415 -2.31329,-3.3657 0.16052,-5.8395 1.75241,-1.7524 3.26892,-1.9899 12.25,-1.9185 5.6375,0.045 15.875,0.4217 22.75,0.8375 6.875,0.4159 12.66875,0.623 12.87501,0.4602 0.49389,-0.3897 -2.86226,-41.9647 -3.71481,-46.0179 l -0.6602,-3.1387 -18.87521,7.4921 c -16.28294,6.4633 -19.20998,7.3397 -21.31282,6.3816 -1.97441,-0.8996 -2.37817,-1.7269 -2.12479,-4.3535 0.34888,-3.6166 -0.55112,-3.2032 49.31282,-22.6507 21.670383,-8.4517 76.642593,-31.3839 104.550823,-43.6144 9.56225,-4.1905 25.05014,-10.7754 34.41754,-14.6331 30.77384,-12.6732 46.60191,-19.8641 80.24623,-36.4573 18.26802,-9.0097 35.65217,-17.4592 38.63145,-18.7768 l 5.41688,-2.3956 1.31049,-8.8574 c 5.73789,-38.7816 -7.53585,-74.6192 -39.57341,-106.8437 -12.75385,-12.8283 -27.63162,-24.1827 -64.5,-49.2248 -41.17311,-27.966 -61.84913,-39.448 -86.14826,-47.8408 -11.47739,-3.9642 -14.12384,-4.5387 -18.85174,-4.0928 -6.09597,0.575 -79.165973,20.7593 -79.541573,21.972 -1.16226,3.7524 -2.76572,5.6726 -4.73699,5.6726 -1.27679,0 -2.85351,-0.5321 -3.50381,-1.1824 -0.90983,-0.9098 -7.06179,0.3004 -26.68904,5.25 -27.2361203,6.8685 -28.69898025,6.9556 -29.32915025,1.7459 -0.1653,-1.3666 0.37734,-3.0473 1.20587995,-3.7349 0.82854,-0.6876 11.0139703,-3.663 22.6342903,-6.6119 11.62032,-2.9489 23.30405,-6.0844 25.96383,-6.9678 l 4.83598,-1.6063 0.62622,-7.6963 c 0.90493,-11.1217 3.22566,-25.9211 4.96557,-31.6657 1.43506,-4.7381 1.40914,-5.0716 -0.55664,-7.1641 -3.18963,-3.3952 -6.14045,-25.5826 -6.23302,-46.8665 -0.12572,-28.9034 3.7766,-43.392 20.51454,-76.1669 17.82388,-34.9013 17.86769,-35.073 18.83791,-73.8331 0.63988,-25.56292 1.05554,-31.1305 2.81033,-37.64353 4.681223,-17.37462 16.206033,-34.07326 33.659243,-48.76985 10.72784,-9.03345 16.28199,-12.65662 41.03643,-26.76954 22.96533,-13.09292 49.74651,-29.57069 61.5,-37.83938 4.125,-2.90197 21.2873,-16.00912 38.13845,-29.12701 35.12764,-27.34533 47.39912,-36.11442 76.49408,-54.662 29.95529,-19.09603 41.1484,-25.83988 65.36747,-39.38395 11.825,-6.61291 33.875,-18.99629 49,-27.51862 15.125,-8.52232 45.05,-24.32138 66.5,-35.10903 21.45,-10.78764 48.675,-24.84321 60.5,-31.23461 11.825,-6.3914 31.4,-16.5855 43.5,-22.65356 12.1,-6.06806 31.31314,-15.92282 42.69586,-21.89947 31.14971,-16.35558 66.0021,-33.71278 87.80414,-43.72827 24.38594,-11.20248 46.58604,-22.12555 78,-38.37816 49.9695,-25.85267 97.8014,-44.29571 130,-50.12543 l 6.5,-1.17685 0.6128,-8.99037 c 0.7653,-11.22759 2.969,-19.67614 7.8678,-30.16367 9.1834,-19.66014 23.88898,-35.96466 43.14648,-47.83769 l 7.2299,-4.45758 2.3758,-8.26571 c 4.8556,-16.89365 16.7179,-38.23666 26.1607,-47.06936 5.4356,-5.08431 15.9651,-12.19614 23.4186,-15.81735 4.2486,-2.06413 4.6912,-2.58758 4.1749,-4.93814 -0.3461,-1.57588 0.4377,-5.6535 1.9565,-10.17787 6.6541,-19.82217 13.3227,-65.05943 14.3522,-97.35932 C 1108.359,2.40395 1108.8563,0 1112.8812,0 c 4.0431,0 4.949,2.5612 4.949,13.99188 0,32.39162 -7.2842,86.4651 -14.9775,111.18376 -1.0679,3.43118 -1.828,6.35215 -1.6892,6.49103 0.1389,0.13888 3.1365,-0.64509 6.6614,-1.74215 10.7417,-3.3432 29.6836,-6.77866 46.0053,-8.34392 25.6825,-2.46296 44.9834,-3.72065 47.0469,-3.0657 1.0717,0.34012 2.2423,1.78933 2.6015,3.22047 1.2671,5.04821 -1.0275,5.69231 -27.2644,7.65328 -43.8527,3.27758 -65.8155,7.84338 -85.884,17.85417 -16.0262,7.99437 -25.7005,17.61876 -33.9794,33.80388 -4.5071,8.81122 -9.5206,20.68917 -9.5206,22.55599 0,0.15927 2.5875,-0.60304 5.75,-1.69402 16.0127,-5.52401 32.9711,-8.34067 56.75,-9.42574 16.4125,-0.74893 76.491,1.90668 79.4939,3.51382 2.5726,1.3768 2.7325,6.5441 0.2438,7.87603 -1.1089,0.5935 -7.6894,0.56337 -17.75,-0.0813 -24.2318,-1.55265 -74.2514,-1.54363 -84.9877,0.0153 -24.8868,3.61369 -45.7695,11.70726 -62.252,24.12718 -13.5042,10.17578 -22.8137,21.65848 -30.28948,37.36025 -4.9207,10.33527 -6.9585,18.24102 -6.9585,26.99542 v 6.8695 l 6.75,-0.62188 c 3.7125,-0.34203 8.77498,-0.8547 11.24998,-1.13926 l 4.5,-0.5174 0.097,-4.19033 c 0.2402,-10.34651 11.0104,-22.42361 26.81,-30.06328 15.2917,-7.39403 31.7512,-12.03855 55.9364,-15.78402 18.8687,-2.92212 59.5045,-3.63898 80.4597,-1.4194 30.8209,3.26454 52.5276,8.67128 109.1136,27.17816 41.9382,13.71622 68.5994,23.51546 132.583,48.73054 40.9625,16.14276 126.4653,48.53252 151.5,57.39052 34.609,12.24563 85.2074,24.52082 124.5,30.20373 40.9767,5.92648 79.9463,8.32429 164.5,10.12171 52.7166,1.12065 81.5985,2.29075 110.5,4.47674 62.8125,4.75089 134.8973,18.17753 168.7676,31.43493 25.4835,9.97473 42.3506,25.28849 53.3391,48.42716 4.8675,10.24956 6.5256,19.76903 9.0303,51.84444 0.5955,7.62563 -1.4649,23.55145 -5.2495,40.57621 -2.2122,9.95109 -15.7562,54.41577 -21.4821,70.52501 -1.1403,3.20802 -1.8308,6.07519 -1.5345,6.37149 1.1536,1.15357 9.4429,-4.83305 15.7496,-11.37457 9.0328,-9.36907 13.461,-16.58802 28.7259,-46.82969 12.0286,-23.83031 14.2307,-27.47981 26.3887,-43.73295 19.0533,-25.47102 30.9777,-47.54918 35.7416,-66.17587 2.415,-9.44263 4.0209,-24.56064 4.0309,-37.94713 0.022,-29.47806 8.9353,-49.40873 36.8148,-82.31969 15.0636,-17.78216 32.6102,-46.06837 47.6558,-76.82436 15.3861,-31.45202 21.7078,-48.46219 36.0266,-96.93918 5.6958,-19.28345 12.0035,-39.78582 14.0172,-45.56082 5.0251,-14.41174 26.3242,-68.10979 27.6483,-69.70525 1.3495,-1.62595 5.0457,-1.67878 6.6297,-0.0948 0.66,0.66 1.2,2.14676 1.2,3.30391 0,1.15715 -4.9558,14.58875 -11.0129,29.848 -13.9537,35.15289 -16.9767,43.93964 -28.6067,83.14809 -15.5161,52.30961 -19.8947,64.21121 -35.3496,96.08479 -18.0258,37.17547 -33.6284,62.45259 -52.6059,85.22442 -23.4748,28.16835 -32.3418,46.82104 -32.4163,68.19079 -0.048,13.71572 -2.0168,35.35028 -3.9631,43.5452 -2.2869,9.62898 -6.3423,20.10346 -12.6331,32.62918 -6.6078,13.15695 -12.5765,22.45331 -25.6418,39.9374 -13.1352,17.5777 -15.8891,22.22685 -29.0244,48.99925 -11.6795,23.80511 -17.6449,33.02615 -28.1302,43.48255 -6.3992,6.38148 -9.8083,8.88923 -16.116,11.85477 -4.4,2.06866 -8.6519,4.08604 -9.4488,4.48308 -0.7968,0.39704 -3.4208,6.31239 -5.8311,13.14523 -9.569,27.1269 -14.3852,47.44514 -21.3153,89.92334 -2.1984,13.475 -5.1071,28.87931 -6.4638,34.2318 -12.4325,49.05021 -29.549,74.08101 -67.1973,98.26821 -3.4244,2.2 -6.2301,4.5508 -6.235,5.224 -0.014,1.8973 5.985,16.6308 7.3107,17.9566 2.7858,2.7857 33.8746,13.7375 62.1806,21.9046 10.45,3.0151 20.2778,6.4102 21.8396,7.5446 2.5277,1.836 3.6986,1.9865 10.6626,1.37 15.3109,-1.3553 24.669,3.9859 31.618,18.0462 5.1684,10.4575 6.3709,19.8277 4.0142,31.2788 -3.6624,17.7956 -11.9348,32.07 -22.984,39.6599 -5.8442,4.0145 -5.8472,4.0153 -15.6199,4.0153 -9.5184,0 -9.9942,-0.1114 -18.1541,-4.25 -6.2137,-3.1515 -9.5568,-4.25 -12.9344,-4.25 -3.0789,0 -12.6353,-2.7371 -29.4908,-8.4466 l -24.9358,-8.4466 -9.0124,8.6966 c -4.9568,4.7831 -17.8807,16.9205 -28.7198,26.972 -10.8391,10.0514 -25.4395,24.6764 -32.4454,32.5 -24.2289,27.0568 -36.2776,37.4969 -54.379,47.1189 -23.374,12.4246 -46.0603,18.6458 -102.6819,28.1583 -77.5791,13.0332 -94.8066,18.2511 -133.7769,40.5188 -19.0023,10.8578 -29.1481,18.3181 -45.9901,33.8167 -12.3231,11.34 -14.4267,13.7209 -15.3523,17.3762 -2.3047,9.1003 -10.3815,18.0043 -18.8742,20.8072 -1.9573,0.646 -5.6802,0.9232 -8.2732,0.6161 l -4.7144,-0.5583 -10.0297,11.1853 c -23.6552,26.3808 -56.8306,67.4099 -96.0898,118.8375 -7.8314,10.2587 -21.5491,27.1337 -30.484,37.5 -8.9348,10.3664 -21.4082,25.1419 -27.7187,32.8346 -6.3105,7.6927 -17.3236,20.7538 -24.4736,29.0248 -7.15,8.2709 -20.721,24.4769 -30.1577,36.0133 -9.4367,11.5363 -22.2011,26.5621 -28.3651,33.3906 -6.1641,6.8285 -18.8939,21.2285 -28.2885,32 -9.3945,10.7715 -35.1174,37.8096 -57.162,60.0846 -22.0447,22.275 -50.0121,51.525 -62.1498,65 -12.1378,13.475 -26.2029,28.4296 -31.2559,33.2325 -5.053,4.8029 -15.848,16.5029 -23.9889,26 -8.1409,9.4971 -21.5229,23.7925 -29.7377,31.7675 -18.8843,18.3328 -64.8506,57.2397 -93.8944,79.4743 -7.15,5.4737 -32.8,25.7226 -56.99998,44.9977 -51.2629,40.8304 -45.822,36.6872 -70.6528,53.8013 -10.7521,7.4106 -25.074,17.6124 -31.8265,22.6705 -17.5836,13.1714 -24.64325,16.066 -44.0207,18.0493 -10.84383,1.1098 -14.506,1.0926 -25,-0.1173 z m 28.67764,-9.9468 c 13.87766,-1.9001 19.32876,-4.4596 36.32236,-17.0547 8.525,-6.3184 23.3583,-16.8624 32.9628,-23.4312 19.1674,-13.1088 28.6682,-20.3724 68.6837,-52.5099 14.7694,-11.8617 37.20348,-29.6049 49.85348,-39.4294 23.7021,-18.408 60.9089,-49.0237 82,-67.4738 18.3132,-16.0201 33.2742,-31.5001 52.4694,-54.2896 9.6081,-11.4072 17.8399,-20.7404 18.2928,-20.7404 1.7204,0 11.7846,-10.3075 32.7096,-33.5 11.9094,-13.2 39.6428,-42.225 61.6299,-64.5 21.9871,-22.275 47.9187,-49.5584 57.6258,-60.6297 9.7072,-11.0714 22.2896,-25.274 27.9609,-31.5614 5.6714,-6.2874 18.0958,-20.9342 27.6097,-32.5484 9.514,-11.6142 23.4218,-28.2366 30.9063,-36.9386 7.4846,-8.7021 19.3448,-22.7969 26.3562,-31.3219 7.0114,-8.525 18.4465,-22.025 25.4113,-30 6.9648,-7.975 18.1454,-21.6643 24.8457,-30.4206 43.064,-56.2784 81.0767,-103.2551 103.6394,-128.0794 4.499,-4.95 10.9617,-12.825 14.3615,-17.5 l 6.1815,-8.5 V 1256 c 0,-20.8046 -0.8102,-24.741 -7.307,-35.5 -8.4079,-13.9238 -27.1785,-28.3232 -78.4452,-60.1776 -40.287,-25.0321 -49.527,-30.3731 -67.9144,-39.2566 -19.0472,-9.2023 -33.8911,-14.8985 -42.3334,-16.2451 l -6,-0.9569 -8.0092,7.8181 c -9.8401,9.6053 -26.2069,22.7323 -50.358,40.3896 -10.1019,7.3857 -27.6519,21.0405 -39,30.344 -43.9515,36.0328 -94.1122,74.4781 -118.1328,90.5418 -35.2582,23.5789 -99.284,57.5686 -164.6917,87.4308 -56.08008,25.6035 -117.59758,56.3522 -154.80828,77.3788 -28.49777,16.1032 -75.86975,46.355 -94,60.0284 -22.22934,16.7649 -53.82696,43.5145 -67.56423,57.1977 -15.12776,15.0683 -33.33143,36.2854 -45.90749,53.507 -4.01637,5.5 -8.61568,11.6921 -10.22068,13.7602 -2.65272,3.4181 -2.75396,3.8188 -1.11289,4.4048 14.22197,5.0788 65.10272,27.1869 68.05529,29.5707 2.18095,1.7608 1.53393,6.7227 -1,7.6689 -2.72421,1.0172 -1.4388,1.4958 -27.25,-10.1472 -23.64197,-10.6645 -39.20195,-16.7946 -77.5,-30.5322 -33.12723,-11.8829 -60.10452,-20.9105 -79.5,-26.6037 -8.25,-2.4216 -33.45,-10.1158 -56,-17.0981 -42.56621,-13.1801 -79.54164,-23.9279 -80.03041,-23.2628 -0.0968,0.1317 0.61367,5.6394 1.57877,12.2394 5.62336,38.4559 7.39766,80.9045 6.6042,158 -0.66655,64.7644 -1.61668,89.7565 -4.71419,124 -4.3798,48.4195 -8.93286,80.4421 -17.40605,122.4201 -2.48901,12.331 -4.41451,22.5182 -4.27889,22.6381 0.13561,0.12 16.44657,2.4946 36.24657,5.2769 37.0562,5.2073 56.0784,7.5129 113,13.6959 64.14428,6.9675 159.9723,20.9282 226,32.9248 22.55,4.0971 42.35,7.6282 44,7.8469 6.34827,0.8414 20.69219,0.6512 28.17764,-0.3737 z M 657.83289,1621.25 c 0.005,-3.4959 23.4801,-34.2312 43.86412,-57.4308 13.9415,-15.8672 25.96643,-27.046 52.63321,-48.9296 34.61048,-28.4024 43.25608,-34.5773 85,-60.7091 25.1864,-15.7668 37.5033,-22.9968 59.5,-34.9267 27.4538,-14.8897 98.2016,-49.9856 128.73848,-63.8636 68.9874,-31.3522 121.8322,-58.8649 163.5115,-85.1291 l 11.75,-7.4043 v -15.5211 -15.521 l -5,4.4954 c -10.3018,9.2622 -26.5552,18.2338 -43.0373,23.7558 -16.2429,5.4419 -23.1873,4.9495 -21.5614,-1.5288 0.5053,-2.013 1.7213,-2.7942 6.3617,-4.0864 25.3602,-7.0624 43.1123,-16.326 56.0186,-29.2323 11.6429,-11.6429 15.7564,-19.6465 23.7788,-46.2666 3.0585,-10.1485 5.8109,-19.2388 6.1166,-20.2008 0.4886,-1.5378 -0.2734,-1.4321 -6.3106,0.8756 -9.4767,3.6223 -21.4585,6.8831 -33.0686,8.9993 -13.1311,2.3935 -42.0725,2.3856 -58.7978,-0.016 -35.535,-5.1026 -94.0269,-19.4073 -99.75,-24.3948 -2.3137,-2.0163 -2.2134,-4.4857 0.2734,-6.7363 1.9691,-1.782 2.2721,-1.7469 11.2979,1.3063 21.6029,7.3079 69.4011,17.7836 94.6726,20.7489 38.3953,4.5052 74.5806,-2.005 98.7965,-17.7749 8.1866,-5.3313 17.5484,-12.7537 16.9017,-13.4003 -0.2134,-0.2134 -7.3189,0.4866 -15.79,1.5556 -46.6176,5.8829 -73.5626,2.4595 -117.9632,-14.9874 -18.8926,-7.4236 -25.3559,-12.2691 -22.8218,-17.1093 1.6482,-3.1481 4.3805,-2.9743 10.4204,0.6627 9.5593,5.7563 34.5687,14.8016 55.4192,20.0437 31.4295,7.9018 59.9466,5.8736 147.2882,-10.4755 26.3229,-4.9273 62.7148,-10.4033 76.7551,-11.5496 10.971,-0.8957 11.2762,-1.0184 14.7319,-5.921 3.7316,-5.2941 10.634,-9.1597 18.1315,-10.1543 4.7066,-0.6243 5.6617,-1.2394 11.3871,-7.333 7.8988,-8.4069 22.0347,-25.9651 26.4616,-32.8682 1.8615,-2.9026 6.8171,-11.9026 11.0125,-20 9.3752,-18.0946 13.2051,-23.8563 21.4929,-32.3336 15.4488,-15.8022 35.4342,-29.3086 75.2825,-50.8769 28.9026,-15.6438 27.7965,-14.9498 26.4364,-16.5886 -0.6497,-0.7829 -2.4604,-1.4234 -4.0237,-1.4234 -1.9299,0 -3.2227,-0.7223 -4.0272,-2.25 -1.7657,-3.3529 -2.7596,-3.718 -10.1676,-3.7347 -8.3586,-0.019 -12.2845,-1.5944 -18.5301,-7.4364 -5.7091,-5.3402 -11.6764,-17.1082 -13.2739,-26.1771 -2.6385,-14.9794 8.2161,-38.4136 20.561,-44.3897 8.6909,-4.2071 23.3628,-3.4407 31.0929,1.6243 1.8461,1.2096 5.3444,1.4389 18.1101,1.1871 8.7022,-0.1717 16.7221,0.016 17.8221,0.4179 1.7673,0.6451 2.8052,-0.8643 8.921,-12.9743 10.0427,-19.88554 16.2437,-25.30066 36.1656,-31.58167 9.9328,-3.13165 32.8861,-7.68543 38.7384,-7.68543 5.9492,0 13.5411,2.38072 24.3263,7.62841 l 9.1513,4.4527 4.8487,-3.07555 c 2.6668,-1.69155 8.4487,-4.28439 12.8487,-5.76187 7.2819,-2.44518 9.3465,-2.68466 23,-2.66772 13.1145,0.0163 15.7037,0.2974 20.5985,2.23649 6.5694,2.60248 11.8897,7.55712 14.4583,13.46448 1.0099,2.32268 1.9287,4.36648 2.0418,4.54177 0.113,0.17529 2.4351,-1.28311 5.1602,-3.2409 9.8989,-7.11167 24.9257,-10.91607 42.7412,-10.82101 10.9561,0.0585 14.9422,0.77521 30.2584,5.44081 7.4236,2.26138 11.3735,4.07943 14.2939,6.57916 3.9643,3.39326 8.4898,11.07159 10.8878,18.47323 0.6683,2.0625 1.5757,3.75 2.0166,3.75 0.4409,0 3.4346,-1.2054 6.6527,-2.6787 4.1533,-1.90146 8.0402,-2.80543 13.3958,-3.11546 11.4672,-0.66383 21.8924,2.46087 44.7471,13.41196 12.504,5.9913 17.7922,10.1624 21.3232,16.8185 2.1186,3.9935 2.9097,4.5955 7.3984,5.6297 7.4918,1.7262 13.2742,5.4674 16.6306,10.7599 2.9302,4.6203 6.6896,15.3744 12.9083,36.9241 1.7855,6.1875 3.6713,11.25 4.1907,11.25 2.561,0 23.3474,-15.5635 31.3863,-23.5 10.1205,-9.9917 15.3181,-17.1835 21.8493,-30.2327 9.4956,-18.9721 14.778,-38.2647 21.5537,-78.7195 7.7849,-46.48045 13.8812,-69.85509 27.7886,-106.5478 5.7546,-15.18257 22.7392,-68.71502 25.6621,-80.88207 3.5943,-14.96211 5.854,-31.8992 5.1716,-38.76246 -0.3202,-3.22051 -0.9977,-11.93047 -1.5055,-19.35547 -1.4182,-20.73749 -3.6446,-28.04767 -12.6833,-41.64572 -16.2079,-24.38342 -37.1938,-34.61963 -97.9263,-47.76504 -23.6675,-5.12278 -78.3997,-13.456 -81.5285,-12.41308 -0.7119,0.23732 1.3768,3.65215 5.1152,8.36247 15.9521,20.09994 34.8651,33.64325 73.2,52.4175 26.9771,13.21181 40.0165,21.67554 54.0797,35.1025 23.8766,22.79636 35.6923,42.84707 37.2588,63.22666 l 0.6598,8.58358 -3.1826,3.18255 c -2.6917,2.69168 -3.6751,3.08404 -6.3761,2.54384 -6.1299,-1.22599 -10.3155,-5.16806 -18.364,-17.29549 -15.9255,-23.99648 -25.0868,-30.30683 -86.6068,-59.65553 -8.6595,-4.13108 -19.6845,-10.06628 -24.5,-13.18932 -19.0945,-12.38352 -42.5985,-33.53852 -54.3906,-48.95492 -6.2698,-8.1969 -16.9639,-24.68369 -20.8754,-32.18301 l -3.2248,-6.183 -6.1324,-0.56925 c -8.8993,-0.8261 -57.1924,-2.41653 -93.6323,-3.08359 -109.4707,-2.00394 -162.561,-7.74616 -231.0257,-24.98761 -26.6138,-6.70218 -47.2769,-13.57496 -97.2806,-32.3567 -27.6065,-10.36922 -55.3687,-20.77123 -61.6937,-23.11558 -6.325,-2.34436 -25.675,-9.87346 -43,-16.73134 -89.1448,-35.28682 -158.7789,-59.42986 -198.5,-68.8225 -49.4322,-11.68895 -100.4573,-12.16091 -144.5,-1.33657 -20.743,5.09798 -34.1736,11.2281 -43.3786,19.79924 -5.0584,4.71005 -7.6214,9.21824 -7.6214,13.4058 v 2.40013 l 11.25,-0.48917 c 10.6145,-0.46153 11.3606,-0.36604 13.208,1.69053 1.5008,1.67078 1.7113,2.57462 0.9018,3.87116 -1.8787,3.00891 -5.6943,4.16147 -13.8598,4.18661 -22.6944,0.0699 -52.55628,3.41135 -71.05838,7.95127 -28.6281,7.02458 -73.1752,24.71994 -108.81024,43.22242 -29.9661,15.55905 -68.59331,34.59888 -92.63136,45.65915 -13.475,6.20005 -45.2,21.96979 -70.5,35.04387 -25.3,13.07408 -52.75,27.1901 -61,31.36894 -8.25,4.17883 -24.675,12.83159 -36.5,19.22835 -11.825,6.39676 -35.675,18.66691 -53,27.267 -34.20119,16.9774 -49.00711,24.85739 -85,45.23861 -12.925,7.31888 -31.6,17.81273 -41.5,23.31968 -26.96331,14.99854 -72.81591,43.91205 -95.66776,60.32571 -6.78273,4.87179 -24.64863,18.44335 -39.70199,30.15901 -41.45871,32.26632 -55.81911,41.90091 -100.09736,67.15672 -27.56435,15.7224 -34.39156,20.46736 -46.13494,32.06412 -21.78764,21.51561 -27.47309,37.87181 -26.12178,75.1485 1.00536,27.7338 -2.840303,42.5619 -19.253473,74.2379 -10.542,20.3452 -15.87978,34.1222 -18.64116,48.1136 -1.79643,9.1022 -1.64319,42.0496 0.24579,52.8441 l 1.37267,7.8441 4.46095,-10.6875 c 5.67793,-13.603 10.03653,-17.445 13.61447,-12.0007 1.14379,1.7404 0.85408,3.0383 -2.23218,10 -10.15971,22.9173 -15.37144,41.1934 -16.85451,59.104 l -0.67105,8.104 28.22213,-8.104 28.222133,-8.104 3.22315,-5.0366 c 4.39593,-6.8692 11.64722,-13.0145 17.74796,-15.0408 6.05267,-2.0104 18.61864,-1.5399 25.87823,0.9689 4.04146,1.3967 4.96824,1.4172 7.5,0.1662 1.5888,-0.7851 13.23872,-4.4069 25.88872,-8.0485 57.61872,-16.587 72.46585,-23.253 94.30815,-42.3425 11.88733,-10.3891 24.51295,-27.3865 58.60243,-78.8942 10.10939,-15.2749 21.38508,-31.7542 25.05711,-36.6207 14.3437,-19.0097 46.36864,-58.5407 53.33822,-65.83976 15.77096,-16.51655 29.61986,-25.44898 60.94992,-39.31226 36.8506,-16.30607 60.24103,-29.20422 91.24417,-50.31468 34.56654,-23.53681 40.91688,-27.5931 50.5,-32.25688 12.04986,-5.86428 25.19985,-9.5184 40,-11.11523 l 11,-1.18682 11,-10.57248 c 18.86836,-18.13504 27.1847,-24.34546 50.63304,-37.8114 49.92834,-28.67289 98.24171,-47.84795 199.36696,-79.1266 76.09298,-23.53602 104.64538,-30.53164 197.99998,-48.51187 65.5171,-12.61869 73.1633,-14.381 102.5,-23.62417 8.525,-2.68598 26.75,-8.30838 40.5,-12.49422 13.75,-4.18583 25.3478,-7.95271 25.7728,-8.37085 0.8735,-0.8592 -11.936,-10.3 -20.2728,-14.94148 -3.025,-1.68415 -18.966,-8.50973 -35.4245,-15.16797 -46.6735,-18.88165 -63.6957,-28.44714 -81.9721,-46.06343 -8.8374,-8.51824 -9.8448,-9.84394 -9.2576,-12.18335 0.8673,-3.45552 4.0341,-4.39466 7.3945,-2.19287 1.4533,0.95223 6.3212,5.19658 10.8175,9.43189 15.6895,14.77852 33.5805,24.63375 74.5922,41.08908 35.2132,14.12875 45.6544,19.57735 60.6255,31.63653 6.0328,4.85939 6.4195,5.01581 10,4.04437 2.0485,-0.55579 11.849,-1.11276 21.7789,-1.23772 14.5957,-0.18367 18.5229,-0.534 20.5,-1.82873 8.5621,-5.60699 27.6247,-12.58496 48.0961,-17.60579 25.3234,-6.21084 44.082,-8.08695 80.9061,-8.09169 28.814,-0.004 74.6268,2.46236 86.2017,4.64017 4.8329,0.9093 6.1681,7.45154 1.8035,8.8368 -1.0098,0.32048 -9.8743,-0.0876 -19.6989,-0.90684 -74.1517,-6.18332 -117.6581,-3.87903 -159.8825,8.46807 -20.7096,6.05586 -21.1884,6.53399 -7.389,7.37972 32.0004,1.96122 92.2858,6.83731 106.2528,8.59407 43.6898,5.49532 96.9515,18.95613 134.9277,34.1003 8.1245,3.2399 20.0266,7.48351 26.449,9.43023 12.8616,3.89851 14.2791,4.68044 14.2791,7.8765 0,2.77619 -1.7997,4.57756 -4.5733,4.57756 -3.7135,0 -25.3046,-6.9419 -38.9267,-12.51558 -36.1406,-14.78742 -88.8908,-28.18514 -133.654,-33.94599 -14.6715,-1.88818 -82.8527,-7.19817 -109.346,-8.51595 -25.9492,-1.29071 -56.7862,-1.29411 -63.6135,-0.007 -5.1844,0.97737 -38.9102,11.11595 -81.8865,24.61651 -28.7375,9.0276 -45.671,12.99384 -100,23.42245 -69.459,13.33285 -117.4858,23.98983 -149,33.06259 -39.69468,11.42785 -124.93638,38.6493 -148.70417,47.48782 -52.57962,19.55276 -105.22184,45.82937 -130.66518,65.22215 -5.88585,4.48616 -24.92103,22.21593 -24.40533,22.73163 0.15115,0.15115 5.76625,0.98923 12.478,1.86241 l 12.2032,1.58759 10.79675,-2.98414 c 25.2317,-6.97388 43.46755,-8.3891 99.8878,-7.75197 38.21395,0.43154 43.90665,0.70519 52.02735,2.50101 10.2491,2.2665 16.2781,4.68312 22.691,9.09534 4.3388,2.98519 4.4391,3.002 11.7833,1.97549 9.9055,-1.3845 26.1534,-0.59505 32.4073,1.57462 7.3528,2.55089 13.7476,7.22721 17.5969,12.86801 3.0146,4.41765 3.4405,5.86264 3.7524,12.73058 l 0.3518,7.74729 4.6963,0.45126 c 5.6887,0.54661 15.5581,4.90692 19.44418,8.59042 7.6312,7.23342 9.2581,18.09661 4.2375,28.29415 -5.44268,11.0549 -31.02088,36.80581 -50.07908,50.41723 -3.3,2.35688 -16.6379,11.01508 -29.6398,19.24038 -42.4314,26.8433 -48.2672,32.4443 -87.22901,83.7192 -9.18491,12.0877 -19.4969,25.2745 -22.91552,29.3041 -10.09383,11.8978 -29.79718,28.0879 -58.07988,47.724 -21.70333,15.0681 -31.75146,25.8056 -39.1657,41.8528 -3.48342,7.5394 -8.11219,24.3328 -7.01051,25.4345 0.32129,0.3213 6.98682,-1.0069 14.81229,-2.9516 25.71667,-6.3907 44.79555,-15.2382 65.82864,-30.5267 25.01827,-18.1852 38.24205,-25.1753 56.72995,-29.9875 13.03666,-3.3932 31.42824,-3.6191 41.08204,-0.5045 12.964,4.1825 22.3214,13.5688 23.9787,24.0525 1.881,11.8993 -2.8399,21.7256 -19.998,41.6249 -6.6392,7.7 -15.9688,18.9375 -20.7323,24.9722 -19.77499,25.0521 -27.75771,31.2504 -64.7433,50.2708 -34.60315,17.7951 -45.93493,26.1118 -78.0076,57.2514 -11.0495,10.7281 -23.99927,22.2859 -28.77727,25.684 -10.49769,7.466 -26.94734,15.9973 -39.03415,20.2444 -24.02833,8.4432 -66.83429,16.865 -107.85598,21.2201 -6.46657,0.6865 -12.17836,1.5084 -12.69287,1.8264 -0.57432,0.3549 -0.38424,7.9042 0.49236,19.5544 1.69594,22.5394 3.84393,64.7004 5.95963,116.9763 2.6362,65.1371 5.15598,101.1949 9.60872,137.5 2.51483,20.5045 7.47734,50.0211 8.57164,50.9834 0.44986,0.3956 3.74292,1.5123 7.31792,2.4815 3.575,0.9693 11.9,3.6984 18.5,6.0647 6.6,2.3663 23.925,8.5884 38.5,13.8268 14.575,5.2384 26.8375,9.5512 27.25,9.584 0.4125,0.033 0.7512,-0.7279 0.75267,-1.6904 z m -37.24041,-85.3506 c -2.7299,-1.5475 -3.39792,-3.4289 -8.71179,-24.5357 -11.15185,-44.2953 -20.3968,-110.8214 -21.74704,-156.4903 l -0.60984,-20.6265 2.58615,-1.6945 c 1.95977,-1.2841 3.05893,-1.4415 4.53817,-0.6498 1.98823,1.064 3.68082,5.4814 2.70519,7.06 -0.75035,1.2141 1.18791,36.4591 2.99923,54.5374 4.76357,47.544 11.81265,88.9336 21.11409,123.9741 1.89417,7.1357 3.31337,13.8342 3.15377,14.8854 -0.41755,2.7502 -3.85744,4.7702 -6.02793,3.5399 z m 49.29178,-102.5741 c -2.89333,-2.0266 -30.11702,-57.1815 -42.36215,-85.8253 -14.27819,-33.3995 -25.57135,-64.7658 -24.40899,-67.7948 0.33227,-0.8659 1.48776,-2.0473 2.56775,-2.6253 3.59812,-1.9256 5.72621,1.5721 12.72124,20.9088 12.22825,33.8032 23.72468,60.2329 43.67808,100.4136 8.16707,16.4462 14.7144,30.7947 14.54962,31.8854 -0.16477,1.0907 -1.22046,2.5912 -2.34597,3.3345 -1.75076,1.1561 -2.38632,1.1132 -4.39958,-0.2969 z M 1341.7305,451.12033 c -3.6841,-2.98319 -3.8779,-13.34845 -0.4734,-25.3167 6.8535,-24.09289 24.1332,-49.38471 53.3273,-78.05363 6.8786,-6.75486 11.7247,-10.75 13.0397,-10.75 2.7045,0 5.4088,3.75266 4.2563,5.90628 -0.4701,0.87839 -5.7804,6.59609 -11.8005,12.706 -21.3436,21.66172 -35.6863,40.562 -43.7368,57.63452 -5.5578,11.78613 -7.5129,19.4924 -7.5129,29.61236 0,6.95558 -0.2672,8.21348 -1.9343,9.10566 -2.5089,1.34273 -2.4531,1.35185 -5.1654,-0.84449 z M 1309.4843,420.75 c -1.3462,-1.7875 -4.6194,-6.85 -7.2737,-11.25 -5.814,-9.63763 -16.7231,-21.24184 -32.8804,-34.97562 -37.0071,-31.45619 -62.9747,-46.55228 -102.0697,-59.33765 -12.0617,-3.94456 -25.1861,-8.09231 -29.1654,-9.21724 -7.8484,-2.21868 -10.1633,-4.42224 -8.3011,-7.90177 0.5687,-1.06275 1.8478,-2.19054 2.8424,-2.50621 3.2864,-1.04308 42.5456,11.0203 62.03,19.06032 24.8687,10.26178 49.2333,25.9461 79.1638,50.96042 19.3762,16.19362 29.2483,26.81293 37.923,40.79367 3.8924,6.27313 7.077,12.26483 7.077,13.31488 0,5.12388 -5.7904,5.78013 -9.3459,1.0592 z m -757.272,1154.4157 c -7.80433,-44.8443 -11.33183,-89.9972 -15.91109,-203.6657 -2.26312,-56.176 -5.35044,-104.5 -6.67629,-104.5 -3.85753,0 -54.42487,6.5556 -65.7947,8.5297 -26.94086,4.6776 -61.8944,14.4696 -77.00907,21.5736 -7.82059,3.6758 -8.65616,4.355 -10.32701,8.3947 -4.2326,10.2335 -15.81761,18.9336 -25.16392,18.8975 -6.4408,-0.025 -10.83487,-2.3934 -14.75341,-7.9527 -1.72238,-2.4435 -3.49857,-4.4428 -3.94709,-4.4428 -0.44852,0 -11.7244,5.4594 -25.0575,12.1319 -27.21929,13.622 -43.03721,20.7939 -75.742,34.3418 -12.375,5.1263 -27.225,11.4269 -33,14.0014 -14.99276,6.6838 -83.51915,35.496 -96.41056,40.5363 l -10.857683,4.2451 0.67155,10.1218 c 1.21038,18.243 3.72275,43.1094 4.41674,43.7152 0.37397,0.3264 6.079953,1.1301 12.679953,1.7861 16.46365,1.6363 39.60358,5.4521 57.84527,9.5387 16.31659,3.6553 87.28917,23.4903 102.03278,28.5155 4.88293,1.6643 9.2641,2.7874 9.73592,2.4958 0.47183,-0.2916 18.3017,-0.6116 39.62195,-0.7111 l 38.76408,-0.1809 8.5,2.8508 c 10.06168,3.3746 26.63649,11.4884 33.09331,16.2001 2.52632,1.8435 5.85003,5.1652 7.386,7.3816 1.53598,2.2165 3.33462,4.0299 3.99697,4.0299 0.66235,0 3.86365,1.2976 7.114,2.8836 3.25034,1.5859 13.55972,5.0126 22.90972,7.6147 15.49036,4.3111 64.75167,19.3289 98.5,30.0287 7.425,2.3541 13.97602,4.3235 14.55783,4.3766 0.67605,0.062 0.25172,-4.5355 -1.17575,-12.7379 z M 359.52327,1311.4206 c 1.92892,-1.4713 4.69959,-4.47 6.15704,-6.6638 1.45745,-2.1938 3.6519,-5.0715 4.87655,-6.3949 1.22465,-1.3233 2.67436,-3.2427 3.22157,-4.2651 1.70893,-3.1932 16.79832,-9.6673 36.05179,-15.4681 31.07494,-9.3625 50.67776,-13.3252 87,-17.5873 91.10437,-10.6903 97.30012,-11.5416 121,-16.6248 38.18415,-8.1898 57.16047,-15.5468 77.88102,-30.194 3.50956,-2.4808 15.44221,-13.3333 26.517,-24.1166 31.2701,-30.447 47.25616,-42.2604 78.57452,-58.0648 37.12962,-18.737 42.78187,-22.9431 60.52646,-45.0412 7.2872,-9.075 17.211,-21 22.0529,-26.5 20.5604,-23.355 24.0143,-32.0016 17.0106,-42.5849 -6.8661,-10.3754 -25.1667,-14.357 -46.0625,-10.0215 -18.3239,3.8018 -34.03089,11.8092 -58,29.5683 -13.89041,10.2917 -31.10943,19.469 -48.5,25.8494 -9.24847,3.3931 -59.02326,15.6887 -63.51083,15.6887 -5.23675,0 -5.81773,-6.8329 -0.75189,-8.8431 1.5195,-0.6029 5.71244,-1.8175 9.31765,-2.6991 l 6.55494,-1.6029 1.68667,-8.9222 c 3.28475,-17.3758 9.85302,-31.6631 20.47828,-44.5446 6.32554,-7.6688 14.12723,-14.1884 31.91807,-26.6728 35.01108,-24.5684 49.1466,-37.4284 66.75284,-60.7292 28.18213,-37.2975 38.69094,-50.254 49.48737,-61.0138 14.3986,-14.3499 20.8643,-19.2257 49.0669,-37.0015 12.375,-7.79985 25.4184,-16.25746 28.9854,-18.7947 16.2604,-11.56617 38.5086,-32.92638 45.9171,-44.08452 2.9897,-4.50278 3.5975,-6.3087 3.5975,-10.68921 0,-4.4701 -0.4467,-5.73726 -2.9395,-8.33925 -1.6168,-1.68751 -4.9918,-4.07956 -7.5,-5.31566 -8.8207,-4.34696 -30.1758,-2.38681 -63.9588,5.87068 -18.575,4.54024 -29.4413,8.20814 -46.1017,15.56145 -20.20566,8.91808 -33.24528,16.74148 -57.8305,34.69662 -17.83405,13.02461 -50.64259,36.07069 -67.1695,47.18269 -15.74242,10.5846 -28.10072,20.3137 -40.21042,31.656 -6.89104,6.4543 -9.47909,7.4527 -12.21815,4.7137 -2.7594,-2.7594 -1.7513,-4.7643 6.17529,-12.281 12.18859,-11.5584 25.3898,-21.7974 46.35558,-35.9538 10.66873,-7.20372 29.0727,-20.0751 40.8977,-28.60306 45.66445,-32.93235 61.24378,-42.48869 87,-53.36565 18.5383,-7.82879 45.6247,-15.14783 72.4711,-19.58245 l 12.9712,-2.14264 0.8589,-4.35701 c 0.7261,-3.68359 0.4902,-5.07327 -1.5259,-8.99108 -3.0724,-5.97018 -9.0272,-9.68479 -18.8054,-11.73086 -8.6539,-1.81083 -14.3377,-1.45767 -35.9699,2.23501 -29.5516,5.04453 -37.9117,6.30473 -55.5,8.36608 -43.38467,5.08468 -57.93297,10.09193 -101.5,34.93432 -42.35198,24.14955 -78.40165,41.63427 -100.48218,48.7356 -27.15366,8.73291 -36.16638,13.0885 -48.21533,23.30114 -11.49245,9.7409 -10.82562,9.3324 -13.17761,8.0736 -1.40014,-0.7493 -2.12488,-2.105 -2.12488,-3.9749 0,-6.02724 19.97729,-21.56984 36.5,-28.39743 3.3,-1.36364 12.05785,-4.37707 19.46188,-6.69651 15.88382,-4.97587 28.94154,-10.4321 48.92621,-20.44407 16.36819,-8.20018 45.4654,-23.83065 60.61191,-32.55957 37.55874,-21.64509 53.88411,-27.07384 97.5,-32.42214 28.3676,-3.47851 48.0572,-6.67059 47.4278,-7.68898 -0.8461,-1.36901 -13.2603,-4.7256 -21.4278,-5.79373 -22.7508,-2.97531 -93.50416,-2.13154 -117.25262,1.39829 -25.01674,3.71833 -38.31096,9.04341 -76.74738,30.74161 -24.78137,13.98962 -34.22425,19.91038 -51.18767,32.09509 -20.04823,14.40051 -28.38468,19.92923 -35.31233,23.4191 -7.32295,3.68899 -29.79207,10.46533 -31.95239,9.63633 -0.86068,-0.33027 -1.84505,-1.7168 -2.18748,-3.08117 -0.97905,-3.90085 2.2337,-6.11335 13.73417,-9.45823 13.14071,-3.82194 22.15493,-8.53904 37.9057,-19.83587 29.82824,-21.39354 45.99553,-31.50888 79.24198,-49.57907 7.00808,-3.80905 12.74558,-7.22105 12.75,-7.58223 0.0136,-1.1169 -18.92162,-2.14304 -28.44999,-1.54175 -12.68016,0.80018 -27.20776,4.74563 -39.04199,10.60314 -10.14053,5.01919 -14.44683,7.76113 -47.5,30.24453 -32.84094,22.33904 -55.97716,35.31379 -88.86146,49.83332 -36.11673,15.94675 -44.36415,21.03146 -60.69675,37.42084 -9.23731,9.2694 -34.73853,40.1571 -54.77913,66.3498 -2.63145,3.4392 -13.77955,19.7919 -24.77357,36.3393 -34.72909,52.2717 -44.01769,64.9151 -57.10032,77.7236 -21.78711,21.3307 -39.29083,29.8301 -95.60638,46.4243 -15.22531,4.4864 -29.70739,8.2491 -32.18239,8.3617 -2.475,0.1125 -5.35847,0.5485 -6.4077,0.9688 -1.04924,0.4202 -4.45132,0.2387 -7.5602,-0.4034 -3.10887,-0.6421 -8.5748,-1.1675 -12.14651,-1.1675 -5.57348,0 -7.19511,0.447 -11.43981,3.1533 -5.49573,3.504 -4.70666,4.6534 2.03002,2.9571 4.03238,-1.0154 5.49046,-0.7258 19.68954,3.9103 17.53267,5.7246 35.60105,14.1823 54.34367,25.4379 14.89531,8.9452 60.69418,39.9268 77.01793,52.1005 54.61268,40.728 76.82142,86.455 68.66656,141.3819 -2.1851,14.7177 -3.24314,16.662 -8.50732,15.6333 -3.02669,-0.5914 -10.68618,2.6504 -10.68618,4.5229 0,0.5812 1.37088,2.4275 3.04639,4.103 2.59596,2.596 3.57077,2.9613 6.59296,2.4709 1.95061,-0.3165 5.12478,-1.7793 7.0537,-3.2505 z m 1270.38523,-23.6944 c 7.0814,-4.7721 9.8621,-11.6096 10.8215,-26.6091 0.5246,-8.2006 0.8779,-9.5667 2.8042,-10.8414 2.0189,-1.336 2.4179,-1.2447 4.75,1.0874 1.4302,1.4302 2.546,3.6924 2.546,5.1616 0,2.3899 0.8159,1.8624 9.4522,-6.1105 12.4868,-11.5277 22.1686,-18.6796 38.535,-28.4657 42.3956,-25.35 64.5285,-32.2751 145.0128,-45.3727 62.7796,-10.2164 89.8216,-19.1981 115,-38.1957 9.8233,-7.4119 15.4997,-13.0417 34.8723,-34.586 10.3349,-11.4935 36.1506,-36.3948 56.6277,-54.622 16.1292,-14.3569 24.9671,-27.1299 27.6035,-39.8942 2.3565,-11.4092 -1.0785,-22.5113 -13.5221,-43.7043 -12.3797,-21.0841 -18.808,-37.1506 -29.6372,-74.0736 -5.8383,-19.9059 -8.6458,-23.372 -20.6198,-25.4572 -7.8919,-1.3743 -16.3879,-0.053 -24.1761,3.7608 -14.7905,7.2423 -27.6623,31.0747 -31.2192,57.8034 -1.3791,10.3633 -0.6787,39.9683 1.0913,46.1322 1.1284,3.9293 1.4097,4.1852 3.8485,3.5 4.0392,-1.1348 34.7259,-0.5264 37.0833,0.7352 2.3171,1.2401 2.8529,6.4038 0.7978,7.6898 -0.6875,0.4302 -9.35,0.7943 -19.25,0.809 -23.7619,0.035 -27.5039,1.2055 -40.4579,12.651 -4.9732,4.3941 -9.0421,8.1912 -9.0421,8.4381 0,0.2469 2.7507,3.2589 6.1128,6.6933 7.1457,7.2996 19.8872,26.0565 19.8872,29.2761 0,2.8463 -2.2533,4.7124 -5.1862,4.2951 -1.6288,-0.2318 -4.1213,-3.0636 -8.5745,-9.7417 -3.453,-5.1783 -8.3117,-11.7952 -10.797,-14.7043 -18.2162,-21.3224 -73.3469,-44.9225 -118.9423,-50.9165 -24.5961,-3.2334 -59.2813,-2.0378 -90.5,3.1195 -28.6702,4.7363 -78.2359,17.4465 -101.6239,26.0596 -13.5262,4.9812 -15.5908,5.0072 -16.1734,0.2036 -0.4182,-3.4474 1.9618,-5.2156 12.4948,-9.2835 10.5665,-4.0808 42.2052,-13.3239 56.8025,-16.5946 5.5,-1.2323 10.3758,-2.5777 10.8351,-2.9898 0.6282,-0.5637 -1.2453,-5.7872 -2.7589,-7.6924 -0.093,-0.1174 -2.3575,0.4451 -5.0318,1.25 -8.9038,2.6796 -20.3414,1.8174 -35.9476,-2.71 -9.3765,-2.7201 -15.7803,-9.0477 -21.6989,-21.4406 l -4.2438,-8.8861 -8.8566,-2.9349 -8.8567,-2.9349 -4.6906,2.2789 c -2.5798,1.2534 -15.054,7.9239 -27.7204,14.8234 -38.8452,21.1593 -58.2096,34.0204 -72.6543,48.2543 -8.8705,8.741 -14.2195,16.6944 -22.8755,34.0132 -8.0967,16.1998 -12.3795,22.7012 -25.3618,38.5 -10.2371,12.458 -10.5981,13.0572 -8.6603,14.372 2.549,1.7294 2.719,6.6995 0.2721,7.957 -0.9625,0.4947 -6.5344,1.1573 -12.3819,1.4724 -11.801,0.6361 -16.4728,2.1093 -19.7002,6.2123 -2.1147,2.6884 -3.0627,9.4863 -1.3229,9.4863 1.3096,0 3.9042,-3.2102 5.0675,-6.2698 1.3248,-3.4847 4.5745,-4.7302 12.3414,-4.7302 4.8434,0 9.0633,1.0597 20.1849,5.0688 23.6785,8.5357 50.1113,22.3926 90.4203,47.4013 67.8807,42.1149 83.5061,54.4435 93.1067,73.4621 5.768,11.4264 6.5403,15.7924 6.4686,36.5678 -0.07,20.3977 -0.2971,21.482 -6.0826,29.0944 -1.2935,1.7019 -2.3518,3.3894 -2.3518,3.75 0,1.3353 2.8029,0.5891 6.0783,-1.6182 z m -385.5783,-55.5648 c 27.4191,-20.5361 32.5345,-24.5741 68.5,-54.0734 12.375,-10.1501 28.575,-22.9382 36,-28.418 21.9159,-16.1744 39.197,-29.332 43.8508,-33.3877 l 4.3509,-3.7916 -1.7991,-3.7726 -1.799,-3.7726 -6.0518,0.6269 c -16.3137,1.6899 -51.7443,6.8578 -68.404,9.9774 -10.2563,1.9206 -26.8591,4.9451 -36.8951,6.7211 -12.583,2.2267 -18.2482,3.6304 -18.25,4.5219 0,2.0267 -8.6364,10.7463 -16.1603,16.324 -3.7633,2.7899 -6.8424,5.748 -6.8424,6.5735 0,0.8255 -0.8767,2.7322 -1.9483,4.237 -2.7967,3.9277 -5.2237,10.5054 -10.3631,28.0858 -5.7192,19.5636 -7.8313,25.1809 -12.1895,32.4183 l -3.4991,5.8109 v 17.4939 17.4938 l 2.75,-1.7977 c 1.5125,-0.9888 14.45,-10.5607 28.75,-21.2709 z m 919.1028,-174.2112 c 12.5406,-6.0708 23.2772,-28.3276 22.1441,-45.9044 -0.557,-8.6394 -2.9858,-14.9704 -7.8827,-20.5477 -4.0684,-4.6336 -8.2823,-6.5051 -14.5821,-6.4761 -11.6235,0.053 -21.095,9.5332 -26.7341,26.758 -3.8651,11.8058 -3.7348,21.9294 0.4572,35.5014 1.8529,5.9991 2.4979,6.9346 6.0195,8.7312 8.2009,4.1838 14.6782,4.7937 20.5781,1.9376 z m -34.0057,-8.7002 c -1.9951,-6.4935 -3.5697,-15.6539 -3.5823,-20.84 -0.031,-12.7135 6.037,-29.4597 14.3568,-39.6219 l 4.6763,-5.712 -2.8854,-1.4921 c -1.5869,-0.8206 -5.8456,-2.2356 -9.4638,-3.1445 l -6.5785,-1.6524 -4.3101,2.8814 c -2.5323,1.6928 -6.3978,5.9647 -9.3715,10.3564 -3.9766,5.8729 -5.5841,7.4751 -7.5,7.4751 -5.4507,0 -1.8966,-10.0114 6.7622,-19.0482 4.0589,-4.2362 4.2469,-4.6527 2.3262,-5.155 -2.6129,-0.6833 -37.841,-12.7281 -40.4332,-13.8244 -1.6437,-0.6952 -1.5337,-0.1978 0.7981,3.6107 15.9122,25.9884 17.8959,44.2957 7.0294,64.8729 -1.8751,3.5508 -3.0325,6.8328 -2.572,7.2933 1.4153,1.4153 45.4699,15.7168 48.4681,15.7343 2.2249,0.013 2.7043,-0.3516 2.2797,-1.7336 z m -194.7442,-56.7856 c 5.3059,-4.6945 11.3474,-9.2868 13.4254,-10.2049 2.7024,-1.194 3.6018,-2.1094 3.1582,-3.2145 -1.6985,-4.2312 -3.4287,-19.9053 -3.4268,-31.045 0,-22.8335 3.8361,-40.8804 12.4227,-58.5 9.0732,-18.6181 20.8243,-28.9523 37.0513,-32.5838 3.034,-0.6789 5.5163,-1.5246 5.5163,-1.8792 0,-1.6842 -7.2141,-7.1885 -13.5812,-10.3623 -26.9986,-13.4581 -41.4052,-16.5828 -52.6492,-11.4193 -20.3472,9.3439 -52.6507,38.0764 -66.6644,59.2949 -3.8212,5.7857 -8.3896,13.9833 -10.152,18.2169 -6.9716,16.7463 -8.8074,36.7386 -4.8015,52.2873 l 2.204,8.5545 12.2926,4.1656 c 14.8356,5.0274 34.275,13.6702 45.5592,20.2559 4.5609,2.6618 8.6763,4.8688 9.1454,4.9045 0.4691,0.036 5.1941,-3.776 10.5,-8.4706 z m -220.3529,-24.8515 c 7.15,-1.3673 19.75,-3.2706 28,-4.2297 8.25,-0.959 15.1591,-1.8591 15.3535,-2.0003 0.1944,-0.1411 -1.0431,-4.4486 -2.75,-9.5722 -4.6376,-13.9205 -3.9049,-23.4572 3.5196,-45.8083 6.6526,-20.0273 25.8578,-52.701 48.0625,-81.7683 3.4729,-4.5463 6.3144,-8.71868 6.3144,-9.27199 0,-0.55332 -1.3079,-3.89052 -2.9064,-7.416 -4.1811,-9.22108 -7.5124,-10.78851 -24.0936,-11.33633 -18.847,-0.62267 -30.449,3.05823 -39.6815,12.58954 -6.8344,7.05571 -27.3868,32.98378 -33.6158,42.40838 -14.1498,21.4089 -24.7319,42.7197 -26.7945,53.9602 -1.5632,8.5183 0.1304,28.7964 3.517,42.1116 3.1581,12.4168 8.3286,23.921 10.4684,23.2918 0.8835,-0.2598 7.4564,-1.5911 14.6064,-2.9584 z m 131.4644,-0.3629 c -0.02,-0.4125 -0.6876,-3.45 -1.4844,-6.75 -4.996,-20.6906 2.203,-50.6931 17.7101,-73.8087 11.0425,-16.4605 33.4206,-38.2821 54.6278,-53.2692 0.1749,-0.1235 -0.9006,-3.6572 -2.39,-7.8526 -4.1242,-11.61726 -7.6087,-14.87385 -19.9279,-18.62453 -14.9048,-4.5379 -23.6149,-5.52416 -36.0355,-4.08038 -18.4331,2.1427 -27.1326,6.48751 -37.309,18.63331 -19.6372,23.4374 -46.1523,66.5007 -52.7242,85.6295 -7.3752,21.467 -8.0839,31.9421 -3.0356,44.8726 l 3.3185,8.5 20.8929,0.6418 c 20.0072,0.6146 35.5616,2.3459 47.3929,5.2753 6.5431,1.62 9.0127,1.8495 8.9644,0.8329 z m -170.1459,-9.7887 c 2.8498,-0.8463 5.1815,-2.0189 5.1815,-2.6057 0,-0.5868 -0.6479,-3.6069 -1.4398,-6.7113 -4.2597,-16.6986 -4.9664,-40.6707 -1.5226,-51.6443 6.4619,-20.5901 26.9051,-53.8289 50.3658,-81.89017 3.6281,-4.33959 6.5966,-8.26794 6.5966,-8.72967 0,-2.45509 -19.4365,-9.88016 -25.8631,-9.88016 -6.0779,0 -28.1156,4.42997 -38.0723,7.65323 -8.7449,2.83098 -16.8332,7.8234 -20.3307,12.54901 -9.6271,13.00736 -24.3115,50.22366 -27.8626,70.61526 -1.5124,8.685 -0.5373,25.5008 2.0691,35.6825 2.7491,10.7389 9.0786,23.381 13.8764,27.7155 3.0621,2.7665 5.675,3.9161 12.7667,5.6171 4.9041,1.1763 10.7165,2.2946 12.9165,2.485 2.2,0.1904 4.4808,0.4218 5.0685,0.5143 0.5877,0.093 3.4002,-0.5243 6.25,-1.3706 z M 1613.6309,917.25 c -0.5176,-2.6125 -0.9946,-10.6 -1.06,-17.75 -0.1313,-14.3712 1.1681,-21.1886 7.7089,-40.4419 2.722,-8.0126 3.2569,-10.6355 2.2989,-11.2737 -1.1666,-0.7771 -25.8399,-0.1751 -30.2485,0.7381 -2.5872,0.5359 -6.7452,7.2603 -9.5703,15.4775 -3.0765,8.9484 -3.8643,27.2733 -1.5193,35.3398 0.905,3.1131 2.0527,5.6602 2.5505,5.6602 0.4978,0 3.9727,2.4709 7.7221,5.4908 5.9126,4.7624 18.5639,11.3812 21.9379,11.4773 0.8032,0.023 0.8542,-1.3144 0.1798,-4.7181 z m -40.2122,-16.5 c -0.3546,-1.2375 -0.9129,-6.075 -1.2405,-10.75 -0.9863,-14.0716 2.4833,-30.1366 8.7072,-40.3164 1.6197,-2.6491 2.9448,-4.9904 2.9448,-5.203 0,-0.2126 -1.6875,-0.8552 -3.75,-1.428 -5.6655,-1.5734 -13.3258,-1.2627 -17.2297,0.699 -7.2138,3.6247 -14.6831,17.0351 -15.7367,28.2537 -0.7658,8.1549 4.1883,20.2917 10.812,26.4873 4.5378,4.2446 5.1487,4.5074 10.4782,4.5074 5.3934,0 5.6292,-0.1058 5.0147,-2.25 z m 577.9344,-313.96692 c -3.5432,-13.83047 -13.9527,-29.0531 -31.7018,-46.35972 -14.435,-14.07522 -24.7734,-20.88386 -52.3211,-34.45767 -41.9436,-20.66719 -61.3986,-34.9686 -79.3899,-58.35982 -4.1856,-5.44178 -8.2851,-10.70781 -9.1101,-11.7023 -1.1867,-1.43046 -3.6525,-1.95322 -11.8046,-2.50258 l -10.3046,-0.69442 3.7134,6.39672 c 12.8238,22.09073 30.1586,42.3196 49.8448,58.16631 14.8162,11.92658 24.4845,17.8746 45.3324,27.88871 35.8322,17.21165 43.7082,21.34765 55.1783,28.97621 14.2377,9.46922 22.2745,17.40499 30.7519,30.36548 3.5976,5.5 7.4967,11.05464 8.6647,12.34364 l 2.1237,2.34363 0.3121,-3.07689 c 0.1717,-1.69229 -0.4085,-5.88958 -1.2892,-9.3273 z m 7.1699,-320.23311 c -0.931,-0.93105 -1.6928,-2.14027 -1.6928,-2.68714 0,-2.3365 2.2367,-4.86283 4.3053,-4.86283 7.2578,0 36.7404,-11.02485 60.1947,-22.50949 17.5823,-8.60931 51.5631,-28.80161 68.2645,-40.56463 18.639,-13.12758 53.6343,-40.72197 65.5086,-51.65461 3.9102,-3.60012 5.3564,-4.33821 8,-4.08291 2.8116,0.27153 3.2664,0.71883 3.5338,3.47528 0.2781,2.86616 -0.5212,3.88909 -8.5,10.87871 -23.3093,20.41953 -61.1666,48.95745 -83.1671,62.69381 -35.7455,22.31823 -64.3803,36.60348 -92.6455,46.21871 -13.3072,4.52684 -21.3269,5.5697 -23.8015,3.0951 z m -552.9946,-24.60993 c -4.8409,-0.4296 -9.4534,-1.32195 -10.25,-1.98301 -1.6978,-1.40905 -1.9092,-5.09602 -0.3799,-6.62532 0.7325,-0.73251 10.2405,-0.90891 30.25,-0.56123 36.101,0.62728 135.2727,-1.95402 185.1817,-4.82003 55.639,-3.19505 101.6089,-9.18287 160.3625,-20.88807 87.7553,-17.48305 150.0573,-34.75862 223.1856,-61.88659 47.9116,-17.77347 65.4348,-25.393 115.4519,-50.20133 41.1211,-20.39596 65.0438,-33.06519 84.2389,-44.6121 6.7314,-4.0493 13.0539,-7.36236 14.05,-7.36236 4.7152,0 5.6408,5.72247 1.4611,9.03286 -12.0303,9.52806 -98.7616,54.77892 -142.8337,74.52146 -61.1071,27.37358 -143.9679,55.45048 -213.8146,72.44983 -86.5604,21.06716 -154.7347,32.48041 -223.6017,37.43378 -60.3612,4.34157 -198.1278,7.73611 -223.3018,5.50211 z M 1130.5947,106.3825 c -1.3611,-2.98726 -1.0165,-3.36793 10.3019,-11.3825 3.4952,-2.475 16.2727,-14.18516 28.3943,-26.02258 32.0399,-31.28869 43.6971,-39.35692 46.0686,-31.88504 1.0877,3.42683 -0.4738,5.31019 -10.2869,12.40762 -5.8232,4.21172 -16.8655,14.17579 -27.7217,25.01487 -31.7978,31.74776 -43.2533,39.55553 -46.7562,31.86763 z"
     style="fill:#000000" />
</svg>
