<?xml version="1.0" encoding="UTF-8" standalone="no"?>
<svg
   xmlns:dc="http://purl.org/dc/elements/1.1/"
   xmlns:cc="http://creativecommons.org/ns#"
   xmlns:rdf="http://www.w3.org/1999/02/22-rdf-syntax-ns#"
   xmlns:svg="http://www.w3.org/2000/svg"
   xmlns="http://www.w3.org/2000/svg"
   version="1.1"
   id="svg14870"
   width="544.00037"
   height="228.63165"
   viewBox="0 0 544.00037 228.63165">
  <metadata
     id="metadata14876">
    <rdf:RDF>
      <cc:Work
         rdf:about="">
        <dc:format>image/svg+xml</dc:format>
        <dc:type
           rdf:resource="http://purl.org/dc/dcmitype/StillImage" />
        <dc:title></dc:title>
      </cc:Work>
    </rdf:RDF>
  </metadata>
  <defs
     id="defs14874" />
  <path
     style="fill:#000000"
     d="M 6.755501,227.11112 C 3.675566,225.44011 0,219.02672 0,215.32364 c 0,-2.99004 4.45352,-7.07046 12.060367,-11.05 6.650987,-3.47947 8.397532,-3.22059 15.866093,2.3517 2.966599,2.21338 7.009254,4.31543 8.983678,4.67122 C 42.522255,212.30787 44,213.43732 44,216.71539 c 0,3.70749 -2.671883,6.43806 -9.335719,9.54077 -4.390708,2.04433 -6.66221,2.39998 -15.164281,2.37424 -6.911286,-0.0209 -10.847697,-0.49018 -12.744499,-1.51928 z m 24.049363,-3.53639 C 35.426734,221.50211 41,217.08422 41,215.49312 c 0,-0.4471 -0.845044,-0.81291 -1.877876,-0.81291 -3.339524,0 -9.196395,-3.0076 -12.721499,-6.53271 -5.2235,-5.2235 -12.468016,-5.98104 -13.904844,-1.454 -0.350635,1.10476 -1.85904,2.64032 -3.352011,3.41236 -1.492972,0.77205 -3.318865,2.533 -4.057542,3.91323 -1.193688,2.23043 -1.084417,2.93497 0.982576,6.33531 1.279093,2.1042 2.799377,4.15642 3.37841,4.5605 0.579032,0.40408 4.564975,0.74158 8.85765,0.75 5.806862,0.0114 9.006793,-0.52368 12.5,-2.09017 z m 37.761512,-4.7923 c -1.063492,-0.41647 -1.496364,-1.02746 -0.961936,-1.35775 1.813515,-1.12081 12.86096,-4.65373 21.27947,-6.80506 4.61115,-1.17837 11.45838,-3.4508 15.21606,-5.04983 3.75768,-1.59904 12.35992,-4.27723 19.11609,-5.95153 6.75617,-1.6743 24.20894,-6.34676 38.78394,-10.38323 26.49708,-7.33825 76.95633,-19.94471 84.5,-21.11103 6.62094,-1.02365 7.33088,-1.37451 6.81017,-3.36572 -0.66866,-2.55696 1.39324,-3.58789 2.18522,-1.09259 0.76552,2.41195 0.96876,2.42455 8.26971,0.51296 3.15419,-0.82585 10.9099,-2.65029 17.2349,-4.05431 33.30851,-7.39377 44.08523,-9.54452 52.38144,-10.45394 12.56937,-1.37783 23.25311,-3.63665 35.61856,-7.53069 5.775,-1.81862 13.26028,-3.61821 16.63396,-3.99908 5.4401,-0.61416 6.37333,-0.45313 8.25,1.42354 1.16382,1.16382 2.11889,3.35354 2.12236,4.86604 0.006,2.77359 0.38369,3.12574 8.99368,8.39374 5.38499,3.2948 10.61121,6.60032 14.91843,9.43573 5.49189,3.61527 14.73768,6.28686 27.58157,7.96973 9.843,1.28969 27.6817,4.84375 37.66902,7.50493 2.01796,0.5377 8.09296,1.40862 13.5,1.93538 5.40704,0.52676 15.23098,2.10753 21.83098,3.51282 6.6,1.40529 14.1723,2.98711 16.82734,3.51515 6.29598,1.25217 6.67266,1.54336 6.67266,5.15817 0,2.7159 -0.25145,2.97776 -2.25,2.34308 -7.32383,-2.32582 -36.4435,-8.178 -44.25,-8.89291 -6.83869,-0.62629 -23.10728,-3.73189 -34.36684,-6.56048 -4.19824,-1.05467 -12.13316,-2.4372 -17.63316,-3.0723 -18.34921,-2.1188 -21.94529,-3.59281 -43.1668,-17.69367 -12.53266,-8.32746 -14.92451,-9.53884 -20.73556,-10.50176 -5.82411,-0.96509 -7.30318,-0.84738 -13.0473,1.03828 -7.09517,2.32918 -24.05499,5.57083 -35.05034,6.69943 -3.85,0.39517 -13.75,2.19285 -22,3.99484 -8.25,1.80198 -20.4,4.44867 -27,5.88152 -6.6,1.43285 -15.375,3.48136 -19.5,4.55224 -4.125,1.07088 -12.225,2.88988 -18,4.04221 -5.775,1.15233 -18.375,4.06975 -28,6.48316 -9.625,2.4134 -20.65,5.1236 -24.5,6.02266 -3.85,0.89905 -16,4.13799 -27,7.19763 -24.50343,6.8156 -30.37752,8.37912 -42.49203,11.31021 -5.22062,1.26312 -13.09562,3.62248 -17.5,5.24303 -8.33736,3.06764 -32.896696,9.74186 -35.50797,9.6496 -0.825,-0.0291 -2.370131,-0.39374 -3.433624,-0.8102 z M 53.94969,199.11959 c -0.712359,-0.85834 -1.495103,-3.97121 -1.739431,-6.91748 -0.3953,-4.76679 -0.1474,-5.66887 2.250525,-8.18938 1.482116,-1.55789 3.163399,-3.95752 3.736184,-5.33252 0.643937,-1.54581 1.224036,-2.00652 1.519867,-1.20709 0.794317,2.14652 -0.564133,5.87216 -3.347028,9.17945 -2.267587,2.69487 -2.501599,3.56835 -1.695079,6.32707 0.868816,2.9718 1.238458,3.19418 5.171452,3.11123 6.189991,-0.13055 11.850362,-4.44997 15.951522,-12.17259 C 80.03347,175.94219 84.2644,173.38556 96.75044,171.2571 107.88683,169.35872 107,169.37384 107,171.08238 c 0,1.53132 -4.93964,3.59783 -8.6,3.59783 -1.26586,0 -4.6027,0.49351 -7.4152,1.09668 -6.04609,1.29665 -9.75985,4.55248 -13.41067,11.75703 -3.22533,6.36488 -6.794842,9.69276 -12.471079,11.62684 -5.70596,1.94422 -9.517311,1.93015 -11.153361,-0.0412 z m 59.62174,-4.01081 c -2.09488,-2.09488 -2.20167,-5.19651 -0.11942,-3.4684 0.85202,0.70711 2.38018,0.91048 3.69821,0.49215 l 2.24619,-0.71291 -2.30609,-1.86736 c -2.68797,-2.17659 -2.18075,-4.96996 0.76268,-4.20024 1.08644,0.28411 2.95644,1.56089 4.15556,2.8373 2.81211,2.99335 1.92906,5.96839 -2.19864,7.40731 -4.03024,1.40495 -4.37246,1.37819 -6.23849,-0.48785 z M 131,186.762 c 0,-2.27927 1.37205,-4.08179 3.10699,-4.08179 1.35254,0 1.89301,0.71376 1.89301,2.5 0,2 -0.5,2.5 -2.5,2.5 -1.375,0 -2.5,-0.4132 -2.5,-0.91821 z m -2.97197,-14.04331 c -1.65251,-1.04506 -1.98418,-0.87255 5.66923,-2.94861 2.76689,-0.75055 5.26668,-2.40821 7.33536,-4.86421 3.08797,-3.66614 3.12711,-3.84548 2.44983,-11.22566 -0.99625,-10.85594 -0.79415,-12.0832 2.55968,-15.54347 6.48328,-6.68904 3.86158,-15.09558 -5.12615,-16.4371 -4.08686,-0.61001 -4.69546,-0.39659 -8.16598,2.86366 l -3.75,3.52281 v -2.5972 c 0,-1.51087 1.26674,-3.95324 3.02853,-5.83925 2.9224,-3.12843 3.24109,-3.22278 9.09365,-2.69209 9.77113,0.88602 13.64863,6.22522 12.00488,16.53036 -0.62903,3.94357 -1.68138,6.16898 -4.09452,8.65871 -3.08038,3.17815 -3.18698,3.53558 -2.06673,6.92998 0.73812,2.23651 0.92034,5.66661 0.48581,9.1445 -0.66462,5.31944 -0.96566,5.78422 -6.80902,10.5123 -6.05032,4.89555 -9.46792,5.97525 -12.61457,3.98527 z m 37.63424,-3.26192 c -5.05649,-1.33962 -7.65352,-5.53485 -7.65853,-12.37157 -0.003,-3.83342 0.49301,-5.54456 2.00239,-6.91054 2.67547,-2.42127 3.0648,-1.75633 1.92968,3.29571 -1.40761,6.26483 0.70665,10.73912 5.73431,12.1352 5.04751,1.4016 6.88777,1.3486 10.12954,-0.29171 1.48519,-0.7515 4.34439,-1.66374 6.35379,-2.0272 4.32771,-0.78281 4.99439,-2.05468 3.79246,-7.23511 -1.2519,-5.39583 -1.16038,-7.6095 0.29454,-7.12452 1.6321,0.54403 3.58614,7.16811 3.6827,12.48413 0.0696,3.83223 -0.18231,4.28628 -2.67315,4.81806 -1.5125,0.32292 -5.15254,1.45649 -8.08898,2.51906 -5.81302,2.10346 -9.58287,2.27579 -15.49875,0.70849 z M 27.389534,167.25294 c -1.109681,-2.89179 0.06242,-6.06591 2.360466,-6.39228 1.2375,-0.17575 2.25,0.16175 2.25,0.75 0,0.58825 -0.45,1.06955 -1,1.06955 -0.55,0 -0.989994,0.7875 -0.977764,1.75 0.01798,1.41538 0.388541,1.27322 1.937955,-0.74347 1.727415,-2.24839 1.982885,-2.31845 2.599045,-0.71276 0.83868,2.18557 -2.089295,5.70623 -4.745608,5.70623 -1.032019,0 -2.122861,-0.64227 -2.424094,-1.42727 z m 85.044756,-6.14683 c 0.57202,-4.93678 0.14172,-6.59058 -3.72987,-14.33518 -0.66243,-1.32511 -3.39106,-3.91261 -6.06361,-5.75 -4.12669,-2.83712 -5.72617,-3.34072 -10.61045,-3.34072 -4.48563,0 -6.56197,0.55016 -9.43522,2.5 -5.851123,3.97068 -6.9123,3.36728 -3.5749,-2.03274 2.43562,-3.94093 3.28516,-4.30458 11.81368,-5.057 5.79018,-0.51083 7.24846,-0.27489 11.09831,1.79561 5.66531,3.04688 10.17367,9.58768 12.47921,18.10505 1.79768,6.64113 1.79656,6.67022 -0.38106,9.92487 l -2.18401,3.26421 z M 238,162.28872 c 0,-1.54279 0.81126,-2.97232 2.06873,-3.64529 1.9191,-1.02708 2.04567,-0.86748 1.75,2.20663 C 241.41745,165.02214 238,166.30963 238,162.28872 Z m -113,-0.58827 c 0,-2.68243 2.86798,-9.85197 5.40408,-13.5094 3.30216,-4.76223 3.28059,-0.61059 -0.042,8.092 C 127.68385,163.29771 125,166.00927 125,161.70045 Z M 5.368565,160.3714 c 6.206509,-3.95659 6.122278,-3.74145 4.81837,-12.30712 C 8.648903,137.96059 8.724066,133.78688 10.5,130.68021 c 0.792463,-1.38627 1.444915,-5.20667 1.464565,-8.57569 0.03996,-6.85093 0.882589,-8.00857 9.340887,-12.8328 6.082035,-3.46892 7.466657,-6.19774 5.285229,-10.416149 -1.158364,-2.24003 -2.713559,-3.40063 -5.597359,-4.17716 C 18.796995,94.087001 17,93.170471 17,92.641671 c 0,-1.28144 6.626844,-1.23153 9.055391,0.0682 C 28.463217,93.998481 31,98.792321 31,102.05382 c 0,3.4408 -4.361958,8.26938 -10.094355,11.1742 -6.064589,3.07316 -7.05678,4.83335 -5.822079,10.3286 0.785321,3.49521 0.599966,5.05059 -1.045049,8.76942 -1.82952,4.13593 -1.911939,5.37573 -0.96852,14.56911 0.997597,9.72133 0.958734,10.12557 -1.193728,12.41677 -1.444238,1.53732 -3.304077,2.34766 -5.300583,2.30948 -2.765798,-0.0529 -2.887421,-0.17882 -1.207121,-1.25 z M 211.75,159.33294 c -2.48536,-2.31114 -3.85297,-5.35679 -2,-4.45398 0.4125,0.20099 1.95306,0.97003 3.42347,1.70898 3.81787,1.91868 8.83364,0.66886 13.43069,-3.34661 3.41818,-2.98575 3.73907,-3.62724 2.61719,-5.23205 -0.70325,-1.00599 -1.99957,-2.95407 -2.8807,-4.32907 -0.88113,-1.375 -3.79324,-4.2612 -6.47135,-6.41378 -3.86263,-3.10464 -4.8693,-4.53041 -4.8693,-6.89649 0,-3.34681 4.82208,-11.16842 10.44319,-16.93931 3.51171,-3.60527 3.64081,-3.99012 3.35454,-10 L 228.5,97.180211 l -5.10639,0.035 c -3.45368,0.0236 -5.66146,0.59004 -6.82143,1.75 -0.94327,0.94327 -2.08162,1.715039 -2.52967,1.715039 -0.44804,0 -1.55913,1.56892 -2.46908,3.4865 -0.90995,1.91757 -2.50664,3.94257 -3.5482,4.5 -2.31244,1.23758 -9.01633,1.30521 -10.90335,0.10999 -2.45447,-1.55464 -0.19037,-3.12836 3.68848,-2.56378 4.33476,0.63095 5.35056,0.0604 7.55568,-4.24382 2.20544,-4.304849 9.25371,-8.290939 15.86707,-8.973499 6.48874,-0.6697 7.85606,0.55717 8.5387,7.661609 0.79651,8.28938 -0.34863,11.55251 -5.97862,17.03644 -2.81012,2.73721 -5.92239,6.79283 -6.91616,9.01249 l -1.80685,4.03574 4.77897,2.94053 C 228.08345,136.90311 235,145.9462 235,149.56914 c 0,1.2334 -0.45828,3.09885 -1.01839,4.14544 -1.59336,2.97721 -9.28945,6.97836 -14.62916,7.60559 -4.2503,0.49927 -5.1937,0.25267 -7.60245,-1.98723 z m 239.36465,-0.56071 c -0.92034,-0.58286 -1.16424,-1.7583 -0.72663,-3.50187 0.6575,-2.61971 0.66257,-2.62093 2.76382,-0.66332 3.12063,2.90731 1.4311,6.36169 -2.03719,4.16519 z m 69.55202,0.24131 c -2.129,-2.129 0.50091,-9.63007 5.10052,-14.54777 2.7337,-2.92276 4.23281,-2.82591 4.23281,0.27346 0,1.06754 0.50623,1.94098 1.12495,1.94098 0.61873,0 3.76873,1.18645 7,2.63656 5.47965,2.45912 5.87505,2.86293 5.87505,6 0,3.89878 -0.27786,4.00673 -3.84563,1.49402 -2.86153,-2.01531 -10.69575,-6.13058 -11.67076,-6.13058 -0.32784,0 -1.49182,2.025 -2.58663,4.5 -1.84537,4.17176 -3.60341,5.46024 -5.23031,3.83333 z M 0,146.72726 c 0,-11.20933 1.08231,-17.04705 3.160515,-17.04705 1.093451,0 1.067685,1.11974 -0.373912,16.25 -0.668144,7.0125 -1.568462,12.75 -2.000706,12.75 C 0.353654,158.68021 0,153.30138 0,146.72726 Z m 46.63948,11.2591 c -1.132666,-1.13267 -0.681752,-4.868 0.828717,-6.86502 1.367025,-1.80737 1.470388,-1.65234 1.5,2.24985 0.03042,4.00912 -0.963988,5.9799 -2.328717,4.61517 z m 203.68306,-5.91869 c -2.99098,-1.47504 -5.26005,-4.38746 -3.41827,-4.38746 1.80201,0 10.09573,4.14598 10.09573,5.04679 0,1.41855 -3.08093,1.11434 -6.67746,-0.65933 z m 187.34413,-0.0541 c -1.16657,-1.16656 -0.71759,-4.09981 0.71147,-4.6482 0.75798,-0.29086 1.98798,-0.002 2.73334,0.64301 0.74535,0.64453 1.02909,0.76326 0.63053,0.26387 -0.39856,-0.4994 -0.21886,-1.51744 0.39934,-2.26233 0.84912,-1.02312 1.4584,-1.07682 2.49133,-0.21957 1.68786,1.4008 1.76695,4.09026 0.16732,5.68989 -1.2834,1.2834 -6.0285,1.63817 -7.13333,0.53333 z M 33,146.96914 c 0,-1.56416 0.700517,-3.84405 1.556704,-5.06642 C 36.138434,139.64448 39,138.85716 39,140.68021 c 0,0.55 -0.45,1 -1,1 -0.55,0 -1,0.675 -1,1.5 0,0.825 0.481298,1.5 1.069551,1.5 0.588253,0 0.925753,1.0125 0.75,2.25 -0.228799,1.61101 -1.100545,2.33986 -3.069551,2.56642 -2.429524,0.27955 -2.75,-0.015 -2.75,-2.52749 z m 475.34716,-1.82664 c -1.14026,-2.97145 5.31823,-16.20573 8.40284,-17.21853 1.95963,-0.64343 1.43518,1.75867 -1.80261,8.25624 -2.87606,5.77167 -2.91292,6.01216 -0.96861,6.31955 2.30526,0.36446 2.54978,1.25189 0.82122,2.98045 -1.70074,1.70074 -5.75197,1.48873 -6.45284,-0.33771 z M 275,142.96984 c 0,-0.46483 0.9,-1.61575 2,-2.5576 1.1,-0.94185 2,-2.58233 2,-3.64552 0,-3.15848 -5.0608,-8.22346 -10.71533,-10.72416 C 264.42979,124.33775 263,123.16091 263,121.69282 c 0,-1.10694 0.13967,-2.01261 0.31039,-2.01261 1.50956,0 13.44336,5.36553 14.98487,6.73731 2.66175,2.36869 4.70474,7.43332 4.70474,11.66318 0,3.53886 0.0636,3.48552 -6.25,5.24624 -0.9625,0.26843 -1.75,0.10773 -1.75,-0.3571 z m 151.92308,-3.21271 C 425.20475,138.0388 424,135.77198 424,134.25713 c 0,-1.89319 -0.52032,-2.57692 -1.96104,-2.57692 -2.99249,0 -6.03896,-3.9037 -6.03896,-7.73822 0,-4.29497 2.39063,-8.9336 5.03702,-9.77353 2.11229,-0.67041 4.96298,0.93838 4.96298,2.80086 0,0.57432 -0.27505,0.76918 -0.61122,0.43301 -0.33617,-0.33617 -1.73293,0.72186 -3.10392,2.35119 -3.39948,4.04005 -2.55496,7.92669 1.72237,7.92669 2.69525,0 3.02868,0.37239 3.61467,4.03696 0.93759,5.86339 6.48854,9.34117 7.88532,4.94031 0.43123,-1.3587 -0.71238,-4.53364 -3.48358,-9.67127 -4.09037,-7.58328 -4.10893,-7.66516 -2.17547,-9.59862 2.0934,-2.09339 4.64922,-1.44595 3.73162,0.94529 -0.30611,0.79771 0.78821,4.11436 2.43182,7.37034 3.07155,6.08469 3.78924,11.61207 1.95321,15.04273 -1.66332,3.10794 -7.4645,2.58842 -11.04174,-0.98882 z m -247.30845,-1.32692 c -2.08188,-3.27231 -4.03822,-13.72641 -2.80036,-14.96427 1.33107,-1.33107 2.74762,1.44394 3.68267,7.21427 0.40105,2.475 1.05845,4.95 1.46089,5.5 0.40244,0.55 1.01243,1.7875 1.35555,2.75 0.92742,2.60158 -1.97512,2.20921 -3.69875,-0.5 z m -16.37408,-3.73643 C 162.55825,133.60124 162,130.48577 162,127.7705 c 0,-6.33117 3.54255,-11.09029 8.25528,-11.09029 h 3.0775 l -4.3074,3.97657 -4.30741,3.97657 0.54619,6.02343 c 0.57215,6.30978 0.0483,7.35474 -2.02361,4.037 z m 29.54407,0.23643 c -1.56175,-1.79176 -3.34604,-21.25 -1.94859,-21.25 1.60859,0 3.33395,6.5139 3.28866,12.41589 -0.0341,4.4456 0.39769,6.77276 1.41309,7.61546 C 196.342,134.37901 197,135.32 197,135.80265 c 0,1.50357 -2.61636,0.96207 -4.21538,-0.87244 z M 58.2,134.48021 c -2.499778,-2.49978 -0.645236,-6.8 2.932612,-6.8 2.232152,0 3.290096,3.34165 1.887603,5.96223 -1.23042,2.29906 -3.043761,2.61422 -4.820215,0.83777 z M 73,134.30265 c 0,-2.45629 2.408591,-3.61424 5.55961,-2.67283 1.61721,0.48317 2.20799,0.91716 1.31283,0.96444 -0.89515,0.0473 -2.18775,0.76095 -2.87244,1.58595 -1.559883,1.87954 -4,1.95424 -4,0.12244 z m 163.01531,-9.87244 c 0.008,-1.2375 0.35508,-2.78435 0.77035,-3.43744 2.32518,-3.65676 14.7591,-4.57807 17.71434,-1.31256 1.78467,1.97203 1.74663,2 -2.72001,2 -7.0314,0 -10.98859,1.08168 -11.5299,3.15166 -0.71467,2.7329 -4.25383,2.39723 -4.23478,-0.40166 z M 45,123.73923 c 0,-0.51754 0.518171,-1.26123 1.15149,-1.65265 0.797539,-0.4929 0.58352,-1.12697 -0.696253,-2.06276 -2.198737,-1.60776 -0.732232,-3.77087 1.877546,-2.7694 1.934959,0.74251 2.21527,4.47774 0.467217,6.22579 -1.43589,1.43589 -2.8,1.56208 -2.8,0.25902 z m 474.2,-11.25902 c -1.65418,-1.65418 -1.50695,-10.1296 0.24897,-14.332119 2.35627,-5.63935 3.58732,-4.2436 3.3055,3.747739 -0.22559,6.39673 -0.039,7.25946 1.64365,7.60185 1.74493,0.35506 1.85347,-0.10624 1.34487,-5.71523 -0.58461,-6.447189 0.15363,-8.136659 2.38211,-5.451499 1.42157,1.712879 1.77051,12.091109 0.47691,14.184199 -0.94482,1.52875 -7.86403,1.50304 -9.40201,-0.0349 z m -389.53333,-1.46667 c -0.36667,-0.36666 -0.65236,-1.82916 -0.63487,-3.25 0.0293,-2.37796 0.13877,-2.44235 1.37728,-0.81003 1.26254,1.66399 1.38184,1.63423 1.93544,-0.48276 0.44743,-1.71097 0.87013,-1.97589 1.74951,-1.09651 1.69108,1.69108 0.26664,6.30597 -1.94642,6.30597 -0.99785,0 -2.11428,-0.3 -2.48094,-0.66667 z M 113,104.44357 c 0,-3.00978 1.75358,-4.763359 4.76336,-4.763359 2.06396,0 2.32366,0.411709 2.05,3.249999 -0.27554,2.85772 -0.70564,3.28782 -3.56336,3.56336 -2.83829,0.27366 -3.25,0.014 -3.25,-2.05 z m 55,-1.67525 c -2.24128,-0.67397 -1.90103,-0.94454 3.28778,-2.61447 3.18328,-1.024489 7.20183,-3.125159 8.93011,-4.668169 1.72828,-1.54301 3.68118,-2.80547 4.33977,-2.80547 0.6586,0 1.72406,-0.63452 2.36769,-1.41005 1.70145,-2.05013 -3.38399,-2.94773 -11.87148,-2.09536 -5.62626,0.56502 -7.04678,0.40179 -8.18115,-0.94013 -4.34797,-5.14346 -4.08299,-5.10202 -11.87272,-1.85675 l -3.5,1.45814 3.91664,3.4221 c 5.03801,4.40188 3.84701,5.68671 -1.68002,1.81239 -7.76394,-5.44233 -6.00371,-9.83414 4.95533,-12.36361 5.84599,-1.34932 8.83923,-0.77125 10.31849,1.99277 0.85036,1.58892 1.77503,1.79324 5.903,1.30435 10.18302,-1.20603 18.96655,2.02424 17.41188,6.40347 -1.09695,3.08992 -3.55809,5.27268 -5.94512,5.27268 -1.27041,0 -2.76011,0.84134 -3.31044,1.86965 -1.89259,3.536349 -10.61693,6.557469 -15.06976,5.218459 z m 198.2552,-3.185509 c -5.93262,-1.74989 -9.3685,-10.47318 -9.37588,-23.80422 -0.003,-6.28922 0.38825,-8.79452 1.55802,-9.96429 1.41688,-1.41688 1.56266,-0.80619 1.56266,6.54629 0,10.1851 2.90223,20.37031 6.47066,22.70844 3.25402,2.13212 5.23286,2.03367 6.49416,-0.32308 2.0959,-3.91624 1.11373,-7.67287 -3.96482,-15.16475 -7.38496,-10.89429 -6.70536,-15.38856 0.84676,-5.59962 6.32607,8.19976 8.32235,13.47007 7.25872,19.16343 -0.48392,2.59026 -1.26811,5.08849 -1.74266,5.55162 -1.50071,1.464599 -5.74614,1.877679 -9.10762,0.88618 z M 274.25,98.459721 c -1.83324,-0.88415 -2.25,-1.90866 -2.25,-5.5312 0,-5.45327 2.86379,-12.24308 4.17537,-9.89943 0.49544,0.88531 0.4055,3.55918 -0.2125,6.31679 -1.0948,4.88524 -0.57254,6.0614 3.42894,7.72214 0.72015,0.29888 0.58296,0.83138 -0.39181,1.52075 -1.78472,1.26217 -1.87013,1.25985 -4.75,-0.12905 z m 18.85898,-9.78453 c -2.98348,-3.51485 -3.90782,-3.99498 -7.69099,-3.99498 -4.39387,0 -6.42398,-1.26023 -4.2222,-2.621 1.2889,-0.79659 7.11497,-0.68129 9.98599,0.19762 1.44593,0.44265 6.81822,8.20492 6.81822,9.85145 0,1.4753 -1.79287,0.21686 -4.89102,-3.43309 z m -48.57885,-3.14405 C 238.27598,84.309221 237,83.238571 237,79.212751 c 0,-3.18132 2.47716,-6.53254 4.82874,-6.53254 1.48768,0 1.47288,0.19001 -0.27756,3.56399 -0.79685,1.53594 -1.25845,3.10065 -1.02576,3.47714 0.65025,1.05213 9.01723,3.19564 10.95013,2.80528 1.55469,-0.31398 1.51911,-0.5952 -0.38015,-3.00414 -4.3959,-5.57559 -1.78645,-8.5323 2.85986,-3.24044 2.38087,2.71166 3.08154,4.3699 2.85075,6.74675 -0.27576,2.83993 -0.65196,3.16733 -3.80601,3.31238 -1.925,0.0885 -5.73644,-0.27598 -8.46987,-0.81003 z M 524.2,76.480211 c -1.73251,-1.73251 -1.53782,-8.73313 0.26208,-9.42382 1.73397,-0.66539 6.53792,4.16202 6.53792,6.56984 0,2.09981 -1.92815,4.05398 -4,4.05398 -0.88,0 -2.14,-0.54 -2.8,-1.2 z m -244.74545,-3.25455 c -3.00356,-3.00355 -3.039,-3.71757 -0.30481,-6.14046 2.14642,-1.90206 2.14872,-1.90082 1.49099,0.805 -0.50682,2.08499 -0.21057,2.94985 1.28452,3.75 2.73177,1.462 7.34675,1.29282 9.59587,-0.35178 1.59339,-1.16511 1.69193,-1.64657 0.60504,-2.95619 -1.77453,-2.13818 -0.54846,-3.94839 1.81688,-2.6825 6.31937,3.38202 1.05731,10.03048 -7.93883,10.03048 -3.01457,0 -4.74278,-0.64766 -6.54966,-2.45455 z m 88.0079,-12.42714 c 0.57814,-1.82156 0.27063,-2.11831 -2.19506,-2.11831 -1.57707,0 -3.40739,0.54 -4.06739,1.2 -1.85279,1.85279 -4.02618,-0.66668 -2.56854,-2.97752 1.53863,-2.43924 10.21126,-2.41893 11.75444,0.0275 1.20885,1.91643 0.0167,4.78248 -2.31228,5.55879 -0.90126,0.30042 -1.08327,-0.20302 -0.61117,-1.69048 z m -253.6262,-4.04012 c -2.23505,-1.87992 -4.28232,-2.84425 -5.25,-2.47291 -0.87244,0.33478 -1.58625,0.1587 -1.58625,-0.3913 0,-2.12846 3.45269,-2.26306 5.9505,-0.23198 4.86698,3.95754 8.31167,4.99262 12.81291,3.85008 7.13125,-1.8101 9.05299,-6.22781 3.75853,-8.64013 -1.30241,-0.59342 -2.51516,-2.11687 -2.69498,-3.38545 -0.30868,-2.17754 -0.69039,-2.28866 -6.82696,-1.98746 -3.575,0.17548 -12.125,0.97639 -19,1.77981 -19.34425,2.2606 -42.683718,2.83101 -61.037717,1.49176 -15.997756,-1.16733 -22.487705,-2.43144 -21.412732,-4.17078 0.288272,-0.46644 5.345053,-0.52671 11.23729,-0.13395 17.835769,1.1889 49.688129,0.63573 64.213159,-1.11516 17.8078,-2.14661 21.60829,-2.49334 40.5,-3.69486 8.8,-0.55968 21.85,-1.43706 29,-1.94974 7.15,-0.51267 18.12478,-0.95327 24.3884,-0.97912 6.26362,-0.0258 16.38862,-0.48936 22.5,-1.03003 20.6855,-1.83002 69.98963,-5.02473 93.1116,-6.03327 12.65,-0.55177 28.85,-1.48663 36,-2.07746 9.40032,-0.77679 16.32278,-0.76619 25,0.0383 6.6,0.61189 14.25,1.06967 17,1.01728 2.75,-0.0524 7.475,-0.0545 10.5,-0.005 9.21946,0.15198 14.91183,-0.97101 17.61346,-3.4748 3.05605,-2.83226 13.98144,-7.31278 19.6853,-8.07298 8.13582,-1.08434 25.16367,-0.7553 29.13799,0.56304 2.98733,0.99094 8.05188,1.13547 21,0.59926 24.93555,-1.03262 30.55388,-2.66408 41.45467,-12.0376903 6.8783,-5.91466 8.70646,-5.71736 12.21591,1.31836 4.54774,9.1172803 4.54895,12.1456403 0.009,21.5259303 -2.77529,5.73373 -5.18046,9.14237 -8.11491,11.50057 -2.29382,1.84336 -3.79493,3.68591 -3.33581,4.09457 0.8831,0.78603 9.64279,2.55582 17.58476,3.55278 4.20517,0.52788 4.75,0.876 4.75,3.035 0,2.27679 -0.34861,2.43795 -5.25,2.42692 -8.41906,-0.0189 -22.84429,-4.04747 -33.25,-9.28575 -2.75,-1.38436 -9.87818,-4.42225 -15.8404,-6.75087 C 479.85712,31.803301 474,27.949011 474,25.326931 c 0,-1.25829 4.65047,-0.2435 11,2.40033 3.025,1.25956 10.79088,4.49939 17.2575,7.19962 l 11.7575,4.90951 3.7425,-2.98527 c 6.25195,-4.98697 9.01565,-8.40358 11.68816,-14.44942 3.60455,-8.15435 3.20509,-11.30801 -0.86297,-6.81287 -3.19261,3.52781 -6.76987,4.36157 -11.58926,2.70116 -2.82888,-0.97463 -4.93021,-1.1788 -6.03685,-0.58654 -3.87649,2.07463 -11.49487,3.08293 -29.76727,3.93973 -15.93966,0.74742 -20.02031,0.65512 -23.37572,-0.52874 -5.86046,-2.06769 -25.95197,-1.93678 -32.38545,0.21101 -2.71048,0.90488 -5.76963,2.51902 -6.79812,3.58696 -4.19218,4.35304 -20.76148,8.43211 -28.892,7.11271 C 384.49617,31.174491 377,32.478791 377,34.241481 c 0,0.7913 -0.70156,1.43873 -1.55902,1.43873 -0.85746,0 -1.33715,0.35899 -1.06598,0.79775 0.82894,1.34124 -0.71149,2.8187 -4.17425,4.0036 -4.13625,1.41536 -8.55747,0.57911 -10.89963,-2.0616 -1.77232,-1.99823 -1.75315,-2.02006 1.19888,-1.36533 7.22334,1.60206 10.5,1.85679 10.5,0.81627 0,-0.58996 -0.45,-1.35077 -1,-1.69069 -0.55,-0.33992 -1,-1.4639 -1,-2.49774 0,-3.6141 -4.11832,-3.68541 -56,-0.96973 -9.625,0.50381 -28.01665,1.3845 -40.87034,1.9571 -12.85369,0.5726 -23.7967,1.30459 -24.31781,1.62665 -1.17528,0.72637 -26.2102,2.10661 -59.8366,3.29896 -24.17478,0.85721 -57.02227,2.94995 -57.8625,3.68647 -0.21298,0.1867 1.02452,1.65824 2.75,3.27008 6.4873,6.06005 2.24812,11.97973 -9.18723,12.82925 -5.75681,0.42766 -6.42393,0.24983 -9.83927,-2.62285 z m 411.47134,-45.37946 c 2.37869,-1.8157003 4.14509,-3.8407003 3.92532,-4.5000003 -0.60183,-1.8055 -2.02137,-1.44061 -2.69878,0.69372 -0.33035,1.04085 -1.92075,2.4392703 -3.53423,3.1075903 -1.61347,0.66832 -3.45361,1.84172 -4.08919,2.60755 -2.27855,2.74549 1.95399,1.48248 6.39688,-1.90886 z m -302.01031,45.5894 c -2.22733,-0.41948 -2.61387,-1.13765 -3.81176,-7.08222 -0.36509,-1.81175 -1.60854,-4.17425 -2.76322,-5.25 l -2.09942,-1.95591 h 2.56611 c 3.22706,0 4.9769,2.07427 5.73844,6.8024 0.53042,3.29319 0.95114,3.73198 3.84669,4.0119 2.52143,0.24376 3.92163,-0.3562 6.2385,-2.67308 1.64306,-1.64305 2.99427,-4.03449 3.00269,-5.3143 0.0215,-3.25967 1.11246,-4.62485 3.99732,-5.00186 2.97398,-0.38865 3.96414,1.53432 1.02698,1.99449 -1.43903,0.22546 -2.03961,1.07408 -2.03961,2.88197 0,6.8564 -8.30004,12.98077 -15.70272,11.58661 z M 330,49.680211 c 0,-0.55 0.64234,-1 1.42742,-1 0.78508,0 2.31311,-1.12597 3.39562,-2.50216 1.08251,-1.37619 3.92767,-3.38122 6.32258,-4.45563 3.63428,-1.63042 4.35438,-2.41559 4.35438,-4.74784 0,-2.56827 0.29548,-2.78584 3.65189,-2.68901 2.00853,0.058 4.39956,0.39227 5.31338,0.74294 2.48929,0.95523 0.83657,2.6517 -2.5833,2.6517 -1.76058,0 -2.74271,0.41631 -2.37723,1.00767 0.95136,1.53933 -1.98849,3.93782 -6.86197,5.59838 -2.41438,0.82266 -5.42514,2.59785 -6.69059,3.94485 -2.29956,2.44777 -5.95218,3.33703 -5.95218,1.4491 z m -6,-3 c 0,-0.55 0.49383,-1 1.09739,-1 0.60357,0 3.75357,-2.78277 7,-6.18394 L 338,33.312331 v 3.33878 c 0,4.42596 -6.61093,11.0291 -11.04211,11.0291 -1.62684,0 -2.95789,-0.45 -2.95789,-1 z"
     id="path15427" />
</svg>
