<?xml version="1.0" encoding="UTF-8" standalone="no"?>
<!-- Created with Inkscape (http://www.inkscape.org/) -->

<svg
   xmlns:dc="http://purl.org/dc/elements/1.1/"
   xmlns:cc="http://creativecommons.org/ns#"
   xmlns:rdf="http://www.w3.org/1999/02/22-rdf-syntax-ns#"
   xmlns:svg="http://www.w3.org/2000/svg"
   xmlns="http://www.w3.org/2000/svg"
   xmlns:sodipodi="http://sodipodi.sourceforge.net/DTD/sodipodi-0.dtd"
   xmlns:inkscape="http://www.inkscape.org/namespaces/inkscape"
   version="1.1"
   id="svg850"
   width="2712.8867"
   height="1393.7382"
   viewBox="0 0 2712.8867 1393.7382"
   sodipodi:docname="splinting-an-arm.svg"
   inkscape:version="0.92.4 (5da689c313, 2019-01-14)">
  <metadata
     id="metadata856">
    <rdf:RDF>
      <cc:Work
         rdf:about="">
        <dc:format>image/svg+xml</dc:format>
        <dc:type
           rdf:resource="http://purl.org/dc/dcmitype/StillImage" />
        <dc:title></dc:title>
      </cc:Work>
    </rdf:RDF>
  </metadata>
  <defs
     id="defs854" />
  <sodipodi:namedview
     pagecolor="#ffffff"
     bordercolor="#666666"
     borderopacity="1"
     objecttolerance="10"
     gridtolerance="10"
     guidetolerance="10"
     inkscape:pageopacity="0"
     inkscape:pageshadow="2"
     inkscape:window-width="1598"
     inkscape:window-height="898"
     id="namedview852"
     showgrid="false"
     fit-margin-top="0"
     fit-margin-left="0"
     fit-margin-right="0"
     fit-margin-bottom="0"
     inkscape:zoom="0.30791667"
     inkscape:cx="816.84003"
     inkscape:cy="651.60433"
     inkscape:window-x="0"
     inkscape:window-y="0"
     inkscape:window-maximized="0"
     inkscape:current-layer="svg850" />
  <path
     style="fill:#000000"
     d="m 178.66781,1361.54 c -7.96747,-3.6627 -13.7524,-9.3149 -20.41758,-19.9494 -3.37056,-5.3777 -6.94568,-9.9478 -7.94473,-10.1557 -0.99904,-0.2078 -3.33499,-1.4189 -5.19101,-2.6912 -1.85601,-1.2722 -5.75699,-3.2273 -8.66883,-4.3446 -7.05412,-2.7066 -29.59777,-20.5098 -42.193838,-33.3214 -12.499669,-12.7135 -18.666768,-20.9614 -47.67326,-63.7584 -27.326285,-40.3178 -38.6878574,-60.8638 -41.8246784,-75.6347 -1.231821,-5.8006 0.221589,-20.6139 3.629425,-36.9916 3.1528874,-15.1525 3.0794644,-16.4517 -2.611176,-46.2163 -4.95608204,-25.9222 -6.68147604,-41.502 -5.32692904,-48.1002 2.94897104,-14.3649 23.01475044,-44.39338 65.44881844,-97.94428 7.746012,-9.7753 16.104688,-21.03 18.574813,-25.0102 10.621957,-17.1159 13.407672,-22.3329 15.506247,-29.0398 7.192948,-22.98828 22.510608,-43.47076 43.152358,-57.70258 19.15103,-13.20404 50.34198,-25.0264 77.63584,-29.42632 2.03449,-0.32802 4.2719,-0.86775 4.97207,-1.19947 1.36109,-0.64485 20.65528,-0.68805 88.77869,-0.19877 36.69767,0.26367 98.93436,-1.17325 132.91222,-3.06852 17.28033,-0.96386 112.47576,-11.65088 135.95283,-15.2626 37.69075,-5.79835 74.8305,-14.09553 76.79983,-17.15746 0.43774,-0.6806 1.40958,-1.10972 2.15967,-0.95364 0.95442,0.19859 1.62694,-0.98084 2.24038,-3.92899 1.40936,-6.77323 6.64252,-10.70593 17.98158,-13.51316 5.12232,-1.26811 12.8231,-3.71056 17.11284,-5.42759 21.22,-8.49362 37.57333,-13.05935 68.86041,-19.22512 27.6051,-5.44012 57.22955,-10.01288 76.5102,-11.80971 19.66231,-1.83244 20.47383,-1.98859 25.7872,-4.9606 3.76,-2.10324 12.54322,-3.41263 16.86231,-2.51392 3.52011,0.73245 19.96335,-2.84136 51.69915,-11.23647 15.78912,-4.17661 37.99556,-9.42255 49.3477,-11.65752 11.35204,-2.23489 32.46094,-6.67102 46.90864,-9.85795 46.7949,-10.32246 61.2672,-12.17072 71.6196,-9.14678 l 6.0973,1.78107 51.8347,-13.48837 c 28.5091,-7.41855 62.4668,-15.98747 75.4616,-19.04191 12.9947,-3.05453 29.7508,-7.37303 37.2358,-9.59677 7.4849,-2.22373 20.0076,-5.73982 27.8282,-7.81354 13.5969,-3.60542 14.3961,-3.97005 18.2664,-8.33312 6.0359,-6.80438 10.6144,-9.18866 23.6551,-12.31821 11.156,-2.67742 12.5406,-3.31951 24.8711,-11.53336 26.2734,-17.50201 42.1767,-25.46839 75.3706,-37.75529 22.8323,-8.45146 31.2612,-11.18904 65.6314,-21.31595 12.5679,-3.70304 30.0411,-9.25913 38.8294,-12.34684 8.7883,-3.08773 24.581,-8.29817 35.0947,-11.57877 26.4676,-8.25863 34.6134,-11.15348 59.561,-21.16696 27.578,-11.06922 45.6388,-19.35547 55.3318,-25.38601 9.0088,-5.60493 13.3076,-6.46119 27.5631,-5.49041 12.2056,0.83119 11.6295,1.01316 36.2644,-11.45688 20.8821,-10.57041 22.3853,-11.106 30.836,-10.98619 5.8033,0.0823 8.9849,-0.8709 26.1438,-7.8323 10.7449,-4.35928 23.8992,-10.1175 29.2317,-12.79604 15.3683,-7.7196 52.1377,-32.54063 62.6483,-42.29048 l 9.1378,-8.47638 -0.7222,-3.74237 c -0.8732,-4.52467 -0.1678,-8.35076 2.2998,-12.47487 1.7928,-2.9964 3.6631,-5.16004 13.7688,-15.92834 6.6316,-7.06658 9.2173,-12.39166 13.3281,-27.44849 4.184,-15.3247 5.839,-17.82112 16.0772,-24.2503 11.6634,-7.32418 21.0559,-11.81384 36.4435,-17.42029 0.1838,-0.0669 -0.4969,-3.03714 -1.5126,-6.60041 -2.2202,-7.7902 -1.9793,-13.70292 0.7221,-17.71767 4.4978,-6.68424 17.0437,-19.54633 22.5844,-23.15362 4.8332,-3.14667 7.7161,-4.12509 15.421,-5.23368 5.2121,-0.74993 10.9365,-1.33435 12.7208,-1.29872 l 3.2443,0.0648 -1.6093,-4.04988 c -2.3742,-5.97478 -3.0863,-13.04409 -1.6647,-16.52615 2.1313,-5.22002 14.9525,-10.47014 21.9918,-9.00542 2.1657,0.45064 2.2489,0.15937 1.1148,-3.90506 -5.743,-20.58278 17.2792,-50.846217 43.5462,-57.242997 9.7926,-2.38477 14.6261,-2.63186 28.9632,-1.48066 l 10.0463,0.80668 0.625,-3.91961 c 0.7218,-4.52739 -0.1277,-14.71819 -2.8997,-34.78487 -1.892,-13.69596 -1.882,-14.57744 0.2844,-24.96558 1.858,-8.92931 2.8323,-11.6594002 5.6798,-15.9836002 2.5006,-3.79750002 3.8568,-5.03487002 4.9889,-4.55167002 1.8965,0.80944 1.3778,3.04348002 -2.8906,12.45025022 -4.9893,10.99582 -5.1452,17.00384 -1.2068,46.53057 1.102,8.26315 1.7977,17.56819 1.5457,20.67783 -0.4081,5.03674 -0.7251,5.79134 -2.9036,6.91308 -1.345,0.69255 -2.5355,1.69214 -2.6456,2.22129 -0.3095,1.48777 -3.0498,1.60915 -8.8905,0.39383 -2.9403,-0.6118 -8.8841,-1.13462 -13.2086,-1.16185 -19.3244,-0.12157 -34.3162,7.28288 -46.3964,22.915267 -6.0064,7.77254 -6.9808,9.6062 -8.8256,16.6085 -1.7269,6.55519 -1.8755,8.59635 -0.8895,12.20714 1.8425,6.74664 2.3964,7.12205 10.5062,7.12041 8.9564,-0.002 19.8278,-2.74859 23.3582,-5.90169 1.492,-1.33255 3.2907,-2.30256 3.9972,-2.15556 3.9622,0.82445 -3.2027,7.09139 -10.6939,9.35369 -3.0671,0.92625 -9.8669,1.8618 -15.1106,2.07901 -5.2438,0.2172 -10.7248,0.59503 -12.1802,0.83961 -1.4553,0.24459 -4.7437,0.3199 -7.3074,0.16739 -5.4484,-0.32413 -14.2003,2.66214 -15.5057,5.29073 -1.1899,2.39615 -0.3679,8.53393 1.8412,13.74617 0.9721,2.29369 1.7562,5.60415 1.7427,7.3566 -0.027,3.53885 -0.3163,3.64951 -8.4185,3.22594 -5.4567,-0.28527 -19.0814,1.95913 -23.3996,3.85457 -3.5967,1.57882 -12.3892,10.03674 -19.6153,18.86917 -5.9801,7.3093 -6.4123,10.15603 -3.015,19.85668 1.1947,3.41165 2.014,6.96389 1.8205,7.89388 -0.2231,1.07224 -4.5146,3.28735 -11.7294,6.05434 -14.2773,5.4756 -32.7428,15.89979 -36.1926,20.4315 -1.8885,2.48082 -3.4919,6.8735 -6.0082,16.45894 -4.1368,15.75871 -6.589,20.15759 -17.8709,32.05805 -13.611,14.35718 -14.162,17.76596 -4.8023,29.71332 17.4624,22.29009 45.9824,39.82345 112.8936,69.40412 29.2524,12.93217 30.8264,13.95633 51.2341,33.33752 16.5422,15.71011 26.6178,23.98877 46.1641,37.93094 18.4286,13.14489 19.1602,13.76628 37.8679,32.16237 15.1806,14.92778 40.6731,35.74656 56.3124,45.98826 11.5958,7.59374 35.3862,20.85879 50.7954,28.32252 9.599,4.64941 11.4611,5.20259 31.2636,9.2874 14.6808,3.02828 24.0749,4.4687 31.0243,4.75689 6.1069,0.25328 10.7402,0.907 11.9625,1.68779 2.6081,1.66607 9.3569,1.79065 13.9873,0.25823 2.0242,-0.66996 5.5257,-3.11449 7.7811,-5.43231 7.3153,-7.51804 9.122,-8.38252 16.8905,-8.08206 12.5464,0.48526 14.7918,-0.66779 19.9295,-10.23436 3.8699,-7.20612 5.8742,-7.53552 15.7824,-2.59405 l 7.6845,3.83246 3.2493,-2.60703 c 11.5211,-9.24364 12.9821,-10.94106 16.412,-19.06698 2.9623,-7.01796 3.2395,-10.80226 1.3617,-18.58598 -2.2673,-9.39817 -2.0319,-9.70103 9.9181,-12.75912 9.9925,-2.55718 10.6728,-2.91385 15.3618,-8.05343 10.2936,-11.28277 28.7163,-39.93615 40.1031,-62.37391 2.4498,-4.82718 5.0149,-9.23455 5.7005,-9.79412 1.9866,-1.62153 4.9143,-0.4809 9.8471,3.83646 5.4247,4.74778 8.3637,5.52548 16.9678,4.4899 10.1992,-1.22763 18.5396,-3.86667 22.6533,-7.16799 5.3101,-4.26141 11.9142,-14.30777 14.8806,-22.63704 1.376,-3.86357 2.924,-7.25805 3.4401,-7.54328 5.7648,-3.18618 23.8073,-9.7224 29.62,-10.73037 23.4248,-4.062 28.678,-7.85428 37.3527,-26.96492 2.0381,-4.48977 4.9169,-14.83159 9.2667,-33.28923 6.8345,-29.00081 7.7074,-31.11885 13.817,-33.52296 3.2846,-1.29249 14.7526,-1.72623 15.9376,-0.60279 1.7695,1.67746 0.031,4.53488 -2.7876,4.58102 -6.2463,0.10223 -10.1006,0.40725 -11.2682,0.8917 -3.1195,1.29436 -4.4779,4.82947 -7.6086,19.79975 -4.0605,19.41653 -8.8301,35.61708 -13.6901,46.49882 -8.3353,18.66362 -14.099,22.91358 -36.7459,27.09587 -9.2792,1.7136 -26.5328,7.95126 -30.2061,10.92026 -0.8442,0.68236 -1.8809,2.90331 -2.3037,4.93544 -1.5354,7.37893 -10.5934,20.25183 -17.9558,25.51833 -5.3283,3.81148 -10.7119,5.5389 -22.3592,7.17432 -9.7929,1.37505 -15.1717,0.27908 -20.8332,-4.24494 -4.3296,-3.45966 -6.2681,-3.89086 -6.7646,-1.5047 -0.5786,2.78078 -17.4412,32.24672 -25.1403,43.93076 -16.5149,25.0622 -22.672,31.06608 -34.634,33.77176 -4.3084,0.9745 -7.9311,2.24108 -8.0505,2.8146 -0.1193,0.57351 0.3442,3.09467 1.0301,5.60257 2.7504,10.05648 -2.8866,27.12863 -11.0317,33.41037 -1.8662,1.43919 -4.697,4.0215 -6.2907,5.73843 -5.4137,5.83212 -11.0288,6.29043 -18.8755,1.54058 -6.3072,-3.81806 -7.0695,-3.66867 -10.0645,1.97273 -3.9515,7.44282 -9.8504,11.16155 -17.6913,11.15267 -13.2695,-0.015 -12.984,-0.10253 -17.9313,5.49556 -7.5371,8.52853 -17.7471,11.37891 -28.4946,7.95495 -3.035,-0.96688 -10.09,-2.03893 -15.8418,-2.40724 -5.7034,-0.3652 -14.4039,-1.49499 -19.3345,-2.51064 l -8.9645,-1.84662 -4.4281,4.44107 c -2.4354,2.44258 -7.6084,7.91604 -11.4956,12.16324 -11.2342,12.27481 -26.6691,26.87283 -43.7357,41.36415 -1.1483,0.97511 -0.428,1.24185 4.6515,1.72265 3.3055,0.31289 17.4194,2.51144 31.3643,4.88569 31.6626,5.39089 46.8939,9.59007 53.6373,14.78755 8.8456,6.81771 15.3814,23.0556 15.3634,38.1696 -0.014,11.38033 -3.1195,25.31897 -7.01,31.45971 -2.9159,4.60225 -4.6254,5.80819 -20.7575,14.642 -16.6627,9.12441 -31.2067,16.72916 -69.2779,36.2243 -37.1321,19.01419 -62.5225,27.11855 -163.8987,52.31536 -14.8105,3.6811 -29.6414,7.2664 -32.9575,7.9673 -4.9633,1.0491 -6.9512,2.1667 -11.2426,6.3203 -2.8672,2.7753 -10.0668,7.8714 -15.9991,11.3247 -5.9324,3.4533 -19.8011,12.0518 -30.8196,19.1078 -23.1027,14.7944 -57.9062,32.6287 -84.0344,43.0616 -60.2349,24.0518 -101.9519,35.9497 -183.0305,52.2012 -61.137,12.25418 -71.8177,13.25738 -92.6548,8.7016 -10.2896,-2.2497 -14.0757,-2.6599 -19.961,-2.1626 -5.0993,0.4309 -8.6406,0.1524 -11.8885,-0.9348 -4.2322,-1.4168 -11.9068,-6.5293 -14.9856,-9.9829 -0.9817,-1.1013 -11.14,-0.3311 -46.7006,3.5408 -42.0181,4.5751 -59.6333,6.7123 -110.5348,13.41088 -52.6755,6.9321 -136.1215,21.9764 -204.2866,36.8303 -23.8328,5.1933 -46.7134,9.8046 -50.8461,10.2471 -4.1326,0.4426 -11.1641,2.2055 -15.6257,3.9176 -13.0972,5.0258 -32.6,9.2697 -72.0098,15.6695 -20.35,3.3047 -43.3708,7.6545 -51.1575,9.6663 -7.7867,2.0119 -14.6373,3.558 -15.2238,3.436 -0.5863,-0.122 -2.287,0.5751 -3.7792,1.5493 -1.4923,0.9741 -7.5179,2.7722 -13.3903,3.9957 -20.8609,4.3464 -150.2912,39.8372 -170.06618,46.6334 -6.65552,2.2874 -22.86686,7.3012 -36.02521,11.142 -13.15836,3.8408 -27.6695,8.7367 -32.24706,10.8797 -12.06244,5.6471 -16.649,6.4197 -24.4178,4.113 -5.42398,-1.6104 -7.15056,-1.6837 -12.09073,-0.5136 -7.49073,1.7744 -13.17825,0.6009 -18.19591,-3.7545 l -3.83766,-3.3307 -14.75259,2.8424 c -12.8194,2.47 -77.77063,12.152 -97.24598,14.4961 -13.87383,1.6698 -54.7651,3.3868 -67.49568,2.834 -5.01074,-0.2177 -14.28744,-1.471 -20.61487,-2.7854 -6.32698,-1.3165 -11.55535,-2.145 -11.6176,-1.8458 -0.0623,0.2992 1.46897,5.2118 3.40271,10.9169 2.71938,8.0232 4.08363,10.6412 6.02205,11.5566 12.73508,6.0142 49.1473,25.3545 51.19542,27.1924 3.29904,2.9603 5.5697,16.2539 5.13325,30.0522 -0.60525,19.1345 -10.12407,49.1513 -22.33311,70.4256 -18.42692,32.1091 -52.65515,57.5985 -81.22744,60.4893 -27.78764,2.8113 -68.55358,-4.9443 -112.88676,-21.4765 l -3.31756,-1.2371 -1.89365,9.1007 c -1.76759,8.4948 -2.24421,9.5613 -7.15852,16.0175 -3.46019,4.5457 -5.23178,7.7276 -5.16837,9.2826 0.16343,4.008 0.68518,4.0164 -26.55389,-0.4346 -9.43906,-1.5424 -20.56758,-3.9517 -25.41211,-5.5017 -4.87908,-1.5608 -15.69485,-3.8973 -24.92584,-5.3842 -34.87323,-5.6177 -83.86137,-15.4576 -89.22012,-17.9211 z m 20.29097,-2.3413 c 1.08254,-1.2459 1.2978,-1.1778 2.13991,0.6768 0.88805,1.956 2.76253,2.4074 36.39357,8.7652 l 35.45726,6.7033 8.53901,-5.7351 c 14.28038,-9.591 30.57309,-12.2018 48.46859,-7.7668 10.18509,2.5242 12.82974,4.8762 13.63692,12.1282 0.29366,2.6384 0.77538,5.159 1.07046,5.6013 0.29509,0.4423 2.14928,-2.1477 4.12041,-5.7555 2.87759,-5.267 3.70964,-7.8327 4.22195,-13.0188 0.35092,-3.5524 0.49828,-6.488 0.32746,-6.5235 -2.56096,-0.5329 -35.12266,-14.4665 -44.18481,-18.9073 -32.8058,-16.0762 -54.45794,-36.1078 -79.19137,-73.2646 -12.39602,-18.6223 -19.3442,-37.899 -23.54285,-65.3162 -0.86695,-5.6612 -2.54106,-12.4444 -3.72024,-15.074 -1.17918,-2.6294 -3.40615,-8.0312 -4.94882,-12.0038 l -2.80486,-7.2228 -9.55249,-2.4984 c -12.98412,-3.3958 -12.94872,-5.2616 0.0664,-3.5022 7.53799,1.0191 10.34088,1.0051 11.79967,-0.059 5.87024,-4.2809 17.21145,-29.905 24.47267,-55.2931 3.7436,-13.0891 10.64449,-47.5044 11.00574,-54.8864 0.26828,-5.4826 -6.41811,-26.6659 -12.72552,-40.3158 -4.36057,-9.43658 -4.80465,-11.33848 -2.53729,-10.86668 2.81867,0.5865 11.1229,20.57278 15.69089,37.76418 1.77349,6.6746 3.59419,12.2124 4.04599,12.3064 1.1793,0.2454 17.33019,-8.7283 21.23958,-11.801 1.81329,-1.4252 4.52358,-4.2691 6.02283,-6.3197 1.49925,-2.0506 7.20286,-6.7562 12.67468,-10.4568 5.47181,-3.7006 14.93434,-11.0505 21.02785,-16.3331 l 11.0791,-9.60468 1.00796,-8.1922 c 1.32414,-10.7618 1.13201,-18.7706 -0.82437,-34.3636 -1.22716,-9.7808 -1.28286,-13.0629 -0.23341,-13.7508 1.52686,-1.0009 2.8487,3.927 3.92525,14.6336 0.32523,3.2345 0.84962,5.9347 1.16532,6.0004 0.31569,0.066 2.51828,-2.9148 4.89462,-6.6233 2.37637,-3.7086 4.65643,-6.4244 5.06684,-6.0354 1.20478,1.1422 0.26659,3.7655 -3.73932,10.4557 -4.71178,7.8691 -5.72068,11.2051 -6.08098,20.1072 -0.15783,3.8996 -0.53746,9.647 -0.84364,12.772 -0.66463,6.7837 0.2444,7.9453 9.70772,12.4054 7.15757,3.37328 12.69812,4.03328 14.18853,1.6899 0.50735,-0.7976 2.74152,-3.1401 4.96486,-5.2055 5.45321,-5.0658 14.58581,-16.8522 17.03889,-21.9901 1.09793,-2.2995 3.80585,-8.0693 6.01761,-12.8217 3.95592,-8.5 8.0476,-13.7676 10.94926,-14.0957 1.08905,-0.1232 1.17286,0.2736 0.32048,1.5201 -2.75169,4.023 -8.37793,13.748 -9.6638,16.704 -1.3671,3.1426 -1.19485,3.0816 7.33827,-2.5975 8.40582,-5.5943 26.62439,-14.7842 28.525,-14.3888 2.42762,0.5052 -3.60214,4.8678 -13.09038,9.4711 -12.84067,6.2298 -21.37208,12.9205 -30.11282,23.6155 -3.65169,4.4681 -9.61926,11.5006 -13.26125,15.6277 -3.64196,4.1271 -6.45177,7.97178 -6.24399,8.54378 0.20777,0.572 1.97425,1.6756 3.92549,2.4524 1.95126,0.7768 7.93805,3.5156 13.304,6.0862 l 9.75625,4.6739 20.43393,-12.9948 c 19.65706,-12.50078 43.10804,-30.45808 47.7803,-36.58718 5.15417,-6.7612 16.78259,-22.6672 18.89868,-25.8507 1.61916,-2.4358 2.76262,-3.2336 3.93419,-2.7446 2.69784,1.1261 1.91133,3.4914 -4.10604,12.3481 -3.14002,4.6217 -6.43569,9.6601 -7.32376,11.1966 -5.22619,9.042 -33.84044,32.518 -56.53017,46.37898 -16.67356,10.1859 -19.89608,13.118 -37.93781,34.5191 -14.88397,17.6554 -18.79502,21.4518 -36.8176,35.7391 -18.67961,14.8081 -34.27688,30.2434 -47.42487,46.9323 -14.58428,18.5121 -18.70628,26.4331 -22.24904,42.7548 -1.54022,7.0958 -2.93233,16.7267 -3.1533,21.8151 l -0.39566,9.1104 2.69314,-9.6538 c 2.72865,-9.7811 7.3771,-20.8506 10.14616,-24.1613 2.81141,-3.3613 26.87367,-18.4794 31.36396,-19.7056 9.27055,-2.5318 24.74836,3.3323 39.30679,14.8924 6.88073,5.4636 18.37022,21.3973 20.94903,29.0521 2.16347,6.4221 0.62397,14.4463 -3.82154,19.9184 -5.86203,7.2158 -17.03505,17.6102 -26.7283,24.8658 -5.3363,3.9944 -9.46214,7.3125 -9.16855,7.3736 1.72405,0.3587 20.48458,-5.4238 26.19975,-8.0754 6.76233,-3.1375 22.87822,-12.8115 50.77353,-30.4781 8.08811,-5.1224 28.82418,-18.0258 46.08017,-28.6743 17.25601,-10.6486 34.92268,-22.2945 39.2593,-25.8798 4.33661,-3.5854 11.68985,-11.0798 16.34053,-16.6543 14.31949,-17.164 20.49506,-23.593 26.6747,-27.7691 3.50089,-2.3659 19.22832,-9.3717 38.27598,-17.0501 17.7833,-7.1688 34.65368,-14.2455 37.48977,-15.7261 2.83607,-1.4805 12.75675,-6.0832 22.04593,-10.2282 48.26026,-21.5347 70.09931,-35.0778 97.13397,-60.2363 23.2611,-21.64658 27.80872,-27.28908 49.8685,-61.87428 23.58584,-36.9775 35.03485,-50.7091 55.03758,-66.0104 l 8.75124,-6.6943 -1.78074,-2.9394 c -3.20738,-5.2941 -20.32745,-25.66098 -28.9363,-34.42408 -11.19547,-11.39585 -35.36338,-30.05375 -60.72343,-46.87897 -11.3536,-7.53255 -27.22747,-18.98238 -35.2753,-25.44394 -17.05583,-13.69408 -12.56606,-13.00602 -37.89267,-5.80736 -38.54546,10.95588 -71.32704,16.17024 -164.79559,26.21264 -46.41444,4.98678 -112.36431,7.69769 -176.16941,7.24151 -64.85819,-0.46377 -81.50251,-0.27714 -91.45599,1.02571 -29.29351,3.83409 -66.64935,18.72227 -84.72321,33.76633 -18.44125,15.34994 -27.91865,29.77936 -34.85159,53.06176 -2.83876,9.5332 -4.1863,12.7713 -5.672273,13.6303 -2.167353,1.2528 -8.192556,9.8465 -8.736535,12.4608 -0.191878,0.9221 -11.81121,16.3141 -25.820728,34.2043 -34.178209,43.6457 -52.911125,70.69398 -55.5239324,80.17018 -0.492366,1.7858 -1.279952,3.4989 -1.750211,3.8072 -0.470259,0.3083 -1.104057,1.7573 -1.408447,3.2202 -0.382107,1.8364 0.01975,2.9444 1.298088,3.5792 2.142891,1.0643 1.920034,4.1893 -0.266327,3.7344 -0.8077,-0.1681 -1.552903,0.1 -1.656024,0.5954 -0.383492,1.843 2.335756,19.3505 5.8932844,37.9433 2.018586,10.5497 3.573842,19.6442 3.456136,20.2099 -0.117706,0.5656 0.226541,1.1202 0.765008,1.2322 0.538466,0.1121 1.20829,-0.8981 1.488479,-2.2446 0.514908,-2.4746 10.621673,-29.9859 18.992407,-51.6987 2.503032,-6.4925 10.469168,-24.8292 17.702533,-40.74818 7.233344,-15.9189 14.140308,-31.2656 15.348818,-34.104 2.336238,-5.4869 4.640241,-7.8895 6.172563,-6.4368 1.632277,1.5475 0.107206,5.6035 -12.499896,33.2447 -15.512,34.01018 -20.383536,45.51098 -27.818832,65.67538 -3.270584,8.8697 -7.539865,20.3916 -9.487291,25.6042 -4.44634,11.9013 -13.00075,43.7208 -13.442939,50.0031 -0.310001,4.4043 -0.127427,4.7883 2.694577,5.6678 2.025527,0.6312 3.016159,1.5581 2.994025,2.8013 -0.02755,1.5471 -0.568736,1.6909 -3.234644,0.8591 l -3.201566,-0.9989 -0.7323914,4.9547 c -0.402816,2.7251 -0.569634,6.5219 -0.370676,8.4373 l 0.361716,3.4826 5.9098644,0.531 c 4.94537,0.4444 5.858773,0.7765 5.596776,2.0356 -0.214899,1.0328 -1.73797,1.4244 -4.856212,1.2487 -2.498699,-0.1408 -4.610574,0.068 -4.693037,0.4645 -0.254399,1.2226 3.342112,9.4323 9.526942,21.7467 3.808224,7.5825 14.787373,24.7377 30.807491,48.1374 32.515194,47.4931 36.024786,52.0646 50.873204,66.2661 5.03008,4.8109 19.21892,16.5314 18.27692,15.0973 -0.21331,-0.3247 -3.33227,-4.1116 -6.931,-8.4154 -10.93353,-13.0754 -21.396129,-28.112 -35.097957,-50.4419 -16.736492,-27.2756 -31.250074,-48.1627 -39.750123,-57.2062 -7.961149,-8.47 -11.038232,-13.8975 -11.468418,-20.2286 -0.664975,-9.7867 27.389487,-125.7092 41.309862,-170.6944 2.401439,-7.76058 4.491706,-10.19458 6.543798,-7.61978 0.965402,1.2112 1.020793,2.5558 0.189359,4.5972 -4.633289,11.37598 -26.173383,93.43678 -32.472516,123.70978 l -3.548419,17.0533 3.926994,1.9898 c 4.760113,2.4119 7.400228,5.1826 6.172374,6.4779 -0.641566,0.6766 -2.229928,0.089 -5.429755,-2.0107 -2.487587,-1.632 -4.98394,-2.7998 -5.547456,-2.5951 -0.563517,0.2047 -2.152775,5.7941 -3.531636,12.4208 l -2.507072,12.0487 4.328373,0.061 c 6.895272,0.097 11.729852,1.3064 11.407881,2.8537 -0.192265,0.924 -2.54296,1.2194 -7.44633,0.9356 -3.940971,-0.228 -7.488209,-0.203 -7.882782,0.056 -1.42918,0.9369 1.686732,8.3768 5.215411,12.4531 3.586616,4.1432 5.94329,4.746 8.404416,2.1499 0.901583,-0.951 4.682779,-0.4315 4.465354,0.6134 -0.07682,0.3692 -1.346672,1.5175 -2.821901,2.5518 l -2.682215,1.8804 4.439428,5.6283 c 4.833787,6.1281 22.544803,33.0826 40.721741,61.9744 12.966049,20.6092 22.300049,33.2138 33.888199,45.7622 7.36361,7.9739 19.89607,19.3831 21.75169,19.8021 0.44463,0.1027 -1.22284,-3.5724 -3.70651,-8.1621 -2.48368,-4.5897 -9.09842,-18.0316 -14.69942,-29.8709 -11.58207,-24.4818 -13.74046,-28.3743 -32.725371,-59.0168 -15.538166,-25.0792 -19.891027,-33.6321 -22.550223,-44.3086 -3.386174,-13.5953 -2.913093,-18.9372 4.614201,-52.1015 4.281511,-18.8638 8.808832,-36.1079 12.625501,-48.0892 8.424415,-26.446 15.984672,-52.6947 22.621052,-78.5387 3.14963,-12.26558 6.12048,-23.02348 6.60189,-23.90638 1.31551,-2.4127 3.62828,-1.3939 3.75253,1.653 0.2288,5.6114 -11.67452,49.74528 -25.66635,95.16298 -9.723784,31.5636 -20.434489,74.396 -20.967228,83.8485 -0.234565,4.1618 -0.01159,4.6854 1.97942,4.6483 4.892598,-0.091 12.911196,1.6751 13.074167,2.8798 0.197747,1.462 -1.664006,1.65 -9.336287,0.9427 -6.437605,-0.5934 -6.767655,-0.2081 -5.576776,6.5092 l 0.759446,4.2839 5.046289,0.3703 c 4.050556,0.2973 4.901812,0.6188 4.314074,1.629 -0.402731,0.6923 -2.212917,1.3686 -4.022665,1.5031 -1.809749,0.1344 -3.37763,0.6634 -3.484193,1.1755 -0.439412,2.1118 2.106901,7.3428 3.739688,7.6826 0.966607,0.2011 6.294403,-0.3684 11.839562,-1.2656 7.503473,-1.2141 10.306523,-1.2889 10.959523,-0.2928 0.65298,0.9962 -0.88325,1.7262 -6.00649,2.8542 -3.786146,0.8337 -8.640418,1.7046 -10.787272,1.9353 -2.146875,0.2308 -4.195783,0.7279 -4.553167,1.1049 -0.822073,0.8671 5.795427,12.402 23.085039,40.2389 9.379,15.1006 16.80266,28.7063 23.75886,43.5441 11.485,24.498 20.68726,42.1003 28.02212,53.6015 4.36911,6.8508 5.22812,7.7168 6.5088,6.5607 2.28566,-2.0631 3.67407,0 1.88467,2.8028 -1.54664,2.4211 -1.06687,3.5666 3.0283,7.2297 1.67715,1.5004 3.52917,0.5816 4.10891,-2.0383 0.63827,-2.8843 6.69467,-11.1576 7.97314,-10.8916 1.88341,0.3919 1.64511,1.1032 -3.07444,9.1763 -2.66738,4.5627 -3.81082,7.3696 -3.31207,8.1305 0.84774,1.2932 14.40788,5.6201 18.34353,5.8533 1.38522,0.082 3.06022,-0.4742 3.7222,-1.2361 z m 17.07243,-76.2937 c -0.62055,-1.7084 12.29156,-17.9713 13.98818,-17.6183 1.7648,0.3672 0.87876,2.1666 -5.11617,10.3895 -4.57954,6.2816 -8.1572,9.1966 -8.87201,7.2288 z m 242.39695,-150.0733 c -0.40041,-0.8093 -0.92268,-3.0878 -1.1606,-5.0632 -1.22936,-10.2068 -8.62754,-21.1217 -21.03425,-31.0331 -10.68077,-8.5326 -20.15632,-17.2782 -28.32241,-26.1409 -9.84903,-10.6891 -15.46517,-15.2228 -24.03789,-19.4045 -6.34744,-3.0964 -8.11738,-4.9059 -5.66857,-5.7954 1.51015,-0.5486 14.12155,5.907 18.65284,9.548 1.92976,1.5507 9.25264,8.7187 16.27308,15.9289 7.02046,7.2103 17.48376,16.9368 23.25182,21.6144 16.05079,13.0165 23.01995,23.0427 24.42343,35.1365 0.60694,5.2302 -0.82012,8.3571 -2.37745,5.2093 z m -59.31958,-31.9889 c -3.16312,-3.1293 -10.18411,-9.1487 -15.60221,-13.3764 -10.95274,-8.5463 -18.78603,-17.8235 -16.41128,-19.4363 1.10175,-0.7482 2.34132,0.2382 5.69609,4.5326 2.35832,3.0191 9.40716,9.603 15.6641,14.6309 12.21799,9.8183 19.78577,17.5134 18.52813,18.84 -1.19047,1.2558 -1.69411,0.9238 -7.87483,-5.1908 z m 66.38559,-3.1393 c -4.43397,-8.206 -12.95359,-16.9212 -28.93333,-29.5976 -7.61455,-6.0405 -13.96199,-11.7041 -14.10542,-12.5858 -0.39912,-2.4536 1.11155,-2.844 3.19597,-0.8261 1.03079,0.998 6.99511,5.8314 13.25403,10.7409 12.7919,10.0339 18.95902,15.7874 24.75944,23.0989 6.16467,7.7707 9.2272,15.8556 5.73042,15.128 -0.4224,-0.088 -2.1779,-2.7691 -3.90111,-5.9583 z m -46.16252,-61.9491 c -6.747,-5.3691 -8.94738,-8.8101 -5.00922,-7.8336 2.34555,0.582 14.63812,11.4276 14.25303,12.5759 -0.58512,1.7446 -2.01249,1.0123 -9.24381,-4.7423 z M 235.22903,967.86112 c -2.19107,-7.0858 -2.01759,-10.7303 0.4016,-8.4368 1.50572,1.4273 4.71079,12.4508 4.25584,14.6373 -0.77381,3.7188 -2.16135,1.8715 -4.65744,-6.2005 z m -91.6013,-77.7067 c -1.08707,-1.6583 3.01198,-17.3116 6.96916,-26.6136 8.57184,-20.14938 17.73477,-32.05481 31.41267,-40.81472 15.9914,-10.24158 41.20536,-14.90207 73.82011,-13.64491 18.29725,0.7054 26.53327,1.86001 27.59874,3.8694 1.56443,2.95016 -1.60714,3.42339 -14.97553,2.23442 -25.53323,-2.2708 -47.11042,-0.95009 -65.05596,3.98207 -16.61963,4.56773 -31.22649,15.45664 -39.63988,29.55014 -5.02716,8.4211 -10.59762,21.4061 -13.00773,30.3216 -1.22212,4.5208 -2.62911,9.1692 -3.12665,10.3296 -0.86977,2.0287 -2.91637,2.4314 -3.99493,0.786 z m 186.78775,496.73768 c 0.50506,-0.3311 -0.51306,-10.6088 -1.56599,-15.8083 l -0.97303,-4.8047 -6.75619,-0.776 c -9.5553,-1.0974 -22.64416,0.465 -28.49832,3.4016 -0.73814,0.3703 7.72007,11.9662 9.41262,12.9045 1.40605,0.7793 27.74881,5.4972 28.38091,5.0829 z M 292.64476,1375.84 c -1.7676,-2.3046 -3.62462,-4.2824 -4.12671,-4.3953 -1.11559,-0.2505 -6.26985,2.8173 -6.4871,3.8614 -0.14541,0.6988 3.96756,2.1975 10.91847,3.9786 l 2.90914,0.7454 z m 46.27464,8.8081 c 0.0367,-1.8609 -0.20744,-5.9038 -0.54248,-8.9841 -0.49344,-4.5369 -1.09237,-5.8426 -3.15313,-6.8739 -1.39918,-0.7003 -2.60779,-0.9816 -2.6858,-0.6253 -0.0782,0.3565 0.27077,4.7549 0.77512,9.7742 0.81207,8.0822 1.18135,9.1813 3.22831,9.6092 2.08902,0.4346 2.31776,0.1571 2.37802,-2.9003 z m 48.22061,-26.0564 c -18.35884,-8.4199 -52.64669,-29.5689 -67.83003,-41.8381 -4.29493,-3.4706 -13.53647,-12.0721 -20.53674,-19.1145 -10.702,-10.7664 -14.35564,-15.3155 -22.95543,-28.5818 -5.62521,-8.6776 -11.57258,-18.47 -13.21634,-21.7611 -2.18836,-4.3813 -4.54956,-7.1946 -8.81746,-10.5058 -6.70174,-5.1992 -10.3225,-10.866 -11.39391,-17.8322 -0.41265,-2.6829 -1.51486,-5.9901 -2.44935,-7.3494 -3.53583,-5.143 -3.4439,-24.9238 0.19647,-42.273 3.82212,-18.2156 10.97616,-31.3411 28.25071,-51.8318 13.03714,-15.4644 25.58258,-27.5197 44.27607,-42.5459 8.70145,-6.9945 17.86125,-14.7409 20.35512,-17.2144 6.41092,-6.3584 21.64939,-24.9282 21.11952,-25.7365 -0.24331,-0.3713 -4.20581,-0.9119 -8.80573,-1.2006 -32.77527,-2.0602 -65.00975,6.4378 -84.64669,22.3158 -17.99126,14.5472 -26.73779,28.5753 -36.05694,57.8299 -3.09001,9.7002 -10.1689,27.7609 -12.95811,33.0607 -2.75741,5.2395 -3.23314,9.7476 -2.55238,24.1871 1.25415,26.6013 5.46944,49.1221 12.63333,67.4955 9.22943,23.6708 37.07732,59.4753 59.5959,76.6233 16.16612,12.3108 32.78432,20.7744 67.41891,34.3366 33.74125,13.2123 56.78338,20.3797 38.37308,11.9362 z m 75.87037,15.8094 c 9.94763,0.066 20.16143,-1.2758 25.77738,-3.387 8.47682,-3.1868 22.31578,-10.7978 28.3408,-15.5865 25.65982,-20.3948 41.54507,-45.0917 51.22911,-79.6463 4.98533,-17.7886 6.05579,-28.1806 4.3623,-42.3494 -1.07549,-8.9984 -1.48412,-10.179 -4.26858,-12.3334 -3.75143,-2.9026 -44.789,-24.0141 -45.62038,-23.4691 -0.32595,0.2137 -0.48657,2.037 -0.35692,4.0519 0.23504,3.6529 0.25696,3.6711 7.72048,6.3586 7.48408,2.695 22.05951,11.2353 26.14587,15.32 3.16517,3.1638 3.7486,8.226 2.27522,19.741 -2.50229,19.5561 -11.83919,47.8569 -22.03771,66.7978 -5.98166,11.1093 -13.98094,21.3461 -26.07572,33.3695 -9.95328,9.8947 -16.83177,14.7732 -23.33271,16.5485 -5.77521,1.5772 -21.53591,1.2252 -35.26042,-0.7876 -28.78046,-4.2209 -74.93428,-25.2972 -106.48809,-48.6281 -19.05403,-14.0886 -48.06516,-41.6817 -57.162,-54.3681 l -5.30445,-7.3975 -7.40646,-1.242 -7.40648,-1.2418 7.36797,12.7687 c 8.49806,14.7272 14.38342,22.3252 28.06876,36.2366 16.49781,16.7704 32.55062,28.6647 63.03868,46.7085 18.70326,11.0693 46.18741,22.5309 69.54988,29.0042 7.59504,2.1044 17.99472,3.4727 26.84347,3.5315 z m 4.70635,-17.2238 c 21.40156,1.1897 26.62448,-1.4071 47.3843,-23.5596 9.66649,-10.315 15.66494,-19.1891 21.86321,-32.3446 13.26177,-28.1473 22.14661,-64.4266 18.00586,-73.523 -1.68948,-3.7114 -17.76047,-13.8554 -25.92984,-16.367 -5.7738,-1.775 -6.20607,-1.7682 -6.59571,0.1044 -0.3651,1.7546 0.94524,2.6325 10.53329,7.0568 6.02266,2.7791 11.60392,5.5893 12.40281,6.245 1.68957,1.3867 1.95387,9.4357 0.53391,16.2598 -2.06629,9.9304 -10.76508,29.5278 -21.38195,48.1712 -11.40322,20.0242 -33.72609,45.944 -42.70016,49.5806 -4.27068,1.7307 -11.4198,2.4171 -21.52609,2.0669 -13.15206,-0.4557 -43.46438,-9.8021 -65.933,-20.3293 -27.55008,-12.9081 -58.07033,-33.6023 -61.79533,-41.9002 -0.49692,-1.1069 -4.45942,-5.6997 -8.80557,-10.2063 -4.34617,-4.5065 -9.84174,-10.8811 -12.21242,-14.1656 -4.19979,-5.8189 -4.39635,-5.9558 -7.6673,-5.3403 -1.84634,0.3474 -4.23488,0.4327 -5.30784,0.1895 -1.07286,-0.2437 -3.93319,-0.3692 -6.35602,-0.2802 -4.31547,0.1587 -4.37805,0.2095 -3.07294,2.4961 7.31959,12.8238 44.49846,47.2786 68.31519,63.3101 17.48588,11.7699 42.5902,24.6103 62.77546,32.1083 14.0048,5.2021 34.5137,9.7072 47.47014,10.4274 z m 0.0805,-21.4916 c 11.26338,-0.2949 14.20494,-1.6867 23.57158,-11.153 14.21248,-14.3637 27.74022,-34.3333 39.12867,-57.7614 5.00307,-10.2922 6.10922,-13.5247 8.56238,-25.0221 l 2.81711,-13.203 -6.50686,-3.0905 c -3.57877,-1.6998 -8.13918,-3.7304 -10.13425,-4.5124 l -3.62741,-1.4218 -1.48946,11.2865 c -2.56322,19.4227 -4.61599,27.0069 -9.38349,34.6687 -11.08279,17.811 -27.81398,35.8858 -38.35413,41.4344 -20.27417,10.6726 -40.14726,13.3892 -66.68083,9.1148 l -13.34193,-2.1493 7.48283,3.3089 c 28.3906,12.5547 51.78501,18.9236 67.95583,18.5002 z m -47.52713,-23.1279 c 20.71397,0.9194 37.84079,-3.0099 52.32724,-12.0053 6.48874,-4.0291 11.20368,-8.5857 20.98971,-20.2846 10.3211,-12.3386 16.57507,-23.0561 18.32287,-31.4002 1.97277,-9.4182 5.36341,-36.4389 5.36324,-42.7408 -1.5e-4,-6.3171 -4.72116,-23.539 -9.78129,-35.6816 -5.03221,-12.0755 -8.62053,-15.0811 -21.20665,-17.7628 l -8.91929,-1.9009 -23.93048,15.711 -23.93045,15.7109 -4.51912,11.5612 c -9.64618,24.6777 -23.78018,52.4105 -31.87201,62.537 -2.85389,3.5715 -3.13143,4.3628 -2.55876,7.2949 0.7494,3.8371 5.55529,7.5006 6.96475,5.3091 0.4529,-0.7042 1.71413,-1.0949 2.80273,-0.8684 4.96981,1.0341 15.76344,-12.8935 24.53967,-31.6649 13.55323,-28.9889 30.11384,-62.733 31.78623,-64.7681 2.82172,-3.4334 9.18806,-7.0861 13.94587,-8.0014 5.91184,-1.1372 19.18827,0.765 20.98799,3.0071 7.37732,9.1907 14.85346,57.999 11.41507,74.5236 -2.48627,11.9487 -10.9388,24.5967 -27.12075,40.582 -7.92779,7.8314 -12.75205,11.2848 -17.66087,12.6423 -12.50328,3.4576 -35.90741,2.3408 -54.59658,-2.6051 -26.27505,-6.9535 -42.78538,-16.5621 -67.56997,-39.3242 l -9.98726,-9.1723 -6.72129,1.8047 -6.72131,1.8048 1.7154,2.804 c 5.43806,8.8889 33.8896,35.8613 46.23193,43.8285 16.67723,10.7654 39.90456,18.1802 59.70346,19.0591 z m 18.87601,-19.4711 c 10.06886,-0.2074 18.43386,-1.7486 22.7454,-4.1909 4.84069,-2.742 20.63761,-18.5486 27.08036,-27.097 5.69046,-7.5502 9.95171,-15.8133 11.16713,-21.6545 2.59162,-12.455 -3.91572,-57.8083 -9.88287,-68.8791 -1.89176,-3.5098 -2.16984,-3.6625 -7.54346,-4.1418 -11.59974,-1.0346 -18.696,1.0706 -23.48893,6.9686 -1.7632,2.1697 -15.9521,31.0796 -30.91887,62.9971 -9.06408,19.3297 -17.7739,31.2323 -24.63813,33.67 l -3.20902,1.1396 2.43201,1.1779 c 5.00371,2.4237 14.89183,1.181 20.14812,-2.532 3.50087,-2.473 10.437,-12.0636 14.66894,-20.2829 1.87369,-3.6391 6.21688,-14.3763 9.65158,-23.8605 11.87269,-32.7843 20.18746,-49.582 24.13607,-48.7604 2.92696,0.6091 7.10853,4.9783 8.94046,9.3418 2.7035,6.4394 2.95092,8.1035 3.71007,24.9545 0.3449,7.6558 1.48508,17.4783 2.53374,21.8277 2.97755,12.3496 2.69731,12.961 -14.65175,31.9606 -15.35761,16.8187 -17.50444,17.9677 -34.98623,18.7248 -12.85248,0.5566 -31.42812,-3.0635 -40.51337,-7.8955 -7.41544,-3.944 -23.87082,-15.2673 -30.29099,-20.844 -7.4475,-6.4691 -14.99377,-14.937 -16.62698,-18.6576 -0.81306,-1.8524 -1.80506,-3.4359 -2.20443,-3.519 -0.39936,-0.083 -3.3127,1.2642 -6.47408,2.9939 -3.16138,1.7298 -6.96118,3.6281 -8.44401,4.2186 l -2.69602,1.0735 3.79877,3.6728 c 7.43323,7.1864 22.05021,19.4314 28.2761,23.6873 7.63711,5.2207 20.86489,12.3395 27.9781,15.0569 7.87471,3.0083 41.33187,9.0138 49.30229,8.8496 z m 1.94259,-14.1371 c 12.3855,-1.2046 13.90131,-2.1637 27.79582,-17.5878 6.81767,-7.5682 12.87224,-14.7283 13.45456,-15.9113 0.69577,-1.4134 0.4062,-5.1531 -0.84467,-10.9081 -1.04688,-4.8166 -2.20138,-14.9056 -2.56553,-22.4202 -0.36415,-7.5146 -1.11969,-15.7121 -1.679,-18.2166 -1.18505,-5.307 -3.88743,-10.0265 -5.62649,-9.8266 -1.7363,0.1997 -10.43757,20.0761 -18.89384,43.1594 -9.95711,27.1802 -18.69294,42.3511 -27.83949,48.3468 l -4.41871,2.8966 6.35069,0.6188 c 3.49287,0.3404 9.91287,0.2724 14.26666,-0.151 z m -148.80566,-35.8033 c 3.61402,-0.7556 3.61243,-0.7566 -3.74961,-2.3718 -13.00037,-2.8521 -26.582,-11.1281 -32.11569,-19.5698 -4.70856,-7.183 -5.79365,-14.3168 -4.30217,-28.2848 l 1.29627,-12.1398 -2.4989,8.196 c -3.04315,9.9811 -4.52413,25.2965 -2.98419,30.8609 0.60134,2.1729 2.09813,5.3988 3.32618,7.1688 2.67566,3.8561 10.68095,9.7512 16.87541,12.427 5.92514,2.5595 19.60947,4.6635 24.1527,3.7135 z m 95.73505,10.1637 c 2.93239,-1.9223 10.91185,-15.0937 18.18232,-30.0131 7.18568,-14.7454 14.52161,-32.0748 14.51304,-34.2837 -0.006,-1.617 -12.06313,5.4713 -49.60565,29.1633 l -19.16657,12.0955 2.83681,4.8464 c 3.73722,6.3848 10.89266,13.6765 20.80922,21.2053 l 8.06563,6.1236 1.12324,-3.8742 c 0.61778,-2.1308 2.07666,-4.4992 3.24196,-5.2631 z m -81.13234,-17.7375 c 17.14938,-11.9291 33.51774,-27.8956 34.77071,-33.9172 l 0.76067,-3.6557 -10.04556,-2.4812 c -9.11438,-2.2512 -10.58887,-2.9161 -15.90733,-7.1716 -3.224,-2.5797 -7.07581,-6.7644 -8.55958,-9.2994 -3.30566,-5.6475 -5.53266,-14.9437 -4.98583,-20.8124 0.47302,-5.0766 -0.95724,-6.2131 -8.91938,-7.0872 -5.47893,-0.6015 -6.80793,-0.049 -21.33793,8.876 l -10.25232,6.2972 -2.33527,7.5873 c -1.2844,4.173 -3.1609,12.6695 -4.17003,18.8812 -1.68571,10.3764 -1.67568,11.8798 0.12367,18.5037 2.19593,8.0838 6.13642,12.9409 15.14665,18.6695 6.6355,4.2189 11.78569,6.2351 21.44033,8.3932 l 7.772,1.7373 6.49922,-4.5208 z m -103.41824,-72.6984 c -0.1702,-3.9169 -0.39388,-4.2914 -1.95274,-3.2695 -1.55886,1.0219 -1.58288,1.5587 -0.20974,4.687 0.85295,1.9432 1.73168,3.4144 1.95275,3.2695 0.22107,-0.1449 0.31545,-2.2541 0.20973,-4.687 z m 138.6263,30.2008 c 0.77636,-1.3452 -8.56072,-16.744 -13.44817,-22.1788 -4.22209,-4.695 -17.4769,-14.306 -20.7016,-15.0107 -1.50149,-0.3278 -1.78824,0.1402 -1.79295,2.9278 -0.009,5.2876 2.1685,13.7738 4.66478,18.1807 2.77047,4.891 9.57526,10.8556 15.066,13.2057 5.25479,2.2491 15.52238,4.0701 16.21194,2.8753 z m 201.94528,-25.3416 c 23.53585,1.3085 62.5672,-1.8137 79.52401,-6.3614 25.3206,-6.7909 59.84681,-28.5439 86.11601,-54.2571 13.85697,-13.5636 37.42579,-40.5312 62.26261,-71.2413 22.42227,-27.7246 34.41424,-41.98368 38.67841,-45.99058 1.26992,-1.1933 3.07763,-4.5377 4.01714,-7.432 l 1.70814,-5.2624 -5.46895,3.9692 c -17.39386,12.6236 -43.4114,38.03098 -62.08041,60.62458 -13.07821,15.8273 -37.33762,41.2639 -46.90624,49.1822 -17.18565,14.2218 -48.97957,38.3816 -56.98173,43.3 -21.36212,13.1298 -51.34349,21.5303 -81.03101,22.7042 -21.99409,0.8699 -35.90812,-1.3134 -48.70246,-7.6418 -8.99528,-4.4494 -17.11231,-12.6821 -18.00174,-18.2584 -0.22713,-1.4239 -0.6054,-2.4504 -0.84061,-2.281 -0.6648,0.4788 -14.20577,16.2962 -14.2876,16.6895 -0.04,0.1921 3.6014,1.356 8.0919,2.5865 8.86957,2.4304 14.55056,5.9979 17.66935,11.0958 1.71809,2.8083 2.23695,3.0098 14.09692,5.4717 6.77159,1.4091 16.73358,2.8019 22.13626,3.1023 z m 13.89684,-13.9105 c 30.32982,-0.5617 61.91374,-8.7298 83.51211,-21.5975 11.65728,-6.9451 57.59999,-42.4026 67.62893,-52.1944 8.47383,-8.2736 24.85596,-26.2596 39.11981,-42.9498 20.26654,-23.7139 40.19399,-42.90878 63.49253,-61.15818 l 7.5115,-5.8837 4.60569,-22.2376 c 2.53268,-12.2307 4.67281,-24.2816 4.75537,-26.7799 l 0.14998,-4.5423 -6.94389,8.7464 c -5.82767,7.3406 -28.79187,41.5917 -29.21712,43.5775 -0.0715,0.3435 5.1952,-2.9147 11.70801,-7.2395 11.22091,-7.4512 11.91196,-7.7563 13.18161,-5.8195 1.26966,1.9369 0.90049,2.3406 -7.04134,7.7 -15.44621,10.4234 -27.70316,21.357 -35.26558,31.4576 -15.24976,20.36808 -41.83992,47.04008 -64.74644,64.94548 -4.69998,3.6739 -10.74844,9.0271 -13.44117,11.8961 -19.668,20.9562 -44.87011,37.674 -79.59284,52.7982 -28.42414,12.3806 -66.09139,16.8399 -83.32726,9.8649 -10.40006,-4.2086 -15.01367,-9.5089 -13.71403,-15.7548 0.85792,-4.1231 2.14143,-4.4522 23.7375,-6.0857 39.14648,-2.9609 74.87882,-10.0504 97.99481,-19.4428 23.50873,-9.552 55.6542,-29.1652 76.78774,-46.8511 16.45567,-13.7712 41.34068,-40.0609 53.32467,-56.33458 2.68457,-3.6457 11.062,-16.3736 18.61661,-28.2844 16.27405,-25.6584 21.53849,-33.283 31.64971,-45.8388 l 7.57289,-9.4038 -0.25062,-8.5509 c -0.35865,-12.237 -0.4564,-12.3809 -5.59267,-8.2321 -13.86663,11.2008 -29.07911,30.5213 -51.88761,65.8999 -22.87316,35.4786 -36.09227,51.61548 -58.2724,71.13408 -15.5814,13.7117 -44.9252,31.5409 -66.10869,40.1674 -12.91,5.2573 -49.93945,15.0594 -65.76524,17.4087 -11.20319,1.663 -15.44929,3.0077 -37.17792,11.7729 -13.49163,5.4425 -26.77429,11.4268 -29.51704,13.2985 -6.89633,4.7063 -14.23283,12.8776 -15.03854,16.7498 -1.29353,6.2166 5.91141,14.8454 17.17085,20.5642 8.10325,4.1157 26.80909,7.4509 40.38008,7.1997 z m 113.06907,2.9543 c 42.10062,-6.0574 66.85767,-11.7266 73.89942,-16.9226 2.99054,-2.2066 6.72573,-10.1313 12.41135,-26.3324 8.1993,-23.3639 10.24616,-28.0388 26.43716,-60.3805 10.11793,-20.211 18.17369,-37.5865 22.02638,-47.5092 1.36103,-3.5053 1.33243,-3.6565 -0.39302,-2.0789 -1.02349,0.9357 -12.19012,14.4697 -24.81468,30.0755 -31.16321,38.5222 -51.39513,61.7413 -67.82088,77.8345 -16.57467,16.2389 -44.70851,36.8398 -60.17773,44.0648 -8.96546,4.1873 -9.7809,4.6419 -8.7219,4.8622 0.45852,0.095 12.67775,-1.5306 27.1539,-3.6134 z m -417.8,-104.2282 c 23.53784,-20.8827 58.00244,-29.8844 101.27641,-26.4521 4.08988,0.3244 5.79239,-0.053 7.37299,-1.6343 1.13032,-1.1307 1.88442,-2.3164 1.67576,-2.6347 -0.66561,-1.0154 -18.40618,-9.3948 -21.074,-9.9538 -1.41174,-0.2937 -3.72175,-1.6104 -5.13429,-2.9215 -1.71861,-1.595 -3.89558,-2.5257 -6.58027,-2.8131 -2.42086,-0.259 -7.29366,-2.1497 -12.28652,-4.7671 -7.97683,-4.18148 -8.34075,-4.28418 -10.11516,-2.85488 -1.01235,0.8154 -6.41681,5.33428 -12.0099,10.04198 -5.59309,4.7076 -13.92134,10.9256 -18.50719,13.8176 -4.90683,3.0945 -8.77919,6.2947 -9.41019,7.7766 -1.60219,3.7628 -8.86612,9.3277 -20.48049,15.6901 l -10.37542,5.6836 -0.78511,5.1033 c -0.43181,2.8068 -1.06247,7.7402 -1.4015,10.9632 l -0.61636,5.8598 6.19476,-7.7633 c 3.40715,-4.27 8.92255,-10.1835 12.25648,-13.1414 z m 306.43575,79.6361 c 20.72538,-0.3714 40.62482,-5.32 62.7323,-15.6002 23.88356,-11.1062 43.08116,-22.7798 55.02944,-33.462 l 3.6908,-3.2998 -3.56096,1.7947 c -1.95854,0.987 -8.90653,4.5571 -15.43997,7.9336 -20.15441,10.4156 -33.94644,15.0885 -60.244,20.4111 -17.11456,3.464 -35.18741,5.9465 -57.03067,7.8338 -10.31532,0.8913 -19.04013,1.8074 -19.3885,2.0358 -1.15404,0.7565 1.35558,4.239 4.95312,6.8735 5.07049,3.7129 15.79156,5.7208 29.25844,5.4795 z m 187.3361,22.4687 c 4.87158,-1.3161 6.3856,-1.2748 11.56014,0.316 8.04264,2.4727 10.8908,2.0783 21.79727,-3.0178 5.13879,-2.4011 18.1181,-6.8983 28.84283,-9.9935 10.72476,-3.0953 28.36997,-8.4965 39.21154,-12.0025 31.17876,-10.083 158.77207,-44.9775 175.20347,-47.9151 8.8871,-1.5889 9.6622,-2.3983 11.5276,-12.0379 2.025,-10.4651 6.4637,-45.0181 6.8573,-53.3807 0.3663,-7.7867 0.3817,-18.73498 0.039,-27.55558 -0.1718,-4.4155 0.1346,-6.7866 0.9455,-7.3181 1.844,-1.2088 2.5173,2.4609 2.7264,14.8608 0.2565,15.20418 -0.6228,28.37568 -3.1073,46.54978 -3.7207,27.2163 -3.8755,28.694 -3.28,31.3274 l 0.5861,2.592 12.597,-3.3776 c 6.9285,-1.8577 29.4826,-6.1086 50.1204,-9.4465 42.2166,-6.8279 61.5732,-11.2275 77.1327,-17.5314 11.9347,-4.8353 16.0378,-8.1864 23.4704,-19.1692 8.6803,-12.8263 11.2946,-19.0923 15.6847,-37.59308 4.8117,-20.278 5.8538,-31.4417 6.0796,-65.1272 0.3068,-45.7944 -0.6647,-55.5618 -8.4551,-85.00492 -6.9443,-26.24545 -16.4144,-51.21535 -30.9893,-81.71013 -6.499,-13.59769 -27.9527,-49.25257 -37.0523,-61.57898 -10.9124,-14.78209 -37.2574,-48.2624 -39.3276,-49.97913 -6.2649,-5.19551 -19.2031,-3.68687 -78.8417,9.19287 -19.117,4.12859 -40.49206,8.55571 -47.50025,9.83803 -7.00818,1.28232 -24.50552,5.53054 -38.88293,9.44055 -34.24738,9.31362 -51.47866,12.87719 -59.70014,12.34643 -5.34722,-0.34515 -7.5392,0.10311 -12.3351,2.52286 -4.37001,2.2049 -8.47386,3.17779 -16.36905,3.88087 -26.13771,2.32738 -56.94642,6.79274 -80.43065,11.65727 -3.96604,0.82159 -13.68178,2.77042 -21.59048,4.33072 -16.40024,3.23569 -31.03677,7.5504 -47.902,14.12102 -6.43183,2.50589 -15.36418,5.40626 -19.84971,6.44549 -8.5642,1.98416 -15.4156,6.0557 -16.15293,9.59921 -0.24783,1.19109 0.1176,1.92676 0.89985,1.81149 0.72442,-0.10666 1.30432,-0.76217 1.28866,-1.45662 -0.0543,-2.40386 2.80416,-3.52231 6.85047,-2.68037 3.17225,0.66008 4.48434,1.55728 6.08578,4.16122 2.60818,4.24106 23.36835,20.5549 40.70183,31.98455 52.40029,34.55245 67.07492,47.5338 97.59849,86.33617 11.76439,14.9553 14.46822,33.1139 9.98475,67.0568 -4.47763,33.8991 -17.01642,72.6463 -35.73227,110.41968 -20.48941,41.3527 -24.24982,49.2837 -28.2122,59.5004 -2.4192,6.238 -5.77439,15.4221 -7.45578,20.4092 -7.33121,21.7435 -10.43768,26.0462 -22.29486,30.8792 -8.14455,3.3197 -8.49834,3.589 -6.47688,4.9303 3.73471,2.4779 8.37343,2.9259 14.14696,1.366 z m 31.5417,-17.0649 c -0.20958,-0.5769 1.93168,-5.806 4.75821,-11.6204 2.82663,-5.8143 7.38395,-16.7691 10.12741,-24.3441 5.90908,-16.3153 23.01036,-69.4278 30.66874,-95.2496 8.39974,-28.32158 8.42044,-28.37978 9.97768,-28.05578 0.99293,0.2066 1.14564,1.4962 0.52669,4.4507 -2.27492,10.8593 -31.19103,102.19038 -39.03294,123.28398 -7.86689,21.1611 -15.5948,35.4746 -17.02579,31.5352 z m 76.57318,-63.7794 c -0.17628,-0.4851 1.51901,-6.6822 3.76732,-13.7713 7.80116,-24.5985 13.51878,-46.8479 20.04545,-78.00388 11.83191,-56.48 14.69545,-91.6488 8.74815,-107.4377 -4.8115,-12.7737 -19.64157,-32.58974 -44.14525,-58.98724 -15.38562,-16.57474 -25.57098,-26.58199 -30.48043,-29.94749 -3.64647,-2.49955 -4.6627,-4.4895 -2.47461,-4.84542 3.37066,-0.54824 18.81329,13.91564 41.17473,38.56518 31.07186,34.25147 41.46116,51.57837 42.4132,70.73577 0.37475,7.541 -0.51316,22.5797 -2.32884,39.446 -1.82555,16.9569 -16.40528,87.02998 -22.40858,107.69328 -4.99042,17.1808 -9.82078,32.5163 -11.2471,35.7076 -0.93745,2.0975 -2.45814,2.5167 -3.06531,0.845 z m 95.52078,12.8732 c -0.15927,-0.5084 2.26571,-7.0574 5.38894,-14.5534 8.79864,-21.1175 12.47622,-34.0501 17.22318,-60.5662 2.29744,-12.83348 4.41698,-25.75108 4.71025,-28.70578 0.80733,-8.1374 3.03053,-5.7599 2.89968,3.101 -0.13871,9.3916 -9.60825,55.98908 -13.62651,67.05308 -8.03843,22.1333 -15.48009,37.2319 -16.59554,33.6713 z m -44.23477,-43.5198 c 0.0958,-1.8059 1.15049,-9.2854 2.3439,-16.6211 6.725,-41.33818 10.09929,-82.62008 8.98446,-109.91888 -1.46788,-35.9439 -3.97485,-48.728 -12.2548,-62.4918 -7.52272,-12.5049 -46.11215,-61.90778 -66.48224,-85.11164 -4.86976,-5.54726 -5.6186,-7.38689 -2.76502,-6.79312 2.61176,0.54345 24.22279,26.12945 49.04132,58.06145 29.70002,38.21271 32.43678,44.28801 34.9554,77.59691 1.43628,18.9954 1.41373,45.6399 -0.0538,63.6208 -2.18155,26.7296 -9.71304,82.69358 -11.36296,84.43388 -1.57144,1.6576 -2.57958,0.4942 -2.40625,-2.7765 z m 231.83596,-2.8311 c 6.0492,-29.2043 9.7498,-86.52338 7.1449,-110.65638 -2.04,-18.8997 -6.594,-40.8532 -13.161,-63.4463 -1.1719,-4.0316 0.9136,-6.1256 2.5507,-2.5611 3.6993,8.0547 11.6892,44.4486 13.7467,62.6167 2.6804,23.6681 0.7738,64.8466 -4.741,102.39288 -2.7312,18.595 -4.0903,23.4469 -6.4313,22.9598 -1.1187,-0.2328 -0.9443,-2.4449 0.891,-11.3056 z M 856.69023,938.18982 c -0.19867,-0.5469 0.10226,-5.4254 0.66871,-10.8411 0.56647,-5.4159 1.01338,-13.4209 0.99322,-17.7891 -0.0358,-7.7524 0.71405,-10.229 2.34416,-7.7423 2.57637,3.9303 0.0951,38.1448 -2.72377,37.5583 -0.50665,-0.1055 -1.08373,-0.6391 -1.28232,-1.1858 z m 179.00387,-76.4999 c -0.3989,-0.779 -1.8165,-5.5504 -3.1503,-10.6031 -2.7095,-10.26406 -5.3403,-17.01067 -9.2131,-23.62715 -1.9658,-3.35849 -2.2741,-4.67786 -1.25,-5.34921 1.0243,-0.67142 1.9569,-0.0254 3.7816,2.61918 6.0753,8.80559 14.5421,36.92918 11.4553,38.05038 -0.4941,0.1796 -1.2247,-0.311 -1.6235,-1.0901 z M 782.4149,791.68957 c -12.27139,-11.60419 -42.6388,-33.23833 -61.37921,-43.72737 -2.76749,-1.54896 -5.53738,-3.53988 -6.15532,-4.4243 -6.53183,-9.34867 41.78323,21.12707 64.38391,40.61143 5.29709,4.56665 10.50388,9.581 11.57058,11.14285 l 1.93937,2.83973 -2.4059,-0.59765 c -1.32313,-0.32945 -4.90233,-2.95892 -7.95354,-5.8442 z m 158.66184,5.60463 c -3.39524,-5.21839 -7.58647,-10.97921 -9.3139,-12.80183 -2.97997,-3.14419 -3.80503,-6.23846 -1.53769,-5.76667 3.45686,0.71929 19.53965,23.56383 18.86654,26.79874 -0.18001,0.86507 -0.66809,1.502 -1.08457,1.41534 -0.41648,-0.0867 -3.53515,-4.4272 -6.93038,-9.64558 z M 786.24222,734.28929 c -10.52894,-6.77786 -19.39195,-10.96386 -26.3231,-12.43253 -3.47076,-0.73547 -4.56952,-1.35632 -4.34128,-2.45322 0.44856,-2.15573 11.01608,0.2799 19.72419,4.54613 9.25243,4.5328 24.54333,14.54506 24.73448,16.19571 0.26236,2.26515 -3.96883,0.46883 -13.79429,-5.85609 z m 260.42458,33.17099 c -17.8614,-29.44519 -42.3806,-58.96358 -61.6891,-74.26712 -5.25273,-4.16326 -6.25094,-5.74058 -4.1224,-6.51378 2.84709,-1.0342 22.9522,18.1461 40.1236,38.27793 13.2445,15.52781 34.8541,48.64495 34.1016,52.26139 -0.4701,2.2594 -2.6747,-0.29751 -8.4137,-9.75842 z M 927.54639,737.25974 c -8.52582,-12.23949 -18.45459,-24.04835 -25.13671,-29.89673 -4.22543,-3.69823 -5.68717,-7.11139 -2.78402,-6.50107 1.54716,0.32193 9.7523,7.91158 15.42796,14.26339 5.70074,6.38001 22.7356,30.06931 23.06097,32.06944 0.65286,4.01315 -3.70737,-0.0858 -10.5682,-9.93503 z m 206.03271,1.41264 c -5.0107,-6.96706 -11.7111,-15.63172 -14.8897,-19.25482 -6.1611,-7.02288 -48.8196,-49.10475 -55.7137,-54.96068 -4.1792,-3.54989 -5.0738,-6.24884 -1.8488,-5.57779 1.7968,0.37388 28.3876,25.70572 50.0575,47.68731 14.1854,14.38961 34.8283,41.07536 34.1808,44.18691 -0.5456,2.62243 -3.0782,0.0266 -11.7861,-12.08093 z M 615.06941,1073.144 c 27.70894,-7.2803 37.21188,-11.0809 60.50082,-24.1963 19.45641,-10.9571 31.56742,-20.0711 47.43507,-35.6965 16.24252,-15.99448 24.862,-26.81468 40.70707,-51.10018 21.2093,-32.507 22.04808,-33.7426 30.38076,-44.7494 10.04244,-13.2654 19.55949,-23.6916 27.62332,-30.2623 3.43527,-2.7992 6.31579,-5.4255 6.40126,-5.8363 0.25605,-1.2305 -3.22475,-9.0743 -4.10842,-9.2582 -0.45026,-0.094 -4.75816,2.9565 -9.57315,6.7782 -20.9304,16.6124 -29.88097,27.6076 -55.75496,68.492 -16.17976,25.566 -22.79857,34.0088 -39.24192,50.0555 -32.51372,31.72928 -54.64104,45.97818 -109.97854,70.82078 -9.6048,4.3119 -19.02294,8.7085 -20.92921,9.7702 -3.382,1.8837 -3.40354,1.9278 -0.88965,1.8212 1.41694,-0.06 13.75934,-3.0474 27.42755,-6.6387 z m 630.29689,-39.6621 c 67.1176,-14.5885 147.7032,-28.9875 206.8679,-36.96308 21.0493,-2.8376 97.1354,-11.7416 150.2318,-17.581 l 8.8854,-0.9772 0.3709,-3.3966 c 0.2039,-1.8681 0.5536,-18.2968 0.7771,-36.5082 0.2234,-18.2113 0.7942,-40.8447 1.2683,-50.2963 1.4379,-28.664 -0.7419,-56.84313 -4.4569,-57.61615 -0.7666,-0.1595 -6.7963,-0.24392 -13.3995,-0.18759 -6.603,0.0563 -37.0142,-0.0981 -67.5802,-0.34326 -86.4094,-0.69297 -120.3499,1.43151 -186.799,11.69224 -53.477,8.25776 -73.5058,12.27586 -98.1142,19.68286 l -15.3066,4.6074 0.9908,11.0771 c 1.0925,12.2122 1.5089,45.7951 0.849,68.4597 -1.2122,41.6292 -8.41,66.66448 -25.7761,89.65478 -3.4412,4.5556 -6.2871,8.4286 -6.3241,8.6067 -0.087,0.4185 1.8395,0.017 47.5154,-9.9114 z m 389.3478,-42.62468 8.8811,-0.9565 3.6802,-9.4091 c 5.0835,-12.9967 12.449,-36.1988 14.2709,-44.9549 1.796,-8.6315 3.3147,-27.7002 2.844,-35.7117 -0.4141,-7.0493 0.2054,-10.4811 1.7353,-9.6126 1.3546,0.769 2.1202,15.3504 1.3832,26.3431 -1.0851,16.1826 -7.9415,42.3762 -17.2781,66.0077 -1.7203,4.3541 -2.972,8.3453 -2.7817,8.8694 0.1903,0.524 4.1752,1.7489 8.8551,2.7219 15.3965,3.2037 30.3833,1.8324 74.1248,-6.7713 71.459,-14.0555 108.5215,-23.3627 151.0082,-37.9212 9.4564,-3.2403 11.8965,-4.4976 12.8338,-6.6124 0.6366,-1.4362 3.4626,-7.6473 6.2802,-13.8024 4.6925,-10.2513 5.4842,-12.9173 9.4266,-31.7454 3.2856,-15.692 4.3168,-22.6283 4.3583,-29.3219 0.071,-11.4379 -1.8329,-29.83432 -4.3425,-41.95983 -2.1834,-10.54951 -2.1506,-14.66838 0.095,-11.85155 2.6265,3.29547 6.7114,27.95655 7.4444,44.94328 1.059,24.5409 -4.0146,49.6723 -14.8138,73.3778 -2.5546,5.6079 -4.5491,10.3425 -4.4318,10.5212 0.3114,0.4751 34.4829,-12.6779 42.3701,-16.3088 7.388,-3.4009 43.0488,-21.1331 49.8463,-24.7857 3.7347,-2.0068 4.5573,-3.0592 6.6013,-8.4458 5.6136,-14.7929 11.6661,-52.98872 13.1618,-83.06054 0.8538,-17.16633 -0.4982,-51.06959 -2.7169,-68.13023 -4.6882,-36.0494 -11.3173,-57.81556 -25.791,-84.68468 -12.3556,-22.93682 -78.6562,-119.73833 -90.0876,-131.53118 -3.9347,-4.05928 -4.9731,-6.93466 -2.3036,-6.37919 3.6511,0.75971 19.9042,21.9798 42.7079,55.75969 6.0119,8.90557 15.3546,22.39466 20.7616,29.97575 5.407,7.58108 15.1226,22.46892 21.5903,33.08407 18.4636,30.30335 26.4512,49.13442 31.8813,75.15985 5.1889,24.86976 7.8078,52.0911 7.7625,80.68414 -0.052,32.88811 -5.2109,74.52842 -11.6884,94.34732 -1.1605,3.5506 -1.7846,6.5233 -1.3869,6.606 0.3976,0.083 4.1425,-2.3712 8.3218,-5.4533 4.1794,-3.0821 14.8173,-9.7129 23.6399,-14.7354 16.632,-9.4679 24.3676,-15.7528 28.0925,-22.8235 3.0268,-5.74592 7.6584,-29.49121 7.9755,-40.88853 0.8647,-31.08528 -4.415,-73.41998 -10.415,-83.51149 -1.3996,-2.35386 -2.2479,-4.59294 -1.8852,-4.97556 2.3469,-2.47551 -16.4691,-46.42039 -32.1076,-74.98746 -4.6855,-8.55897 -11.6694,-22.19258 -15.52,-30.29694 -9.9348,-20.91031 -27.4274,-54.36865 -36.7478,-70.28773 -11.3515,-19.38829 -34.8697,-54.84702 -42.5331,-64.12793 -18.946,-22.94462 -49.04,-46.79032 -74.102,-58.71634 -25.1351,-11.96083 -56.0197,-19.38904 -67.0901,-16.13619 -1.5079,0.4431 -11.4744,5.22123 -22.1476,10.61808 -10.6733,5.39684 -21.3448,10.29463 -23.7145,10.88396 -2.3698,0.58934 -8.2686,0.72524 -13.1083,0.30203 -13.2323,-1.15712 -16.5728,-0.57389 -24.0047,4.191 -16.084,10.31213 -70.7417,32.90795 -107.9337,44.62042 -12.6247,3.97575 -31.8679,10.30676 -42.7628,14.06893 -10.8949,3.76217 -33.2162,10.78912 -49.6029,15.61546 -33.9394,9.99601 -69.1741,22.62307 -89.2628,31.98903 -7.5535,3.52164 -19.7268,10.24165 -27.052,14.93319 l -13.3184,8.53032 4.5205,0.36474 c 34.6015,2.79176 49.6887,7.38293 73.4855,22.36208 32.4168,20.40516 60.5089,48.82169 111.8051,113.0966 14.0686,17.62823 26.8202,36.18208 34.0406,49.52999 13.1417,24.29398 26.2744,53.30904 25.5986,56.55687 -0.5151,2.47558 -2.4902,0.88028 -3.8497,-3.10975 -0.6266,-1.83902 -4.0168,-9.53952 -7.5337,-17.11216 -17.7106,-38.13528 -29.6822,-57.28502 -57.2838,-91.63182 -54.0419,-67.24797 -89.9652,-100.29321 -126.4507,-116.31969 -8.6885,-3.81663 -31.7362,-8.59364 -45.2222,-9.37298 -12.5616,-0.7262 -14.7628,-0.44614 -20.053,2.55041 -2.2214,1.25825 -9.4914,3.63071 -16.1556,5.27213 -7.5639,1.86298 -13.328,3.93634 -15.3404,5.51815 -3.9732,3.12289 -3.4912,4.36114 0.9089,2.33521 8.5409,-3.93246 40.8801,-3.72687 54.6391,0.34736 21.4418,6.34904 45.1285,20.04189 73.4072,42.43526 14.853,11.76191 48.5279,46.43567 75.057,77.2837 12.5252,14.56418 18.6622,20.92117 29.7592,30.82598 10.258,9.15612 26.3953,39.42278 44.1761,82.85587 1.5397,3.76112 3.427,7.24198 4.1939,7.73525 0.767,0.4932 1.2208,1.73121 1.0086,2.75096 -0.2122,1.01976 0.2632,5.30344 1.0564,9.51933 2.012,10.69396 2.5487,29.37916 1.4925,51.95796 -0.4945,10.571 -1.0421,33.1835 -1.2168,50.2501 -0.1748,17.0667 -0.5948,32.607 -0.9332,34.5341 -0.7922,4.5106 -2.459,7.8662 -4.2262,8.5081 -2.0506,0.7449 -0.5792,2.3862 4.7405,5.2876 6.1985,3.3808 7.1526,3.5133 17.3728,2.4125 z m 103.7494,-44.2105 c 0,-1.2643 0.315,-6.3694 0.7029,-11.3447 0.8603,-11.033 2.1774,-65.8788 1.855,-77.2419 -0.5804,-20.45036 -5.5815,-49.24009 -11.4227,-65.75564 -9.3763,-26.51039 -15.3523,-38.57356 -33.898,-68.42567 -6.8681,-11.05526 -12.3853,-20.59167 -12.2604,-21.19201 0.1249,-0.60034 0.8521,-0.96147 1.6161,-0.80251 1.8015,0.37485 27.9789,42.7953 33.372,54.07939 6.8196,14.26834 16.189,38.86031 18.7466,49.20374 2.6686,10.79222 5.8397,31.70927 6.9126,45.5946 1.3606,17.6115 -1.0439,95.6343 -3.0113,97.7096 -1.3716,1.4467 -2.6103,0.5816 -2.6128,-1.8249 z M 1629.8257,579.91828 c -5.9894,-6.31352 -14.5383,-14.80464 -18.9975,-18.86915 -15.7841,-14.38692 -54.5632,-41.3584 -67.0449,-46.63072 -4.8669,-2.05581 -7.3403,-3.59434 -7.1613,-4.45457 0.3688,-1.77227 5.333,-0.65849 12.1773,2.73212 12.1453,6.01671 50.3434,33.07294 63.4922,44.97233 14.3385,12.97605 32.3685,31.95402 32.0072,33.69005 -0.473,2.27337 -4.4328,-0.8566 -14.473,-11.44006 z m 152.897,13.38525 c -0.7065,-0.87738 -3.5824,-7.81886 -6.391,-15.4255 -9.4172,-25.5058 -22.6975,-52.96466 -31.0065,-64.1106 -0.9665,-1.29642 -8.1717,-7.21277 -16.0118,-13.14748 -14.0022,-10.59928 -18.1042,-14.978 -11.3926,-12.16113 4.1231,1.73049 38.4244,28.61088 45.5652,35.70746 13.2676,13.18533 53.7512,61.62772 54.2947,64.96855 0.5282,3.24686 -2.8608,0.57292 -9.3139,-7.34889 -26.0492,-31.9778 -41.8503,-50.09943 -50.4794,-57.89278 -4.0637,-3.67009 -3.7592,-2.44978 1.8017,7.22039 7.9313,13.79186 26.137,59.37239 24.8743,62.27601 -0.5484,1.26117 -0.8674,1.24703 -1.9407,-0.086 z m -542.4014,263.16209 c 24.7222,-7.5819 46.7933,-12.03716 100.7561,-20.33847 72.6279,-11.17252 98.4821,-12.68835 200.6025,-11.76132 28.3164,0.25705 54.827,0.40341 58.9124,0.32532 l 7.4281,-0.14197 -1.1019,-3.26277 c -1.6925,-5.0123 -2.2724,-5.34797 -8.8924,-5.14735 -3.3857,0.10264 -32.4118,-0.009 -64.5023,-0.24815 -71.4753,-0.53262 -91.445,0.21381 -122.7535,4.58855 -6.3784,0.89124 -25.1063,3.01512 -41.6179,4.71961 -32.2365,3.32794 -51.5303,6.39188 -79.499,12.62465 -24.3349,5.42307 -63.5586,15.8348 -63.7869,16.932 -0.2851,1.3702 0.9572,5.0934 1.7522,5.2512 0.3849,0.08 6.1018,-1.5169 12.7026,-3.5413 z m 5.1207,-11.40726 c 40.0922,-10.82057 77.5594,-18.26395 109.0081,-21.65624 13.2176,-1.42569 35.8154,-3.99782 50.2174,-5.71585 42.2715,-5.04252 63.3327,-6.14804 103.7862,-5.4479 12.0349,0.20825 36.3576,0.39158 54.0504,0.40729 17.6928,0.0158 33.6639,0.0758 35.4914,0.1333 1.8274,0.0576 3.64,-0.2301 4.0279,-0.63927 0.8854,-0.93391 -1.9665,-7.60619 -3.0783,-7.20233 -0.4501,0.16345 -11.5661,0.18706 -24.7022,0.0524 -66.9728,-0.68662 -98.5518,0.74308 -171.0397,7.74354 -39.6364,3.82777 -57.9466,6.32303 -87.755,11.95902 -12.0073,2.27025 -26.9325,4.84548 -33.1671,5.72259 -6.2346,0.87723 -20.7053,3.5495 -32.1571,5.9385 -26.485,5.52488 -26.6959,5.57671 -26.912,6.61526 -0.2253,1.08301 1.4566,7.23835 2.0094,7.35335 0.2228,0.046 9.3221,-2.3223 20.2206,-5.26367 z m 9.3088,-15.03537 c 9.6335,-1.94215 22.6831,-4.25475 28.9993,-5.13899 6.3161,-0.88427 20.1031,-3.26937 30.6377,-5.30031 29.5705,-5.70092 51.1194,-8.55075 98.4317,-13.01763 63.07,-5.9546 97.4945,-7.45531 157.9838,-6.88735 14.5686,0.13681 26.6202,0.16233 26.7813,0.0567 0.161,-0.10561 -3.1684,-7.54732 -7.399,-16.53716 -8.2069,-17.43978 -18.2575,-35.84007 -20.6857,-37.87101 -1.0717,-0.89643 -20.7173,1.06194 -71.6228,7.13971 -38.5803,4.60623 -87.3222,10.29449 -108.3153,12.64068 -20.9932,2.34619 -60.07,6.80029 -86.8373,9.89795 -53.7692,6.22244 -78.0836,8.64493 -89.7016,8.93671 -4.2355,0.1064 -8.1103,0.43227 -8.6107,0.72406 -0.5003,0.29189 1.3254,6.11523 4.0571,12.94075 2.7317,6.82552 6.7789,18.50724 8.9936,25.95941 l 4.0268,13.54923 7.8728,-1.78073 c 4.3301,-0.97943 15.7549,-3.36987 25.3883,-5.31205 z m -37.9961,-51.46547 c 22.9624,-1.4336 140.9302,-14.41936 221.5578,-24.38892 17.2984,-2.13891 47.4648,-5.74112 67.0364,-8.00478 52.8056,-6.10751 57.0524,-6.65679 57.2068,-7.39869 0.2284,-1.09779 -6.4018,-6.50313 -8.5167,-6.94319 -2.5395,-0.52841 -24.8215,2.25939 -68.9507,8.62686 -19.6918,2.84129 -48.9321,6.41106 -64.9786,7.93277 -53.7004,5.09245 -74.8615,7.3846 -109.722,11.88508 -19.0505,2.45941 -51.5682,6.31668 -72.2615,8.57174 -20.6933,2.25497 -38.059,4.35179 -38.5906,4.65956 -1.3722,0.79462 0.4522,5.18127 2.3163,5.56914 0.8556,0.17803 7.5619,-0.0513 14.9028,-0.50957 z m 24.2024,-13.50655 c 21.8522,-2.42494 52.7292,-6.12852 68.6155,-8.23033 32.3713,-4.28271 36.4675,-4.7329 86.2393,-9.47847 48.3049,-4.60578 54.1148,-5.2821 87.9289,-10.23515 16.2244,-2.3766 37.519,-5.31264 47.3215,-6.52475 18.0184,-2.22782 21.8708,-3.07612 17.8089,-3.92131 -3.3427,-0.69554 -35.76,1.85845 -64.0061,5.04269 -41.1872,4.64315 -86.0419,9.41476 -115.4216,12.27843 -15.1954,1.48114 -44.8605,4.88308 -65.9224,7.55978 -21.062,2.67671 -45.108,5.58141 -53.4355,6.45489 -13.5471,1.42097 -53.5094,7.30648 -54.6797,8.05304 -1.3273,0.84676 1.6439,3.82438 3.6205,3.62833 1.2096,-0.12 20.0785,-2.20221 41.9307,-4.62715 z m -33.7146,-6.46695 c 7.7524,-1.281 33.4156,-4.61361 57.0296,-7.40566 23.6139,-2.79214 53.097,-6.42377 65.5179,-8.07039 12.4209,-1.64651 32.8886,-3.92156 45.4837,-5.05544 12.5951,-1.13387 48.5412,-4.90052 79.8801,-8.37018 31.339,-3.46975 64.1049,-6.80368 72.813,-7.40871 8.708,-0.60513 15.7775,-1.4457 15.7099,-1.86803 -0.1358,-0.84857 -12.3442,-15.38848 -21.9592,-26.15293 -6.1071,-6.83728 -42.3545,-45.1356 -47.2676,-49.94215 -17.9879,-17.59783 -51.1262,-40.07418 -72.9501,-49.47915 -14.2712,-6.15021 -31.711,-9.06376 -48.8247,-8.15695 -6.7953,0.36006 -13.1523,1.09025 -14.1268,1.6225 -2.9172,1.59354 -83.3076,23.08042 -108.7383,29.0637 -12.9954,3.05757 -35.3168,8.7191 -49.6031,12.58125 -14.2864,3.86216 -34.3418,9.12607 -44.5676,11.69755 -10.2257,2.57149 -18.622,4.94329 -18.6582,5.27067 -0.036,0.32744 6.8871,9.39635 15.3853,20.15312 8.4982,10.75677 18.6342,24.12697 22.5244,29.71157 9.666,13.87619 28.9636,45.63026 33.8811,55.75105 2.2194,4.56781 4.1118,8.32359 4.2054,8.34622 0.094,0.0196 6.513,-1.00702 14.2652,-2.28804 z m 888.9128,87.4457 c 15.543,-3.85786 36.4797,-8.96465 46.526,-11.34846 26.1642,-6.20835 48.848,-12.80426 72.8423,-21.18103 24.7181,-8.62943 34.1022,-12.76824 62.4168,-27.52856 11.6575,-6.07704 28.0387,-14.60999 36.4028,-18.96227 8.364,-4.35219 15.0528,-8.14869 14.864,-8.43669 -0.1888,-0.288 -3.9379,-0.55249 -8.3314,-0.58776 -11.0371,-0.0887 -22.7385,-1.31002 -45.3204,-4.73041 -20.0405,-3.03549 -45.3805,-6.09936 -59.283,-7.1679 -37.8231,-2.90698 -111.1889,-4.04889 -143.2457,-2.22956 l -3.8205,0.21686 1.1375,7.10665 c 3.0371,18.97427 4.6509,48.30978 3.6212,65.82561 -0.4594,7.81571 -1.5729,14.79555 -3.7483,23.49756 -1.7022,6.80851 -2.9209,12.41536 -2.7081,12.45956 0.2127,0.044 13.1038,-3.0758 28.6468,-6.9336 z m -14.6257,-107.61705 c 33.2227,-1.40094 65.6612,-1.1272 107.551,0.90753 31.5443,1.53224 54.4366,3.8149 89.5589,8.92998 37.3776,5.44359 54.1521,5.74758 65.2563,1.18244 8.6196,-3.54363 9.5927,-4.99863 12.3902,-18.52582 1.3819,-6.69019 2.3741,-14.40715 2.2572,-17.5837 -0.4954,-13.45375 -8.1499,-29.61702 -16.1144,-34.02694 -8.9616,-4.96201 -60.8026,-14.88083 -98.1375,-18.77681 -31.0014,-3.23504 -86.8708,-5.56271 -137.7191,-5.73772 -21.1861,-0.0729 -62.3776,1.23839 -67.7901,2.15807 l -3.1013,0.52695 1.653,2.52169 1.653,2.52167 15.3334,-1.05543 c 20.8874,-1.43772 32.4493,-1.63439 63.917,-1.08718 58.6154,1.0193 107.5704,4.5726 158.9244,11.53518 8.4687,1.14819 23.0305,2.95717 32.3597,4.01997 17.094,1.94739 26.4506,4.1305 29.9992,6.99953 6.4834,5.24172 8.7701,14.51182 6.8798,27.89008 -1.2351,8.74108 -6.8702,27.27358 -9.1057,29.94633 -1.907,2.28014 -9.7727,4.57364 -16.7448,4.88262 -10.1999,0.45209 -33.6908,-1.42714 -64.3004,-5.1439 -26.7738,-3.25087 -48.5871,-4.75519 -99.6899,-6.87503 -14.3005,-0.59315 -82.2374,0.53743 -88.3862,1.47091 -1.4457,0.21948 -1.3089,3.33734 0.1598,3.64295 0.5123,0.1066 6.4508,-0.0389 13.1965,-0.32337 z m 18.7671,-7.89287 c 45.4808,-1.30651 47.3922,-1.26251 121.1873,2.79284 5.2765,0.28999 23.0446,2.15278 39.4847,4.1395 49.8186,6.02052 69.2575,6.22724 73.7365,0.78396 0.6894,-0.83782 2.8762,-6.70133 4.8595,-13.03001 5.74,-18.31584 5.3612,-31.76806 -1.0774,-38.27056 -2.4804,-2.50491 -4.1392,-3.15855 -12.2723,-4.83556 -5.1724,-1.06604 -13.4549,-2.35328 -18.4056,-2.85947 -4.9507,-0.50619 -18.6186,-2.19338 -30.3731,-3.74932 -57.3205,-7.58743 -102.3342,-10.83953 -162.0129,-11.70496 -34.3948,-0.49876 -72.4312,0.67213 -74.9245,2.30643 -0.3288,0.21552 0.1638,1.55357 1.0946,2.97343 l 1.6923,2.58157 29.6221,-1.17468 c 53.9569,-2.13964 98.203,-0.55374 152.3441,5.46039 31.0568,3.44989 76.3787,10.75612 91.2002,14.70218 l 10.4359,2.77841 1.4274,-2.23453 c 1.598,-2.50161 2.8034,-2.60404 4.0037,-0.34034 1.4655,2.76369 -1.1789,17.62302 -4.5571,25.60718 -7.3732,17.42568 -10.4594,17.82905 -71.5173,9.34663 -31.6963,-4.40338 -53.6967,-5.17506 -94.8107,-3.32589 -15.5949,0.7015 -42.0382,1.87399 -58.763,2.60556 -16.7247,0.73157 -32.1561,1.41675 -34.292,1.52267 -3.4345,0.17021 -3.8109,0.43876 -3.2563,2.32295 0.3449,1.17172 1.0676,2.22207 1.606,2.33411 0.5384,0.11202 15.644,-0.21756 33.5679,-0.73249 z m -3.9517,-10.452 c 17.9709,-0.7455 45.2131,-1.97352 60.5384,-2.72909 45.9356,-2.2644 65.3,-1.47174 109.888,4.49817 34.5602,4.62728 45.2645,5.09754 49.7094,2.18378 4.137,-2.71192 8.041,-11.85839 9.9268,-23.25741 l 0.3674,-2.22176 -24.7234,-5.12998 c -48.1604,-9.99302 -100.9528,-16.06769 -159.3562,-18.33671 -21.3567,-0.82973 -60.5847,-0.18209 -93.522,1.54403 l -3.8687,0.20274 7.0334,17.00174 c 3.8684,9.35104 7.8059,19.34587 8.7502,22.2108 0.9442,2.86492 1.9114,5.24946 2.1494,5.29898 0.238,0.0495 15.1362,-0.51983 33.107,-1.26535 z m -51.0846,-68.89103 c 46.3124,-3.18754 150.0756,-1.1827 197.9061,3.82381 6.5259,0.68309 6.9419,0.57288 11.4337,-3.02931 7.8141,-6.26629 22.9869,-19.83828 31.1357,-27.85061 7.2562,-7.13487 25.2842,-26.57926 25.4697,-27.47093 0.047,-0.22431 -1.6197,-0.76253 -3.703,-1.19601 -10.8115,-2.24964 -44.8217,-19.22416 -67.6698,-33.7741 -18.0187,-11.47455 -42.5294,-31.30339 -61.2973,-49.58863 -18.7797,-18.29677 -20.0225,-19.34126 -39.0232,-32.79682 -19.172,-13.57681 -24.0221,-17.54559 -40.5283,-33.16376 -23.6166,-22.34605 -24.0897,-22.65374 -58.1407,-37.8085 -46.6841,-20.77723 -67.4349,-31.9973 -87.7557,-47.44992 -10.0164,-7.61677 -17.8724,-15.11086 -23.0418,-21.98034 l -2.8875,-3.83704 -2.0735,2.07342 c -12.1614,12.16038 -36.9868,30.4205 -55.805,41.04684 -17.4963,9.87994 -23.6061,12.8705 -39.7231,19.44349 -11.0525,4.50753 -14.1165,6.15123 -12.8773,6.90817 0.8944,0.54631 5.7559,2.13135 10.8034,3.52229 38.7772,10.6859 80.8914,39.79937 109.0608,75.39365 9.1753,11.5937 36.428,53.83147 46.5209,72.10053 9.1674,16.594 25.4423,48.36437 32.7862,64.00222 6.2053,13.21334 16.4198,31.99112 17.537,32.23889 0.3971,0.0878 5.7398,-0.18523 11.8727,-0.60734 z m 242.1944,-92.55685 c -41.7256,-20.24448 -51.6752,-25.40152 -71.1432,-36.87462 -14.9523,-8.81188 -23.3106,-14.80029 -22.9664,-16.45461 0.3422,-1.64444 2.8459,-0.5378 10.5122,4.64647 17.4061,11.77065 42.1272,24.93639 88.4753,47.11921 17.8595,8.54783 32.9391,16.12777 33.5102,16.84429 1.1708,1.46902 0.1965,3.01537 -1.5327,2.43247 -0.6253,-0.21079 -17.2102,-8.18169 -36.8554,-17.71321 z m 77.5749,-1.84325 c -4.7148,-4.12023 -14.3212,-13.08763 -21.3473,-19.92753 -15.2007,-14.7977 -20.9368,-19.13777 -32.9736,-24.94827 -7.3787,-3.56195 -45.9353,-18.28724 -50.2149,-19.17772 -0.6356,-0.13225 -1.0181,-0.90131 -0.8501,-1.70901 0.4423,-2.12534 4.4116,-1.06858 25.4998,6.78877 31.184,11.61899 39.1597,15.99567 53.1076,29.14282 4.3309,4.0822 14.5879,13.68506 22.7933,21.33968 13.5431,12.63403 16.0301,15.57588 13.4259,15.88092 -0.4775,0.0559 -4.7258,-3.26941 -9.4407,-7.38966 z m 27.7853,-13.62408 c -13.8664,-15.92199 -25.9099,-28.3424 -32.7619,-33.78705 -8.5198,-6.76999 -28.7451,-19.66993 -40.1656,-25.61814 -26.3751,-13.73702 -39.407,-18.70333 -83.2957,-31.74283 -89.5691,-26.61132 -151.4484,-46.68382 -198.5286,-64.39899 -29.2933,-11.02235 -62.5224,-28.96465 -58.5117,-31.59379 0.312,-0.20447 5.5993,2.56151 11.7498,6.14666 20.2108,11.78112 34.2059,17.66765 81.2097,34.15794 42.9442,15.06603 98.3427,32.61972 165.2965,52.37613 26.7393,7.89015 40.2056,12.29682 51.6403,16.8987 l 3.2988,1.32756 -2.9704,-2.90555 c -25.0296,-24.4833 -28.2757,-27.40943 -45.5849,-41.092 -28.1163,-22.22527 -49.7267,-37.15871 -63.404,-43.81403 -7.8964,-3.84236 -10.0723,-5.51934 -8.4994,-6.55042 2.2432,-1.4705 21.4099,8.92493 38.5394,20.90259 18.0242,12.60328 54.5847,41.84783 63.9067,51.11863 5.0334,5.00583 12.9016,12.47574 17.485,16.59983 4.5833,4.12406 8.8827,8.17138 9.5542,8.99404 0.6714,0.82266 5.1959,3.37715 10.0544,5.67664 4.8584,2.29951 12.4385,6.18436 16.8445,8.63302 4.4061,2.44866 8.0435,4.29611 8.0832,4.10546 0.04,-0.19067 -2.8632,-3.35953 -6.4507,-7.04192 -3.5876,-3.68239 -12.3317,-13.0181 -19.4312,-20.74601 -16.7384,-18.21977 -53.6235,-55.09372 -68.6929,-68.67215 -13.2352,-11.92568 -25.6783,-20.64595 -51.0415,-35.77053 -13.7496,-8.19919 -19.5909,-11.10922 -28.6899,-14.29293 -36.8784,-12.90359 -68.3644,-27.0087 -84.8655,-38.01806 -13.496,-9.00444 -25.2727,-19.27462 -24.7857,-21.61507 0.437,-2.10047 2.1509,-1.33203 6.4646,2.89844 6.0051,5.88945 19.7844,16.00241 29.0455,21.31713 10.9413,6.27906 34.1018,16.70615 53.0486,23.88301 8.3317,3.156 16.4094,6.23694 17.9504,6.84657 4.3791,1.7324 2.1448,-0.31744 -9.4078,-8.63086 -20.1794,-14.52138 -51.1734,-38.97759 -68.4347,-53.99915 -19.721,-17.16221 -46.1701,-38.27214 -48.5801,-38.77362 -0.8925,-0.18571 -2.6126,0.13123 -3.8224,0.7043 -2.8266,1.33909 -4.7402,0.98054 -4.366,-0.81807 0.4642,-2.23067 4.9393,-3.62655 8.9506,-2.79189 4.1661,0.86688 24.6077,16.83795 51.666,40.36687 30.1476,26.21535 77.3759,61.5406 103.1529,77.1551 28.3,17.14289 34.1326,21.00917 46.4268,30.77509 15.3016,12.1549 56.9171,53.19632 83.0247,81.87959 22.2641,24.46048 33.9479,35.42532 61.1909,57.42584 5.7207,4.61988 16.8585,9.43005 26.5583,11.47001 7.4149,1.55942 10.0089,3.05123 8.3494,4.80171 -1.0812,1.14048 -17.1925,-2.86979 -24.0334,-5.98217 -1.9206,-0.8738 -3.5322,-1.30077 -3.5814,-0.94884 -0.049,0.35204 4.5496,5.86293 10.2195,12.24661 5.6699,6.38369 10.2185,12.04143 10.1079,12.57277 -0.5191,2.49471 -4.4306,-0.78788 -13.9132,-11.67617 z m 64.5101,-30.48915 c -10.4279,-16.56368 -29.6338,-35.29382 -62.5355,-60.98655 -16.6293,-12.98561 -28.6229,-23.06122 -30.4843,-25.60914 -3.7004,-5.06526 -6.5133,-13.82771 -5.892,-18.35373 0.6755,-4.9196 2.4764,-4.24188 3.0986,1.16602 0.7537,6.551 4.1988,14.01091 8.5513,18.51687 2.0134,2.08426 11.4047,9.64712 20.8698,16.80635 23.9806,18.13867 33.5918,26.34597 47.6949,40.72824 12.7298,12.98189 25.3178,29.58302 23.7141,31.27457 -1.4232,1.50128 -2.1762,0.96952 -5.0169,-3.54263 z m -44.3383,-24.96829 c -1.4226,-1.39366 -11.2508,-8.28021 -21.8404,-15.30345 -31.7071,-21.02885 -44.7976,-32.17171 -64.7672,-55.1312 -4.4477,-5.11369 -13.7959,-14.99474 -20.7737,-21.95788 -6.9779,-6.96313 -20.912,-21.72927 -30.9648,-32.81363 -25.1749,-27.75837 -56.1888,-59.17824 -71.705,-72.64376 -7.1378,-6.19441 -23.6708,-20.61995 -36.74,-32.05675 -13.0692,-11.43681 -24.9018,-21.76733 -26.2945,-22.95671 -2.9036,-2.47963 -3.5901,-4.91745 -1.2475,-4.43 2.1904,0.45577 5.4171,3.1369 33.5657,27.8906 13.5342,11.9019 29.6637,26.0576 35.8433,31.45708 13.8739,12.12242 45.458,44.25047 67.0177,68.17207 8.9,9.87496 22.2704,24.03696 29.712,31.47112 7.4416,7.43416 18.9353,19.57033 25.5415,26.96925 21.1967,23.74004 31.0909,32.22623 58.9563,50.56635 20.612,13.56621 29.445,20.37854 29.0271,22.38691 -0.4105,1.97261 -2.2264,1.42071 -5.3305,-1.62 z m 72.769,-13.22626 c -1.5858,-1.82806 -7.9854,-9.7296 -14.2212,-17.55897 -23.9374,-30.05477 -59.5255,-66.82611 -79.632,-82.27987 -14.2365,-10.94209 -38.0794,-26.84833 -57.6677,-38.47156 -6.4908,-3.85152 -24.4339,-14.95563 -39.8735,-24.67579 -15.4396,-9.72016 -44.5997,-27.52157 -64.8002,-39.55869 -20.2004,-12.03711 -47.9701,-28.60484 -61.7102,-36.81714 -13.7402,-8.2123 -32.3594,-19.13915 -41.376,-24.2819 -9.0166,-5.14273 -16.446,-9.93583 -16.5098,-10.65133 -0.064,-0.71548 0.5357,-1.16532 1.3319,-0.99964 2.363,0.49168 42.6349,23.26448 64.144,36.27183 10.9778,6.63869 36.3166,21.81919 56.3086,33.73444 19.9919,11.91524 48.3381,29.21014 62.9915,38.43309 14.6534,9.22296 32.773,20.4415 40.2657,24.9301 21.2274,12.71651 46.5905,29.63483 60.0942,40.08553 18.6082,14.40118 57.9203,55.00327 77.348,79.88613 5.3228,6.81742 11.816,14.82116 14.4293,17.7861 4.4468,5.04526 5.7588,8.48123 2.975,7.79202 -0.6678,-0.16531 -2.5117,-1.7963 -4.0976,-3.62435 z M 2011.1617,320.76242 c -13.0391,-22.12975 -23.6611,-34.84767 -34.637,-41.47143 -4.2795,-2.58263 -5.7176,-4.87488 -3.3046,-5.26739 2.6908,-0.4377 17.6411,11.77264 24.249,19.80479 6.4576,7.8494 11.3027,15.2964 20.2705,31.15576 5.1737,9.14956 6.5706,13.38831 4.2535,12.90618 -0.4636,-0.0965 -5.3377,-7.80403 -10.8314,-17.12791 z m 547.447,80.93231 c -2.9117,-2.20595 -8.0706,-7.23383 -11.4643,-11.17306 -28.7482,-33.36955 -54.7404,-61.39057 -69.2448,-74.64978 -16.3364,-14.93383 -59.9842,-51.10739 -78.4067,-64.98037 -9.9565,-7.49759 -30.7433,-23.5696 -46.1929,-35.71557 -15.4497,-12.14597 -33.5415,-25.70711 -40.204,-30.13589 -6.6625,-4.42878 -23.7995,-15.95164 -38.0821,-25.60637 -21.2163,-14.34166 -74.7759,-46.72021 -91.0243,-55.0272 -3.6952,-1.88919 -3.961,-3.68597 -0.4985,-3.37028 3.5004,0.31917 62.2037,34.54917 81.1163,47.29917 8.5967,5.79545 23.7059,15.90638 33.576,22.46873 9.8701,6.56234 23.0561,15.54247 29.3023,19.95581 l 11.3565,8.02424 7.571,-1.04564 c 4.1641,-0.57511 7.8835,-0.74941 8.2654,-0.38731 1.2666,1.20071 -0.9297,2.42664 -6.4663,3.60945 l -5.4713,1.16884 23.9508,18.93654 c 13.1729,10.4151 29.9801,23.41966 37.3491,28.89901 7.3691,5.47937 22.6177,17.66428 33.8859,27.0776 41.4873,34.65794 50.1862,42.65819 71.7707,66.00616 6.3432,6.86137 12.4805,13.44402 13.6386,14.62812 1.158,1.1841 6.1665,6.93516 11.1299,12.78012 17.0967,20.13345 20.5715,23.93863 25.3189,27.72635 4.933,3.93577 9.6334,5.61534 14.5593,5.20238 3.7993,-0.31853 3.4184,2.33547 -0.4613,3.21269 -4.4802,1.01306 -9.6592,-0.64964 -15.2742,-4.90374 z m -93.9958,-36.695 c -2.6801,-1.96879 -12.9917,-8.74127 -22.9146,-15.04995 -34.6214,-22.01122 -49.4399,-33.35973 -67.3984,-51.61606 -13.7469,-13.9749 -23.1927,-25.56599 -27.3209,-33.52607 -5.252,-10.12719 -6.5508,-16.93516 -3.0933,-16.21574 0.5235,0.10894 1.066,1.02618 1.2054,2.03831 0.587,4.26106 6.5656,16.09758 11.2403,22.25342 6.4108,8.44211 18.7844,21.94241 28.1165,30.67697 14.775,13.82883 29.2086,24.40593 60.2669,44.16434 20.4278,12.99565 29.0471,19.37717 27.8612,20.62805 -1.1495,1.21251 -2.5512,0.62227 -7.9631,-3.35327 z m 143.3743,28.33069 c -0.2461,-1.40066 -0.6867,-4.10605 -0.9792,-6.012 -0.2926,-1.90593 -2.1923,-5.67963 -4.2214,-8.38596 -4.3546,-5.80774 -19.265,-19.76494 -20.353,-19.05179 -0.73,0.47851 -1.6102,16.734 -1.1754,21.70718 0.176,2.01273 -0.094,2.31719 -1.5254,1.71977 -2.1236,-0.88635 -2.7744,-7.29297 -1.7061,-16.79507 0.4165,-3.70534 0.4629,-6.79825 0.1031,-6.87312 -0.3599,-0.0749 -1.9287,1.00192 -3.4861,2.39292 -3.7605,3.35864 -15.0576,8.46681 -24.0653,10.88154 -8.0054,2.14598 -9.4164,2.17896 -9.0068,0.2105 0.1513,-0.72714 3.3201,-2.14983 7.0417,-3.16153 13.4734,-3.66268 29.2232,-12.49041 28.0494,-15.72171 -0.2367,-0.65186 -4.4767,-5.31525 -9.4221,-10.36308 -8.4211,-8.59543 -32.9594,-37.63289 -48.4985,-57.39077 -3.7761,-4.80128 -24.5044,-28.88602 -46.0628,-53.52164 -21.5584,-24.63563 -43.8382,-50.10002 -49.5105,-56.58755 -11.5762,-13.23982 -64.1403,-66.75419 -74.4308,-75.77637 -3.6759,-3.222887 -8.0019,-6.654757 -9.6132,-7.626367 -4.6052,-2.77698 -5.5337,-3.90758 -3.7431,-4.55803 3.3126,-1.20328 9.7961,3.62462 26.4123,19.667817 22.9519,22.16038 52.3151,52.70844 68.8517,71.63021 9.3019,10.64345 31.2182,35.64551 48.7029,55.56012 17.4848,19.91462 35.0749,40.30457 39.0892,45.31101 21.4465,26.74703 43.4442,52.82291 51.8523,61.46509 5.2233,5.36873 9.6599,9.79524 9.8593,9.83672 0.6987,0.14539 21.4701,19.98914 24.1773,23.0976 3.7385,4.29258 6.8092,11.46265 6.7256,15.70419 -0.087,4.41598 -2.403,6.41089 -3.0651,2.64032 z M 2313.6838,145.39906 c -24.1103,-16.72024 -36.7098,-29.59986 -57.6952,-58.978077 -12.1513,-17.01109 -17.2633,-23.3963 -23.9161,-29.87232 -7.2437,-7.0513 -10.6344,-9.12226 -17.1273,-10.46083 -5.9795,-1.23277 -14.3663,1.09261 -19.2701,5.34279 -3.6441,3.15851 -10.2408,11.32424 -14.1878,17.56229 -3.2159,5.08285 -6.4236,5.55011 -4.3311,0.63091 2.2953,-5.3956 13.4613,-18.8851 18.4015,-22.23042 10.9291,-7.40082 21.9331,-7.0516 32.5869,1.03416 7.2515,5.5036 16.7326,16.29047 26.8418,30.53817 14.203,20.0177 21.3473,29.009127 30.2729,38.099487 8.8866,9.05088 22.8809,20.63173 32.764,27.11382 6.2696,4.11204 7.7225,5.53171 6.7313,6.57733 -1.1553,1.2186 -2.5886,0.525 -11.0708,-5.35731 z"
     id="path860"
     inkscape:connector-curvature="0" />
</svg>
