<?xml version="1.0" encoding="UTF-8" standalone="no"?>
<svg
   xmlns:dc="http://purl.org/dc/elements/1.1/"
   xmlns:cc="http://creativecommons.org/ns#"
   xmlns:rdf="http://www.w3.org/1999/02/22-rdf-syntax-ns#"
   xmlns:svg="http://www.w3.org/2000/svg"
   xmlns="http://www.w3.org/2000/svg"
   viewBox="0 0 2569.4976 2188.9595"
   height="2188.9595"
   width="2569.4976"
   id="svg1640"
   version="1.1">
  <metadata
     id="metadata1646">
    <rdf:RDF>
      <cc:Work
         rdf:about="">
        <dc:format>image/svg+xml</dc:format>
        <dc:type
           rdf:resource="http://purl.org/dc/dcmitype/StillImage" />
        <dc:title></dc:title>
      </cc:Work>
    </rdf:RDF>
  </metadata>
  <defs
     id="defs1644" />
  <g
     transform="translate(-274.31931,-105)"
     id="g1650">
    <path
       id="path1654"
       d="m 533.2,2292.8 c -3.2744,-3.2744 -3.88316,-2.2225 47.16591,-81.4997 24.61479,-38.2257 43.31549,-73.275 59.38488,-111.3003 17.90952,-42.3797 24.42498,-62.3831 27.30176,-83.8206 2.525,-18.8159 -0.47479,-59.6588 -6.62343,-90.1794 -5.30936,-26.3546 -9.89726,-39.5516 -30.94059,-89 -7.84097,-18.425 -19.21445,-45.65 -25.2744,-60.5 -6.05995,-14.85 -19.65454,-47.025 -30.2102,-71.5 -23.37233,-54.1926 -26.27059,-61.4373 -38.00482,-95 -5.09573,-14.575 -12.06209,-33.475 -15.4808,-42 -8.9799,-22.3925 -24.16489,-54.2325 -30.26068,-63.4507 -2.89169,-4.373 -5.25763,-8.601 -5.25763,-9.3957 0,-0.7947 -2.88176,-7.1168 -6.4039,-14.0492 -11.42146,-22.4801 -23.98255,-53.769 -41.59257,-103.6044 -10.423,-29.4965 -26.20966,-71.896 -37.23312,-100 -9.64735,-24.5956 -21.63883,-55.7004 -27.75738,-72 -2.06458,-5.5 -7.81101,-20.125 -12.76983,-32.5 -28.52451,-71.1844 -42.34818,-112.7827 -55.16396,-166 -24.29938,-100.90268 -26.93996,-114.54496 -29.13057,-150.5 -1.65641,-27.18712 0.0378,-60.30479 4.12964,-80.72278 1.07166,-5.34752 4.17427,-16.59752 6.89471,-25 9.03687,-27.91178 9.90772,-33.22535 13.04436,-79.59156 3.28987,-48.63125 7.03878,-64.34288 22.35408,-93.68566 11.67393,-22.36623 18.45741,-32.19392 41.12387,-59.57897 l 5.99534,-7.24341 0.0303,-49.58881 c 0.0255,-41.7005 0.30662,-51.4977 1.7674,-61.58881 4.79445,-33.12023 13.27189,-70.17328 24.82393,-108.5 l 6.1789,-20.5 -1.14815,-15.5 c -1.43737,-19.40444 -3.46471,-32.04942 -6.34526,-39.57675 -1.25195,-3.27157 -11.14271,-19.1823 -22.45609,-36.12393 C 355.76989,155.98075 349.04043,144.85826 342.06152,130.90486 337.07768,120.94035 333,111.78011 333,110.54877 333,108.05203 335.84576,105 338.17375,105 c 2.50873,0 4.35422,2.82371 12.17456,18.62778 8.91915,18.02465 16.54801,30.58003 33.64509,55.37222 14.65784,21.25508 18.0393,27.03184 20.96985,35.82401 1.81164,5.43527 5.01284,22.69591 5.03085,27.12599 0.012,2.94361 1.90736,-0.68927 7.0173,-13.45 8.9946,-22.46169 22.95207,-49.95581 32.7436,-64.5 10.71041,-15.90908 14.28506,-20.00562 17.43863,-19.98469 7.35522,0.0488 6.71465,4.53506 -2.44897,17.15143 -9.52259,13.11058 -14.2853,20.95151 -21.63071,35.61099 -26.97598,53.83691 -51.19402,132.13226 -61.15875,197.72227 -2.92969,19.28382 -3.52607,54.13248 -2.11351,123.5 0.62159,30.525 1.40266,75.31182 1.7357,99.52627 0.58362,42.43291 0.53595,44.1122 -1.31721,46.40075 -2.70536,3.34098 -6.72559,2.26585 -8.13881,-2.17657 -0.63338,-1.99102 -1.30428,-27.66072 -1.73152,-66.25045 -0.38362,-34.65 -0.98919,-64.09151 -1.34571,-65.42557 -0.60179,-2.25183 -1.15217,-1.82207 -7.6838,6 -13.66777,16.36807 -23.66409,32.01904 -33.48436,52.42557 -12.01031,24.95744 -15.08048,38.93016 -17.90763,81.5 -2.49233,37.5282 -4.91799,55.49274 -9.48535,70.24877 -1.91539,6.18818 -5.06251,16.35558 -6.99358,22.59423 -1.93108,6.23865 -4.16292,15.37336 -4.95964,20.29936 -2.48908,15.38959 -3.83869,42.11796 -3.17392,62.85764 1.15628,36.07344 4.01251,52.86255 21.58493,126.87755 16.6232,70.01695 24.56974,97.12205 42.54614,145.12245 10.4292,27.8479 21.60714,56.3256 22.49249,57.3034 0.40011,0.4419 0.97194,-2.7633 1.27074,-7.1227 0.59549,-8.6881 1.72299,-11.72 4.71101,-12.6684 3.53253,-1.1212 5.78076,1.2986 13.10735,14.1075 8.13897,14.2291 18.30296,28.3597 30.48376,42.3802 10.25154,11.7999 32.46369,33.5752 42.44772,41.613 13.67539,11.0095 47.92708,36.385 57.78831,42.8127 22.42427,14.6164 82.17938,47.7098 133.71169,74.0518 15.95,8.1532 40.025,20.69 53.5,27.8594 29.1725,15.5215 63.52081,32.3525 108.52847,53.1802 45.07659,20.8595 63.40233,28.412 110.47153,45.5282 56.14897,20.4179 102.6628,42.2784 140.6618,66.1081 7.789,4.8846 16.339,9.8467 19,11.027 2.661,1.1803 21.2632,7.6484 41.3382,14.3736 40.204,13.4686 43.7502,14.804 72,27.1149 25.3502,11.0474 60.9863,29.6196 86.25,44.9506 4.8125,2.9204 8.75,4.8932 8.75,4.3841 0,-1.1092 -6.9507,-9.8026 -15.7519,-19.7013 -8.6148,-9.6892 -33.4897,-31.6248 -49.1756,-43.3649 -21.5878,-16.1575 -89.6631,-58.9122 -128.2155,-80.5257 -9.5463,-5.352 -26.002,-15.0442 -36.568,-21.5383 -24.9197,-15.3161 -48.3038,-28.332 -65.789,-36.6191 -7.7,-3.6494 -26.375,-12.9077 -41.5,-20.5741 -41.35271,-20.9604 -49.49121,-24.4203 -113.01617,-48.0464 -14.03389,-5.2195 -32.03389,-12.2529 -40,-15.6298 C 754.32825,1357.1066 727.14474,1346.693 674,1328.4426 582.13834,1296.8965 577.06086,1295.02 549,1282.248 525.14033,1271.3881 518.20372,1267.8185 496.88313,1255.4289 475.69658,1243.117 460.49427,1232.9691 447,1222.1304 c -13.36378,-10.7338 -44.36974,-41.9144 -52.27911,-52.5736 -10.46369,-14.1014 -21.73696,-37.3297 -27.92528,-57.5392 -1.09765,-3.5847 -2.69857,-7.3086 -3.55762,-8.2753 -1.38499,-1.5586 -1.42111,-3.2575 -0.31896,-15 1.53929,-16.3998 2.6855,-20.1293 6.31712,-20.554 4.61422,-0.5396 6.62414,1.5828 12.22302,12.9069 13.20643,26.7109 27.29772,46.6857 44.75796,63.4459 22.83309,21.9175 52.18896,39.3469 99.28243,58.9466 61.79697,25.7191 117.43258,40.465 254.50044,67.4537 11.275,2.2201 28.375,6.0118 38,8.426 27.10821,6.7996 103.81729,27.3091 116.30401,31.0959 32.90257,9.9783 148.82319,57.312 182.90759,74.6864 21.0215,10.7156 54.489,32.6099 71.9048,47.0397 12.5481,10.3967 41.7355,35.6507 51.7499,44.7759 18.3222,16.6955 78.9003,84.5352 101.2971,113.4399 4.0351,5.2076 7.6095,9.4968 7.9431,9.5316 1.8225,0.19 4.2364,-66.3189 3.609,-99.4368 -0.6901,-36.4312 -4.1251,-59.7257 -13.2881,-90.1125 -5.607,-18.5945 -44.6696,-117.5899 -61.9061,-156.8875 -10.5047,-23.9496 -18.7127,-44.7979 -28.5432,-72.5 -22.4534,-63.273 -40.071,-108.2864 -57.7294,-147.5 -19.9398,-44.27979 -27.303,-60.73887 -34.2232,-76.5 -15.095,-34.37952 -36.046,-73.27296 -56.0223,-104 -12.3982,-19.07063 -18.2595,-28.74914 -34.4202,-56.83679 C 1053.9699,772.50336 1046.9759,761.04843 1021.996,721.5 989.61703,670.23711 974.5819,648.44881 950.63991,618.09358 941.27262,606.21711 925.22288,585.25 914.97382,571.5 c -10.24905,-13.75 -25.85077,-34.12433 -34.67048,-45.2763 -8.81971,-11.15196 -20.03352,-25.92789 -24.91959,-32.8354 -4.88606,-6.90751 -14.13067,-19.74202 -20.54357,-28.52112 -6.41291,-8.77911 -13.83791,-19.30986 -16.5,-23.40168 -2.6621,-4.09182 -5.29018,-7.44385 -5.84018,-7.44897 -1.19513,-0.0111 -5.80721,11.50862 -11.9876,29.94183 -5.24641,15.64756 -5.5266,19.68464 -2.46671,35.54066 2.68034,13.88916 6.72431,25.16559 14.56983,40.62729 12.98703,25.59443 23.1918,40.625 50.83435,74.87369 25.44241,31.52275 38.03942,49.13284 39.12673,54.69753 0.32923,1.68498 -0.0365,3.5909 -0.91726,4.77971 -2.87694,3.88331 -6.39239,1.10409 -15.54522,-12.28961 C 881.50188,655.43835 870.052,640.37257 860.66994,628.70811 838.06642,600.60577 825.87877,584.33387 818.05593,571.81359 807.71541,555.26382 795.5688,530.63675 792.0071,519 c -4.54536,-14.8506 -4.08951,-13.81184 -5.04667,-11.5 -0.45542,1.1 -3.1392,9.65 -5.96394,19 -6.58389,21.79289 -8.10328,25.23771 -11.50839,26.09234 -3.20009,0.80317 -5.74819,-1.31544 -5.71662,-4.75305 0.0118,-1.28661 2.81162,-11.33929 6.22178,-22.33929 3.41016,-11 9.10332,-29.45 12.65146,-41 11.64269,-37.89958 15.56934,-47.82904 41.32508,-104.5 15.98306,-35.16793 21.76629,-49.59253 33.47746,-83.5 4.17918,-12.1 10.79434,-31 14.70038,-42 3.90603,-11 10.15184,-29 13.87957,-40 8.47498,-25.00841 17.30966,-49.31697 19.37586,-53.31257 0.86625,-1.67513 2.51218,-3.34314 3.65763,-3.70669 2.65843,-0.84376 5.9393,1.99957 5.9393,5.14722 0,1.2749 -2.90197,10.31765 -6.44883,20.09501 -3.54685,9.77737 -10.46716,29.47703 -15.37847,43.77703 -36.62023,106.6253 -39.58499,114.46189 -61.76114,163.25 -1.52745,3.36042 -1.96084,5.25 -1.20413,5.25 0.65022,0 10.43204,-2.21764 21.73739,-4.92809 11.30535,-2.71045 33.15518,-7.48508 48.55518,-10.61029 30.43132,-6.17561 40.65093,-8.83617 53.14883,-13.83668 16.44591,-6.58014 35.38111,-20.8066 40.09584,-30.12494 3.88701,-7.68241 4.58789,-14.57942 4.7762,-47 0.23627,-40.67797 0.0837,-40.19912 16.47913,-51.73279 15.7434,-11.075 16.4712,-13.96492 7.7551,-30.79194 -4.7743,-9.21694 -5.5322,-11.36617 -4.6688,-13.23922 0.5669,-1.22983 5.0528,-5.38605 9.9685,-9.23605 5.39,-4.22142 8.9393,-7.72113 8.9415,-8.81672 0,-0.9992 -1.1213,-3.29167 -2.4963,-5.09439 -3.4878,-4.57275 -3.2289,-10.06441 0.5,-10.60742 3.6253,-0.52793 5.1209,0.2969 8.4545,4.66269 7.8495,10.28019 6.8071,15.91806 -4.6013,24.8865 -4.0442,3.17933 -7.7246,6.10447 -8.1785,6.50031 -0.454,0.39585 0.7893,3.92607 2.7628,7.84494 6.2602,12.43117 7.4357,20.40818 3.9967,27.12409 -1.8178,3.55004 -10.7593,11.88988 -18.764,17.50147 -3.7563,2.63336 -7.3204,5.96031 -7.9201,7.39323 -0.667,1.59344 -1.3569,16.1988 -1.7764,37.6053 -0.769,39.24283 -1.0204,40.84954 -8.0347,51.35352 -9.39571,14.07016 -30.20099,27.87169 -53.439,35.44964 -11.24409,3.66672 -20.32845,5.81109 -49.5,11.68449 -14.025,2.82379 -35.625,7.57818 -48,10.5653 -12.375,2.98712 -23.52315,5.67096 -24.77366,5.96408 -1.59322,0.37346 -3.03293,2.24629 -4.8107,6.25796 -2.42085,5.46285 -2.4641,5.87847 -0.94431,9.0761 2.22758,4.68683 11.4877,18.60541 19.96991,30.01611 3.93833,5.29804 10.94243,15.0328 15.56465,21.6328 11.04834,15.77572 24.11278,33.18356 36.02362,48 5.3057,6.6 18.35607,23.7 29.00084,38 10.64477,14.3 25.92776,34.325 33.96221,44.5 8.03446,10.175 17.32441,22.1 20.64434,26.5 21.55819,28.57166 73.8117,109.99946 102.3537,159.5 16.3854,28.4174 20.0363,34.45251 33.6352,55.60068 24.1548,37.5643 41.1204,69.61667 62.6696,118.39932 7.4102,16.775 17.3904,39.05 22.1782,49.5 22.0748,48.1808 38.2781,89.0045 64.4322,162.3347 11.0905,31.0951 16.54,45.0088 27.0899,69.1653 16.5426,37.878 56.7502,138.9327 62.3774,156.7743 5.8984,18.7018 10.4576,39.5558 13.1824,60.2972 2.1526,16.3866 2.8919,57.2222 1.5737,86.9285 -2.1723,48.9534 -3.1622,67.5784 -4.1724,78.5 -0.5595,6.05 -3.0174,32.375 -5.4619,58.5 -7.4008,79.093 -12.3891,137.4364 -13.5091,158 -1.3207,24.2501 -1.3321,83.7031 -0.023,119.5 1.097,29.9955 0.092,65.9859 -2.5028,89.61 -3.5748,32.549 -8.8999,58.7413 -24.4764,120.39 -17.74,70.2118 -25.9061,102.1344 -26.5679,103.8591 -2.0649,5.3811 -9.4227,3.3224 -9.4074,-2.6322 0,-1.7748 4.7349,-21.6769 10.5119,-44.2269 23.7289,-92.6234 30.0916,-119.703 35.0095,-149 6.872,-40.9375 7.8344,-66.0815 6.0859,-159 -1.0308,-54.7725 0.4095,-94.2454 4.9303,-135.1246 l 0.5667,-5.1246 -5.5807,-4.7677 c -3.0693,-2.6222 -5.7896,-4.5587 -6.045,-4.3033 -0.6671,0.667 -8.4961,28.6044 -8.8874,31.7139 -0.1803,1.4335 -1.5469,4.8563 -3.0368,7.6063 -1.5879,2.9307 -3.2565,8.3429 -4.0321,13.0774 -1.7449,10.6526 -5.7989,25.3731 -9.3782,34.053 -5.7884,14.037 -16.2397,27.3495 -22.7553,28.9848 -3.534,0.887 -63.5229,-13.9738 -97.3296,-24.111 -13.5121,-4.0517 -33.7925,-9.6917 -45.0675,-12.5332 -52.8924,-13.3302 -94.6895,-27.6141 -175.5,-59.9763 -7.15,-2.8633 -22.45,-8.7108 -34,-12.9943 -11.55,-4.2835 -32.025,-12.1549 -45.5,-17.4919 -13.475,-5.337 -35.075,-13.8704 -48,-18.9632 -12.925,-5.0927 -34.075,-13.4307 -47,-18.5288 -35.03852,-13.8205 -49.26099,-20.0713 -73,-32.0836 -37.89984,-19.1779 -70.18632,-38.6005 -94,-56.5476 -30.34504,-22.8696 -48.2516,-39.5946 -73.21633,-68.3853 -9.29976,-10.725 -17.35575,-19.6584 -17.90221,-19.852 -0.54645,-0.1936 -0.26427,1.3814 0.62706,3.5 5.60227,13.3159 13.39433,33.9723 20.50283,54.352 10.96097,31.4245 14.10762,39.5687 25.50022,66 5.33397,12.375 14.64082,33.975 20.68191,48 6.04108,14.025 15.93514,37.65 21.9868,52.5 6.05165,14.85 17.43335,42.075 25.29267,60.5 7.85931,18.425 15.88286,37.775 17.8301,43 10.97936,29.4607 16.86398,57.1031 20.22399,95 2.57987,29.0978 1.61211,45.1421 -4.15095,68.8178 -6.01579,24.7139 -28.24997,78.0807 -48.78489,117.0942 -13.82144,26.2588 -18.28304,33.8881 -34.90881,59.6934 -7.04968,10.942 -20.43749,31.8008 -29.75068,46.3528 -9.3132,14.552 -17.8298,27.4895 -18.92578,28.75 -2.16111,2.4855 -5.89061,3.0071 -7.80593,1.0918 z m 743.0057,-416.55 c 3.7459,-3.9929 9.4463,-13.3047 11.8971,-19.4343 3.5405,-8.855 7.9246,-24.9461 8.5598,-31.4175 l 0.5989,-6.1018 -5.8807,-3.3194 c -3.2345,-1.8257 -10.3808,-6.7499 -15.8808,-10.9426 -5.5,-4.1928 -13.8211,-10.2983 -18.4914,-13.5678 l -8.4914,-5.9446 -30.5086,-4.6614 c -56.0648,-8.5661 -100.401,-17.5044 -131.0086,-26.4116 -8.525,-2.4809 -30.125,-8.734 -48,-13.8956 -36.9711,-10.676 -55.54865,-17.1736 -103,-36.0251 -43.12037,-17.1308 -55.93542,-21.7258 -104.90764,-37.6159 -94.55786,-30.6814 -134.61879,-47.5844 -171.4668,-72.3475 -25.40746,-17.0746 -63.49357,-45.9196 -80.60813,-61.0495 -8.9209,-7.8864 -34.48542,-34.1477 -89.57399,-92.0154 -11.51889,-12.1 -22.39219,-23.6875 -24.16289,-25.75 -1.7707,-2.0625 -3.44688,-3.75 -3.72485,-3.75 -0.27796,0 0.81245,3.5742 2.42314,7.9426 9.23228,25.0393 21.91329,53.2157 32.04646,71.2052 9.06794,16.0984 50.47444,66.9089 75.95652,93.2074 18.51157,19.1046 44.86483,40.6269 70.01818,57.1827 44.00583,28.9645 89.16516,51.7636 148.5,74.9715 27.45246,10.7375 74.20751,29.1586 96.5,38.02 10.175,4.0447 28.175,10.9308 40,15.3025 11.825,4.3717 27.125,10.2153 34,12.9858 48.9594,19.7296 103.8723,39.8678 130,47.6748 6.325,1.8899 24.55,6.806 40.5,10.9247 15.95,4.1186 37.7758,10.141 48.5018,13.383 10.726,3.2421 26.701,7.784 35.5,10.0932 22.7349,5.9663 54.7172,13.8855 56.5611,14.0052 0.8596,0.056 2.7239,-1.1361 4.1428,-2.6486 z m 25.4334,-71.1284 c 2.2144,-2.063 8.4007,-21.8198 11.467,-36.6216 2.2495,-10.8585 4.4108,-29.7107 3.6372,-31.7266 -0.5447,-1.4196 -35.301,-24.1335 -53.2433,-34.7956 -18.9616,-11.2678 -65.3664,-41.257 -104.3718,-67.4506 -22.3455,-15.0059 -49.6282,-32.8996 -60.6282,-39.7638 -11,-6.8642 -25.175,-15.8438 -31.5,-19.9546 -37.8207,-24.581 -85.6118,-47.0432 -148.5,-69.7963 -23.56575,-8.5261 -59.48355,-22.7873 -75,-29.7788 -51.75852,-23.3216 -104.21916,-48.6612 -138.5,-66.8984 -13.475,-7.1686 -37.55,-19.7046 -53.5,-27.8578 -51.18442,-26.1641 -114.96766,-61.476 -135.75153,-75.1551 -13.82822,-9.1012 -51.94041,-37.7977 -64.03619,-48.216 -12.73051,-10.9649 -35.73662,-34.5995 -45.87921,-47.1325 -4.21682,-5.2106 -10.88763,-14.1989 -14.82402,-19.9739 l -7.15709,-10.5 0.37909,14.5 0.37909,14.5 7.37966,19.4171 c 5.36009,14.1033 8.27311,20.3976 10.64441,23 1.79561,1.9706 7.69798,9.2961 13.11638,16.279 27.4548,35.3818 71.68245,78.2491 111.74941,108.3121 27.42349,20.5764 98.5104,66.6002 138.5,89.6691 70.38833,40.6051 82.27265,46.907 111.59567,59.1759 9.84738,4.1202 20.60433,8.7001 23.90433,10.1777 9.65833,4.3244 66.43255,27.0741 83.41044,33.4229 17.81046,6.6601 42.4046,17.1873 55.58956,23.7944 13.40822,6.7189 21.83382,11.6036 57,33.0455 61.8122,37.6889 97.1327,58.5526 129.4157,76.4456 72.7867,40.3422 124.7642,72.1434 151.5843,92.7431 17.6769,13.5772 19.5529,14.4803 23.1391,11.1392 z m -78.6748,-35.4943 c -3.6129,-3.3869 -59.7365,-36.0644 -104.9643,-61.1146 -15.675,-8.6819 -38.85,-21.959 -51.5,-29.5048 -12.65,-7.5458 -24.3088,-14.0359 -25.9083,-14.4226 -1.5996,-0.3866 -10.5996,-3.5474 -20,-7.024 -9.4005,-3.4766 -25.1917,-8.6558 -35.0917,-11.5093 -28.97314,-8.3511 -57.3198,-17.6452 -82.5,-27.0494 -12.925,-4.8272 -28.9,-10.6715 -35.5,-12.9874 -6.6,-2.3158 -32.025,-12.2134 -56.5,-21.9947 -93.08384,-37.2002 -109.6743,-45.0489 -164.24756,-77.703 -32.79482,-19.623 -55.0692,-34.0418 -79.25244,-51.3025 -8.25,-5.8883 -23.1,-16.2409 -33,-23.0055 -9.9,-6.7647 -22.41248,-15.6766 -27.80551,-19.8042 -14.73521,-11.2776 -46.09994,-37.628 -55.45921,-46.5928 -4.54559,-4.354 -8.54353,-7.6376 -8.8843,-7.2968 -1.27682,1.2768 5.9059,19.1607 8.85409,22.0453 1.60825,1.5736 7.36697,8.8155 12.79714,16.0932 7.22158,9.6786 21.2363,25.1532 52.18542,57.6215 68.59257,71.9595 71.27833,74.4636 113.85922,106.1602 42.97148,31.9874 60.25866,42.2883 98.95315,58.9633 18.28426,7.8795 65.05866,24.4747 109.5,38.8498 46.02942,14.8888 58.91061,19.5283 102.5,36.9186 42.64725,17.0144 67.2328,25.6265 98.5,34.5036 14.85,4.2161 32.7903,9.4407 39.8674,11.6103 28.7409,8.8111 74.8905,18.7415 125.1326,26.926 21.1494,3.4453 20.3354,3.3738 18.4643,1.6198 z m 113.4538,-3.8773 c 0.2797,-1.7875 1.0274,-9.4568 1.6615,-17.0428 1.02,-12.2036 0.9715,-13.9932 -0.4208,-15.5317 -0.8655,-0.9564 -3.2053,-5.3246 -5.1997,-9.7072 -1.9943,-4.3825 -6.0743,-12.0756 -9.0667,-17.0956 -9.1751,-15.3925 -26.1431,-28.3341 -66.3924,-50.638 -32.4535,-17.9839 -44.5821,-23.8243 -83,-39.9681 -10.3773,-4.3608 -44.2461,-15.7915 -44.9167,-15.1594 -0.5337,0.5031 -4.053,-1.9537 31.4167,21.9314 48.9952,32.9931 77.9531,51.7494 108,69.9526 22.8226,13.8266 51.8947,32.6767 55.2038,35.7937 4.2835,4.035 4.7059,6.7458 3.269,20.9847 l -1.2218,12.1072 4.3745,3.7818 c 2.406,2.0799 4.6916,3.7951 5.0792,3.8116 0.3876,0.016 0.9336,-1.4327 1.2134,-3.2202 z m 8.6982,-92.9823 c 5.072,-53.4888 5.1077,-51.37 -1.0328,-61.3095 -9.204,-14.8984 -32.9828,-43.2502 -74.6095,-88.9582 -28.3494,-31.1289 -32.1386,-34.838 -61.8462,-60.5385 -27.16,-23.4966 -35.627,-30.1288 -54.1278,-42.3984 -28.8403,-19.1266 -39.2901,-24.7932 -72.7098,-39.4282 -43.3763,-18.9951 -70.2101,-30.0001 -110.7902,-45.4367 -30.73747,-11.6925 -37.79863,-13.9718 -70,-22.5947 -89.71398,-24.0236 -95.10434,-25.2959 -172.17037,-40.6352 -83.59669,-16.6392 -145.56804,-33.6014 -195.25572,-53.4434 C 453.42156,1186.4166 415.11412,1158.4871 385.78153,1111 c -3.5672,-5.775 -7.48881,-12.466 -8.71469,-14.869 -1.51383,-2.9673 -2.55584,-4.042 -3.24803,-3.3498 -1.08193,1.0819 1.99676,13.1044 6.97015,27.2188 4.30793,12.2258 15.636,33.8673 22.60995,43.1947 11.25683,15.0555 39.0166,42.3024 56.60109,55.5553 22.11128,16.6646 57.23614,37.1659 87,50.7792 32.92048,15.0572 44.27297,19.3093 124.5,46.632 19.25,6.556 41.3,14.2089 49,17.0065 14.99349,5.4475 65.67694,25.7498 89.5,35.851 7.975,3.3815 27.775,11.0824 44,17.113 57.96097,21.5434 71.66536,27.3828 106.5,45.3794 11,5.683 27.38803,13.8002 36.41783,18.0383 22.88487,10.7408 38.35407,19.1814 69.58217,37.9666 14.85,8.933 35.4645,21.0346 45.8101,26.8924 46.7603,26.4765 112.7318,68.6617 133.6899,85.4874 26.2558,21.0789 44.3478,39.0395 57.8671,57.4467 7.934,10.8026 24.8125,36.697 31.5856,48.4577 2.6291,4.5651 5.0199,8.0606 5.3127,7.7677 0.2929,-0.2928 2.2508,-18.6529 4.3509,-40.8002 z m -349.15201,-36.1391 c -2.8065,-2.6285 -44.55218,-27.2644 -56.46429,-33.322 -15.05333,-7.655 -42.84335,-19.6623 -60.5,-26.1405 -14.01648,-5.1426 -71.15272,-28.0309 -81.55648,-32.6709 -3.26893,-1.4579 -14.04352,-6.0362 -23.94352,-10.174 -22.06924,-9.224 -37.72424,-17.125 -69.5,-35.0764 -48.00484,-27.1197 -72.7889,-41.7471 -93.5,-55.1831 -11.55,-7.4929 -30.3317,-19.6845 -41.73711,-27.0926 -34.51725,-22.4196 -53.43506,-36.3559 -79.26289,-58.391 -20.41578,-17.4179 -53.89026,-50.7196 -71.31165,-70.9437 -1.82141,-2.1144 -3.46791,-3.6847 -3.65889,-3.4894 -0.19098,0.1952 3.87365,11.601 9.03249,25.346 7.73303,20.6037 9.86764,25.3325 12.15889,26.9356 1.52854,1.0695 8.62916,7.6418 15.77916,14.6052 23.27576,22.6682 57.95941,50.855 87.01312,70.7139 10.45721,7.1478 26.43221,18.2797 35.5,24.7376 24.91175,17.7417 45.40247,30.9984 78.48688,50.7781 43.70957,26.1319 63.26509,36.039 108,54.7142 30.53459,12.7472 97.05434,39.1363 111,44.035 6.6,2.3184 22.575,8.1668 35.5,12.9966 26.67927,9.9694 72.52997,24.7954 87.5,28.2935 1.1,0.257 2.20893,0.5195 2.46429,0.5833 0.25535,0.064 -0.19465,-0.5011 -1,-1.2554 z M 2012.2,2292.8 c -3.2744,-3.2744 -3.8832,-2.2225 47.1659,-81.4997 24.6148,-38.2257 43.3155,-73.275 59.3849,-111.3003 17.9095,-42.3797 24.425,-62.3831 27.3018,-83.8206 2.525,-18.8159 -0.4748,-59.6588 -6.6235,-90.1794 -5.3093,-26.3546 -9.8972,-39.5516 -30.9406,-89 -7.8409,-18.425 -19.2144,-45.65 -25.2744,-60.5 -6.0599,-14.85 -19.6545,-47.025 -30.2102,-71.5 -23.3097,-54.0474 -26.3756,-61.7 -37.4592,-93.5 -15.867,-45.5239 -28.8755,-75.7613 -47.9691,-111.5 -20.0868,-37.5981 -29.3243,-59.54 -51.5721,-122.5 -11.1285,-31.4932 -26.291,-72.069 -40.7315,-109 -6.8818,-17.6 -14.006,-36.1093 -15.8314,-41.1318 -1.8255,-5.0225 -10.0617,-26.1725 -18.3025,-47 -33.8243,-85.4852 -44.7559,-118.128 -58.0589,-173.3682 -24.2993,-100.90268 -26.9399,-114.54496 -29.1305,-150.5 -1.6564,-27.18712 0.038,-60.30479 4.1296,-80.72278 1.0717,-5.34752 4.1743,-16.59752 6.8947,-25 9.0369,-27.91178 9.9077,-33.22535 13.0444,-79.59156 3.2899,-48.63125 7.0388,-64.34288 22.3541,-93.68566 11.6739,-22.36623 18.4574,-32.19392 41.1238,-59.57897 l 5.9954,-7.24341 0.03,-49.58881 c 0.025,-41.7005 0.3066,-51.4977 1.7674,-61.58881 4.7944,-33.12023 13.2719,-70.17328 24.8239,-108.5 l 6.1789,-20.5 -1.1481,-15.5 c -1.4374,-19.40444 -3.4648,-32.04942 -6.3453,-39.57675 -1.252,-3.27157 -11.1427,-19.1823 -22.4561,-36.12393 -15.5718,-23.31857 -22.3013,-34.44106 -29.2802,-48.39446 -4.9838,-9.96451 -9.0615,-19.12475 -9.0615,-20.35609 0,-2.49674 2.8458,-5.54877 5.1738,-5.54877 2.5087,0 4.3542,2.82371 12.1745,18.62778 8.9192,18.02465 16.548,30.58003 33.6451,55.37222 14.6578,21.25508 18.0393,27.03184 20.9698,35.82401 1.8117,5.43527 5.0129,22.69591 5.0309,27.12599 0.012,2.94361 1.9074,-0.68927 7.0173,-13.45 8.9946,-22.46169 22.9521,-49.95581 32.7436,-64.5 10.7104,-15.90908 14.2851,-20.00562 17.4386,-19.98469 7.3552,0.0488 6.7147,4.53506 -2.4489,17.15143 -9.5226,13.11058 -14.2853,20.95151 -21.6307,35.61099 -26.976,53.83691 -51.1941,132.13226 -61.1588,197.72227 -2.9297,19.28382 -3.5261,54.13248 -2.1135,123.5 0.6216,30.525 1.4026,75.31182 1.7357,99.52627 0.5836,42.43291 0.5359,44.1122 -1.3172,46.40075 -2.7054,3.34098 -6.7256,2.26585 -8.1388,-2.17657 -0.6334,-1.99102 -1.3043,-27.66072 -1.7315,-66.25045 -0.3837,-34.65 -0.9892,-64.09151 -1.3458,-65.42557 -0.6018,-2.25183 -1.1521,-1.82207 -7.6838,6 -13.6677,16.36807 -23.664,32.01904 -33.4843,52.42557 -12.0103,24.95744 -15.0805,38.93016 -17.9077,81.5 -2.4923,37.5282 -4.9179,55.49274 -9.4853,70.24877 -1.9154,6.18818 -5.0625,16.35558 -6.9936,22.59423 -1.9311,6.23865 -4.1629,15.37336 -4.9596,20.29936 -2.4891,15.38959 -3.8387,42.11796 -3.1739,62.85764 1.1562,36.07344 4.0125,52.86255 21.5849,126.87755 19.5183,82.21135 24.5117,98.14855 58.8634,187.87245 0.895,2.3375 1.9211,4.25 2.2804,4.25 0.3593,0 0.8596,-4.6125 1.1118,-10.25 0.4837,-10.8112 1.5487,-14.2169 4.7648,-15.2377 3.5325,-1.1212 5.7807,1.2986 13.1073,14.1075 8.139,14.2291 18.303,28.3597 30.4838,42.3802 10.2515,11.7999 32.4637,33.5752 42.4477,41.613 13.6754,11.0095 47.9271,36.385 57.7883,42.8127 22.4243,14.6164 82.1794,47.7098 133.7117,74.0518 15.95,8.1532 40.025,20.69 53.5,27.8594 38.637,20.5571 119.6666,59.316 154.0285,73.6764 20.0603,8.3836 47.9182,18.99 49.7664,18.9477 2.0438,-0.047 4.4344,-3.2328 22.3862,-29.8358 7.6004,-11.263 13.8189,-21.23 13.8189,-22.1488 0,-3.2612 -40.3165,-21.2148 -81.5155,-36.3003 -33.6469,-12.3201 -50.8746,-19.0212 -70.2271,-27.3161 -41.8592,-17.9418 -75.4305,-30.6564 -131.2574,-49.7116 -78.7553,-26.8812 -89.3006,-30.7929 -117,-43.4004 -23.8597,-10.8599 -30.7963,-14.4295 -52.1169,-26.8191 -21.1865,-12.3119 -36.3888,-22.4598 -49.8831,-33.2985 -13.3638,-10.7338 -44.3697,-41.9144 -52.2791,-52.5736 -10.4637,-14.1014 -21.737,-37.3297 -27.9253,-57.5392 -1.0976,-3.5847 -2.6986,-7.3086 -3.5576,-8.2753 -1.385,-1.5586 -1.4211,-3.2575 -0.319,-15 1.5393,-16.3998 2.6855,-20.1293 6.3171,-20.554 4.6143,-0.5396 6.6242,1.5828 12.2231,12.9069 13.2064,26.7109 27.2977,46.6857 44.7579,63.4459 22.8331,21.9175 52.189,39.3469 99.2825,58.9466 61.783,25.7133 118.1247,40.6438 254.5557,67.457 22.8284,4.4866 40.5824,8.8619 99.4447,24.5073 54.949,14.6053 59.8636,16.1268 94.0745,29.1231 16.541,6.2837 30.5702,11.4249 31.1759,11.4249 2.7276,0 22.0543,-56.5738 33.288,-97.4418 14.8771,-54.1224 21.1287,-90.3392 31.4262,-182.0582 4.5224,-40.2814 9.4969,-102.80517 10.144,-127.5 0.281,-10.725 0.7098,-20.48103 0.9527,-21.68007 0.7909,-3.90332 3.199,-5.31993 9.0434,-5.31993 6.0538,0 11.5711,2.35228 21.8953,9.33488 6.8536,4.63534 25.6276,22.5174 28.4714,27.1188 3.5171,5.69084 4.5555,37.70965 3.1473,97.04632 -2.9635,124.87 -4.2216,146.8004 -11.1714,194.7279 -6.3681,43.9154 -14.2919,77.7828 -27.5246,117.6434 -4.6325,13.9543 -8.4227,25.7179 -8.4227,26.1415 0,0.4235 6.0456,3.7051 13.4346,7.2924 7.3891,3.5873 16.2297,8.1605 19.6459,10.1627 3.5188,2.0623 6.5882,3.2634 7.0807,2.7709 1.1767,-1.1767 11.0427,-34.1601 15.2752,-51.0671 11.9886,-47.8893 20.4987,-98.4089 23.5277,-139.6717 2.6909,-36.6559 -1.0221,-149.5904 -6.5047,-197.84512 -0.8027,-7.06481 -1.4594,-14.79382 -1.4594,-17.17556 0,-5.32521 -9.2811,-26.62437 -24.3798,-55.94928 -12.8602,-24.97735 -22.8753,-42.34729 -36.63,-63.53004 -12.41,-19.11193 -18.2931,-28.83003 -34.4072,-56.83679 -13.6131,-23.65985 -20.6071,-35.11478 -45.587,-74.66321 -32.379,-51.26289 -47.4141,-73.05119 -71.3561,-103.40642 -9.3673,-11.87647 -25.417,-32.84358 -35.6661,-46.59358 -10.249,-13.75 -25.8508,-34.12433 -34.6705,-45.2763 -8.8197,-11.15196 -20.0335,-25.92789 -24.9195,-32.8354 -4.8861,-6.90751 -14.1307,-19.74202 -20.5436,-28.52112 -6.4129,-8.77911 -13.8379,-19.30986 -16.5,-23.40168 -2.6621,-4.09182 -5.2902,-7.44385 -5.8402,-7.44897 -1.1951,-0.0111 -5.8072,11.50862 -11.9876,29.94183 -5.2464,15.64756 -5.5266,19.68464 -2.4667,35.54066 2.6803,13.88916 6.7243,25.16559 14.5698,40.62729 12.987,25.59443 23.1918,40.625 50.8344,74.87369 25.4424,31.52275 38.0394,49.13284 39.1267,54.69753 0.3292,1.68498 -0.036,3.5909 -0.9173,4.77971 -2.8769,3.88331 -6.3924,1.10409 -15.5452,-12.28961 -4.6122,-6.74928 -16.0621,-21.81506 -25.4442,-33.47952 -22.6035,-28.10234 -34.7911,-44.37424 -42.614,-56.89452 -10.3405,-16.54977 -22.4871,-41.17684 -26.0488,-52.81359 -4.5454,-14.8506 -4.0895,-13.81184 -5.0467,-11.5 -0.4554,1.1 -3.1392,9.65 -5.9639,19 -6.5839,21.79289 -8.1033,25.23771 -11.5084,26.09234 -3.2001,0.80317 -5.7482,-1.31544 -5.7166,-4.75305 0.012,-1.28661 2.8116,-11.33929 6.2218,-22.33929 3.4101,-11 9.1033,-29.45 12.6514,-41 11.6427,-37.89958 15.5694,-47.82904 41.3251,-104.5 15.9831,-35.16793 21.7663,-49.59253 33.4775,-83.5 4.1791,-12.1 10.7943,-31 14.7003,-42 3.9061,-11 10.1519,-29 13.8796,-40 8.475,-25.00841 17.3097,-49.31697 19.3759,-53.31257 0.8662,-1.67513 2.5121,-3.34314 3.6576,-3.70669 2.6584,-0.84376 5.9393,1.99957 5.9393,5.14722 0,1.2749 -2.902,10.31765 -6.4488,20.09501 -3.5469,9.77737 -10.4672,29.47703 -15.3785,43.77703 -36.6202,106.6253 -39.585,114.46189 -61.7611,163.25 -1.5275,3.36042 -1.9609,5.25 -1.2042,5.25 0.6502,0 10.4321,-2.21764 21.7374,-4.92809 11.3054,-2.71045 33.1552,-7.48508 48.5552,-10.61029 30.4313,-6.17561 40.6509,-8.83617 53.1488,-13.83668 16.4459,-6.58014 35.3811,-20.8066 40.0959,-30.12494 3.887,-7.68241 4.5879,-14.57942 4.7762,-47 0.2362,-40.67797 0.084,-40.19912 16.4791,-51.73279 15.7434,-11.075 16.4712,-13.96492 7.7551,-30.79194 -4.7743,-9.21694 -5.5322,-11.36617 -4.6688,-13.23922 0.5669,-1.22983 5.0528,-5.38605 9.9685,-9.23605 5.39,-4.22142 8.9393,-7.72113 8.9415,-8.81672 0,-0.9992 -1.1213,-3.29167 -2.4963,-5.09439 -3.4878,-4.57275 -3.2289,-10.06441 0.5,-10.60742 3.6253,-0.52793 5.1209,0.2969 8.4545,4.66269 7.8495,10.28019 6.8071,15.91806 -4.6013,24.8865 -4.0442,3.17933 -7.7246,6.10447 -8.1785,6.50031 -0.454,0.39585 0.7893,3.92607 2.7628,7.84494 6.2602,12.43117 7.4357,20.40818 3.9967,27.12409 -1.8178,3.55004 -10.7593,11.88988 -18.764,17.50147 -3.7563,2.63336 -7.3204,5.96031 -7.9201,7.39323 -0.667,1.59344 -1.3569,16.1988 -1.7764,37.6053 -0.769,39.24283 -1.0204,40.84954 -8.0347,51.35352 -9.3957,14.07016 -30.201,27.87169 -53.439,35.44964 -11.2441,3.66672 -20.3285,5.81109 -49.5,11.68449 -14.025,2.82379 -35.625,7.57818 -48,10.5653 -12.375,2.98712 -23.5231,5.67096 -24.7737,5.96408 -1.5932,0.37346 -3.0329,2.24629 -4.8107,6.25796 -2.4208,5.46285 -2.4641,5.87847 -0.9443,9.0761 2.2276,4.68683 11.4877,18.60541 19.9699,30.01611 3.9384,5.29804 10.9425,15.0328 15.5647,21.6328 11.0483,15.77572 24.1128,33.18356 36.0236,48 5.3057,6.6 18.3561,23.7 29.0008,38 10.6448,14.3 25.9278,34.325 33.9623,44.5 8.0344,10.175 17.3244,22.1 20.6443,26.5 21.5582,28.57166 73.8117,109.99946 102.3537,159.5 16.3854,28.4174 20.0363,34.45251 33.6352,55.60068 23.49,36.53044 41.3283,70.02583 60.6579,113.89932 6.3002,14.3 16.8741,37.925 23.4974,52.5 22.8259,50.2296 39.9727,93.1925 62.66,157 4.2045,11.825 9.3699,25.775 11.4786,31 2.1088,5.225 4.3952,11.3 5.081,13.5 0.6857,2.2 5.9267,14.909 11.6465,28.2423 5.7199,13.3332 16.9282,40.3332 24.9074,60 7.9793,19.6667 15.604,38.4577 16.944,41.7577 31.6868,78.0377 38.5043,111.2435 37.1609,181 -0.9882,51.3095 -3.5728,92.5408 -10.1552,162 -7.0417,74.3058 -12.3659,136.3368 -13.5185,157.5 -1.3207,24.2501 -1.3321,83.7031 -0.023,119.5 1.097,29.9955 0.092,65.9859 -2.5028,89.61 -3.5748,32.549 -8.8999,58.7413 -24.4764,120.39 -17.74,70.2118 -25.9061,102.1344 -26.5679,103.8591 -2.0649,5.3811 -9.4227,3.3224 -9.4074,-2.6322 0,-1.7748 4.7349,-21.6769 10.5119,-44.2269 23.7289,-92.6234 30.0916,-119.703 35.0095,-149 6.8683,-40.9155 7.8444,-66.363 6.0797,-158.5 -0.9894,-51.655 -0.1516,-78.5001 3.8654,-123.8645 l 2.3586,-26.6355 -2.3935,-3.1528 c -2.8215,-3.7167 -13.282,-12.8385 -13.953,-12.1674 -0.6671,0.667 -8.4961,28.6044 -8.8874,31.7139 -0.1803,1.4335 -1.5469,4.8563 -3.0368,7.6063 -1.5879,2.9307 -3.2565,8.3429 -4.0321,13.0774 -1.7449,10.6526 -5.7989,25.3731 -9.3782,34.053 -5.7884,14.037 -16.2397,27.3495 -22.7553,28.9848 -3.5987,0.9032 -63.3945,-13.9546 -98.6796,-24.5195 -14.4196,-4.3174 -27.6263,-8.1542 -29.3481,-8.526 -3.0077,-0.6496 -3.5572,-0.1936 -14,11.6194 -23.9524,27.0952 -35.9645,38.9798 -69.7194,68.9796 -29.334,26.0708 -33.5593,29.3208 -97.4868,74.9856 -33.0834,23.6322 -75.7828,47.912 -114.1632,64.9156 -23.5644,10.4397 -33.7294,14.0994 -48.0161,17.2873 -30.3787,6.7785 -56.812,5.749 -77.9839,-3.0374 -10.6969,-4.4393 -35.0654,-17.9863 -44.4694,-24.7217 -2.7332,-1.9576 -5.2479,-3.2305 -5.5883,-2.8287 -0.3403,0.4019 -1.8768,4.3306 -3.4146,8.7306 -10.174,29.1118 -28.736,71.5332 -43.9365,100.412 -13.8214,26.2588 -18.283,33.8881 -34.9088,59.6934 -7.0497,10.942 -20.4375,31.8008 -29.7507,46.3528 -9.3132,14.552 -17.8298,27.4895 -18.9258,28.75 -2.1611,2.4855 -5.8906,3.0071 -7.8059,1.0918 z m 255.8134,-224.1915 c 18.1286,-3.2712 31.8388,-8.1289 62.9866,-22.3169 34.5385,-15.7325 74.7239,-39.0787 105.7205,-61.4194 7.0287,-5.066 21.5545,-15.5048 32.2795,-23.1974 33.9147,-24.3255 45.7997,-34.1471 85,-70.2421 18.8002,-17.311 24.4397,-23.0864 41.4592,-42.4586 6.0276,-6.8607 15.3014,-17.1991 20.6083,-22.9741 24.2724,-26.413 68.9325,-84.1232 68.9325,-89.0753 0,-1.1686 1.6517,-3.7672 3.6704,-5.7747 8.3185,-8.2723 28.3044,-39.3385 40.8287,-63.4644 7.1253,-13.7256 18.2982,-39.3407 22.9807,-52.6856 1.2544,-3.575 4.5947,-12.125 7.4229,-19 14.3628,-34.9146 22.8831,-70.3146 28.0398,-116.5 9.8434,-88.1602 11.8804,-120.9563 8.1733,-131.5934 -2.6495,-7.6026 -32.9852,-81.9025 -34.2245,-83.8246 -0.716,-1.1106 -0.8562,0.9406 -0.4704,6.883 2.5416,39.145 2.7963,50.0249 1.6599,70.9006 -3.1689,58.2085 -9.9057,99.9699 -22.2834,138.1344 -4.6638,14.3798 -17.8126,48.9776 -27.7435,73 -3.7516,9.075 -7.1304,17.625 -7.5083,19 -0.6639,2.4157 -2.8476,7.0741 -16.876,36 -10.7724,22.2125 -42.8411,73.4352 -61.6672,98.5 -27.9762,37.2472 -67.896,80.0505 -107.9208,115.7162 -5.7302,5.1061 -13.3802,11.9343 -17,15.1738 -14.8748,13.3117 -73.6081,59.4201 -88.5401,69.508 -35.5567,24.0217 -57.0186,34.1314 -99.8924,47.0544 -31.2563,9.4213 -83.19,19.4065 -98.1491,18.871 -4.4,-0.1575 -14.6088,-0.1572 -22.6861,8e-4 -22.6566,0.4432 -25.5503,-0.9441 -32.7696,-15.7105 -4.4116,-9.0234 -6.7523,-11.6767 -5.6141,-6.3637 1.1866,5.539 3.5597,37.0461 3.5589,47.25 -8e-4,8.9278 -1.5659,23.6975 -3.4971,33 -0.439,2.1147 0.4122,3.2504 5.5228,7.3691 9.9174,7.9924 39.6763,24.4456 50.8268,28.1012 14.3959,4.7197 37.9777,5.6016 57.1718,2.1382 z m -54.1956,-111.9877 c 38.1095,-8.7392 73.4317,-22.3473 105.6822,-40.7149 30.8544,-17.5726 82.0535,-52.5079 113.5,-77.446 13.5833,-10.7719 48,-41.2556 48,-42.5147 0,-1.4553 6.1143,-7.9452 7.4854,-7.9452 1.5491,0 16.2147,-15.2276 26.5196,-27.5359 23.0645,-27.5487 63.8017,-80.7569 64.6606,-84.4553 0.3204,-1.3798 2.279,-4.3088 4.3524,-6.5088 3.5892,-3.8084 29.287,-43.3627 42.1595,-64.8924 3.3238,-5.5592 8.6798,-14.3826 11.9023,-19.6076 16.5235,-26.7915 34.3814,-66.3997 62.6701,-139 16.3758,-42.0271 25.1609,-74.1915 31.137,-114 2.5295,-16.8494 3.4448,-28.3277 6.2659,-78.5808 l 2.2502,-40.0808 -7.3383,-20.9192 c -9.9858,-28.4665 -25.1921,-69.7405 -26.0529,-70.7148 -0.3866,-0.4376 -1.0119,5.4124 -1.3895,13 -0.3776,7.5876 -1.3348,21.4456 -2.1272,30.7956 -0.7924,9.35 -1.9111,26.225 -2.4861,37.5 -3.7252,73.0505 -11.7187,130.0118 -24.4798,174.4423 -5.2116,18.1455 -12.4057,38.3635 -17.2609,48.5094 -1.9613,4.0985 -5.1129,10.8485 -7.0036,15 -7.5215,16.5156 -25.0824,45.0112 -45.6098,74.01 -9.3477,13.2053 -34.1275,44.9477 -41.4047,53.0383 -2.7208,3.025 -12.1722,14.5 -21.0029,25.5 -18.1355,22.5903 -23.1072,28.0904 -63.1358,69.8457 -57.0455,59.5061 -78.1976,78.9786 -123.6115,113.7958 -50.4618,38.6872 -56.6852,43.0987 -87.8244,62.2549 -43.6404,26.8466 -83.7089,41.6808 -116.9256,43.2885 -14.3327,0.6937 -14.0248,0.4617 -11.2013,8.4394 0.8518,2.4066 2.9149,9.4873 4.5847,15.7348 2.8265,10.575 3.4364,11.8359 8.8351,18.2656 3.6693,4.3701 8.1187,11.5832 12.1157,19.6409 3.4742,7.0039 7.014,13.5764 7.8663,14.6056 2.4132,2.9141 19.4112,1.7112 38.8673,-2.7504 z m 73.2073,-7.6626 c 51.657,-12.5956 86.7814,-28.2269 126.9161,-56.481 10.5284,-7.4118 62.7199,-48.6539 75.0588,-59.3119 14.876,-12.8496 26.0141,-23.5512 25.2778,-24.2875 -0.4324,-0.4324 -5.2221,-2.392 -10.6438,-4.3545 l -9.8576,-3.5683 -7.5011,6.7725 c -43.3707,39.1583 -57.9963,50.637 -108.6638,85.2838 -37.6244,25.7277 -64.7281,41.319 -91.1115,52.4113 -6.05,2.5436 -11.9,5.0336 -13,5.5334 -3.9247,1.7831 1.0057,1.0548 13.5251,-1.9978 z M 2144.4868,1869.25 c -0.4,-0.9625 -1.3097,-3.55 -2.0215,-5.75 -0.7119,-2.2 -3.7801,-8.725 -6.8182,-14.5 -5.0868,-9.6692 -9.21,-18.8467 -17.6328,-39.2471 l -3.1985,-7.7471 -4.1579,0.6363 c -2.2868,0.3499 -4.2769,0.7301 -4.4224,0.8449 -0.1454,0.1147 5.8171,14.4475 13.25,31.8506 7.433,17.4032 13.5145,32.0066 13.5145,32.4522 0,1.9895 2.7786,3.2102 7.307,3.2102 4.2837,0 4.8146,-0.2223 4.1798,-1.75 z m 37.068,-3.1938 c 31.2736,-8.2538 56.3593,-20.2473 99.1849,-47.4202 16.2975,-10.3408 25.5612,-17.0431 58.7603,-42.513 50.8218,-38.9897 63.7982,-50.4087 106,-93.2778 52.3167,-53.1438 71.669,-73.9966 89.0606,-95.9656 5.3901,-6.8088 16.8476,-20.9296 25.461,-31.3796 54.0003,-65.5141 82.1675,-111.8665 99.8666,-164.3417 15.4826,-45.9036 24.3086,-102.0342 29.1145,-185.1583 1.0971,-18.975 2.6642,-42.6 3.4825,-52.5 0.8184,-9.9 1.494,-28.9794 1.5014,-42.3986 l 0.013,-24.3986 -8.3819,-20.1014 c -9.7414,-23.3618 -26.4789,-60.6473 -27.8773,-62.1014 -0.6168,-0.6415 -0.7354,1.6891 -0.3306,6.5 0.633,7.5225 2.5493,43.6582 4.6932,88.5 1.42,29.7 0.5997,84.3665 -1.5755,105 -6.2508,59.2918 -19.8166,122.6369 -38.5083,179.8127 -7.4777,22.8736 -12.8937,35.9782 -22.1097,53.4968 -42.0455,79.9236 -86.8559,133.1627 -188.3011,223.7196 -9.8401,8.784 -20.0364,17.7709 -22.6585,19.9709 -2.622,2.2 -12.796,10.7559 -22.6088,19.0131 -29.876,25.1398 -56.8478,45.1438 -99.8525,74.0573 -15.0764,10.1363 -28.2165,18.4335 -29.2003,18.4383 -2.7218,0.013 -52.0185,48.0471 -74.7887,72.8728 l -4,4.3611 6.0548,-0.6489 c 3.3302,-0.3569 10.9802,-1.9488 17,-3.5375 z m 4.1254,-40.8363 c 17.5009,-17.479 43.0698,-41.8574 56.8198,-54.1742 25.5264,-22.8656 44.013,-41.0299 52.206,-51.2957 2.524,-3.1625 4.9238,-5.75 5.3329,-5.75 0.6951,0 20.2115,-20.2327 55.4611,-57.4966 8.25,-8.7214 23.0852,-24.215 32.9671,-34.4303 23.4362,-24.2266 25.5001,-26.4584 31.2115,-33.7503 2.6518,-3.3855 10.6364,-13.3847 17.7437,-22.2204 27.7817,-34.5384 50.4217,-67.9445 68.5364,-101.1284 2.8445,-5.2107 6.4114,-11.499 7.9264,-13.974 17.9836,-29.3778 37.5258,-73.1279 53.5015,-119.7757 17.9293,-52.3525 29.261,-110.7761 34.083,-175.7243 2.9267,-39.4215 6.1812,-170.38209 5.065,-203.81872 l -0.7617,-22.81872 -9.1365,-9.29204 c -5.4893,-5.58285 -12.8725,-11.74269 -18.4958,-15.43128 -5.1477,-3.37658 -9.6683,-6.13924 -10.0459,-6.13924 -0.3775,0 -1.2087,10.4625 -1.8471,23.25 -3.1145,62.37839 -13.9719,166.5936 -22.8421,219.25 -9.7492,57.8745 -27.4645,122.0932 -48.4131,175.5 -10.1997,26.0034 -17.1808,39.5634 -44.7905,87 -24.5897,42.248 -44.7013,71.4958 -77.0144,112 -15.6163,19.5749 -23.5708,28.4703 -39.5697,44.25 -11.0133,10.8625 -20.3858,19.75 -20.8276,19.75 -1.6694,0 -27.7187,24.1821 -37.8203,35.1093 -15.2385,16.4841 -19.7753,21.9553 -38.0525,45.8903 -9.0296,11.8248 -20.6924,25.8175 -25.9174,31.0948 -5.225,5.2773 -22.4449,20.6492 -38.2665,34.1597 -15.8216,13.5106 -34.6559,30.2385 -41.854,37.1732 -11.981,11.5425 -13.0302,12.8394 -12.4117,15.3406 0.9665,3.9081 14.8785,38.7632 20.2254,50.6725 4.4038,9.8087 14.1361,28.5596 14.8233,28.5596 0.1891,0 14.6627,-14.301 32.1637,-31.7801 z m -75.693,-34.9699 c -0.01,-0.4125 -1.1444,-4.2938 -2.5276,-8.6252 -1.3832,-4.3313 -2.2667,-8.6572 -1.9633,-9.6131 1.1931,-3.7593 28.4575,-29.3582 57.0414,-53.557 22.9529,-19.4317 37.4654,-32.3149 37.4525,-33.2476 -0.01,-0.3889 -8.2179,-4.8589 -18.25,-9.9333 -34.6017,-17.5021 -67.6921,-37.5184 -90.7402,-54.8885 -31.6835,-23.8783 -48.7576,-40.0595 -78.2261,-74.1353 -11.5342,-13.3375 -21.1461,-24.25 -21.3599,-24.25 -0.2138,0 0.7883,2.5875 2.2269,5.75 14.4498,31.7645 19.8857,45.3237 31.3704,78.25 10.9609,31.4242 14.1076,39.5685 25.5002,66 26.7696,62.107 34.7946,80.9827 41.4522,97.5 3.9903,9.9 7.6717,18.7875 8.1809,19.75 0.6703,1.2671 2.1577,1.75 5.3906,1.75 2.4556,0 4.4591,-0.3375 4.452,-0.75 z m 588.5084,-36.2571 c -1.2876,-2.0834 -6.68,-4.2085 -7.8105,-3.078 -1.8261,1.8261 0.8205,3.2931 7.1239,3.9489 0.72,0.075 1.0289,-0.317 0.6866,-0.8709 z m -399.4227,-16.1124 c 10.8097,-7.8496 10.7249,-7.7649 8.9187,-8.9068 -3.0056,-1.9002 -4.8518,-0.8129 -11.9302,7.0263 -3.973,4.4 -6.8168,8 -6.3196,8 0.4972,0 4.6962,-2.7538 9.3311,-6.1195 z m 302.6002,-18.1668 c 6.2298,-7.5825 11.3251,-14.3325 11.3229,-15 0,-0.6676 -5.9648,-4.4898 -13.25,-8.4938 l -13.246,-7.2801 -2.754,3.2801 c -8.342,9.9355 -25.5643,33.3575 -24.9561,33.9397 1.2344,1.1817 26.5994,7.7448 29.1332,7.5381 1.7934,-0.1463 5.367,-3.7808 13.75,-13.984 z M 2399,1656.8778 c 21.8761,-19.2298 36,-32.3501 36,-33.4421 0,-1.0386 -19.1576,-7.4357 -22.2678,-7.4357 -1.5208,0 -43.7322,42.3483 -43.7322,43.874 0,0.7954 15.2062,6.9266 17.5,7.0561 0.55,0.031 6.175,-4.4925 12.5,-10.0523 z m 369.6213,-11.6097 c -1.4717,-2.0724 -4.2491,-5.5681 -6.1719,-7.7681 -3.3703,-3.8561 -3.5493,-3.9301 -4.9728,-2.0589 -2.6651,3.5036 -1.7051,5.1296 5.7734,9.7784 3.9875,2.4788 7.4293,4.3516 7.6486,4.1618 0.2192,-0.1898 -0.8056,-2.0407 -2.2773,-4.1132 z m -493.215,-47.8954 c 13.0198,-12.9951 23.5422,-23.7541 23.383,-23.9091 -0.1591,-0.1549 -13.3393,-5.5476 -29.2893,-11.9838 -77.671,-31.3421 -95.7538,-40.0516 -147.7476,-71.1623 -32.7948,-19.623 -55.0692,-34.0418 -79.2524,-51.3025 -8.25,-5.8883 -23.1,-16.2409 -33,-23.0055 -9.9,-6.7647 -22.4125,-15.6766 -27.8055,-19.8042 -16.1729,-12.378 -46.5386,-38.0168 -56.9524,-48.0869 -5.3669,-5.1897 -9.9886,-9.2052 -10.2706,-8.9233 -0.2819,0.2819 1.2379,5.4067 3.3773,11.3883 3.1299,8.751 4.4738,11.2596 6.8787,12.8401 1.6439,1.0804 7.7687,8.3516 13.6109,16.1583 8.043,10.7476 20.8849,24.9605 52.8918,58.5385 68.5445,71.9091 71.2398,74.422 113.8167,106.1156 42.6293,31.7327 61.3159,42.8742 98.9531,58.9986 10.4788,4.4893 44.8481,17.5161 46.617,17.669 0.6143,0.053 11.7695,-10.5358 24.7893,-23.5308 z m 409.4679,-8.8766 c 2.8192,-6.3272 5.1258,-12.1347 5.1258,-12.9057 0,-1.3764 -21.3918,-15.5946 -23.4496,-15.586 -1.2838,0.01 -15.8527,26.5888 -15.3683,28.042 0.3998,1.1994 24.5144,11.8677 26.9421,11.9191 1.1196,0.024 3.2165,-3.5392 6.75,-11.4694 z M 2832.0364,1556.5 c 2.3377,-60.1175 0.5576,-91.2432 -7.1775,-125.5 -3.2357,-14.3305 -12.2473,-42.8264 -14.4689,-45.7528 -1.2121,-1.5966 -1.3291,-1.5261 -1.3582,0.8175 -0.049,3.936 -3.6993,42.2045 -7.0527,73.9353 -3.5318,33.4181 -6.2451,53.095 -9.5147,69 l -2.364,11.5 2.6998,3.6272 c 1.4849,1.9949 8.73,10.9949 16.1003,20 7.3703,9.005 14.9882,18.7606 16.9288,21.6789 2.3994,3.6082 3.7579,4.8882 4.2456,4 0.3944,-0.7183 1.2771,-15.7061 1.9615,-33.3061 z m -301.0643,-32.8459 c 4.5136,-5.6902 11.5417,-15.0113 15.618,-20.7135 5.8782,-8.2228 7.1527,-10.6164 6.1607,-11.5704 -1.8031,-1.7339 -33.9034,-21.3702 -34.9348,-21.3702 -0.4759,0 -1.9942,1.9125 -3.374,4.25 -1.3798,2.3375 -7.4437,12.5157 -13.4754,22.6183 -6.0316,10.1026 -10.9561,18.8776 -10.9432,19.5 0.019,0.938 30.1086,17.4106 32.1094,17.5786 0.3481,0.029 4.3258,-4.6025 8.8393,-10.2928 z m 202.6284,-60.2069 c 11.428,-39.4023 19.6803,-110.6642 18.0012,-155.4472 -1.2665,-33.7793 -2.8106,-39.5021 -3.9923,-14.7971 -1.6067,33.5899 -9.09,76.385 -19.1121,109.2971 -2.0098,6.6 -6.9928,21.225 -11.0734,32.5 l -7.4193,20.5 9.7477,9.1526 c 5.3612,5.034 10.0864,8.8352 10.5005,8.4473 0.414,-0.388 1.9205,-4.7317 3.3477,-9.6527 z"
       style="fill:#8e8e8e" />
    <path
       id="path1652"
       d="m 534.56945,2291.4266 c -2.09905,-2.0991 -2.07155,-2.2298 1.78484,-8.4854 4.45116,-7.2205 42.2713,-66.2984 51.98699,-81.2076 22.49539,-34.5204 46.48198,-83.0246 65.86072,-133.1796 12.34396,-31.948 16.50463,-53.3727 15.35224,-79.054 -1.1921,-26.5662 -5.21539,-55.9987 -10.66222,-78 -4.67961,-18.9022 -9.0299,-30.5914 -27.91237,-75 -8.65279,-20.35 -20.0188,-47.575 -25.25781,-60.5 -5.239,-12.925 -19.40878,-46.45 -31.48839,-74.5 -22.58266,-52.4391 -25.10623,-58.7915 -37.93845,-95.5 -4.13367,-11.825 -10.66488,-29.375 -14.5138,-39 -8.3906,-20.9824 -26.29971,-58.2139 -31.23812,-64.9413 -1.94869,-2.6547 -3.54308,-5.5221 -3.54308,-6.372 0,-0.8499 -3.5598,-8.6646 -7.91066,-17.366 -12.368,-24.735 -21.16154,-46.7897 -42.59095,-106.8207 -12.17516,-34.1067 -25.2205,-69.1323 -35.01045,-94 -7.82752,-19.8829 -22.07484,-56.6957 -27.47846,-71 -2.07769,-5.5 -8.119,-20.913 -13.42513,-34.251 C 327.82631,1089.9048 317.77781,1058.3166 298.4738,977 278.63258,893.42036 276.57104,880.07578 276.53695,835 c -0.0326,-43.0732 1.5932,-55.01799 11.77332,-86.5 7.99887,-24.73647 9.48191,-33.44007 11.67204,-68.5 3.40525,-54.51194 6.57789,-69.31132 21.04311,-98.15932 11.78064,-23.49415 18.82298,-34.14883 36.99098,-55.96536 6.12617,-7.35643 11.45642,-14.27532 11.84502,-15.37532 0.38859,-1.1 0.41146,-15.275 0.0508,-31.5 -0.80482,-36.20801 0.2969,-66.89075 3.08899,-86.02752 4.43548,-30.40044 12.16186,-63.50806 23.98066,-102.75728 l 6.1082,-20.2848 -1.58756,-18.2132 C 398.60268,218.44891 396.84908,213.67014 377.04286,185.06191 359.1081,159.15682 351.09366,145.99409 342.38297,128.13729 334.29786,111.56294 333.43497,107.5 338,107.5 c 2.16115,0 3.13751,1.28761 7.20355,9.5 10.66059,21.53177 16.12245,30.77953 33.51186,56.74076 10.03556,14.98242 19.5729,29.8684 21.19409,33.07996 3.67455,7.27924 5.84271,15.53615 7.60493,28.96159 0.75335,5.73935 1.62829,10.69374 1.94431,11.00977 1.08333,1.08332 2.35494,-1.312 7.58727,-14.29208 7.32838,-18.17981 17.66542,-40.40476 24.24546,-52.12847 6.75541,-12.03615 19.58138,-30.33975 23.32188,-33.28203 2.99083,-2.35259 4.21139,-2.31445 5.78535,0.1808 0.81384,1.29019 0.28625,2.69847 -2.41282,6.44048 -16.94251,23.48923 -28.89092,45.27344 -41.29534,75.28922 -19.88821,48.12478 -37.54421,110.15771 -45.25506,159 -4.58233,29.02552 -4.98112,45.54879 -3.08929,128 1.70429,74.27772 2.1986,143.41673 1.04682,146.41821 -0.75565,1.96921 -3.75387,2.05683 -5.33158,0.15581 -0.8649,-1.04214 -1.4273,-19.5477 -2.08938,-68.75 -0.49826,-37.02821 -0.92081,-67.66152 -0.93899,-68.07402 -0.11768,-2.6697 -3.89936,0.74571 -12.17962,11 -11.76629,14.57138 -15.85484,20.60409 -24.82518,36.62986 -18.72309,33.44931 -22.96461,49.86575 -25.9973,100.62014 -2.43948,40.82651 -4.08669,50.74303 -13.08945,78.80083 -9.08059,28.30037 -10.93932,42.31261 -10.94067,82.47761 -10e-4,36.14403 2.66663,57.94132 11.95017,97.63688 25.93635,110.90158 30.72313,128.07678 50.64697,181.72388 12.51754,33.7049 24.22063,63.4373 25.64561,65.1543 1.74831,2.1066 2.60227,-0.9068 2.68612,-9.4784 0.0786,-8.0339 1.22558,-12.0537 3.71152,-13.0077 2.30032,-0.8827 5.50687,3.1178 13.18945,16.4554 13.46435,23.3751 38.03659,52.1234 64.12805,75.0265 13.87595,12.1804 58.51172,45.1397 73.58307,54.3342 29.51655,18.0071 74.05342,42.4031 128.4582,70.3658 21.175,10.8834 43.9,22.7266 50.5,26.3182 14.80064,8.0542 57.3359,29.3003 79.5,39.7097 61.41894,28.8456 91.28375,41.574 132.62353,56.5243 63.56062,22.9863 107.98427,43.7296 149.13927,69.6395 15.7634,9.9242 17.4153,10.6005 64.0101,26.2078 19.9501,6.6825 44.2501,15.5781 54,19.768 37.9916,16.3266 39.9311,17.2974 89.2271,44.6637 3.025,1.6793 9.2282,5.4442 13.7848,8.3664 4.5567,2.9222 8.7307,5.3131 9.2757,5.3131 2.4238,0 -4.7728,-9.9712 -17.9935,-24.9307 -7.3693,-8.3386 -27.774,-26.8417 -42.6903,-38.712 -21.9629,-17.4778 -84.745,-57.3436 -137.9453,-87.5935 -12.0623,-6.8586 -28.6814,-16.6623 -36.9314,-21.786 -21.4746,-13.3368 -50.462,-29.2859 -69.00396,-37.9664 -8.79782,-4.1188 -28.14604,-13.6399 -42.99604,-21.158 -31.39423,-15.894 -46.69444,-22.6158 -77,-33.8281 -39.66613,-14.6755 -61.80256,-23.2207 -74.5,-28.7589 -38.88207,-16.9591 -71.31634,-29.3624 -125,-47.8018 -94.96198,-32.6176 -93.5211,-32.092 -118.45952,-43.2088 -45.56051,-20.3093 -82.8692,-41.8997 -109.70625,-63.4867 -13.06631,-10.5101 -42.71226,-39.9693 -50.08466,-49.7691 -11.85889,-15.7635 -20.93389,-33.6134 -28.11386,-55.2981 -1.92301,-5.8078 -4.21008,-11.6489 -5.08237,-12.9802 -1.33992,-2.0449 -1.42898,-3.5687 -0.57398,-9.8211 0.5566,-4.0703 1.35145,-10.503 1.76632,-14.2949 0.83094,-7.5946 2.22043,-9.333 6.58432,-8.2377 2.1617,0.5425 3.51494,2.5153 7.47494,10.8972 5.67623,12.0146 15.14401,27.992 23.24943,39.2348 25.58442,35.4874 58.71318,58.1908 125.44563,85.9686 52.46058,21.8371 113.24725,38.4906 213.91855,58.6066 61.14973,12.2189 71.56753,14.6674 142.08145,33.3936 50.25404,13.3458 54.61467,14.6893 84.5,26.034 63.7544,24.2016 133.2266,53.8 155.4393,66.2244 21.7128,12.1448 50.8976,31.7316 64.9581,43.5951 17.3071,14.603 48.7418,42.1622 56.3077,49.3657 19.2053,18.2854 79.4133,86.6075 99.6345,113.062 2.6275,3.4375 5.1734,6.25 5.6576,6.25 0.4841,0 1.1397,-1.9125 1.4568,-4.25 0.9127,-6.7286 3.5411,-72.7489 3.5333,-88.75 -0.017,-35.8369 -4.3199,-66.9782 -13.6087,-98.5 -5.6505,-19.1749 -42.97,-114.018 -62.3677,-158.5 -11.7958,-27.0496 -17.2562,-40.9308 -28.5188,-72.5 -22.7151,-63.6701 -39.655,-107.0474 -56.2355,-144 -5.1824,-11.55 -16.6128,-37.2 -25.4007,-57 -26.5425,-59.80239 -41.8842,-89.09472 -67.2817,-128.46257 -7.2871,-11.29559 -20.7976,-33.55236 -30.0232,-49.45949 -19.1558,-33.02897 -24.5081,-41.79848 -52.5354,-86.07794 -31.7438,-50.15102 -44.92437,-68.91427 -78.06652,-111.13192 -7.39699,-9.42255 -21.64753,-28.09755 -31.66786,-41.5 C 900.26089,549.46564 886.18019,531.075 878.99079,522 866.88349,506.71727 843.90834,475.29875 824.31297,447.22806 812.86394,430.82714 812.27957,430.15731 811.02765,432 c -1.56527,2.30391 -8.29531,20.04978 -13.03405,34.36839 -3.92701,11.86588 -4.20834,13.41129 -3.61113,19.83699 1.65981,17.85884 6.59166,34.04486 16.17445,53.0834 13.92966,27.67467 21.84629,39.35192 53.36255,78.71122 24.80865,30.98246 37.34035,48.94726 36.88478,52.87612 -0.23471,2.0242 -0.85665,2.62388 -2.72129,2.62388 -1.96323,0 -3.87204,-2.14656 -10.16648,-11.4328 -4.26218,-6.28805 -16.94235,-22.93805 -28.17814,-37 -33.70942,-42.18845 -41.34189,-53.38509 -55.3168,-81.1484 -7.41785,-14.7367 -10.84682,-23.32719 -13.33943,-33.4188 -2.29286,-9.2829 -3.90946,-9.16595 -6.91128,0.5 -12.41458,39.97537 -12.42465,40 -16.3572,40 -2.83996,0 -3.30026,-2.68705 -1.43368,-8.36924 0.92699,-2.82192 4.63183,-14.80576 8.23297,-26.63076 21.25792,-69.80419 25.51322,-81.00984 54.15741,-142.61492 C 838.82531,351.75983 848.44,327.43135 858.95794,297 c 5.03754,-14.575 11.88988,-34.15 15.22744,-43.5 3.33755,-9.35 9.3413,-26.675 13.34167,-38.5 10.52448,-31.11018 18.39508,-52.24244 20.20511,-54.25 2.06493,-2.29027 3.94738,-2.21729 5.24282,0.20325 0.83253,1.55559 -0.3047,5.67828 -5.5859,20.25 -3.64718,10.06321 -9.66307,27.29675 -13.36864,38.29675 -3.70556,11 -9.71563,28.325 -13.3557,38.5 -3.64007,10.175 -10.27118,29.075 -14.73581,42 -10.3908,30.08118 -20.65844,56.0023 -30.87621,77.94849 -4.99901,10.73709 -7.74568,17.75855 -7.17146,18.33277 0.57422,0.57422 8.33944,-0.86057 20.2747,-3.74617 10.63922,-2.57226 31.49404,-7.13939 46.34404,-10.14917 40.38328,-8.18483 52.88827,-11.62437 66,-18.15349 20.82009,-10.36759 33.26243,-22.12843 37.77288,-35.70396 0.55342,-1.66566 1.29244,-18.77847 1.64227,-38.02847 0.75555,-41.57597 0.69405,-41.3082 11.24445,-48.91976 16.7154,-12.05925 19.3835,-15.1914 18.597,-21.83168 -0.5176,-4.36982 -3.5489,-11.6093 -8.401,-20.06354 -2.1145,-3.68443 -2.5198,-5.21063 -1.7258,-6.5 0.5707,-0.92676 5.05,-4.90744 9.9539,-8.84595 4.904,-3.93851 9.065,-7.89268 9.2468,-8.78706 0.1817,-0.89438 -1.1035,-3.86066 -2.856,-6.59175 -3.2543,-5.07141 -3.3434,-7.49772 -0.318,-8.65869 2.3858,-0.9155 10.0688,7.71729 10.9237,12.274 1.0411,5.54962 -1.1345,8.96787 -10.2263,16.06723 -4.5946,3.58776 -8.3539,6.74322 -8.3539,7.01213 0,0.26891 1.1046,2.37379 2.4547,4.6775 3.6275,6.19 7.5453,17.21334 7.5453,21.23024 0,6.99529 -6.6841,15.44208 -18.5,23.37887 -7.6159,5.11562 -9.4237,7.06865 -10.6388,11.49333 -0.6868,2.50099 -1.1946,15.99299 -1.3197,35.06513 -0.1374,20.94029 -0.6181,32.78479 -1.4812,36.5 -2.9345,12.6315 -11.78263,24.02826 -26.21659,33.76794 -18.25804,12.32007 -34.06131,17.80713 -75.53965,26.22813 -32.93593,6.68672 -80.15551,17.73183 -81.96062,19.17139 -0.63611,0.50729 -2.3714,3.78073 -3.85619,7.27431 l -2.69962,6.35196 1.94275,2.85314 c 1.06851,1.56922 4.88267,7.35313 8.47591,12.85313 3.59324,5.5 11.20429,16.37458 16.91344,24.16573 5.70915,7.79116 14.29796,19.71616 19.08625,26.5 4.78828,6.78385 14.58997,19.75927 21.78153,28.83427 7.19155,9.075 23.71356,30.675 36.71558,48 13.00201,17.325 27.9767,36.9 33.27707,43.5 17.61931,21.93947 28.32907,36.73481 47.51244,65.63764 24.9915,37.65363 56.395,87.57359 68.4829,108.86236 12.9203,22.75481 29.1324,49.74136 39.2799,65.38466 22.2079,34.23593 41.9954,71.23874 59.687,111.61534 5.6632,12.925 15.817,35.65 22.5639,50.5 25.8806,56.9636 41.6121,96.5372 68.9705,173.5 9.2559,26.0381 14.9573,40.4395 26.5247,67 18.9008,43.3993 56.5137,138.775 62.3097,158 7.7142,25.5871 12.1186,51.7228 13.6504,81 1.0592,20.2459 0.3667,50.2065 -2.381,103 -0.7586,14.575 -1.3799,27.4 -1.3807,28.5 -8e-4,1.1 -0.2861,4.25 -0.6339,7 -0.3478,2.75 -1.7355,17.15 -3.0837,32 -1.3483,14.85 -3.5785,38.925 -4.9561,53.5 -13.0584,138.1538 -13.5698,150.6397 -10.894,266 1.5277,65.8655 -3.9891,104.4995 -28.8451,202 -4.4166,17.325 -11.7064,45.9654 -16.1994,63.6453 -4.493,17.68 -8.7684,32.8675 -9.5008,33.75 -1.8719,2.2555 -3.9527,1.9948 -5.151,-0.6453 -0.8054,-1.7744 0.3737,-7.7458 5.5785,-28.25 33.2616,-131.0339 36.0198,-142.8143 40.8576,-174.5 5.4659,-35.7996 5.607,-40.9013 4.6607,-168.5 -0.3482,-46.9556 0.08,-58.984 3.6476,-102.4059 l 1.7586,-21.4059 -5.9694,-5.3423 c -3.2832,-2.9383 -6.5147,-5.3431 -7.181,-5.3441 -0.6663,-10e-4 -1.7096,1.9107 -2.3186,4.2482 -0.6089,2.3375 -2.6513,9.4714 -4.5385,15.8531 -1.8873,6.3817 -3.4314,12.2723 -3.4314,13.0903 0,0.8179 -1.3044,4.1465 -2.8987,7.3969 -1.5943,3.2503 -3.4134,9.0597 -4.0425,12.9097 -1.8667,11.4232 -6.9694,29.4375 -10.5077,37.0958 -6.9754,15.0972 -15.8804,25.4042 -21.9489,25.4042 -6.6996,0 -70.6871,-16.4168 -103.1022,-26.4521 -7.7,-2.3838 -24.125,-6.8844 -36.5,-10.0014 -49.5651,-12.4841 -75.4722,-21.044 -142.96043,-47.2353 -23.39676,-9.08 -52.66457,-20.3141 -65.03957,-24.9647 -12.375,-4.6506 -43.65,-16.7981 -69.5,-26.9944 C 739.45578,1706.1849 734.07208,1703.9257 705,1688.7793 628.87379,1649.1178 586.65276,1616.8356 539.84296,1562.5 c -15.57375,-18.0776 -18.5105,-21.1658 -19.33948,-20.3368 -0.24651,0.2465 2.83725,8.5231 6.8528,18.3925 4.01555,9.8694 11.7233,30.5443 17.12832,45.9443 12.09911,34.4728 15.68957,43.4486 38.00143,95 9.75982,22.55 23.7301,55.625 31.04507,73.5 7.31497,17.875 16.97817,41.05 21.47377,51.5 19.73129,45.8652 25.87893,62.2299 30.99246,82.5 6.47319,25.6599 9.9539,51.8363 10.71654,80.593 0.62263,23.4774 -0.35473,32.481 -5.75993,53.061 -5.9699,22.7301 -26.01048,70.9764 -44.38174,106.846 -15.18068,29.64 -20.12263,38.2097 -38.06061,66 -7.81026,12.1 -18.03245,28.075 -22.71597,35.5 -16.95021,26.8719 -25.7751,39.9187 -27.69695,40.9472 -1.49247,0.7987 -2.33401,0.6746 -3.52922,-0.5206 z M 1279.4947,1874.762 c 7.7722,-9.0232 17.1645,-34.0575 19.1087,-50.9328 l 0.6533,-5.6708 -5.9368,-2.9969 c -3.2652,-1.6483 -11.5355,-7.2348 -18.3784,-12.4144 -6.8428,-5.1796 -15.6712,-11.5608 -19.6186,-14.1805 l -7.1772,-4.7631 -28.8228,-4.3373 c -27.307,-4.1091 -57.4816,-9.4304 -85.3229,-15.0468 -16.5131,-3.3311 -41.8591,-9.9052 -66.5,-17.2484 -11,-3.2781 -28.2878,-8.2911 -38.4174,-11.1399 -23.4351,-6.591 -48.57439,-15.5533 -92.5826,-33.0064 -45.24641,-17.9441 -53.88355,-21.0434 -103,-36.9597 -45.42452,-14.7198 -88.60979,-30.1356 -109.99182,-39.2637 -39.36142,-16.8034 -67.59201,-34.493 -119.87487,-75.1146 -26.6176,-20.6808 -26.79096,-20.8498 -100.63331,-98.1051 -28.20891,-29.5128 -36.05164,-37.9995 -41.22715,-44.6126 -3.562,-4.5514 -4.62596,-3.0604 -2.37709,3.3312 8.38154,23.8216 21.13593,53.0954 32.01576,73.4824 14.85889,27.8432 69.6387,92.8543 101.08848,119.9689 32.12247,27.6946 62.29121,47.8241 108.07624,72.1116 32.00676,16.9785 44.8246,22.5119 128.92376,55.6555 8.8,3.4681 27.025,10.6708 40.5,16.0061 13.475,5.3352 38.45,14.9993 55.5,21.4758 17.05,6.4764 44.5,17.038 61,23.4702 73.7398,28.7461 93.4955,35.3441 148.0533,49.4467 14.8207,3.8309 35.2717,9.4906 45.4467,12.577 35.6838,10.824 91.6614,24.7428 94.1618,23.4133 0.914,-0.486 3.3138,-2.8016 5.3329,-5.1457 z m 22.6876,-68.017 c 5.1056,-4.2733 13.648,-37.5575 16.2702,-63.3947 0.5577,-5.4949 0.3805,-6.4158 -1.6642,-8.6486 -2.4763,-2.7042 -26.9895,-18.5436 -57.2883,-37.0173 -26.34,-16.0599 -63.2945,-40.0265 -103.7325,-67.2749 -18.8471,-12.6998 -43.4925,-28.8423 -54.7675,-35.8723 -11.275,-7.0299 -24.775,-15.5822 -30,-19.0051 -39.9114,-26.1458 -87.70766,-48.804 -151.70959,-71.9192 C 876.0813,1488.0074 845.06065,1474.7846 783,1445.5182 c -23.97002,-11.3038 -62.25517,-30.4303 -77.5,-38.7175 -6.6,-3.5879 -29.325,-15.4224 -50.5,-26.299 -60.55107,-31.1021 -119.39531,-63.6957 -140.24805,-77.6828 -14.16364,-9.5004 -51.53939,-37.8045 -62.82027,-47.5729 -24.4079,-21.1353 -53.69815,-54.4592 -64.15838,-72.9937 -1.63032,-2.8888 -3.6565,-5.2523 -4.50262,-5.2523 -1.33935,0 -1.47312,1.9733 -1.03387,15.25 l 0.50454,15.25 7.69523,20.5 c 6.30816,16.8049 8.37646,21.221 11.47466,24.5 2.07869,2.2 7.3208,8.6758 11.64912,14.3908 11.99892,15.8428 27.20586,32.6226 49.08172,54.1584 26.90316,26.4849 47.6356,44.1787 74.02475,63.1751 11.95556,8.6064 22.39286,15.5134 79.83317,52.8312 24.0711,15.6385 94.59601,56.425 127.5,73.7368 6.325,3.3278 16,7.9279 21.5,10.2225 5.5,2.2946 18.775,7.9088 29.5,12.476 24.90294,10.6048 67.04451,27.5669 87,35.0177 38.86606,14.5116 63.25829,26.4714 102.49853,50.2562 82.72057,50.1397 109.62387,66.0404 145.62197,86.0668 69.5019,38.6654 117.1533,67.7608 144.3928,88.1646 14.0259,10.5062 22.2542,16.0068 23.9325,15.9989 0.5798,0 2.2612,-1.0152 3.7365,-2.25 z m -74.1114,-35.245 c 0.015,-1.7852 -53.2388,-33.1942 -105.5709,-62.265 -19.8,-10.999 -45.8488,-25.9015 -57.8861,-33.1166 -12.0374,-7.2151 -22.5168,-13.1184 -23.2876,-13.1184 -0.7708,0 -9.1882,-2.8859 -18.7053,-6.4132 -9.5171,-3.5272 -26.03767,-8.9554 -36.7124,-12.0626 -30.16134,-8.7794 -55.50312,-17.0429 -78.4086,-25.5676 -11.55,-4.2985 -29.325,-10.8133 -39.5,-14.4773 -18.81796,-6.7763 -97.6306,-38.1935 -124,-49.4304 -51.02512,-21.7435 -119.35817,-61.1787 -176,-101.5702 -9.075,-6.4714 -23.475,-16.5126 -32,-22.3137 -27.73572,-18.8736 -64.94689,-48.6325 -86.47409,-69.156 -6.76843,-6.4528 -10.07475,-9.0067 -10.28728,-7.9462 -0.17225,0.8596 1.52677,6.7096 3.77561,13 3.11483,8.7128 4.99635,12.39 7.89877,15.4372 2.09548,2.2 7.92062,9.4919 12.94475,16.2043 9.25077,12.3592 11.74171,15.0885 59.23579,64.9029 40.05751,42.0146 60.28446,62.1461 71.90645,71.5674 26.799,21.7244 66.05028,50.2156 83.24656,60.4258 33.50795,19.8952 74.61387,36.3762 158.25344,63.4501 44.90311,14.535 65.89621,22.1032 107.5,38.7547 44.00307,17.6117 64.8377,24.8554 98,34.0722 7.975,2.2166 22.825,6.5317 33,9.5893 34.8682,10.4779 77.5033,19.7394 131.5,28.5652 17.6715,2.8884 21.5562,3.1528 21.5709,1.4681 z m 109.4,-1.75 c 0.2244,-0.6875 1.0777,-8.675 1.8962,-17.75 1.3712,-15.2036 1.3581,-16.6964 -0.1665,-19 -0.9101,-1.375 -3.9961,-7.3227 -6.8578,-13.217 -5.5777,-11.4884 -13.7131,-24.7734 -15.9753,-26.0876 -0.7617,-0.4425 -4.8686,-3.7672 -9.1263,-7.3882 -11.4143,-9.7075 -22.5129,-16.8498 -50.5661,-32.5405 -28.0886,-15.7106 -37.6064,-20.3894 -68.5255,-33.6857 -22.9239,-9.8581 -61.6689,-23.4299 -65.383,-22.9027 -3.5192,0.4995 99.4966,69.2719 142.7334,95.2875 23.9971,14.4391 56.505,35.7254 58.6313,38.392 1.9423,2.436 2.0593,3.4616 1.4988,13.1422 -0.3344,5.775 -0.8683,12.3 -1.1864,14.5 -0.5611,3.8795 -0.4184,4.1257 4.7389,8.1731 5.595,4.3909 7.6145,5.1407 8.2883,3.0769 z m 4.9778,-54 c 0.5244,-2.424 7.1453,-72.6332 8.1942,-86.8938 l 0.6358,-8.6438 -4.7581,-7.8562 c -5.6675,-9.3577 -10.2699,-15.3461 -29.0941,-37.8562 -25.143,-30.0661 -69.9268,-79.1427 -83.0402,-91 -15.9518,-14.424 -50.9943,-44.4938 -59.1522,-50.7582 -17.1334,-13.1569 -50.1274,-33.7381 -67.7341,-42.2516 -28.0695,-13.5727 -98.0467,-42.6951 -145,-60.3446 -26.61086,-10.0029 -34.92998,-12.4622 -103.5,-30.5973 -51.6539,-13.6611 -61.70486,-15.9386 -130.5,-29.5696 -89.20542,-17.675 -153.66422,-35.7673 -206.58929,-57.9852 -52.87152,-22.1955 -83.04589,-40.837 -107.96405,-66.6996 -11.91653,-12.3681 -19.96466,-23.349 -31.53922,-43.0321 -4.45091,-7.569 -8.50091,-13.6587 -9,-13.5327 -1.97686,0.4991 -1.45088,8.1952 1.18035,17.2709 6.23634,21.5106 16.44195,43.0612 27.55666,58.1897 7.62199,10.3746 38.02544,40.783 51.36002,51.3684 26.0559,20.6841 60.86161,40.9161 103.99553,60.4509 24.0299,10.8829 33.38718,14.3224 111.5,40.9846 58.24276,19.8799 87.28885,30.9222 135.5,51.5121 9.35,3.9931 28.7,11.6167 43,16.9412 66.06458,24.5987 72.48014,27.2822 104.5,43.7099 11.825,6.0668 30.44359,15.2454 41.37465,20.3969 25.65465,12.0902 41.92485,20.9547 75.12535,40.9304 14.85,8.9347 35.325,20.9655 45.5,26.7351 29.4551,16.7019 86.8579,52.3594 110.1737,68.4377 30.4474,20.996 60.559,48.6078 77.3757,70.9519 7.8043,10.3695 28.7942,42.9315 34.0836,52.8747 2.4918,4.6841 4.9352,8.5165 5.4297,8.5165 0.4946,0 1.1183,-1.0125 1.386,-2.25 z M 1004,1640.2005 c 0,-0.9623 -42.28659,-26.7352 -56.82628,-34.6347 -17.99988,-9.7793 -39.60559,-19.2137 -74.67372,-32.6072 -54.9439,-20.9846 -117.56207,-47.6311 -139,-59.15 -18.3344,-9.8513 -86.59914,-48.7737 -100.5,-57.3019 -33.934,-20.8187 -99.54376,-64.5495 -115.5,-76.9841 -31.41747,-24.4835 -70.91071,-61.6635 -95.52546,-89.9304 -5.70312,-6.5493 -10.55169,-11.3608 -10.77459,-10.6921 -0.2229,0.6687 4.18149,13.4523 9.78753,28.4079 9.2426,24.6571 10.5336,27.4717 13.84864,30.192 2.01072,1.65 9.95766,9.0862 17.65987,16.5249 23.32734,22.5292 57.32698,50.0702 85.48838,69.2488 9.0664,6.1745 23.6914,16.3684 32.5,22.6531 59.12196,42.1822 126.3016,80.8463 180.01563,103.605 25.16125,10.6609 99.36482,40.31 115,45.95 7.15,2.5791 24.925,9.1119 39.5,14.5173 14.575,5.4054 36.625,12.9976 49,16.8717 43.45223,13.6028 50,15.3484 50,13.3297 z m 1009.5694,651.2261 c -2.099,-2.0991 -2.0715,-2.2298 1.7849,-8.4854 4.4512,-7.2205 42.2713,-66.2984 51.987,-81.2076 22.4954,-34.5204 46.482,-83.0246 65.8607,-133.1796 12.344,-31.948 16.5046,-53.3727 15.3522,-79.054 -1.1921,-26.5662 -5.2153,-55.9987 -10.6622,-78 -4.6796,-18.9022 -9.0299,-30.5914 -27.9124,-75 -8.6527,-20.35 -20.0188,-47.575 -25.2578,-60.5 -5.239,-12.925 -19.4087,-46.45 -31.4884,-74.5 -22.5826,-52.4391 -25.1062,-58.7915 -37.9384,-95.5 -14.6084,-41.7896 -27.5032,-70.7263 -55.2571,-124 -12.735,-24.4449 -21.1673,-45.3627 -44.5444,-110.5 -15.6292,-43.549 -24.5962,-67.5358 -38.5043,-103 -5.6081,-14.3 -12.807,-32.975 -15.9975,-41.5 -3.1906,-8.525 -11.1829,-29 -17.7608,-45.5 -36.1916,-90.7839 -46.0113,-121.3224 -65.7571,-204.5 -19.8412,-83.57964 -21.9028,-96.92422 -21.9368,-142 -0.033,-43.0732 1.5932,-55.01799 11.7733,-86.5 7.9988,-24.73647 9.4819,-33.44007 11.672,-68.5 3.4053,-54.51194 6.5779,-69.31132 21.0431,-98.15932 11.7807,-23.49415 18.823,-34.14883 36.991,-55.96536 6.1262,-7.35643 11.4564,-14.27532 11.845,-15.37532 0.3886,-1.1 0.4115,-15.275 0.051,-31.5 -0.8048,-36.20801 0.2969,-66.89075 3.089,-86.02752 4.4355,-30.40044 12.1619,-63.50806 23.9807,-102.75728 l 6.1082,-20.2848 -1.5876,-18.2132 c -2.8998,-33.26829 -4.6534,-38.04706 -24.4596,-66.65529 -17.9348,-25.90509 -25.9492,-39.06782 -34.6599,-56.92462 C 1813.2979,111.56294 1812.435,107.5 1817,107.5 c 2.1612,0 3.1375,1.28761 7.2035,9.5 10.6606,21.53177 16.1225,30.77953 33.5119,56.74076 10.0356,14.98242 19.5729,29.8684 21.1941,33.07996 3.6745,7.27924 5.8427,15.53615 7.6049,28.96159 0.7534,5.73935 1.6283,10.69374 1.9443,11.00977 1.0834,1.08332 2.355,-1.312 7.5873,-14.29208 7.3284,-18.17981 17.6654,-40.40476 24.2455,-52.12847 6.7554,-12.03615 19.5814,-30.33975 23.3219,-33.28203 2.9908,-2.35259 4.2113,-2.31445 5.7853,0.1808 0.8138,1.29019 0.2863,2.69847 -2.4128,6.44048 -16.9425,23.48923 -28.8909,45.27344 -41.2954,75.28922 -19.8882,48.12478 -37.5442,110.15771 -45.255,159 -4.5824,29.02552 -4.9811,45.54879 -3.0893,128 1.7043,74.27772 2.1986,143.41673 1.0468,146.41821 -0.7556,1.96921 -3.7539,2.05683 -5.3316,0.15581 -0.8649,-1.04214 -1.4273,-19.5477 -2.0894,-68.75 -0.4982,-37.02821 -0.9208,-67.66152 -0.9389,-68.07402 -0.1177,-2.6697 -3.8994,0.74571 -12.1797,11 -11.7662,14.57138 -15.8548,20.60409 -24.8251,36.62986 -18.7231,33.44931 -22.9647,49.86575 -25.9973,100.62014 -2.4395,40.82651 -4.0867,50.74303 -13.0895,78.80083 -9.0806,28.30037 -10.9393,42.31261 -10.9407,82.47761 0,36.14403 2.6667,57.94132 11.9502,97.63688 26.3769,112.78548 30.7231,128.25938 52.1248,185.58468 14.968,40.0924 19.2524,50.7761 20.5338,51.2032 1.273,0.4243 2.3687,-7.1151 2.3817,-16.3881 0.016,-11.1678 3.2491,-15.0879 7.9149,-9.5959 1.4266,1.6792 5.4426,7.9988 8.9245,14.0436 13.4643,23.3751 38.0366,52.1234 64.128,75.0265 13.876,12.1804 58.5118,45.1397 73.5831,54.3342 29.5166,18.0071 74.0534,42.4031 128.4582,70.3658 21.175,10.8834 43.9,22.7266 50.5,26.3182 42.0245,22.8688 130.4689,64.3926 174.2336,81.801 14.4285,5.7392 27.5456,10.6973 29.1491,11.018 2.7639,0.5528 3.3153,0.019 10.6115,-10.2717 13.6847,-19.3012 28.5058,-42.0243 28.5058,-43.704 0,-3.3291 -37.9419,-20.7299 -75.5,-34.6255 -39.6661,-14.6755 -61.8026,-23.2207 -74.5,-28.7589 -38.8821,-16.9591 -71.3163,-29.3624 -125,-47.8018 -94.962,-32.6176 -93.5211,-32.092 -118.4595,-43.2088 -45.5605,-20.3093 -82.8692,-41.8997 -109.7063,-63.4867 -13.0663,-10.5101 -42.7122,-39.9693 -50.0846,-49.7691 -11.8589,-15.7635 -20.9339,-33.6134 -28.1139,-55.2981 -1.923,-5.8078 -4.2101,-11.6489 -5.0824,-12.9802 -1.3399,-2.0449 -1.4289,-3.5687 -0.5739,-9.8211 0.5566,-4.0703 1.3514,-10.503 1.7663,-14.2949 0.8309,-7.5946 2.2204,-9.333 6.5843,-8.2377 2.1617,0.5425 3.5149,2.5153 7.4749,10.8972 5.6763,12.0146 15.1441,27.992 23.2495,39.2348 25.5844,35.4874 58.7131,58.1908 125.4456,85.9686 52.4606,21.8371 113.2473,38.4906 213.9185,58.6066 61.1498,12.2189 71.5676,14.6674 142.0815,33.3936 51.5193,13.6818 54.3175,14.5576 90.3215,28.2693 25.7516,9.8072 30.5217,11.3376 31.6502,10.1547 3.4626,-3.6294 22.8961,-60.5279 31.8981,-93.3928 16.7045,-60.9858 22.7342,-95.9272 33.5638,-194.5 3.6537,-33.25619 8.7,-98.59832 9.5764,-124 0.4171,-12.08905 1.0457,-18.89261 1.8141,-19.63295 2.1512,-2.07264 10.2184,-2.25138 14.528,-0.32189 8.3136,3.72211 20.0397,12.6331 30.7896,23.39787 l 11.1417,11.15713 0.8583,9.94992 c 1.8906,21.91678 0.1581,153.48492 -2.679,203.44992 -4.3547,76.6913 -15.716,138.1766 -37.0647,200.588 -3.7939,11.0912 -6.898,20.606 -6.898,21.1439 0,0.5379 4.1625,2.8923 9.25,5.232 5.0875,2.3396 14.5307,7.1607 20.9848,10.7134 6.4541,3.5527 12.1586,6.1976 12.6766,5.8775 0.518,-0.3202 2.2987,-4.9634 3.9572,-10.3184 17.3162,-55.9122 29.6991,-117.4794 35.3454,-175.7364 3.2188,-33.2093 -0.2422,-152.2179 -5.8598,-201.5 -0.8464,-7.425 -1.6682,-16.425 -1.8261,-20 -0.2535,-5.737 -1.3066,-8.73031 -8.9709,-25.5 -15.2424,-33.35076 -32.1066,-64.04369 -53.0218,-96.5 -7.2658,-11.275 -20.7588,-33.51493 -29.9844,-49.42206 -19.1558,-33.02897 -24.5081,-41.79848 -52.5354,-86.07794 -31.7438,-50.15102 -44.9244,-68.91427 -78.0665,-111.13192 -7.397,-9.42255 -21.6476,-28.09755 -31.6679,-41.5 C 2379.2609,549.46564 2365.1802,531.075 2357.9908,522 2345.8835,506.71727 2322.9083,475.29875 2303.313,447.22806 2291.8639,430.82714 2291.2796,430.15731 2290.0277,432 c -1.5653,2.30391 -8.2954,20.04978 -13.0341,34.36839 -3.927,11.86588 -4.2083,13.41129 -3.6111,19.83699 1.6598,17.85884 6.5916,34.04486 16.1744,53.0834 13.9297,27.67467 21.8463,39.35192 53.3626,78.71122 24.8086,30.98246 37.3403,48.94726 36.8848,52.87612 -0.2348,2.0242 -0.8567,2.62388 -2.7213,2.62388 -1.9633,0 -3.8721,-2.14656 -10.1665,-11.4328 -4.2622,-6.28805 -16.9424,-22.93805 -28.1782,-37 -33.7094,-42.18845 -41.3418,-53.38509 -55.3168,-81.1484 -7.4178,-14.7367 -10.8468,-23.32719 -13.3394,-33.4188 -2.2928,-9.2829 -3.9095,-9.16595 -6.9113,0.5 -12.4145,39.97537 -12.4246,40 -16.3572,40 -2.8399,0 -3.3002,-2.68705 -1.4336,-8.36924 0.9269,-2.82192 4.6318,-14.80576 8.2329,-26.63076 21.2579,-69.80419 25.5132,-81.00984 54.1574,-142.61492 10.055,-21.62525 19.6697,-45.95373 30.1876,-76.38508 5.0376,-14.575 11.8899,-34.15 15.2275,-43.5 3.3375,-9.35 9.3413,-26.675 13.3416,-38.5 10.5245,-31.11018 18.3951,-52.24244 20.2052,-54.25 2.0649,-2.29027 3.9473,-2.21729 5.2428,0.20325 0.8325,1.55559 -0.3047,5.67828 -5.5859,20.25 -3.6472,10.06321 -9.6631,27.29675 -13.3687,38.29675 -3.7055,11 -9.7156,28.325 -13.3557,38.5 -3.64,10.175 -10.2711,29.075 -14.7358,42 -10.3908,30.08118 -20.6584,56.0023 -30.8762,77.94849 -4.999,10.73709 -7.7457,17.75855 -7.1714,18.33277 0.5742,0.57422 8.3394,-0.86057 20.2747,-3.74617 10.6392,-2.57226 31.494,-7.13939 46.344,-10.14917 40.3833,-8.18483 52.8883,-11.62437 66,-18.15349 20.8201,-10.36759 33.2624,-22.12843 37.7729,-35.70396 0.5534,-1.66566 1.2924,-18.77847 1.6423,-38.02847 0.7555,-41.57597 0.694,-41.3082 11.2444,-48.91976 16.7154,-12.05925 19.3835,-15.1914 18.597,-21.83168 -0.5176,-4.36982 -3.5489,-11.6093 -8.401,-20.06354 -2.1145,-3.68443 -2.5198,-5.21063 -1.7258,-6.5 0.5707,-0.92676 5.05,-4.90744 9.9539,-8.84595 4.904,-3.93851 9.065,-7.89268 9.2468,-8.78706 0.1817,-0.89438 -1.1035,-3.86066 -2.856,-6.59175 -3.2543,-5.07141 -3.3434,-7.49772 -0.318,-8.65869 2.3858,-0.9155 10.0688,7.71729 10.9237,12.274 1.0411,5.54962 -1.1345,8.96787 -10.2263,16.06723 -4.5946,3.58776 -8.3539,6.74322 -8.3539,7.01213 0,0.26891 1.1046,2.37379 2.4547,4.6775 3.6275,6.19 7.5453,17.21334 7.5453,21.23024 0,6.99529 -6.6841,15.44208 -18.5,23.37887 -7.6159,5.11562 -9.4237,7.06865 -10.6388,11.49333 -0.6868,2.50099 -1.1946,15.99299 -1.3197,35.06513 -0.1374,20.94029 -0.6181,32.78479 -1.4812,36.5 -2.9345,12.6315 -11.7826,24.02826 -26.2166,33.76794 -18.258,12.32007 -34.0613,17.80713 -75.5396,26.22813 -32.936,6.68672 -80.1555,17.73183 -81.9607,19.17139 -0.6361,0.50729 -2.3714,3.78073 -3.8562,7.27431 l -2.6996,6.35196 1.9428,2.85314 c 1.0685,1.56922 4.8827,7.35313 8.4759,12.85313 3.5932,5.5 11.2043,16.37458 16.9134,24.16573 5.7092,7.79116 14.298,19.71616 19.0863,26.5 4.7883,6.78385 14.59,19.75927 21.7815,28.83427 7.1916,9.075 23.7136,30.675 36.7156,48 13.002,17.325 27.9767,36.9 33.2771,43.5 17.6193,21.93947 28.329,36.73481 47.5124,65.63764 24.9915,37.65363 56.395,87.57359 68.4829,108.86236 12.9203,22.75481 29.1324,49.74136 39.2799,65.38466 22.2079,34.23593 41.9954,71.23874 59.687,111.61534 5.6632,12.925 15.817,35.65 22.5639,50.5 25.2786,55.6387 42.9304,99.8591 66.463,166.5 3.3988,9.625 7.6614,20.875 9.4723,25 1.8109,4.125 3.6326,9.075 4.0482,11 0.4155,1.925 6.1115,15.9973 12.6576,31.2717 25.2883,59.0061 58.9316,144.0669 65.1927,164.8276 11.5897,38.4296 15.5524,75.7766 13.6506,128.6509 -1.8865,52.4485 -4.2528,89.8477 -8.4942,134.2498 -17.4402,182.5766 -17.6653,187.2409 -14.8643,308 1.5277,65.8655 -3.9891,104.4995 -28.8451,202 -4.4166,17.325 -11.7064,45.9654 -16.1994,63.6453 -4.493,17.68 -8.7684,32.8675 -9.5008,33.75 -1.8719,2.2555 -3.9527,1.9948 -5.151,-0.6453 -0.8054,-1.7744 0.3737,-7.7458 5.5785,-28.25 33.2616,-131.0339 36.0198,-142.8143 40.8576,-174.5 5.4604,-35.7637 5.6763,-43.5648 4.6349,-167.5 -0.3994,-47.5317 0.2581,-64.9805 4.0265,-106.8522 2.8157,-31.2869 3.396,-27.7869 -6.1175,-36.8978 -4.4509,-4.2625 -8.7104,-7.75 -9.4657,-7.75 -0.7751,0 -1.8553,1.8509 -2.4803,4.25 -0.6089,2.3375 -2.6513,9.4714 -4.5385,15.8531 -1.8873,6.3817 -3.4314,12.2723 -3.4314,13.0903 0,0.8179 -1.3044,4.1465 -2.8987,7.3969 -1.5943,3.2503 -3.4134,9.0597 -4.0425,12.9097 -1.8667,11.4232 -6.9694,29.4375 -10.5077,37.0958 -6.9754,15.0972 -15.8804,25.4042 -21.9489,25.4042 -6.4703,0 -70.5258,-16.3673 -101.6022,-25.9611 -18.2603,-5.6373 -23.5074,-7.0389 -26.3511,-7.0389 -2.0307,0 -5.6494,3.4772 -17.9519,17.25 -31.4771,35.2389 -79.6908,79.0688 -114.677,104.25 -8.4057,6.05 -23.8864,17.2403 -34.4016,24.8673 -40.6292,29.4699 -77.7331,51.5442 -116.9058,69.551 -46.0414,21.1642 -61.9403,25.4746 -94.2126,25.542 -16.8896,0.035 -20.0514,-0.2286 -28.4661,-2.3756 -12.615,-3.2188 -43.9807,-19.1845 -57.1944,-29.1131 -2.9071,-2.1844 -5.6449,-3.9716 -6.084,-3.9716 -0.9057,0 -0.4775,-1.0493 -8.6322,21.1521 -9.7968,26.672 -23.3271,57.5245 -36.552,83.3479 -15.1782,29.6374 -20.1201,38.2071 -38.0597,66 -7.8103,12.1 -18.0325,28.075 -22.716,35.5 -16.9502,26.8719 -25.7751,39.9187 -27.6969,40.9472 -1.4925,0.7987 -2.334,0.6746 -3.5293,-0.5206 z m 255.3613,-221.5391 c 29.4118,-4.9282 77.5814,-26.554 130.3244,-58.5091 17.7706,-10.7665 27.871,-17.5703 51.7449,-34.8559 10.725,-7.7653 25.0445,-18.0845 31.8211,-22.9315 16.2438,-11.6184 29.4328,-22.4739 53.6789,-44.1818 28.1503,-25.2033 40.5492,-37.401 57.848,-56.9092 8.2911,-9.35 19.3746,-21.725 24.6301,-27.5 10.0281,-11.0195 25.8039,-29.655 35.1317,-41.5 5.7898,-7.3522 30.251,-41.2 35.3902,-48.9706 1.65,-2.4948 7.0899,-10.497 12.0887,-17.7827 10.8344,-15.7909 21.0055,-32.3784 28.664,-46.7467 5.6653,-10.6287 19.2842,-41.7417 22.7368,-51.9429 1.0344,-3.0564 2.9795,-8.0321 4.3224,-11.0571 9.0884,-20.4722 20.6188,-57.1172 25.0496,-79.6105 3.7834,-19.2066 5.2297,-29.6309 9.0729,-65.3895 5.9025,-54.92 7.5656,-75.5945 7.5656,-94.0479 v -17.652 l -16.4134,-40.481 c -19.4313,-47.9242 -22.3308,-54.4962 -23.4931,-53.2499 -0.4923,0.5279 -0.2853,6.7749 0.4781,14.4308 5.2788,52.9356 1.168,117.5182 -11.1158,174.6364 -5.4659,25.4159 -15.2239,53.8222 -34.9918,101.8636 -4.7525,11.55 -8.9987,22.731 -9.4359,24.8467 -0.4372,2.1156 -1.7495,5.1378 -2.9162,6.7159 -1.1668,1.5781 -3.8763,6.8572 -6.0212,11.7314 -9.455,21.4857 -18.8561,38.191 -42.8857,76.206 -18.7384,29.6442 -38.0837,55.1683 -64.0446,84.5 -12.1836,13.7655 -54.2131,55.7099 -66.4129,66.2784 -3.9861,3.4531 -11.5225,10.1402 -16.7475,14.8603 -12.0447,10.8806 -70.2243,57.5989 -83.6469,67.1685 -39.1159,27.8874 -70.7019,42.5564 -121.8531,56.5903 -28.3203,7.77 -76.7354,16.0946 -87.4591,15.0379 -3.6376,-0.3585 -14.1019,-0.7156 -23.254,-0.7936 -20.6531,-0.176 -20.1629,0.096 -27.7869,-15.4196 -5.4126,-11.0153 -7.437,-14.1185 -8.51,-13.0456 -0.2988,0.2989 0.1749,6.3439 1.0526,13.4334 2.4956,20.1569 3.0498,53.8152 1.0725,65.1404 -2.3342,13.3691 -2.3973,13.0934 4.2544,18.5734 10.5855,8.7208 38.5889,24.1928 51.7963,28.6176 15.8234,5.3014 34.5149,5.9257 58.2649,1.9461 z m -56.476,-111.3926 c 42.7138,-9.186 84.5835,-26.3742 124.8575,-51.2563 31.8658,-19.6873 85.0265,-57.423 106.6878,-75.7316 18.9965,-16.0563 38.044,-33.6914 39.5636,-36.63 0.8214,-1.5883 3.1681,-3.958 5.2149,-5.2659 4.9462,-3.1607 17.5673,-16.3357 29.8029,-31.1111 20.7126,-25.0121 63.4186,-80.5061 63.4186,-82.4089 0,-0.4419 1.6545,-2.9703 3.6766,-5.6186 4.2692,-5.5912 29.4315,-44.6784 39.5728,-61.4725 3.8194,-6.325 8.4234,-13.75 10.2311,-16.5 15.1302,-23.0174 36.1525,-67.7014 56.4559,-120 3.4163,-8.8 7.5188,-19.15 9.1167,-23 14.0202,-33.7819 25.061,-72.5768 30.8785,-108.5 3.7966,-23.4438 4.6757,-32.2273 6.5553,-65.5 0.8389,-14.85 1.9586,-34.6275 2.4881,-43.95 0.5295,-9.3225 0.6993,-18.0975 0.3773,-19.5 -1.4607,-6.3621 -33.4505,-94.4815 -34.7833,-95.8144 -1.509,-1.5089 -2.0917,2.1733 -2.7037,17.083 -0.3653,8.8998 -1.3742,24.9564 -2.2422,35.6814 -0.8679,10.725 -2.0558,28.95 -2.6399,40.5 -4.1199,81.4791 -15.0447,146.5364 -32.5683,193.944 -2.4282,6.5692 -4.4149,12.3659 -4.4149,12.8815 0,2.8931 -24.3432,49.4077 -32.5388,62.1745 -18.9202,29.4732 -49.7772,71.1873 -66.2055,89.5 -2.7137,3.025 -11.4053,13.6 -19.3146,23.5 -18.1809,22.7568 -24.239,29.4244 -69.2374,76.2041 -33.2964,34.6146 -59.0158,59.6243 -81.2037,78.9633 -8.8523,7.7157 -66.997,52.6573 -83.5,64.5394 -11.8435,8.5272 -32.9913,22.1767 -49.7466,32.1081 -39.7245,23.546 -81.1998,37.6821 -111.08,37.8595 -8.2458,0.049 -10.4433,0.3654 -10.9058,1.5707 -0.3186,0.8302 0.4607,4.7147 1.7318,8.6322 1.2711,3.9175 3.531,11.915 5.022,17.7722 2.3495,9.2298 3.2116,11.1502 6.4673,14.4059 4.9962,4.9962 9.8568,12.7475 16.4679,26.2615 4.0714,8.3228 6.1022,11.4092 8,12.1588 4.2263,1.6693 19.1836,0.2429 36.4981,-3.4808 z m 66.2171,-5.9146 c 16.5175,-3.7089 43.5692,-11.5708 58.4378,-16.9835 37.2397,-13.5565 62.2825,-28.8589 112.8904,-68.9814 40.4632,-32.0798 67.5189,-55.5587 66.7344,-57.9123 -0.4199,-1.2595 -19.3339,-8.5858 -22.3439,-8.6547 -1.3034,-0.03 -5.6976,3.2666 -11.5,8.6272 -35.9016,33.1683 -59.5138,51.5466 -109.8905,85.5319 -42.3132,28.5455 -65.0076,41.161 -95.7559,53.2297 -24.5491,9.6355 -24.1989,10.8974 1.4277,5.1431 z m -131.2471,-80.4584 c 0.2985,-0.483 -0.3118,-2.6205 -1.3562,-4.75 -11.4806,-23.4097 -18.802,-39.2013 -23.5854,-50.8719 -3.156,-7.7 -6.1392,-14.5063 -6.6294,-15.125 -0.9527,-1.2028 -9.7202,-0.7101 -11.1854,0.6285 -0.4574,0.4179 4.333,12.8506 10.6454,27.6282 6.3123,14.7776 12.9056,30.3305 14.6516,34.5621 3.0655,7.4295 3.301,7.7071 6.8546,8.0819 7.1678,0.7559 10.0685,0.7138 10.6048,-0.1538 z m 24.4802,-2.1025 c 21.7453,-4.4314 48.4533,-14.5829 71.5951,-27.2125 14.5585,-7.9454 43.5766,-25.9672 56.5,-35.0896 9.1728,-6.4749 62.7218,-47.2371 75,-57.0909 24.5675,-19.7166 52.4792,-46.2996 94.6312,-90.1264 40.5871,-42.1997 50.0915,-52.6272 65.1704,-71.5 6.3718,-7.975 19.5247,-24.175 29.2287,-36 36.4126,-44.3714 64.9242,-86.4483 79.222,-116.9147 28.6831,-61.119 41.4079,-122.5785 47.2237,-228.0853 0.8338,-15.125 2.2856,-36.275 3.2264,-47 1.1011,-12.553 1.7161,-29.4751 1.7261,-47.5 l 0.016,-28 -7.6282,-18 c -16.9076,-39.8965 -30.2233,-68.5 -31.8886,-68.5 -0.8841,0 -1.0382,1.9226 -0.5812,7.25 0.7868,9.1717 2.1833,33.4874 4.2552,74.0894 2.0051,39.2926 1.4749,106.2737 -1.0105,127.6606 -7.4522,64.1257 -21.4611,127.2125 -41.0805,185 -12.4866,36.7785 -44.8211,93.8244 -75.4274,133.0723 -29.9238,38.3727 -77.3786,86.8786 -129.5829,132.4529 -4.95,4.3214 -11.9512,10.5835 -15.5583,13.9159 -9.8471,9.0973 -35.5874,30.7561 -51.9417,43.7056 -32.1008,25.4177 -101.2364,73.5328 -108.0013,75.1636 -3.2793,0.7905 -39.6359,35.4862 -62.7487,59.882 -10.0375,10.5947 -18.25,19.6106 -18.25,20.0354 0,1.3017 5.7204,0.8672 15.9049,-1.2083 z m 584.7079,-16.2075 c 2.812,-4.1531 6.2878,-10.6473 7.7239,-14.4315 3.8099,-10.0389 7.6731,-25.3574 7.9353,-31.4651 l 0.228,-5.3122 -6,-3.3502 c -3.3,-1.8427 -13.2,-8.7212 -22,-15.2856 -8.8,-6.5645 -17.8,-12.8053 -20,-13.8686 -3.5844,-1.7324 -22.8435,-5.165 -37.5,-6.6839 l -5.5,-0.5699 -12.1133,16.3276 c -6.6624,8.9801 -18.7488,24.1311 -26.8587,33.6688 -8.11,9.5377 -14.359,17.7031 -13.8867,18.1453 1.883,1.763 50.8471,15.8231 83.8587,24.0801 29.5003,7.3787 35.3143,8.5612 37,7.5254 1.1,-0.6759 4.3007,-4.627 7.1128,-8.7802 z m -574.2826,-23.1282 c 28.5721,-28.7206 41.4759,-40.9498 74.6891,-70.7845 10.1644,-9.1304 23.4307,-22.0985 29.4807,-28.818 6.05,-6.7195 14.3184,-15.4491 18.3742,-19.3992 4.0558,-3.9501 17.976,-18.432 30.9338,-32.182 26.8878,-28.5318 36.5809,-38.6704 61.3661,-64.1868 9.7162,-10.0028 19.6033,-20.8028 21.9714,-24 2.3681,-3.1973 6.3416,-8.0952 8.8301,-10.8843 6.6402,-7.4424 26.0428,-32.535 39.767,-51.4289 11.6564,-16.0471 32.9936,-50.3606 40.1082,-64.5 1.9372,-3.85 4.4997,-8.35 5.6943,-10 4.4575,-6.1564 21.5867,-38.5666 28.2841,-53.5164 14.1588,-31.605 29.5065,-74.1285 38.2062,-105.8573 10.8285,-39.4927 19.4938,-91.0164 22.8938,-136.1263 2.8461,-37.7599 5.2699,-129.404 4.9783,-188.225 l -0.2068,-41.72501 -6.8659,-7.45127 c -10.6604,-11.56925 -30.9679,-26.52909 -34.2847,-25.25631 -0.9223,0.35391 -1.4085,5.75549 -1.8291,20.31982 -1.5954,55.24371 -15.1694,182.74277 -25.2679,237.33777 -12.1987,65.9495 -36.2604,144.1088 -58.3407,189.5074 -13.9484,28.6787 -43.4962,79.3257 -63.8788,109.4926 -28.3045,41.8914 -58.5957,79.5409 -84.68,105.25 -10.463,10.3125 -19.3701,18.75 -19.7936,18.75 -1.2957,0 -26.7636,23.1756 -35.2729,32.0981 -13.4938,14.149 -22.2414,24.6042 -40.9871,48.988 -9.9,12.8777 -21.825,27.2612 -26.5,31.9635 -4.675,4.7023 -21.325,19.518 -37,32.924 -15.675,13.4059 -34.9365,30.4698 -42.8034,37.9197 -12.713,12.0393 -14.2341,13.8267 -13.6809,16.076 1.4046,5.7107 18.1153,46.5032 24.3868,59.5307 6.5982,13.706 11.5581,22.5 12.6902,22.5 0.3122,0 13.244,-12.7423 28.7375,-28.3163 z m 354.0673,-40.1532 c 12.231,-11.2813 40.9055,-40.5797 43.3681,-44.3117 0.8279,-1.2547 1.2937,-2.4928 1.0351,-2.7514 -0.4319,-0.432 -23.5244,-7.0735 -28.4226,-8.1746 -1.7517,-0.3938 -4.1777,2.1126 -13.9046,14.3651 -12.3742,15.5872 -21.0109,25.6847 -30.8738,36.0963 -3.2586,3.4398 -5.5956,6.5898 -5.1933,7 0.9274,0.9456 19.6605,8.1326 21.3669,8.1974 0.7003,0.027 6.3812,-4.6629 12.6242,-10.4211 z m -425.5266,1.5705 c 1.129,-0.7153 0.9086,-2.2563 -1.25,-8.7381 -1.4415,-4.3284 -2.6209,-8.8314 -2.6209,-10.0067 0,-3.6267 23.6431,-25.8026 65.5,-61.4354 19.2972,-16.4276 29.5,-25.7615 29.5,-26.9875 0,-0.4192 -8.4375,-5.1356 -18.75,-10.4809 -80.6619,-41.8094 -121.619,-73.2716 -171.7892,-131.9642 -9.8784,-11.5565 -19.3845,-22.8065 -21.1246,-25 -1.74,-2.1935 -3.4816,-3.6716 -3.8701,-3.2847 -0.3886,0.3869 2.0124,6.4619 5.3355,13.5 12.588,26.6607 18.1362,40.4751 31.8278,79.2466 12.6163,35.7267 15.3149,42.4673 37.8533,94.5499 9.7584,22.55 21.7907,50.9 26.7385,63 4.9478,12.1 9.5992,23.4625 10.3364,25.25 1.2509,3.0331 1.6608,3.249 6.1414,3.2347 2.6405,-0.01 5.4179,-0.4061 6.1719,-0.8837 z m 666.3952,-3.0054 c 4.5815,-5.4448 12.8361,-39.295 15.1984,-62.325 l 0.6903,-6.7294 -10.1979,-6.7706 c -5.6088,-3.7238 -11.6062,-7.6514 -13.3274,-8.7279 -26.6337,-16.6579 -33.0912,-20.5427 -34.1473,-20.5427 -0.6875,0 -5.117,6.2502 -9.8433,13.8893 -4.7263,7.6391 -12.8785,20.2503 -18.1161,28.0251 -5.2375,7.7747 -9.5228,14.3263 -9.5228,14.559 0,0.2328 10.0125,7.0265 22.25,15.097 12.2375,8.0706 26.838,18.2133 32.4455,22.5392 11.359,8.7629 19.0782,13.8904 20.9114,13.8904 0.6684,0 2.3151,-1.307 3.6592,-2.9044 z m 40.613,-43.5605 c 1.0149,-10.4673 0.9836,-12.9112 -0.1949,-15.25 -0.7719,-1.5318 -1.7141,-4.0777 -2.0936,-5.6575 -1.0397,-4.3272 -12.1116,-27.049 -17.6044,-36.1276 -3.9574,-6.5408 -6.6319,-9.4659 -14.6632,-16.0367 -10.879,-8.9007 -20.4044,-15.7849 -27.4866,-19.8652 -3.6262,-2.0892 -4.8472,-2.3989 -5.4894,-1.3925 -2.3943,3.7527 -10.3494,22.3457 -9.9765,23.3176 0.2392,0.6233 3.7412,3.0911 7.7822,5.484 7.4953,4.4383 28.5988,17.8654 43.395,27.61 10.4709,6.896 10.999,8.0717 9.9698,22.1973 -0.4282,5.877 -0.8323,11.8892 -0.898,13.3604 -0.095,2.1381 1.2851,3.8824 6.8805,8.693 3.85,3.31 7.4884,6.0438 8.0852,6.0751 0.6647,0.035 1.5537,-4.7738 2.2939,-12.4079 z m -114.4545,10.5869 c 0.5044,-0.8162 -3.9686,-4.2299 -9.1517,-6.9843 -1.8742,-0.996 -2.5476,-0.863 -4.25,0.8394 -3.3396,3.3396 -2.5446,4.7752 3.2271,5.8278 7.0566,1.287 9.5276,1.364 10.1746,0.3171 z m -413.7378,-9.7773 c 13.1971,-9.0171 21.3132,-15.3732 21.3132,-16.6913 0,-1.3544 -4.0252,-3.6534 -6.3964,-3.6534 -1.1612,0 -21.1183,20.6283 -22.9773,23.75 -1.4101,2.368 1.265,1.2379 8.0605,-3.4053 z m 302.9797,-13.5947 c 7.6409,-8.1184 22.4028,-27.1499 22.1329,-28.5343 -0.3576,-1.834 -25.4294,-16.0938 -28.2994,-16.0955 -1.4217,-9e-4 -5.9033,5.1598 -15.5,17.8489 -12.1641,16.0837 -15.7292,21.9866 -13.3196,22.0537 0.4508,0.013 7.1196,1.7869 14.8196,3.9431 7.7,2.1561 14.6992,3.9459 15.5538,3.9772 0.8546,0.031 2.9303,-1.4056 4.6127,-3.1931 z M 2334,1712.4345 c 17.9641,-13.7215 44.3611,-36.4881 43.3563,-37.3936 -1.1806,-1.0642 -14.582,-6.0409 -16.2668,-6.0409 -1.164,0 -23.0371,21.9912 -43.441,43.6755 l -5.8109,6.1756 2.8312,1.5344 c 1.5572,0.8439 3.7312,1.5485 4.8312,1.5656 1.1,0.017 7.625,-4.2653 14.5,-9.5166 z M 2823.4877,1685.5 c 0.9037,-10.45 2.3087,-23.6231 3.1222,-29.2735 0.8135,-5.6504 1.2827,-10.6004 1.0426,-11 -0.2401,-0.3996 -0.026,-4.7765 0.4766,-9.7265 2.1388,-21.0802 2.1481,-24.5698 0.071,-26.8673 -1.0603,-1.173 -3.7463,-5.2827 -5.9688,-9.1327 -2.2226,-3.85 -6.2214,-9.9548 -8.8863,-13.5662 -7.4862,-10.1451 -25.5091,-31.9338 -26.4146,-31.9338 -0.4453,0 -1.9859,3.9375 -3.4237,8.75 -3.6392,12.1812 -10.4789,31.7195 -15.9176,45.4708 -2.5241,6.3819 -4.5887,12.2055 -4.5879,12.9413 8e-4,0.7359 3.3782,5.3879 7.5054,10.3379 11.4697,13.7565 35.1549,49.8744 43.007,65.5819 2.0396,4.08 4.4348,8.2407 5.3228,9.2461 1.5639,1.7707 1.6364,1.7707 2.3112,0 0.3832,-1.0054 1.4361,-10.378 2.3399,-20.828 z m -195.8195,1.2613 c 9.9977,-14.1867 32.1955,-49.9541 31.7335,-51.1322 -0.2435,-0.621 -6.3268,-5.1197 -13.5185,-9.9971 -10.929,-7.4121 -13.2869,-8.6434 -14.3621,-7.5 -0.7075,0.7524 -8.0205,11.943 -16.2511,24.868 -8.2305,12.925 -16.8248,26.3692 -19.0985,29.8759 -2.2736,3.5068 -3.9007,6.7533 -3.6156,7.2145 0.2851,0.4613 4.8891,3.28 10.2312,6.2639 15.0015,8.3792 17.4727,9.6032 18.3249,9.0765 0.4352,-0.269 3.3855,-4.1703 6.5562,-8.6695 z M 2211.0267,1674.75 c 6.2175,-6.647 34.0741,-44.045 33.3379,-44.7568 -0.4755,-0.4598 -8.5022,-3.6228 -17.837,-7.029 -42.2666,-15.4228 -72.7371,-31.151 -105.4066,-54.4086 -37.7422,-26.869 -62.1391,-46.475 -79.0658,-63.5393 -42.0409,-42.383 -95.4205,-98.3386 -103.5205,-108.5163 -9.2343,-11.603 -9.2165,-10.9936 0.422,14.4735 14.8897,39.342 25.1437,62.5715 28.7447,65.1185 2.4384,1.7247 8.5722,9.0961 22.8063,27.408 16.185,20.8216 44.3172,53.3166 58.4922,67.5632 33.5022,33.6714 73.5614,61.8471 129.5001,91.0842 20.548,10.7397 28.4675,14.6821 29.711,14.7906 0.3911,0.034 1.6582,-0.9505 2.8157,-2.188 z m 196.0592,-23.0818 c 26.8848,-23.8326 31.544,-28.3493 30.4141,-29.4836 -0.9766,-0.9804 -23.1337,-8.1846 -25.1726,-8.1846 -1.0471,0 -37.8667,36.7717 -42.8661,42.8103 -2.1182,2.5586 -2.4705,3.5805 -1.5511,4.5 2.1709,2.1712 18.4784,7.5341 20.1757,6.635 0.8722,-0.462 9.4222,-7.7867 19,-16.2771 z m 367.5121,-0.4786 c -2.5073,-4.8487 -14.6057,-19.1896 -16.1888,-19.1896 -1.3808,0 -4.4092,5.4842 -4.4092,7.9846 0,1.1944 18.8268,13.8279 20.7757,13.9412 0.9882,0.058 0.9482,-0.559 -0.1777,-2.7362 z m -104.3538,-32.1992 c 2.0826,-3.5697 3.667,-7.1257 3.5211,-7.9022 -0.2997,-1.5948 -27.441,-14.1499 -29.1615,-13.4897 -1.7604,0.6756 -6.9151,10.4989 -5.9627,11.3632 3.7204,3.3767 25.097,17.0428 26.2969,16.8117 0.8359,-0.161 3.2237,-3.2133 5.3062,-6.783 z M 2270.0794,1604.75 c 9.7818,-10.0375 20.7122,-20.725 24.2898,-23.75 3.5776,-3.025 6.5331,-6.1883 6.5678,-7.0295 0.045,-1.0884 -8.8057,-5.0987 -30.687,-13.9046 -47.3221,-19.0443 -63.6584,-26.1565 -90.75,-39.5088 -37.4249,-18.4452 -95.0255,-53.5028 -136.5,-83.0784 -9.075,-6.4714 -23.475,-16.5126 -32,-22.3137 -28.66,-19.5025 -66.3953,-49.7822 -87.0876,-69.881 -9.6949,-9.4169 -12.9124,-11.7623 -12.9124,-9.4126 0,1.0289 9.6497,27.1642 10.1545,27.5024 0.19,0.1274 1.5748,1.0003 3.0772,1.9399 1.5025,0.9397 7.4541,7.9732 13.2259,15.6301 5.7718,7.6568 15.7925,19.5126 22.2683,26.3461 91.9857,97.067 98.8166,103.7032 135.2741,131.4201 44.5498,33.8691 67.7382,48.1772 103.5,63.8637 10.2838,4.5109 50.9146,20.1295 52.8971,20.3338 0.4935,0.051 8.9005,-8.12 18.6823,-18.1575 z m 178.6706,6.9269 c 1.2375,-1.114 2.25,-2.5131 2.25,-3.1091 0,-0.5959 -4.8113,-3.9685 -10.6917,-7.4946 l -10.6917,-6.4111 -4.7965,5.419 c -2.6381,2.9804 -4.6729,5.8056 -4.5219,6.2781 0.3799,1.1885 23.9659,8.5776 25.2018,7.8953 0.55,-0.3036 2.0125,-1.4635 3.25,-2.5776 z m 231.9843,-10.9269 c 1.571,-2.0055 11.2657,-23.8809 11.2657,-25.4202 0,-1.7368 -23.8897,-17.4977 -25.9275,-17.1053 -1.5844,0.3052 -16.9208,27.2133 -17.0157,29.8546 -0.039,1.0862 4.2354,3.4788 13.6932,7.6647 14.6199,6.4706 16.4402,6.9773 17.9843,5.0062 z m -206.4647,-13.5 c 18.1497,-17.9154 40.9663,-43.0384 40.4662,-44.5566 -0.4098,-1.2441 -29.2461,-16.6955 -31.1488,-16.6906 -0.5979,0 -5.0023,5.5141 -9.7877,12.25 -4.7854,6.736 -15.015,20.1222 -22.7323,29.7472 -7.7174,9.625 -14.0396,18.0321 -14.0493,18.6825 -0.017,1.1322 20.5006,14.2145 22.4022,14.2839 0.5059,0.018 7.1883,-6.1539 14.8497,-13.7164 z m 359.2049,-28.2769 c 2.8082,-63.6569 1.4357,-90.262 -6.5104,-126.2036 C 2822.65,1413.2562 2811.1959,1379 2808.9854,1379 c -1.0223,0 -1.499,3.667 -2.9899,23 -3.2955,42.7337 -10.8375,106.1991 -15.0755,126.8601 -1.056,5.148 -1.9179,10.323 -1.9154,11.5 0,1.1881 3.0304,5.6982 6.8073,10.1399 12.1655,14.307 24.0144,29.3329 29.2549,37.099 2.9458,4.3654 5.5047,7.2295 6.0089,6.7253 0.4829,-0.4829 1.5624,-16.391 2.3988,-35.3512 z m -515.4951,-0.1375 c 4.4427,-3.9404 7.9163,-7.6529 7.719,-8.25 -0.1973,-0.5971 -9.5476,-4.7964 -20.7785,-9.3318 -11.231,-4.5354 -27.3949,-11.2428 -35.9199,-14.9054 -8.525,-3.6625 -20.7704,-8.8261 -27.2121,-11.4747 -19.8916,-8.1786 -39.4729,-18.6533 -99.117,-53.0209 -35.3753,-20.3836 -36.6937,-21.1946 -80.1709,-49.314 -52.5163,-33.9656 -69.2358,-46.0428 -98.3198,-71.0207 -26.2778,-22.5679 -64.4239,-61.5019 -77.7633,-79.3695 -2.0921,-2.8022 -3.9818,-4.917 -4.1994,-4.6995 -0.2175,0.2176 2.5397,7.743 6.1272,16.7232 3.5874,8.9802 8.6061,21.9527 11.1526,28.8277 5.1177,13.8166 6.8142,17 9.0599,17 0.8311,0 8.1387,6.4125 16.239,14.25 25.2741,24.454 60.6486,53.1228 91.2038,73.915 8.525,5.8011 22.925,15.8423 32,22.3137 29.2719,20.8738 77.1938,51.1643 110.5,69.8448 10.8112,6.0637 44.7896,22.6145 59.7975,29.1274 16.9422,7.3522 89.0673,36.4888 90.4034,36.5206 0.6605,0.016 4.8358,-3.1955 9.2785,-7.1359 z m 382.352,-4.5856 c 12.0812,-28.7401 25.6686,-64.438 25.6686,-67.4387 0,-1.4971 -3.1385,-5.2489 -9.6338,-11.5159 -5.2985,-5.1125 -9.9594,-9.2954 -10.3575,-9.2954 -0.3981,0 -2.4255,4.1625 -4.5052,9.25 -9.9965,24.4535 -23.6742,57.0518 -26.9057,64.1248 -1.9788,4.3312 -3.5978,8.4971 -3.5978,9.2577 0,1.3727 21.4412,16.1356 23.6562,16.288 0.636,0.044 3.1898,-4.758 5.6752,-10.6705 z m -357.3607,-20.2856 c 9.2386,-10.4842 39.0293,-47.7756 39.0293,-48.856 0,-0.4602 -2.1375,-1.6238 -4.75,-2.5859 -2.6125,-0.962 -8.35,-3.2451 -12.75,-5.0736 -4.4,-1.8285 -14.75,-6.0008 -23,-9.2718 -16.7694,-6.6489 -60.4346,-26.4854 -100.5,-45.6559 -25.8222,-12.3553 -36.1399,-17.6001 -66,-33.5493 -7.975,-4.2597 -30.7,-16.0647 -50.5,-26.2332 -58.3849,-29.9845 -114.3404,-61.1266 -136.2754,-75.8444 -11.9292,-8.0043 -47.3196,-34.4717 -57.0525,-42.668 -26.0823,-21.9644 -52.3337,-50.9372 -66.6971,-73.611 -2.6532,-4.1884 -5.2664,-7.6153 -5.8069,-7.6153 -0.6308,0 -0.7522,6.1804 -0.3389,17.25 l 0.644,17.25 6.1892,16.5 c 6.1389,16.3661 8.0217,20 10.3622,20 0.668,0 5.6253,5.7375 11.0163,12.75 15.5792,20.2652 25.3975,31.2775 48.4144,54.3012 42.2194,42.2322 66.7574,60.947 151.5447,115.581 38.3862,24.7348 126.887,75.3323 148,84.6144 31.5859,13.8864 54.122,23.4544 65.145,27.6584 7.0703,2.6965 17.13,6.7249 22.355,8.9521 5.225,2.2272 10.4877,4.0705 11.6949,4.0962 1.5206,0.032 4.3704,-2.4221 9.2758,-7.9889 z M 2532.785,1523.75 c 11.8936,-14.9236 22.2156,-29.6218 22.2123,-31.6294 0,-1.5529 -35.318,-24.1206 -37.7454,-24.1206 -0.584,0 -2.2874,2.1375 -3.7852,4.75 -1.4979,2.6125 -7.8841,13.3944 -14.1918,23.9598 -6.3076,10.5653 -11.3004,19.7137 -11.0951,20.3297 0.5261,1.5781 30.8577,17.7731 33.4798,17.8758 1.5985,0.063 4.4889,-2.838 11.1254,-11.1653 z m 36.6323,-54.7919 c 14.2952,-23.9504 26.698,-47.6596 32.716,-62.5395 3.2267,-7.9784 5.8667,-14.942 5.8667,-15.4748 0,-2.3311 -36.3587,-21.9637 -40.6094,-21.9278 -1.5111,0.013 -3.2701,3.4752 -8.7634,17.25 -7.4687,18.7286 -17.7139,39.89 -28.7438,59.3707 -3.8623,6.8216 -6.8786,13.0976 -6.7029,13.9467 0.3727,1.8008 34.6361,23.3299 36.7368,23.0831 0.7795,-0.092 5.0545,-6.2604 9.5,-13.7084 z m 162.4858,5.223 c 1.5106,-2.8227 6.6929,-23.1474 9.9979,-39.2115 8.2972,-40.3287 12.8667,-95.4906 11.046,-133.3455 -0.9431,-19.6069 -2.5676,-37.578 -3.4793,-38.4897 -1.2409,-1.241 -1.6986,2.3175 -3.0237,23.5125 -1.7374,27.789 -2.7284,36.7695 -6.55,59.3531 -5.3846,31.8203 -12.6442,58.2451 -25.5112,92.8604 -2.9606,7.9645 -5.3962,15.1916 -5.4126,16.0602 -0.028,1.466 19.6554,20.9622 21.2446,21.043 0.3932,0.02 1.1529,-0.7821 1.6883,-1.7825 z m -296.5135,-68.1913 c 17.3545,-28.6915 40.6104,-71.332 40.6104,-74.4607 0,-1.979 -0.8454,-2.3431 -34.5,-14.8579 -30.7785,-11.4454 -36.4662,-13.2184 -76,-23.6913 -14.85,-3.9339 -38.475,-10.2065 -52.5,-13.9392 -29.413,-7.8282 -41.9571,-10.5856 -107.062,-23.5343 -105.3431,-20.9516 -171.8804,-40.6848 -233.6943,-69.3075 -45.3183,-20.9845 -78.9192,-45.6154 -96.4456,-70.6989 -1.9215,-2.75 -6.0434,-8.5436 -9.1598,-12.8746 -3.1165,-4.331 -8.1825,-12.3185 -11.2578,-17.75 -3.0753,-5.4315 -5.994,-9.8754 -6.486,-9.8754 -4.3312,0 7.4,36.0965 17.8747,55 6.6663,12.0306 12.0901,19.6534 21.2261,29.8321 10.4129,11.6014 32.7564,32.519 44.5047,41.6647 31.9238,24.8516 92.4433,56.9046 136.9908,72.5546 7.7051,2.7068 23.0092,8.1211 34.0092,12.0316 11,3.9105 34.4,11.9661 52,17.9014 45.8621,15.4661 69.0951,24.3529 119.1488,45.5755 19.093,8.0954 52.2384,20.9655 72.1543,28.0169 28.9629,10.2547 67.242,26.5695 78.3712,33.4023 1.8291,1.1231 3.9926,1.9201 4.8078,1.7712 0.8151,-0.1489 3.2485,-3.1912 5.4075,-6.7605 z"
       style="fill:#1e1e1e" />
  </g>
</svg>
