<?xml version="1.0" encoding="UTF-8" standalone="no"?>
<svg
   xmlns:dc="http://purl.org/dc/elements/1.1/"
   xmlns:cc="http://creativecommons.org/ns#"
   xmlns:rdf="http://www.w3.org/1999/02/22-rdf-syntax-ns#"
   xmlns:svg="http://www.w3.org/2000/svg"
   xmlns="http://www.w3.org/2000/svg"
   height="526.7785"
   width="368.77063"
   xml:space="preserve"
   viewBox="0 0 368.77063 526.7785"
   y="0px"
   x="0px"
   id="Layer_3"
   version="1.1"><metadata
   id="metadata159"><rdf:RDF><cc:Work
       rdf:about=""><dc:format>image/svg+xml</dc:format><dc:type
         rdf:resource="http://purl.org/dc/dcmitype/StillImage" /><dc:title></dc:title></cc:Work></rdf:RDF></metadata><defs
   id="defs157" />
<style
   id="style2"
   type="text/css">
	.st0{fill:#969898;}
	.st1{fill:#020202;}
</style>
<g
   transform="translate(-232.87658,-49.740543)"
   id="g146">
	<g
   id="g124">
		<path
   style="fill:#969898"
   id="path4"
   d="m 572.5,225.5 c -1.5,-0.3 -3.1,0.4 -4.3,1.2 -1.1,0.6 -2.1,1.4 -3.1,2.1 -0.1,-0.1 -0.3,-0.2 -0.4,-0.3 0,0 0,0 0,0 -0.3,-0.2 -0.7,-0.3 -1,-0.4 -0.3,-0.1 -0.6,-0.1 -0.8,-0.1 -1.3,-0.6 -2.7,-0.7 -4.1,0 -0.3,0.2 -0.6,0.4 -0.8,0.7 -2.3,0.2 -4.2,2.2 -5.9,3.8 -0.4,0.3 -0.7,0.6 -1,1 -0.5,0.5 -0.5,1.2 -0.3,1.7 -0.7,0.4 -1.4,0.9 -2.1,1.2 -1.5,0.9 -3,1.8 -4.5,2.7 -0.3,-0.3 -0.7,-0.6 -1.1,-0.7 0,0 -0.1,0 -0.1,0 0,-0.4 0,-0.7 -0.2,-1.1 0.5,-0.8 0.3,-2.1 -0.8,-2.6 -1.2,-0.6 -2.5,-0.7 -3.9,-0.9 -1.5,-0.1 -3,-0.4 -4.4,-0.8 -3.3,-0.7 -6.6,-1.4 -9.9,-1.9 -0.5,-0.1 -1.1,-0.1 -1.6,-0.2 -3.7,-1 -7.5,-1.7 -11.4,-2.1 0.1,-0.5 0.2,-1 0.2,-1.6 0,-0.2 0,-0.4 0,-0.7 0.2,-0.4 0.4,-0.9 0.6,-1.3 0.3,-1.1 0.3,-2.3 -0.4,-3.2 -0.7,-0.9 -1.8,-1.1 -2.8,-1.2 -1.1,-1 -2.4,-1.7 -3.8,-2.4 -2,-1 -4.1,-1.9 -6.3,-2.2 -1.4,-0.2 -3.8,0.1 -4.4,1.4 -0.9,0.8 -1.5,1.7 -2,2.8 -2.8,-1.1 -5.8,-1.9 -8.9,-2.3 0.5,-1.8 0.2,-4.1 -0.9,-5.5 -0.8,-1 -1.9,-0.8 -3.1,-1.1 -1.9,-0.5 -3.7,-1 -5.6,-1 -0.6,0 -1.2,0 -1.9,0.1 -0.3,-0.1 -0.6,-0.2 -0.8,-0.2 -3.2,-0.8 -7.2,-1 -10.1,0.9 -1.4,0.9 -2.1,2.5 -1.7,3.9 0,0 0,0.1 0,0.1 -0.2,-0.5 -0.5,-0.9 -1.1,-1.1 -1,-0.4 -2.4,-0.5 -3.4,-0.6 -0.3,0 -0.6,-0.1 -0.9,-0.1 -1.8,-0.4 -3.6,-0.7 -5.4,-0.9 -0.3,-1.4 -2.1,-1.6 -3.2,-0.9 -0.4,0.2 -0.7,0.5 -1,0.8 -1.1,0.1 -2.2,0.2 -3.4,0.4 -1.3,0.1 -2.5,0.3 -3.8,0.4 -1.5,0.1 -3,0.2 -4.1,1.4 -1,1.1 -1.3,2.7 -1.6,4.1 -0.3,1.4 -0.7,2.8 -1,4.3 -0.4,1.1 -0.7,2.2 -0.9,3.4 -0.1,0.5 -0.3,1 -0.4,1.5 -0.9,2.2 -2,4.3 -2.7,6.5 -1.3,4 -1.5,8.2 -2.3,12.3 -0.3,1.4 -0.7,2.8 -1,4.2 -0.1,0.3 -0.1,0.7 -0.1,1 -0.2,0.5 -0.5,1.1 -0.8,1.6 -0.5,0.9 -0.5,1.1 0.5,1.8 0.8,0.6 2.2,0.5 2.8,-0.4 0.6,-1 1.5,-0.7 2.6,-1.1 1.4,0.6 3,0.8 4.5,0.8 2.1,0.1 4.2,0.1 6.4,0 2.7,-0.1 5.5,-0.7 8.2,-1 1.8,0.1 3.6,0.1 5.5,0.1 0.1,0.4 0.4,1.6 0.7,1.8 0.8,1.2 2,0.7 3.7,0.8 0.6,0.4 1.3,0.6 2,0.8 1.1,0.7 2.4,1.2 3.5,1.2 0.1,0 0.3,0 0.4,-0.1 0.3,0.2 0.7,0.5 1.1,0.6 0.1,0 0.3,0.1 0.5,0.1 0.2,0.6 0.6,1 1.2,1.3 0.1,0.1 0.2,0.2 0.4,0.3 1.5,1 2.3,0.6 3.6,-0.5 0.4,-0.3 0.7,-0.9 0.7,-1.4 0.5,0.1 2,0.1 2.5,0.2 1,0.3 2.1,0.5 3.2,0.3 1.9,-0.3 2.1,-2.8 0.7,-3.7 2.5,0.5 5,1 7.5,1.2 0,0.9 0.4,1.6 1.2,2 0,0 0.1,0.1 0.2,0.1 0,0 0.1,0 0.1,0.1 0.3,0.2 0.5,0.3 0.8,0.5 0.8,0.4 1.5,0.9 2.3,1.3 1.6,0.8 3.2,1.6 4.9,2.1 1.5,0.5 3.2,0.8 4.7,0 1.1,-0.6 1.7,-1.6 1.9,-2.8 3.2,1.1 6.5,1.9 9.8,2.5 -0.2,0.2 -0.5,0.4 -0.7,0.6 -3.1,1.4 -6.1,3.2 -8.5,5.6 -1.6,1.6 -0.1,4 2,3.3 0,0 0.1,0 0.1,-0.1 0.1,0.3 0.3,0.6 0.5,0.9 0.4,0.9 1.5,1.6 2.6,1.2 1.4,-0.5 2.6,-1.5 3.8,-2.4 3.1,-2 6.1,-4.2 9.2,-6.2 4.8,1.2 9.6,2 14.5,2.2 0.5,0 0.9,-0.1 1.3,-0.4 0.5,0 0.9,0 1.4,0 0.4,0 0.7,-0.2 0.9,-0.4 0.5,1.6 1,3.3 1.8,4.8 0.8,1.4 5.1,-1.8 5.7,-3.1 0,0 0.1,0 0.2,0 -1.2,2.5 -3.8,5.1 -1.9,8.1 1.5,2.2 4.3,2.1 6.7,2.2 0.8,0 2,0.5 2.3,0 0.2,-0.1 0.7,0 0.8,-0.2 1.6,-0.4 2.2,-2.1 3.3,-3.6 2,-2.7 4.5,-6.4 3.1,-9.7 -0.5,-1.1 -3,-1.9 -3.8,-1.2 -0.5,-0.2 -1.2,-1.1 -1.5,-0.6 -0.1,0.2 -0.2,1.4 -0.3,1.6 -0.1,0.1 -0.2,0.2 -0.3,0.3 -2,2.5 -2.6,5.7 -3.7,8.6 -1.1,0 -2.2,-0.2 -3.2,-0.5 0.3,-0.8 1.1,-1.7 1.5,-2.4 0.4,-0.7 0.7,-1.4 1,-2.2 0.2,-0.1 0.4,-0.3 0.6,-0.5 0.3,-0.5 0.6,-1 0.8,-1.5 0.7,0 1.4,-0.3 1.8,-1.1 0.4,-0.9 0.8,-1.8 1.2,-2.7 1.8,-4 3.4,-8 4.6,-12.2 0.5,0.4 1.3,0.6 1.9,0.2 0.7,0.8 2,1 2.7,0.2 0.7,0.9 2,1.1 3,-0.1 2,-2.5 2.3,-5.8 3,-8.9 0.5,-2.4 1.3,-4.9 1,-7.4 2.3,0 4.2,-1.4 5.3,-3.6 1,-2.1 0.8,-5.4 -2.1,-5.8 z M 474,218.1 c 0.2,-0.3 0.4,-0.5 0.5,-0.8 0.1,0.3 0.3,0.5 0.6,0.8 -0.1,-0.1 -0.8,0 -1.1,0 z m 18.1,39.3 c 0,0.1 -0.1,0.2 -0.1,0.3 -0.3,-0.1 -0.6,-0.3 -0.9,-0.4 0.1,0 0.1,-0.1 0.2,-0.2 0.3,-0.3 0.6,-0.6 0.9,-1 0.1,0.1 0.2,0.2 0.3,0.3 -0.1,0.4 -0.2,0.7 -0.4,1 z m 5.2,-2.9 c 0.2,-0.8 0.4,-1.6 0.6,-2.5 0.1,0.1 0.2,0.1 0.3,0.2 0,0 0,0.1 0.1,0.1 -0.2,0.4 -0.2,0.9 0,1.4 0.3,0.6 0.6,1.1 1.1,1.5 -0.7,-0.2 -1.4,-0.4 -2.1,-0.7 z m 47.7,-1 c 0.3,-1.5 0.5,-3 0.9,-4.5 0.2,-0.4 0.3,-0.8 0.3,-1.3 0,-0.3 0,-0.6 -0.1,-0.8 0.1,-0.1 0.3,-0.2 0.4,-0.3 -0.4,2.1 -0.8,4.2 -1.2,6.3 -0.2,0.2 -0.3,0.4 -0.3,0.6 z m 15,-13.7 c -0.3,1.2 -0.5,2.5 -0.9,3.7 0.1,-1.4 0.2,-2.7 0.2,-4.1 0,-0.1 0,-0.1 0,-0.2 0.3,-0.2 0.7,-0.4 1,-0.7 -0.1,0.5 -0.2,0.9 -0.3,1.3 z"
   class="st0" />
		<path
   id="path6"
   d="m 448.9,305.7 c -0.9,0 -1.1,1.4 -0.2,1.4 1,0 1.2,-1.4 0.2,-1.4 z" />
		<path
   style="fill:#969898"
   id="path8"
   d="m 417.1,318.7 c 0.3,0.3 1.6,0.5 2.1,0.4 4.2,-0.4 8.4,-0.8 12.6,-1.9 0,0 0,0.9 -0.1,0.9 -0.2,-0.5 0,-1.1 0.5,-1.4 2.5,-1.7 5.1,-3.2 7.9,-4.4 1,-0.7 2.1,-1.2 3.3,-1.4 0.5,-0.1 1,0.1 1.3,0.5 0.1,0.2 0.2,0.5 0.1,0.8 0.1,0.3 0,0.6 -0.2,0.9 0,0 0,0 0,0 0.3,0.5 0.1,1.3 -0.4,1.6 -0.9,0.4 -1.7,0.9 -2.6,1.3 -0.2,0.1 -0.3,0.1 -0.5,0.1 -0.3,0.3 -0.7,0.7 -1,1 -0.4,0.4 -1,0.4 -1.5,0.1 0,0 0,0 0,0 -0.3,0.2 -0.6,0.4 -0.9,0.5 -0.4,0.3 -1,0.2 -1.3,-0.2 -0.9,0.6 -1.7,1.3 -2.6,1.9 -0.6,0.5 -1.3,0.1 -1.5,-0.5 -2.2,2.8 -4.3,5.7 -6.3,8.7 -2.7,3.9 -4.9,8.1 -7.3,12.2 -1,1.6 -1.9,3.1 -2.9,4.7 -0.3,0.3 -0.6,0.5 -0.9,0.8 -0.6,0.6 -1.3,1.3 -1.9,2 -0.5,0.6 -0.9,1.2 -1.3,1.8 -0.4,0.6 -0.8,1.1 -1.2,1.7 0,0 0,0.1 -0.1,0.1 -0.1,0 0,0.1 0,0.1 0,0.1 -0.1,0.1 -0.1,0.2 0,0 0,0 0,0 -0.2,0.4 -0.1,0.9 0.2,1.3 0,0 0.1,0.1 0.1,0.1 -1.3,2 -2.5,4.1 -3.7,6.2 -1.3,2.3 -2.8,4.8 -3.4,7.4 -0.2,0.9 0.5,1.5 1.2,1.5 -0.1,0.4 -0.3,0.7 -0.5,1 -0.8,1.6 -1.5,3.3 -2.4,4.8 -0.9,1.6 -2.1,3.2 -2.7,5 -0.4,1 0.8,1.8 1.6,1.2 1.5,-1 2.6,-2.7 3.4,-4.2 1,-1.7 1.8,-3.5 2.6,-5.2 0.8,-1.7 1.5,-3.4 2.2,-5.2 0,0 0,-0.1 0,-0.1 0.5,0 1,-0.2 1.3,-0.8 2.2,-4 4.9,-7.8 7.7,-11.4 2.8,-3.7 5.3,-7.5 7.5,-11.7 2.2,-4.3 4.1,-8.7 6.8,-12.7 2.6,-3.7 5.7,-6.9 8.8,-10.1 1.7,-1.7 3.4,-3.5 5,-5.3 0.1,-0.1 0.2,-0.2 0.3,-0.3 0.5,-0.2 0.9,-0.5 1.4,-0.8 2.9,-1.8 5.7,-3.8 8.5,-5.8 1.5,-1 2.9,-2.1 4.3,-3.1 1,-0.7 2.1,-1.5 2.8,-2.6 2.4,-1.2 5.1,-2 7.8,-2.5 2,-0.4 3,0.3 5.1,-0.1 0.2,0 -0.1,1.8 -1.2,3 -2.3,2.7 -4.9,5.1 -7.5,7.4 -6.2,5.5 -13,10.2 -17.2,17.6 -1.2,2.1 -2.2,4.3 -3.2,6.6 0,0.1 -0.1,0.2 -0.1,0.2 -0.5,1.1 -1.1,2.2 -1.5,3.4 -0.3,0.7 -0.6,1.5 -0.9,2.2 -1.7,3.2 -3.1,6.6 -3.8,10.1 -0.3,1.6 1.9,1.8 2.5,0.6 2.1,-3.9 3.5,-8.1 5.6,-12 2.1,-3.8 4.5,-7.5 7.3,-10.8 5.7,-6.8 13.3,-11.6 19,-18.5 0.7,-0.8 1.3,-1.6 1.9,-2.5 0,0 0,0 0.1,0 1.6,-1.5 3,-3.1 4,-5 0.6,-1 1.1,-2 1.4,-3.2 0.1,-0.6 0.3,-1.4 0.2,-2.1 0,0 0.1,0 0.1,-0.1 0.7,-0.7 0.5,-2.2 -0.7,-2.2 -0.3,0 -0.6,0 -0.9,0 -1.5,-1.3 -4.8,-2.4 -6.3,-2.4 -3,0 -6.3,1.2 -9.1,2.5 -0.6,0.3 -1.6,0.9 -2,1.7 -0.6,0.3 -1.3,0.7 -1.8,1.2 0,0 -0.1,0.1 -0.1,0.1 -1.4,0.7 -2.6,1.6 -3.9,2.5 -2.6,1.9 -5.1,4 -8,5.7 -3.1,1.8 -6.3,2.9 -9.9,3.1 -4.1,0.3 -16.8,0.2 -19.1,0.3 -1.5,0 -3.6,-1 -5.1,-0.4 -0.3,-0.1 -0.5,-0.2 -0.8,-0.3"
   class="st0" />
		<path
   id="path10"
   d="m 411.3,336.6 c -1.2,4.5 -2.6,8.9 -4,13.3 -2.2,5.4 -3.9,11 -5.1,16.7 0,0.2 0,0.3 0.1,0.5 -3.8,14.1 -7.1,28.3 -11.6,42.2 -5.6,17 -12.1,33.6 -19.1,50 -3.5,8.2 -7.3,16.3 -11.1,24.4 -3.6,7.5 -7.5,14.9 -11,22.5 -3.4,7.4 -5.9,16.1 -4.5,24.3 0.6,3.7 2,7.2 3.2,10.7 0.9,2.5 1.6,5 2.3,7.5 -0.2,0.3 6.9,12.5 12.9,14.9 5.3,2.1 11.1,2.1 16.6,2.2 8.6,0.1 17.2,0.7 25.8,1 9.8,0.4 19.6,1 29.3,1.8 6.5,0.6 13.1,1.3 19.5,2.5 4,0.8 8,1.5 12,2.3 10.6,1.9 21.5,3.3 32.3,3.1 8.6,-0.2 21.1,-1.7 23.4,-11.8 0.7,-2.8 -4.2,-4.1 -5,-1.2 -0.1,0.4 -0.2,0.8 -0.4,1.2 -0.1,0.2 -0.1,0.3 -0.2,0.5 -0.2,0.3 -0.4,0.6 -0.7,0.9 -0.1,0.1 -0.2,0.2 -0.3,0.4 0,0 0,0 0.1,-0.1 0,0 -0.1,0.1 -0.2,0.2 -0.3,0.3 -0.6,0.5 -0.9,0.8 -0.1,0.1 -0.5,0.3 -0.6,0.4 -0.7,0.4 -1.5,0.8 -2.2,1 -0.4,0.1 -0.8,0.3 -1.1,0.4 -0.1,0 -0.1,0 -0.1,0 0,0 0,0 -0.1,0 -0.2,0.1 -0.5,0.1 -0.7,0.2 -1,0.2 -2,0.4 -3,0.6 -2.2,0.3 -4.4,0.5 -6.7,0.6 -9.6,0.4 -20.3,-1.2 -30.2,-2.7 -9.2,-1.4 -18.2,-3.2 -27.4,-4.2 -18.4,-1.8 -37,-1.4 -55.5,-2.5 -6.1,-0.4 -12.6,0.1 -18.6,-1.4 0.2,-0.8 -0.1,-1.6 -0.9,-2.2 -0.8,-0.6 -1.5,-1.3 -2.4,-1.9 -0.4,-0.3 -0.7,-0.5 -1.1,-0.8 -0.2,-0.1 -0.3,-0.3 -0.5,-0.4 0,0 0,0 -0.1,-0.1 0,0 -0.1,-0.1 -0.1,-0.1 -1.3,-1.3 -2.6,-2.8 -3.6,-4.4 -0.3,-0.4 -0.7,-0.9 -0.9,-1.2 0,0 -0.2,-0.4 -0.2,-0.5 0.2,0.3 -0.2,-0.4 -0.2,-0.4 -0.5,-0.8 -0.9,-1.6 -1.4,-2.5 -0.6,-1.1 -1.2,-2.2 -1.9,-3.2 -1.1,-3.3 -2.5,-6.5 -3.5,-9.9 -2,-7 -0.7,-14.2 1.9,-20.8 3,-7.5 7,-14.7 10.5,-22 3.9,-8 7.6,-16.1 11.2,-24.3 7.3,-16.3 14,-32.9 19.8,-49.8 5.4,-15.9 9.2,-32.1 13,-48.5 1.6,-2.4 3.3,-4.6 5.1,-6.7 3,-3.6 5.9,-7.2 8.5,-11.1 2.8,-4.1 5.1,-8.4 7.5,-12.8 2.3,-4.2 4.8,-8.6 7.9,-12.2 2.9,-3.4 7,-6.5 8.5,-10.9 2.3,-0.9 4.5,-1.9 6.6,-3.1 2.3,-1.3 11.5,-8.3 13.1,-9.2 1.6,-1 3.4,-1.8 5.1,-2.4 1.8,-0.6 3.5,-0.7 5.3,-0.8 -0.5,0.5 -0.9,1 -1.3,1.5 -0.9,1 -1.8,2.1 -2.8,3 -1.7,1.7 -3.5,3.4 -5.3,5 -3.6,3.2 -7.4,6.3 -10.7,9.8 -3.6,3.8 -6.4,8 -8.7,12.7 -2.3,4.6 -4,9.5 -5.8,14.4 -2,5.3 -4.3,10.9 -4.3,16.6 0,0.2 0,0.3 0.1,0.5 -1.9,4.9 -3.7,9.8 -5.6,14.8 -3.1,8.3 -6.4,16.5 -9.5,24.8 -3.3,8.9 -6.4,17.9 -9.7,26.9 -1.8,4.9 -3.7,9.9 -5.6,14.8 -2,4.9 -4.1,9.7 -5.6,14.8 -0.4,1.4 1.5,2.7 2.4,1.3 2.6,-4 4.5,-8.5 6.3,-12.9 1.8,-4.3 3.5,-8.6 5.3,-12.9 3.5,-8.7 6.8,-17.4 10,-26.1 6.1,-16.7 12.1,-33.4 17.9,-50.2 3.1,-8.9 6.3,-17.9 10.4,-26.4 0.3,-0.7 -0.8,-1.3 -1.2,-0.7 -3.8,6.2 -7,12.8 -10,19.4 0.3,-0.8 0.6,-1.7 0.9,-2.5 1.7,-4.8 3.4,-9.6 5.5,-14.2 2.2,-4.7 4.9,-9 8.4,-12.8 3.3,-3.6 7,-6.7 10.5,-10 1.9,-1.8 3.8,-3.6 5.6,-5.6 1.6,-1.8 6.2,-5.9 3.6,-7.8 -3.2,-2.5 -8.5,0.9 -12,2.7 -1.8,0.9 -3.5,2.1 -5.2,3.2 -1.8,1.2 -5.6,4.7 -5.4,5.1 -0.8,0.5 -1.6,1 -2.4,1.5 -2.3,1.2 -4.6,2.3 -7.1,3.2 0.1,0.2 0.1,0.5 0.1,0.7 0,0 0,0.1 0,0.1 -1.4,1.7 -2.7,3.5 -4.2,5.1 -1.5,1.6 -3.1,3.1 -4.5,4.7 -3.4,3.6 -6,7.8 -8.4,12.1 -2.4,4.3 -4.6,8.7 -7.4,12.8 -2.6,3.9 -5.5,7.6 -8.5,11.2 -0.7,0.8 -1.4,1.7 -2.1,2.5 1.2,-4.4 2.5,-8.8 3.8,-13.2 1.6,-2.1 3.3,-4 4.8,-6.1 2.4,-3.5 4.3,-7.3 6.9,-10.7 2,-2.7 4.2,-5.4 6.1,-8.2 0.9,-1.3 1.8,-2.7 2.5,-4.1 0.5,-0.9 1,-2.1 0.5,-3 0.8,-0.5 1.6,-0.9 2.4,-1.4 -1.8,0.5 -3.5,0.9 -5.3,1.2 -3.3,0.7 -6.6,1.4 -10,1.6 -1.6,0.1 -3.2,0.1 -4.8,0.2 m -0.5,21.9 c 1.1,-4.4 2,-8.8 2.2,-13.3 0.1,-2 0.1,-4 -0.1,-6 1.2,-0.1 2.4,-0.2 3.6,-0.3 3.5,-0.2 6.7,-1 10.1,-1.9 0,0 0.1,0 0.1,0 0.1,-0.3 0.2,-0.6 0.5,-0.8 0,0 0,0 0,0 -0.2,0.5 -0.5,1.1 -0.7,1.5 -0.8,1.4 -1.7,2.7 -2.6,4 -2,2.7 -4.1,5.3 -6.1,8 -2.5,3.5 -4.5,7.4 -7.2,10.8 -0.2,0.2 -0.4,0.5 -0.6,0.8 0.3,-0.9 0.5,-1.9 0.8,-2.8 z" />
		<g
   id="g14">
			<path
   id="path12"
   d="m 413.3,307.1 1.8,1.9 10.2,0.1 c 5,0.2 10.1,0.2 15,-0.7 4.7,-0.8 15.2,-6.8 18.9,-9.8 1.4,-1.1 2.8,-2.3 4.1,-3.5 0.7,-0.7 1.5,-1.3 2.4,-1.9 2.4,-1.5 5.1,-2 8,-2 1.8,0 3.5,0.2 5.3,0.6 0.7,0.1 1.5,0.4 2.2,0.6 1.2,0.2 -0.6,5.3 -2.1,7.8 -2,3.2 -4.5,6 -7.1,8.7 -2.3,2.4 -4.6,4.9 -7,7.1 -3.2,3.1 -6.8,5.8 -10,8.9 -3.5,3.4 -6.5,13.8 -6.1,13 1.1,-2.1 2.1,-4.1 3.5,-6 1.4,-1.9 3,-3.6 4.6,-5.3 3.3,-3.2 6.9,-6.1 10.1,-9.4 2.4,-2.4 4.7,-4.9 7,-7.4 2.6,-2.8 4.5,-6.3 7.1,-9.1 3.5,-3.8 2.3,-7.5 2.2,-7.5 -0.5,-1.3 -1.4,-2.3 -1.6,-2.3 -0.7,-0.4 -1.5,-0.8 -2.3,-1 -1.9,-0.7 -4,-0.8 -6,-0.9 -5.9,-0.5 -10.2,3.5 -10.5,3.7 -0.8,0.5 -1.5,1.1 -2.3,1.7 -1.8,1.3 -3.6,2.7 -5.4,4 -0.9,0.6 -11.2,7.1 -13.2,7.7 -4.5,1.2 -9.4,1.1 -14,1 -4.2,-0.2 -8.5,-0.5 -12.6,-1.3 z m 4,12.6 c 0.4,0 1.8,-0.1 2.1,-0.1 1.4,-0.2 2.8,-0.2 4.2,-0.4 1.5,-0.2 3.1,-0.4 4.6,-0.6 0.8,-0.1 1.6,-0.2 2.4,-0.3 0.7,0 1.5,0 2.1,-0.6 0.2,-0.2 0.3,-0.6 0.1,-0.8 -0.8,-1.1 -2.8,-0.7 -3.9,-0.7 -1.5,0.1 -3.1,0.3 -4.6,0.5 -1.4,0.1 -2.9,0.1 -4.4,0.3 -1,0.1 -2.3,0.5 -3,0.6 -0.2,0 -0.4,0.1 -0.5,0.3" />
		</g>
		<g
   id="g20">
			<path
   style="fill:#969898"
   id="path16"
   d="m 479.9,297.5 v 0 c 0.1,0.1 0.1,0.1 0,0 0,0 0,0 0,0 0,0 0,0 0,0 z"
   class="st0" />
			<path
   style="fill:#969898"
   id="path18"
   d="m 479.9,297.5 c 0,0 0,0 0,0 v 0 c 0,0 0,0 0,0 0,0 0,0 0,0 -0.1,-0.1 -0.1,-0.2 -0.1,-0.2 -0.1,-0.2 -0.3,-0.4 -0.4,-0.6 -0.1,-0.1 -0.2,-0.3 -0.3,-0.4 0,0 0,-0.1 -0.1,-0.1 0,-0.1 -0.1,-0.1 -0.1,-0.2 -0.2,-0.3 -0.3,-0.6 -0.4,-1 0,0 0,-0.1 0,-0.1 0.1,-0.2 0.1,-0.5 0,-0.6 -0.1,-0.1 -0.2,-0.1 -0.2,-0.2 -0.1,-0.3 -0.3,-0.5 -0.6,-0.5 -0.1,0 -0.2,0 -0.2,0 -1.1,-0.4 -2.5,-0.3 -3.5,-0.3 -2,0 -4,0.2 -5.9,0.8 -3.8,1.1 -6.8,3.6 -9.7,6.1 -1.2,1 -2.5,2.1 -3.8,3 -0.3,-0.1 -0.6,-0.1 -0.9,0.2 -0.2,0.2 -0.4,0.4 -0.5,0.6 -1.4,0.7 -2.8,1.3 -4.3,1.9 -2.8,1.2 -5.2,2.5 -7.3,4.5 0,0 -0.1,0 -0.1,0 -1.7,0 -3,1.2 -4,2.4 -0.1,-0.4 -0.2,-0.8 -0.4,-1.2 -0.4,-0.8 -1.6,-0.8 -2,0 -0.4,0.9 -0.5,2 -0.7,3.1 -0.2,0.9 -0.5,2 -0.9,3 -0.4,1 -0.8,2 -1.3,2.9 0,0.1 -0.2,0.3 -0.2,0.3 0,0 -0.3,0.5 -0.1,0.3 -0.2,0.3 -0.3,0.6 -0.5,0.9 -0.3,0.5 -0.4,1 -0.5,1.5 -0.1,1 0.9,1.6 1.7,1.3 0.9,-0.4 1.5,-1.1 2,-2 1.2,-0.7 2.1,-1.7 3.1,-2.7 1.1,-1 2.2,-2.1 3.3,-3.2 1.1,-1 2.2,-2.1 3.2,-3.2 0.4,-0.4 0.8,-0.8 1.1,-1.3 -0.4,1 -0.9,1.9 -1.3,2.8 -1.2,2.4 -2.4,4.8 -3.2,7.3 -2,6.5 -4.3,12.7 -7.5,18.7 -3.4,6.1 -7,12 -10.9,17.8 -3.9,5.7 -8.2,10.9 -12.4,16.3 -2.3,3 -4.5,6.1 -6.3,9.5 -1.8,3.4 -3.2,6.9 -5,10.3 -0.3,0.6 -0.1,1 0.3,1.4 -0.6,0.8 -1.2,1.5 -1.9,2.3 -0.9,1.1 0.7,2.5 1.8,1.7 5.5,-4.3 8.8,-10.7 12.6,-16.4 4.1,-6.2 8.9,-11.9 12.9,-18.2 4.2,-6.5 8.1,-13.4 11.6,-20.3 3.3,-6.5 6.2,-13.1 8.8,-19.9 2.5,-6.5 5.3,-12.9 8.8,-18.9 1.5,-0.8 2,-1.6 3.4,-2.7 2.8,-2.2 6.3,-4.8 9.5,-6.4 2,-1 4.2,-1.4 6.4,-1.5 1.1,-0.1 3.6,0 4.8,-0.3 0,0.3 0.1,0.6 0.2,0.9 0.2,0.4 -0.6,0.8 -0.4,1.2 0.3,0.5 0.8,0.7 1.2,0.9 0.5,0.1 1.5,-1.1 1.2,-1.5 z"
   class="st0" />
		</g>
		<g
   id="g30">
			<polygon
   id="polygon22"
   points="" />
			<path
   id="path24"
   d="m 457.2,304.9 c -2.5,1.1 -4.8,0.9 -4.9,1.1 -2.1,3.4 -3.4,7.4 -5,11 -1.7,3.8 -3.2,7.7 -4.9,11.6 -3.2,7.6 -6.6,15.2 -10.6,22.5 -3.8,6.9 -7.9,13.6 -12.4,20 -4.7,6.6 -9.8,12.8 -14.6,19.3 -0.8,1.1 -1.6,2.2 -2.4,3.3 0.5,-2.1 1,-4.3 1.4,-6.4 0.1,-0.5 0.2,-0.9 0.2,-1.4 0.2,-0.4 0.4,-0.7 0.7,-1.1 1.5,-2.4 3.2,-4.8 4.9,-7.1 3.5,-4.8 7.3,-9.3 10.7,-14.2 1.5,-2.3 8.2,-12.1 9.6,-14.8 1.9,-3.5 3.9,-6.9 5.6,-10.4 1.7,-3.7 3.1,-7.5 4.6,-11.4 0.7,-1.9 1.5,-3.8 2.1,-5.8 0.5,-1.7 0.9,-4.6 1.7,-6.2 0.2,-0.5 -0.9,0.8 -1,0.8 0,-0.2 -3.7,4.7 -4.5,6.9 -0.1,0.2 -0.2,0.4 -0.2,0.6 -1,2.6 -2.1,5.3 -3.2,7.9 -0.5,1.1 -0.9,2.2 -1.4,3.2 0,0.1 -0.1,0.2 -0.1,0.3 0,0 0,0.1 0,0.1 -0.5,1 -1,2 -1.4,3.1 -1.5,2.6 -4.2,8.6 -4.2,8.6 -2.6,4.9 -5.5,9.7 -8.6,14.3 -3.3,4.9 -7,9.4 -10.5,14 -1.4,1.8 -2.7,3.6 -3.9,5.5 0,-0.1 0,-0.3 0,-0.4 -0.2,-1.1 -1.7,-1.6 -2.4,-0.6 -0.6,0.9 -0.8,2.2 -1.1,3.2 -0.3,1.2 -0.6,2.5 -0.9,3.8 -0.1,0.7 -0.3,1.4 -0.5,2 -0.5,1 -1,2.1 -1.3,3.2 -0.1,0.4 0,0.8 0.2,1 -0.2,0.7 -0.4,1.4 -0.6,2 -0.6,2 -1.3,4 -2.1,6 -1.8,1.9 -3.4,4 -4.2,6.5 -0.2,0.3 -0.4,0.6 -0.4,1 -0.2,0.9 0.6,1.6 1.4,1.8 1.3,0.3 2.7,-1 3.5,-2 0.9,-1 1.6,-2.1 2.2,-3.3 1,-1.8 1.7,-3.7 2.3,-5.6 1.7,-1.8 3.3,-3.6 4.8,-5.6 4.7,-6.5 9.9,-12.6 14.5,-19.2 4.6,-6.4 8.9,-12.9 12.7,-19.7 4,-7.1 7.4,-14.4 10.6,-21.9 1.9,-4.4 3.7,-8.7 5.4,-13.1 0.8,-2.1 1.6,-4.3 2.4,-6.4 0.4,-1.2 0.9,-2.4 1.3,-3.6 0.2,0 0.3,-0.1 0.5,-0.2 0.3,-0.2 0.5,-0.6 0.7,-0.9 0,-0.1 0.1,-0.2 0.1,-0.4 0,0 0,0 0,0 0,-0.1 0.1,-0.2 0.1,-0.3 0,0 0,0 0,0 v 0 0 0 0 0 c 0,0 0,0 0,0 v 0 c 0,0 0,0 0,0 0,0 0,0 0,0 0,0 0,0 0,0 0,0 0.1,0 0.1,0 0.1,0 0.1,-0.1 0.2,-0.1 0.1,0 0.1,0 0,0 -0.1,0 -0.1,0 0,0 0,0 0.1,0 0.1,0 0,0 0,0 0,0 0,0 0.2,0 0.2,0 0.3,-0.1 0.6,-0.2 0.9,-0.3 0.3,-0.1 0.5,-0.2 0.8,-0.3 0.5,-0.3 1,-0.6 1.5,-1 0.2,-0.4 -0.2,-1.1 -0.7,-0.9 z" />
			<polygon
   id="polygon26"
   points="" />
			<path
   id="path28"
   d="M 453.9,307.6 Z" />
		</g>
		<g
   id="g58">
			<g
   id="g54">
				<path
   id="path32"
   d="m 569.1,565.4 v 0 c 0,0 -0.1,0 -0.1,-0.1 0,0.1 0,0.1 0.1,0.1 z" />
				<g
   id="g52">
					<path
   id="path34"
   d="m 556.9,568.2 c 0,0 0.1,0 0.1,0 0,0 0,0 -0.1,0 0,0 0,0 0,0 0,0 0,0 0,0 z" />
					<path
   id="path36"
   d="m 561.2,567.4 c 0,0 0,0 -0.2,0.1 0,0 0,0 0,0 0.2,-0.1 0.2,-0.1 0.2,-0.1 z" />
					<g
   id="g50">
						<path
   id="path38"
   d="m 534.9,557.5 c 0,0 0,0 0,0 0,-0.1 0,-0.1 0,0 z" />
						<path
   id="path40"
   d="m 534.3,564.7 c 0,0 -0.1,0.1 -0.1,0.2 v 0 c 0.1,-0.1 0.1,-0.1 0.1,-0.2 z" />
						<path
   id="path42"
   d="m 530.7,567 c -0.1,0 -0.2,0 -0.2,0 0.1,0 0.2,0 0.2,0 z" />
						<path
   id="path44"
   d="m 535.1,558 c -0.1,0 -0.1,0 0,0 0,0 0,0.1 0,0 z" />
						<path
   id="path46"
   d="m 579.6,96.9 c -2.6,-8.3 -7.5,-15.7 -12.9,-22.4 -1.4,-1.7 -2.9,-3.3 -4.4,-4.9 -3.1,-4.2 -5.7,-8.9 -9.3,-12.8 -1.8,-2 -4,-3.6 -6.4,-4.7 -2.4,-1 -5.2,-1.3 -7.6,-0.4 -6.9,-0.4 -13.7,-0.8 -20.6,-1.3 -9.2,-0.7 -18.4,-0.8 -27.6,-0.5 -9.1,0.3 -18.1,0.9 -27.2,1.3 -8.9,0.5 -17.8,1.1 -26.7,2.1 -17.7,2.2 -35.3,5.1 -53,7.3 -9,1.1 -18,1.9 -27.1,2.5 -9,0.5 -18,1.8 -27,3.1 -18.7,2.8 -36.8,8.8 -55.7,10.6 -2.1,0.2 -2.1,3.6 0.1,3.7 17.1,0.6 33.8,-4.9 50.5,-8.1 8.6,-1.6 17.3,-2.8 26,-3.8 8.9,-1 17.9,-1.2 26.9,-2.1 17.8,-1.9 35.2,-5.5 52.9,-7.8 18.1,-2.3 36.2,-2.9 54.4,-3.6 10.1,-0.4 20.2,-0.6 30.3,0.1 9.1,0.6 18.5,1.9 27.6,0.8 0.2,0.1 0.4,0.2 0.5,0.2 0.3,0.1 0.6,0.3 0.9,0.4 0.1,0 0.1,0.1 0.2,0.1 0,0 0.1,0 0.2,0.1 0.4,0.3 0.9,0.6 1.3,0.9 0,0 0.1,0.1 0.1,0.1 2,2.6 4.1,5 6.2,7.5 0.1,0.1 0.2,0.2 0.2,0.3 0.3,0.5 0.7,1 1,1.5 1.7,2.3 3.5,4.5 5.5,6.6 0.1,0.1 0.2,0.2 0.4,0.3 0.3,0.4 0.6,0.7 0.9,1.1 5.2,6.2 10,12.8 13,20.5 7.1,18.1 3.3,38.7 -1.6,56.9 -1.3,4.9 -3,9.7 -4.8,14.4 -1.3,3.3 -2.9,6.6 -4.3,9.9 0,-0.6 -0.1,-1.3 -0.2,-1.9 -0.6,-4.3 -2.2,-8.7 -4,-12.7 -1.8,-4.2 -4.1,-8.2 -6.5,-12.1 -2.6,-4.2 -5.5,-8.1 -9.5,-10.9 -0.7,-0.5 -1.5,0.4 -1,1.1 3,4.5 5.7,9.3 8,14.2 2.3,4.9 4.6,10 5.9,15.2 2.2,8.3 0,16.5 -0.4,24.8 0,0.6 -2.7,13.5 -3.9,19.4 -1.2,6 -2.5,11.9 -4.2,17.8 -0.4,1.4 -0.9,2.8 -1.3,4.2 0.4,0 0.8,0.1 1.1,0.2 0.5,-0.1 1,-0.3 1.4,-0.5 0.8,-0.4 1.3,-0.4 1.5,0.1 0.1,0 0.2,0.1 0.3,0.1 0.3,-0.2 0.7,-0.4 1.1,-0.6 1.2,-3.9 2.7,-7.2 3.3,-11.2 2.6,-16.6 18.4,-57.8 21.1,-66.7 2.9,-9.6 5,-19.7 6.3,-29.6 1.4,-10.3 1.2,-20.9 -1.9,-30.8 z" />
						<path
   id="path48"
   d="m 599.5,547 c -0.6,-0.7 -1.6,-1 -2.5,-0.7 -0.1,0 -0.2,-0.1 -0.3,-0.2 -1.2,-0.4 -2.2,-0.4 -3.4,-0.3 0,0 0,0 0,0 -0.1,0 -0.2,0 -0.4,0 -0.4,0 -0.7,0 -1.1,-0.1 -0.7,-0.1 -1.5,-0.2 -2.2,-0.3 -0.4,-0.1 -0.7,-0.2 -1.1,-0.2 0,0 -0.2,0 -0.3,-0.1 -0.1,0 -0.1,0 -0.2,0 -0.2,-0.1 -0.5,-0.1 -0.7,-0.2 -1.4,-0.2 -2.7,-0.4 -4.1,-0.6 -0.4,-0.1 -0.8,-0.2 -1.2,-0.3 -2.8,-0.7 -5.6,-1.2 -8.4,-1.8 -5.9,-1.3 -11,-3.7 -16.3,-6.5 -5.5,-3 -11,-6 -16.6,-8.9 -10.9,-5.6 -22.1,-11.3 -33.8,-15.1 -4.2,-1.4 -8.5,-2.6 -12.5,-4.4 -2,-0.9 -4.1,-1.8 -6.1,-2.9 -0.7,-0.4 -1.3,-1 -1.9,-1.5 -0.7,-0.8 -1.4,-1.2 -2.1,-1.8 -0.2,-0.1 -0.4,-0.2 -0.6,-0.2 -9.2,-11.7 -13.6,-27.2 -15.4,-41.8 -0.5,-4.5 -0.7,-8.8 0.1,-13.3 1,-5.3 3.1,-10.4 5.1,-15.5 4.4,-11 8.1,-22.3 12.4,-33.3 4.6,-11.7 9.6,-23.2 14.8,-34.7 4.9,-10.8 10.7,-21.2 16.2,-31.7 2.8,-5.4 5.4,-10.9 7.6,-16.5 2.3,-5.8 4.1,-11.8 6,-17.8 3.1,-9.4 6.3,-18.8 9.4,-28.2 -0.7,-0.1 -1.3,-0.2 -2,-0.3 -0.7,0.2 -1.5,0.2 -2.2,-0.1 -0.4,-0.1 -0.8,-0.4 -1.2,-0.5 0,0 0,0 0,0 -2.2,6.6 -4.5,13.2 -6.7,19.8 -4,12 -7.6,24 -12.7,35.5 -4.9,11.1 -10.6,21.6 -16,32.4 -5.7,11.3 -10.9,22.9 -15.8,34.5 -2.5,5.9 -4.9,11.9 -7.2,17.9 -2.1,5.5 -3.9,11.2 -6,16.7 -3.9,10 -8.4,19.9 -7.8,30.9 0.5,9 2.4,18 5.2,26.5 2.7,8.4 6.6,17.3 13,23.6 1.5,1.5 3,2.6 4.7,3.7 0.2,0.1 0.4,0.2 0.6,0.2 0.5,0.5 1.1,0.9 1.7,1.2 3.6,2.2 7.5,3.7 11.4,5.1 9.9,3.5 19.5,7.2 29,11.6 10.8,5 21,11 31.5,16.5 5.1,2.6 10.7,4 16.2,5.2 2.1,0.5 4.3,0.9 6.4,1.4 1.1,0.6 2.2,1.2 3.3,1.7 1.7,0.7 3.6,1.1 5.4,1.3 2,0.3 4,0.4 5.8,-0.4 0,0.1 0,0.1 0,0.1 0,0.2 -0.1,0.4 -0.1,0.5 0,0 0,0.1 0,0.1 0,0 0,0 0,0 0,0.1 0,0.1 -0.1,0.2 -0.2,0.3 -0.4,0.6 -0.6,0.9 -0.2,0.3 -0.5,0.6 -0.8,1 -0.2,0.2 -0.3,0.3 -0.4,0.5 0,0 0,0 0,0.1 v 0 c -0.6,0.6 -1.3,1.2 -2,1.7 -0.1,0 -0.1,0.1 -0.2,0.2 -0.1,0.1 -0.5,0.3 -0.5,0.3 -0.4,0.2 -0.9,0.5 -1.3,0.7 -1.7,0.7 -3.3,1.3 -5,2.1 0,0 -0.1,0.1 -0.1,0.1 -0.1,-0.5 -0.2,-0.9 -0.5,-1.4 -0.1,-0.2 -0.3,-0.5 -0.4,-0.7 0,-0.1 -0.1,-0.1 -0.1,-0.1 -0.2,-0.3 -0.4,-0.6 -0.6,-0.9 -0.5,-0.6 -1,-1.2 -1.6,-1.7 -1,-0.9 -2.3,-1.7 -3.4,-2.4 -1.3,-0.9 -2.8,-1.7 -4.1,-2.7 -1.2,-0.9 -2.1,-1.9 -3.3,-2.9 -0.8,-0.6 -2.1,0.2 -1.8,1.1 0.3,1.2 1,2.2 2,3 -1.7,-0.8 -3.5,-1.4 -5.3,-1.4 -0.8,0 -1.7,0.6 -1.5,1.5 0.2,1 0.4,2 0.6,3.1 -0.6,-0.2 -1.4,0.3 -1.4,1 -0.7,-0.7 -1.4,-1.4 -2.3,-1.9 -2.4,-1.6 -5.1,-2.2 -8,-2.4 -0.7,0 -1.2,0.4 -1.3,1 -0.2,0.7 -0.3,1.4 -0.5,2.1 -0.8,-0.1 -1.5,0.6 -1.4,1.5 0,0.2 0,0.3 0.1,-0.1 -0.1,0.2 -0.1,0.4 -0.1,0.7 0,0.1 0.2,0.8 0.1,0.6 0,-0.1 0,0.2 0,0.2 0,0.2 0.1,0.4 0.1,0.6 0,0.1 0.1,0.3 0.1,0.4 0,0 0,0 0,0 -0.5,0.1 -0.7,0.5 -0.6,0.9 -1,-0.7 -1.9,-1.4 -2.9,-2 -1.2,-0.7 -2.5,-1.5 -3.9,-1.8 -1.2,-0.3 -2.7,-0.4 -3.5,0.7 -0.2,0.4 -0.4,0.8 -0.4,1.2 -0.7,-1.2 -1.6,-2.3 -2.9,-2.8 -1.2,-0.5 -2.1,0.8 -1.8,1.8 0,0.2 0.2,0.5 0.2,0.6 0,0.1 0.1,0.2 0.1,0.3 0.1,0.2 0.2,0.5 0.3,0.8 0.1,0.2 0.2,0.5 0.3,0.7 0,0.1 0.1,0.2 0.1,0.3 -0.2,-0.6 0,0 0,0.1 0,0.2 0.1,0.4 0.1,0.7 0,0 0,0.1 0,0.2 0,0 0,0 0,0 0,0.2 0,0.4 0,0.6 0,0.1 0,0.2 -0.1,0.4 0,0 0,0.1 0,0.1 v 0.1 c 0,0 0,0 0,0 0,0.1 -0.1,0.2 -0.1,0.3 -0.1,0.2 -0.2,0.4 -0.3,0.6 0,0 0,0.1 -0.1,0.1 -0.1,0.2 -0.3,0.4 -0.4,0.6 -0.1,0.2 -0.5,0.6 -0.7,0.8 0.1,-0.1 0.3,-0.2 0,0.1 0,0 -0.1,0.1 -0.1,0.1 0,0 0,0 0,0 0,0 0,0 0,0 0,0 -0.1,0 -0.1,0.1 -0.2,0.2 -0.4,0.3 -0.6,0.5 -0.2,0.2 -0.4,0.3 -0.6,0.4 -0.1,0 -0.1,0.1 -0.2,0.1 -0.4,0.2 -0.8,0.5 -1.3,0.7 -0.2,0.1 -0.4,0.2 -0.6,0.3 0,0 -0.1,0 -0.2,0 0,0 0,0 0.1,0 0,0 0,0 -0.1,0 -0.1,0 -0.1,0 -0.2,0.1 -0.2,0.1 -0.2,0 -0.1,0 -0.4,0.1 -0.8,0.2 -1.2,0.3 -0.2,0 -0.5,0 -0.7,0.1 -0.1,0 -0.2,0 -0.2,0 -0.5,0 -1,-0.1 -1.5,-0.2 0,0 0,0 -0.1,0 0,0 0,0 -0.1,0 -0.2,-0.1 -0.5,-0.1 -0.7,-0.2 -0.2,-0.1 -0.4,-0.2 -0.6,-0.3 -0.1,-0.1 -0.2,-0.2 -0.4,-0.2 -0.2,-0.2 -0.5,-0.3 -0.7,-0.5 -0.1,0 -0.2,-0.1 -0.2,-0.2 0,0 0,0 0,-0.1 -0.4,-0.5 -0.8,-1 -1.2,-1.5 -0.5,-0.7 -1.3,-1.4 -2.2,-1.5 -1.5,-0.2 -2.3,1.2 -2.2,2.6 0.1,1.5 1.2,3 2.2,4 1,1 2,1.8 3.3,2.5 4,2 9.2,1 12.6,-1.8 0.4,0.4 0.9,0.7 1.3,1 1,0.6 2.1,1.2 3.2,1.5 2.3,0.7 4.5,0.6 6.8,-0.2 1.4,-0.5 2.7,-1.3 3.8,-2.4 0.5,0.5 1.2,1 1.8,1.3 1,0.5 1.9,0.9 3,1.1 1.8,0.3 3.7,0 5.3,-0.7 1.4,-0.6 2.6,-1.5 3.6,-2.6 0.8,0.9 2.2,1.4 3.4,1.8 1.5,0.5 3.1,0.7 4.7,0.7 3.2,0 6.6,-0.7 9.2,-2.8 1,-0.8 1.8,-1.9 2.3,-3.2 0.2,0.1 0.4,0.2 0.7,0.3 1.3,0.4 2.7,0.6 4.1,0.3 1.2,-0.2 2.4,-0.6 3.5,-1.2 2.3,-1.1 4.3,-2.6 6,-4.5 0.8,-0.9 1.3,-1.9 1.8,-3 0.2,-0.4 0.3,-0.8 0.3,-1.2 0,0 0,-0.3 0.1,-0.5 -0.1,0.2 0,0.1 0.1,-0.5 0,-0.1 0.1,-0.2 0.1,-0.4 0,-0.2 0.1,-0.5 0.1,-0.7 0.5,-2.5 -0.3,-5.1 -2,-7 z m -57.9,12.3 c 0,0 0,-0.1 0,-0.2 0,-0.1 0,-0.1 0,-0.2 v 0 c 0,0 0,-0.1 0.1,-0.2 0,0 0,0 0.1,0 v 0 c 0,0 0,0 0.1,0 0.1,0 0.3,0 0.4,0 0,0 0.2,0 0.3,0.1 0.1,0 0.2,0.1 0.4,0.1 0.3,0.1 0.5,0.2 0.8,0.3 0.1,0 0.2,0.1 0.2,0.1 0.1,0.1 0.2,0.1 0.4,0.2 0.4,0.2 0.8,0.5 1.2,0.8 -0.5,0 -1,-0.1 -1.5,-0.1 -0.7,0 -1.5,0 -2.2,0.1 -0.2,-0.2 -0.3,-0.6 -0.3,-1 0,0 0,0 0,0 z m 9.1,5.2 c 0,0 -0.1,0.2 -0.2,0.3 -0.2,0.3 -0.4,0.6 -0.6,0.9 -0.1,0.2 -0.2,0.3 -0.3,0.4 0,0 0,0 0,0.1 0,0 0,0 -0.1,0.1 -0.3,0.3 -0.6,0.5 -0.9,0.8 0,0 -0.2,0.1 -0.3,0.2 -0.1,0.1 -0.3,0.2 -0.3,0.2 -0.3,0.2 -0.7,0.3 -1.1,0.5 -0.3,0.1 -0.5,0.2 -0.1,0 -0.2,0 -0.4,0.1 -0.5,0.1 -0.2,0 -0.4,0.1 -0.6,0.1 -0.1,0 -0.3,0 -0.4,0 -0.7,0 -1.4,-0.1 -2.1,-0.2 -0.1,0 -0.3,-0.1 -0.4,-0.1 -0.2,-0.1 -0.5,-0.2 -0.7,-0.3 -0.2,-0.1 -0.3,-0.2 -0.5,-0.2 0,0 -0.3,-0.2 -0.5,-0.3 -0.4,-0.3 -0.8,-0.6 -1.3,-1 0.5,-1 0.8,-2.2 0.9,-3.3 0,0 0,-0.1 0,-0.1 0.3,0.2 0.6,0.2 0.9,0.1 0.2,-0.1 0.2,-0.2 0.3,-0.3 0.8,-0.1 1.7,-0.2 2.6,-0.1 1.3,0 2.6,0.2 3.9,0.2 0,0 0,0 0,0 0.3,0.2 0.6,0.5 0.9,0.7 0.4,0.4 0.9,0.8 1.4,1.2 0,0 0,0 0,0 z m 3.3,-7.3 c 0,-0.1 0,-0.3 0.1,-0.4 0.1,-0.6 0.3,-1.1 0.4,-1.7 2.1,0.3 4.1,1.1 5.7,2.2 0.8,0.6 1.5,1.2 2.3,1.9 -1.5,-0.2 -3,-0.3 -4.5,-0.2 -1.1,0 -2.1,0.1 -3.2,0.1 -0.2,-0.6 -0.4,-1.2 -0.8,-1.7 0.1,-0.1 0,-0.2 0,-0.2 z m 10.7,4.6 c 0,0.4 -0.1,0.7 -0.2,1.1 0,0 0,0.1 0,0.1 0,0 0,0 0,0.1 -0.1,0.2 -0.1,0.4 -0.2,0.6 -0.1,0.3 -0.2,0.5 -0.3,0.8 0,0 -0.1,0.2 -0.2,0.3 -0.1,0.2 -0.2,0.4 -0.4,0.5 -0.1,0.1 -0.5,0.8 -0.7,0.8 0,0 0.3,-0.4 0.1,-0.1 -0.1,0.1 -0.1,0.1 -0.2,0.2 -0.1,0.1 -0.3,0.3 -0.4,0.4 -0.2,0.2 -0.5,0.4 -0.8,0.6 -0.1,0 -0.1,0.1 -0.2,0.1 0,0 0,0 -0.1,0.1 0,0 0,0 0,0 0,0 -0.1,0 -0.1,0.1 0,0 0,0 0,0 -0.1,0 -0.2,0.1 -0.2,0.1 -0.3,0.2 -0.6,0.3 -0.9,0.4 -0.1,0 -0.2,0.1 -0.4,0.1 -0.1,0 -0.2,0 -0.2,0.1 -0.3,0.1 -0.7,0.1 -1,0.1 0,0 -0.1,0 -0.1,0 -0.2,0 -0.3,0 -0.5,0 -0.2,0 -0.4,0 -0.6,-0.1 v 0 c 0,0 0,0 -0.1,0 0,0 -0.1,0 -0.1,0 0,0 0,0 0.1,0 -0.2,-0.1 -0.9,-0.4 -1.1,-0.5 -0.1,0 -0.1,-0.1 -0.2,-0.1 -0.2,-0.1 -0.3,-0.2 -0.5,-0.4 -0.1,-0.1 -0.1,-0.1 -0.2,-0.2 0,0 0,0 0,0 0,0 0,0 0,0 -0.2,-0.2 -0.4,-0.4 -0.6,-0.5 0.5,-1.1 0.9,-2.2 1,-3.4 0.1,-0.6 0.1,-1.3 0,-1.9 3,0 5.9,-0.4 8.9,-0.2 0,0 0.1,0 0.2,0 0.1,0.1 0.2,0.2 0.4,0.4 0,0 0,0 0,0 -0.2,0.1 -0.2,0.3 -0.2,0.4 z m 8.5,-5 c 0.2,0.1 0.4,0.3 0.6,0.4 -1.8,0 -3.6,0.3 -5.2,1.4 0,0 0,-0.1 0,-0.1 -0.3,-1 -0.5,-1.9 -0.7,-2.9 -0.1,-0.5 -0.1,-0.9 -0.2,-1.4 2,0.5 3.8,1.5 5.5,2.6 z m 8.1,5.4 c 0,0.3 0,0.6 -0.1,0.9 0,0 0,0.2 -0.1,0.3 0,0.1 -0.1,0.2 -0.1,0.2 0,0.1 -0.3,0.6 -0.2,0.5 -0.1,0.2 -0.2,0.3 -0.3,0.4 0,0 -0.3,0.3 -0.4,0.4 -0.2,0.1 -0.3,0.2 -0.5,0.3 0,0 -0.5,0.2 -0.5,0.3 -0.3,0.2 -0.7,0.3 -1,0.4 -0.1,0 -0.4,0.1 -0.3,0.1 0,0 -0.1,0 -0.1,0 -0.3,0.1 -0.6,0.1 -0.9,0.2 -0.6,0.1 -1.3,0.2 -1.9,0.2 -0.1,0 -0.2,0 -0.3,0 -0.2,0 -0.4,0 -0.6,0 -0.4,0 -0.8,-0.1 -1.2,-0.1 -0.4,0 -0.8,-0.1 -1.1,-0.2 -0.2,0 -0.3,0 -0.5,-0.1 -0.1,0 -0.2,0 -0.3,-0.1 -0.6,-0.2 -1.2,-0.4 -1.8,-0.7 0,0 0.1,0 0.1,0.1 0,0 -0.1,0 -0.1,-0.1 -0.1,0 -0.3,-0.2 -0.1,-0.1 -0.2,-0.2 -0.5,-0.3 -0.7,-0.4 -0.1,-0.1 -0.3,-0.1 -0.4,-0.1 0.2,-0.7 0.4,-1.3 0.4,-2 0.1,-1.1 0,-2.2 -0.3,-3.2 0.1,0 0.2,-0.1 0.2,-0.1 0.1,0.6 0.7,1.1 1.4,0.8 1,-0.3 2.2,-0.5 3.3,-0.5 1.2,0 2.3,0 3.5,0.1 0.5,0 1,0.1 1.5,0.2 0.8,0.5 1.5,0.9 2.4,1.2 0.3,0.1 0.6,0 0.8,-0.1 0,0.2 0,0.3 0,0.4 0,0.1 0,0.3 0,0.4 0.2,0.3 0.2,0.3 0.2,0.4 0,0 0,0 0,0 z" />
					</g>
				</g>
			</g>
			<path
   id="path56"
   d="m 601.5,555.7 c 0,0 0,-0.1 0,-0.2 0,0 0,0.1 0,0.2 z" />
		</g>
		<path
   id="path60"
   d="m 500.2,153.3 c -4.7,4.5 -9.7,8.7 -15.2,12.2 -5,3.2 -10.4,5.9 -15.9,8.3 -11.2,4.9 -23,8.4 -34.6,12.3 -6.5,2.1 -20.2,8.2 -20.8,8.4 -2.3,0.7 -4.6,1.6 -6.9,2.6 -4.3,1.9 -8.6,4.1 -12.7,6.4 -8.4,4.6 -16.8,9.3 -25.3,13.9 -17,9.1 -34.2,17.7 -52.6,23.5 -19.2,6.2 -38.9,11.1 -58.8,14.6 -8.1,1.5 -16.3,2.6 -24.5,3.5 2.2,1.7 14.5,5.2 18.1,4.6 20.3,-3.2 40.2,-8 59.9,-13.9 9.5,-2.8 18.7,-6 27.8,-9.9 8.8,-3.8 17.2,-8.2 25.6,-12.7 8.5,-4.6 17,-9.5 25.2,-14.6 8.1,-5.1 42.3,-19.5 49.6,-21.9 -1.9,2.5 -3.6,5.2 -5.1,7.9 -1.1,1.9 -2.2,3.8 -3.3,5.7 0,0.7 -0.1,1.3 -0.1,2 0,0.1 0,0.1 0,0.1 1,1.1 1.8,2.3 2.5,3.6 1,-1.9 2,-3.7 3,-5.5 2,-3.7 4,-7.3 6.5,-10.7 1,-1.4 2.1,-2.8 3.4,-4.1 0.5,-0.5 1.1,-1 1.7,-1.6 0.1,-0.2 0.2,-0.3 0.3,-0.5 1.5,-0.5 3,-1 4.5,-1.6 11.7,-4.2 23,-9 33.1,-16.4 5.9,-4.3 11.3,-9.5 15.8,-15.3 0.4,-0.6 -0.6,-1.6 -1.2,-0.9 z" />
		<path
   id="path62"
   d="m 517.2,563.4 c -0.1,0.4 -0.2,0.8 -0.4,1.2 -0.1,0.2 -0.1,0.3 -0.2,0.5 -0.2,0.3 -0.4,0.6 -0.7,0.9 -0.1,0.1 -0.2,0.2 -0.3,0.4 0,0 0,0 0.1,-0.1 0,0 -0.1,0.1 -0.2,0.2 -0.3,0.3 -0.6,0.5 -0.9,0.8 -0.1,0.1 -0.5,0.3 -0.6,0.4 -0.7,0.4 -1.5,0.8 -2.2,1 -0.4,0.1 -0.8,0.3 -1.1,0.4 -0.1,0 -0.1,0 -0.1,0 0,0 0,0 -0.1,0 -0.2,0.1 -0.5,0.1 -0.7,0.2 -1,0.2 -2,0.4 -3,0.6 -2.2,0.3 -4.4,0.5 -6.7,0.6 -9.6,0.4 -20.3,-1.2 -30.2,-2.7 -9.2,-1.4 -18.2,-3.2 -27.4,-4.2 -18.4,-1.8 -37,-1.4 -55.5,-2.5 -6.1,-0.4 -18.7,-3 -19.5,-3.6 -0.8,-0.6 -1.5,-1.3 -2.4,-1.9 -0.4,-0.3 -0.7,-0.5 -1.1,-0.8 -0.2,-0.1 -0.3,-0.3 -0.5,-0.4 0,0 0,0 -0.1,-0.1 0,0 -0.1,-0.1 -0.1,-0.1 -1.3,-1.3 -2.6,-2.8 -3.6,-4.4 -0.3,-0.4 -0.7,-0.9 -0.9,-1.2 0,0 -0.2,-0.4 -0.2,-0.5 0.2,0.3 -0.2,-0.4 -0.2,-0.4 -0.5,-0.8 -0.9,-1.6 -1.4,-2.5 -0.6,-1.1 -1.2,-2.2 -1.9,-3.2 -1.1,-3.3 -2.5,-6.5 -3.5,-9.9 -2,-7 -0.7,-14.2 1.9,-20.8 3,-7.5 7,-14.7 10.5,-22 3.9,-8 7.6,-16.1 11.2,-24.3 7.3,-16.3 14,-32.9 19.8,-49.8 5.7,-16.7 9.6,-33.9 13.6,-51.1 2,-8.6 5,-16.9 7.1,-25.5 1.1,-4.4 2,-8.8 2.2,-13.3 0.1,-2.1 0.1,-4.2 -0.1,-6.3 -0.1,-0.5 -0.2,-1 -0.3,-1.4 0.1,-0.2 0.1,-0.5 0.1,-0.8 -0.5,-4.8 -1.5,-9.6 -2.1,-14.4 -0.6,-4.9 -1.1,-9.9 -1.2,-14.9 -0.3,-9.1 -2,-16.3 1.9,-24 -0.3,0.5 -1.2,-2.6 -1.8,-3 0,0.6 -0.6,1.1 -1.1,1.1 -1.6,2.7 -3,5.5 -3.8,8.5 -0.4,4.4 -0.6,8.9 -0.6,13.3 0,5.9 0.3,11.7 0.9,17.6 0.6,5.5 1.6,11.1 3.7,16.3 0,0.6 0,1.2 0,1.8 0,1.9 0.1,3.8 -0.1,5.6 -0.3,3.9 -1.1,7.8 -2.1,11.5 -2,7.6 -4.7,15 -6.9,22.5 -4.8,16.7 -8.4,33.7 -13.8,50.1 -5.6,17 -12.1,33.6 -19.1,50 -3.5,8.2 -7.3,16.3 -11.1,24.4 -3.6,7.5 -7.5,14.9 -11,22.5 -3.4,7.4 -5.9,16.1 -4.5,24.3 0.6,3.7 2,7.2 3.2,10.7 0.9,2.5 9.2,20 15.2,22.4 5.3,2.1 11.1,2.1 16.6,2.2 8.6,0.1 17.2,0.7 25.8,1 9.8,0.4 19.6,1 29.3,1.8 6.5,0.6 13.1,1.3 19.5,2.5 4,0.8 8,1.5 12,2.3 10.6,1.9 21.5,3.3 32.3,3.1 8.6,-0.2 21.1,-1.7 23.4,-11.8 0.7,-2.4 -4.2,-3.6 -5,-0.8 z" />
		<path
   id="path64"
   d="m 536.4,561.7 c -0.3,-1.3 -0.9,-2.2 -1.9,-3.1 -0.8,-0.7 -1.8,-1.3 -2.7,-1.8 -2,-0.9 -4.2,-1.2 -6.4,-0.9 -0.5,0.1 -0.9,0.5 -1,1 -0.3,2 0,4.1 0.9,5.9 0,0.2 0.1,0.3 0.2,0.5 0.2,0.3 0.7,0.5 1.1,0.3 0.7,-0.4 1.4,-0.7 2.2,-1.1 0.4,-0.2 0.8,-0.3 1.2,-0.5 0,0 0.1,0 0.2,0 0.1,0 0.1,0 0.2,0 0.2,0 0.4,-0.1 0.6,-0.1 0.3,-0.1 0.7,-0.1 1.1,-0.1 0.2,0 0.3,0 0.5,0 0,0 0.4,0 0,0 0.1,0 0.2,0 0.2,0 0.2,0 0.4,0 0.6,0.1 0.1,0.1 0.2,0.2 0.3,0.3 0.3,0.3 0.8,0.5 1.1,0.8 0.6,0.3 1.8,-0.3 1.6,-1.3 z m -9.9,-0.7 c -0.2,-0.9 -0.3,-1.8 -0.1,-2.8 0.5,0.1 1.1,0.2 1.5,0.3 0.5,0.1 0.9,0.3 1.3,0.5 0.2,0.1 0.4,0.2 0.6,0.3 0.1,0 0.2,0.1 0.3,0.1 -1.2,0.3 -2.5,0.8 -3.6,1.6 z" />
		<path
   id="path66"
   d="m 452.2,329.4 c -8.9,14.6 -14.7,30.7 -20.7,46.7 -3.1,8.3 -6.4,16.5 -9.5,24.8 -3.3,8.9 -6.4,17.9 -9.7,26.9 -1.8,4.9 -3.7,9.9 -5.6,14.8 -2,4.9 -4.1,9.7 -5.6,14.8 -0.4,1.4 1.5,2.7 2.4,1.3 2.6,-4 4.5,-8.5 6.3,-12.9 1.8,-4.3 3.5,-8.6 5.3,-12.9 3.5,-8.7 6.8,-17.4 10,-26.1 6.1,-16.7 12.1,-33.4 17.9,-50.2 3.1,-8.9 6.3,-17.9 10.4,-26.4 0.3,-0.9 -0.8,-1.5 -1.2,-0.8 z" />
		<path
   id="path68"
   d="m 431,496.8 c -0.4,-5.6 -0.9,-11.2 -1.1,-16.8 0,-1.1 -1.8,-1.3 -2.1,-0.2 -1.1,4.3 -0.6,9.1 -0.7,13.5 -0.1,4.6 -0.6,9 -2.7,13.1 0,0 -0.4,0.7 -0.5,0.8 -0.2,0.4 -0.5,0.7 -0.8,1.1 0,0 -0.7,0.6 -0.8,0.8 -0.1,0.1 -0.3,0.2 -0.5,0.3 0,0 -0.6,0.3 -0.7,0.4 -1.1,0.5 -1.4,0.6 -2.6,0.8 -1.5,0.2 -2.9,0.2 -4.3,0.1 -5.4,-0.5 -9.6,-3.6 -11.5,-8.8 -1,-2.9 -1.6,-5.9 -1.7,-9 -0.1,-3.1 -0.5,-6.1 -0.2,-9.2 0.1,-1.2 -1.6,-1.4 -1.9,-0.2 -0.7,2.9 -1.6,5.9 -1.7,8.9 -0.1,3.1 0,6.4 0.8,9.4 1.6,6.2 5.4,11.8 11.9,13.6 6,1.7 13.3,1.3 17.6,-3.6 3.7,-4.2 3.8,-9.9 3.5,-15 z" />
		<path
   id="path70"
   d="m 468.1,135 c -7.4,3.8 -14.8,7.5 -21.9,11.8 -7,4.2 -14,8.4 -20.8,12.9 -13.8,8.9 -27.5,18.1 -41.4,27.1 -26.9,17.4 -54.5,33.8 -83.2,47.9 -7.8,3.8 -15.7,7.4 -23.9,10.3 -4,1.4 -8.1,2.8 -12.2,4 -3.9,1.1 -7.9,2.3 -11.9,3 -1.4,0.2 -1.1,2.2 0.3,2.2 3.8,-0.2 7.5,-0.4 11.2,-1.1 3.6,-0.7 7.3,-1.7 10.8,-2.8 7.5,-2.4 14.7,-5.5 21.8,-8.8 14.1,-6.6 28.1,-13.6 41.7,-21.2 28.9,-16.1 56.2,-35 83.9,-53.2 7.8,-5.1 15.6,-10.3 23.4,-15.4 7.8,-5 15.4,-10.4 23.2,-15.2 0.5,-0.7 -0.2,-1.9 -1,-1.5 z" />
		<path
   id="path72"
   d="m 345,124.5 c -7.1,4.6 -14.4,8.7 -21.7,12.9 -7.1,4.1 -14,8.5 -21.3,12.3 -13.5,7.1 -28.3,11.4 -42.8,15.8 -8.5,2.6 -17.1,5.3 -25.2,8.9 -2.3,1 -0.7,4.2 1.5,3.5 15.1,-4.7 30.4,-8.8 45.4,-14 7.2,-2.5 14.2,-5.4 21,-9 7.3,-3.8 14,-8.8 20.8,-13.4 7.8,-5.3 15.6,-10.5 23.1,-16.2 0.5,-0.4 -0.2,-1.2 -0.8,-0.8 z" />
		<path
   id="path74"
   d="M 554.9,195.1" />
		<path
   id="path76"
   d="m 439.8,206.9 c -0.2,0 -0.2,0.3 0,0.3 0.1,0 0.2,-0.3 0,-0.3 z" />
		<g
   id="g82">
			<path
   id="path78"
   d="m 481.2,213.7 c 0,0 0,0 0,0 v 0 c 0,0 0,0 0,0 z" />
			<path
   id="path80"
   d="m 512.7,222.1 c -1.2,-1.8 -3.3,-2.9 -5.2,-3.8 -1.8,-0.8 -3.7,-1.4 -5.5,-2.2 -1.1,-0.5 -2.3,-0.9 -3.5,-1.3 -1,-0.3 -2.2,-0.7 -3.2,-0.4 -1.2,0.4 -2.4,1.4 -2.9,2.6 -0.2,0.5 -0.2,1 -0.1,1.4 -0.9,-0.2 -1.8,-0.4 -2.6,-0.6 -1.5,-0.3 -3.1,-0.5 -4.6,-0.6 0.1,-0.6 0,-1.3 -0.2,-1.9 -0.2,-0.8 -0.5,-1.6 -1.1,-2.2 -1,-1.1 -2.5,-1.6 -4,-1.8 -0.4,0 -1.5,-0.2 -1.9,-0.2 -0.2,0 0.1,-1.1 -0.5,-1.2 -1.4,-0.3 -2.8,-0.5 -4.2,-0.9 -1.4,-0.3 -4.1,-1 -4.6,-0.4 -0.3,0.4 -0.7,1.8 -0.2,1.9 1.4,0.3 6,1.1 6.8,1.2 0.3,0 0.5,0.1 0.8,0.1 0,0.1 0,0.2 0,0.3 0,0.3 -0.1,0.7 -0.2,1 0,0 -0.7,2 -0.7,2.2 -0.1,0 -0.2,0 -0.3,-0.1 -0.7,-0.1 -1.4,-0.3 -2.1,-0.5 -0.7,-0.2 -1.4,-0.4 -2.1,-0.5 -0.4,-0.1 -0.8,-0.1 -1.1,-0.2 0,0 0,-0.1 0,-0.1 0,-0.3 0.1,-0.7 0.1,-1 0.1,-0.6 0.2,-1.1 0.3,-1.6 0.1,-0.2 0,-0.5 -0.2,-0.7 -0.1,-0.1 -0.3,-0.3 -0.5,-0.3 -2,-1.6 -5.4,-1.7 -7.7,-0.9 -1.8,0.6 -3,1.8 -3.8,3.4 0,0 -0.1,-0.1 -0.1,-0.1 -3.5,-1.5 -7.8,-1.5 -11.6,-1.4 -2,0.1 -4.1,0.2 -6.1,0.6 -1.2,0.2 -2.9,0.4 -4.2,1 0,0 0,-0.1 0,-0.1 -0.3,-1.1 -0.5,-2.1 -0.8,-3.1 -0.2,-1.1 -0.4,-2.1 -0.7,-3.2 -0.1,-0.5 -0.5,-0.8 -0.9,-0.9 0.1,-0.6 0.2,-1.3 0.2,-1.9 0,-0.4 -0.2,-0.6 -0.4,-0.8 0,0 0,-0.1 0,-0.1 0.1,-1 -1.2,-1.2 -1.6,-0.4 -1,2.1 -1.5,1.7 -1,3.9 0.2,1.2 1,5.5 1.7,6.4 0.2,0.3 0.5,0.6 0.9,0.9 -2.2,2.1 -3.3,5.1 -4.4,7.8 -1.2,3.1 -2.3,6.2 -3.5,9.3 -2.5,6.6 -4.7,14 -4.1,21.1 -0.1,0.5 -0.2,1.1 -0.1,1.6 0,0 -3.3,0.3 -4.9,3.4 -0.5,0.9 -2.9,4.8 -3.4,5.7 -0.9,2.6 0.1,2.2 -0.5,4.9 2.3,-1.4 3.9,-3.7 5.5,-5.8 0.8,-1.1 1.6,-2.1 2.4,-3.1 0.4,-0.5 0.8,-0.9 1.2,-1.4 0.2,-0.2 0.4,-0.4 0.6,-0.6 0.1,0 0.1,0 0.2,0 2.4,-0.1 4.7,-0.7 7.1,-0.8 2.5,-0.1 5,0.1 7.4,0 2.5,0 4.9,-0.3 7.4,-0.4 1.3,-0.1 2.6,-0.1 3.9,0 0.9,0.1 1.9,0.3 2.8,0.3 0.1,0.2 0.3,0.4 0.5,0.5 3,1.5 6.4,3 9.8,2.7 0,0 0,0.1 0,0.1 0.1,0.5 2.5,1.7 3.1,1.9 0.6,0.2 1.2,0.4 1.8,0.6 1.2,0.2 2.6,0.2 3.6,-0.6 0.3,-0.2 0.5,-1.7 0.5,-1.8 0.8,0.3 2.1,0.8 2.9,0.9 0.9,0.1 1.9,0.1 2.8,0.1 0.9,0 1.3,0.2 2.2,0 0.8,-0.1 1,-1.7 0.2,-1.7 -0.8,0 -1.5,-0.1 -2.3,-0.1 -0.8,0 -1.7,0 -2.5,-0.2 -0.8,-0.1 -1.5,-0.3 -2.2,-0.6 -0.1,0 -0.3,-0.1 -0.4,-0.2 0,-0.1 0,-0.2 0,-0.3 0,-0.2 0,-0.5 0.1,-0.7 0.1,0.1 0.2,0.1 0.3,0.1 0,0 0,0 0,0 0,0 0,0 0,0 0.1,0.1 0.2,0.1 0.3,0.1 0.3,0 0.5,0.1 0.8,0.1 0.7,0.1 1.3,0.2 2,0.3 0.7,0.1 1.4,0.1 2.1,0.1 0.8,0 1.9,-0.1 2.4,-0.9 0.2,-0.4 0.1,-0.9 -0.3,-1.1 -0.7,-0.3 -1.5,-0.1 -2.2,-0.1 -0.1,0 -0.2,0 -0.3,0 0,0 0,0 0,0 0,0 0,0 0,0 -0.2,0 -0.4,0 -0.6,0 -0.4,0 -0.7,0 -1,-0.1 -0.7,-0.1 -1.4,-0.1 -2,-0.1 -0.3,0 -0.5,-1 -0.8,-1 0,0 -0.6,0.6 -0.6,0.6 0.2,-0.4 0.2,-0.9 -0.3,-1.2 -1.3,-0.6 -2.6,-0.9 -4,-1.1 -0.6,-0.1 -1.3,-0.2 -2,-0.3 -0.7,-0.1 -1.3,-0.1 -2,-0.2 -0.5,-0.1 -0.8,0.4 -0.7,0.7 0,0.1 -0.1,0.1 -0.1,0.2 -0.6,-0.1 -1.1,-0.1 -1.7,-0.1 -0.1,0 -0.1,0 -0.2,0 0.3,-1.2 0.2,-2.6 0.4,-3.7 0.2,-1.9 0.6,-3.7 1,-5.6 0.7,-3.7 1.6,-7.4 2.1,-11.2 0.8,-5.5 0.7,-11.1 2.5,-16.3 0.6,0 5.3,0.3 6.8,0.5 0.7,0.1 1.5,0.1 2.3,0.1 0.3,0 0.6,0 0.9,-0.1 0.2,0 0.4,-0.1 0.6,-0.3 0.1,-0.1 0.1,-0.3 0.1,-0.4 0.1,-0.1 0.2,-0.2 0.3,-0.3 0.1,-0.1 0.2,-0.3 0.3,-0.4 0.4,0.2 0.8,0.4 1.1,0.5 0.1,0.1 0.1,0.1 0.3,0.1 0.1,0.1 0.3,0.1 0.4,0.2 0.3,0.2 0.5,0.4 0.8,0.5 0.3,0.2 0.5,0.4 0.8,0.6 0.1,0.1 0.2,0.1 0.3,0.2 0,0 -0.1,0 -0.1,0.1 -0.2,0 -0.3,0.1 -0.4,0.3 0,0 0,0 0,0.1 -0.3,0.5 -0.1,1 0.4,1.2 0.5,0.3 1.2,0.2 1.8,0.2 0.7,0 1.4,0 2.1,0.1 1.6,0.1 3.1,0.3 4.7,0.6 1.5,0.3 3,0.7 4.4,1.2 1.2,0.4 2.4,1.3 3.7,1.5 0.6,0.1 1.1,-0.6 0.8,-1.1 -0.7,-1.3 -2.4,-1.8 -3.7,-2.3 -0.2,-0.1 -0.5,-0.2 -0.8,-0.3 -0.2,-0.6 0.6,-1.6 1,-1.9 0.6,-0.6 1.2,-0.7 2,-0.5 1.8,0.4 3.4,1.3 5.1,2 2.8,1.2 6.4,2.1 8.6,4.3 0.5,0.5 0.9,1 0.9,1.7 0,0.9 -0.5,1.6 -0.7,2.4 -0.1,0.6 0.6,1 1.1,0.8 2,-0.3 2.1,-3.2 0.9,-4.9 z m -49.6,35.8 c 0.1,-0.4 0.2,-0.9 0.2,-1.3 0.1,-0.6 0.5,-2.4 0.4,-2.6 0,0 0,0 0,0 0.2,0.1 0.3,0.1 0.5,0.1 0.6,0.2 1.3,0.3 1.9,0.4 0.6,0.1 1.3,0.3 2,0.4 0.5,0.1 0.9,0.1 1.4,0.2 0,0 0,0.1 0,0.1 0,0.2 -0.1,0.4 -0.1,0.6 0,0.3 -0.1,0.6 -0.2,1 -0.1,0 -0.5,2.5 -0.4,2.8 0,0 0,0.1 0,0.1 -0.4,0 -0.9,0.1 -1.3,0.1 -0.1,0 -0.1,0 -0.2,0 0.1,0 0.1,0 0,0 -0.1,0 -0.3,0 -0.4,0 -0.2,0 -0.5,-0.1 -0.7,-0.1 -0.1,0 -0.2,0 -0.3,-0.1 0,0 0,0 0,0 -0.1,0 -0.1,0 -0.2,-0.1 -0.2,-0.1 -0.5,-0.2 -0.7,-0.3 -0.5,-0.2 -1,-0.4 -1.5,-0.6 -0.2,-0.1 -0.4,-0.1 -0.6,0 0.1,-0.3 0.2,-0.5 0.2,-0.7 z M 451,253.5 c -1.9,-0.7 -4.2,-0.6 -6.1,-0.6 -2.8,0.1 -5.5,0.4 -8.3,0.5 -2.6,0.1 -5.2,-0.1 -7.9,0 -2.1,0.1 -5.6,0.5 -5.6,0.2 0.1,-0.5 0,-1.1 0,-1.6 v 0 c 0.6,-7 1.8,-13.9 4.2,-20.5 1.1,-2.9 2.1,-5.8 3.2,-8.8 1.1,-2.9 4.2,-7.8 4.5,-7.8 1.6,0 3.4,-0.8 4.9,-1 2,-0.3 4,-0.5 6,-0.6 3.8,-0.1 7.4,0.3 11.1,0.8 0,0 0,0 0,0 -0.2,0.5 -0.3,1 -0.4,1.6 -0.8,3.9 -0.6,8 -1.3,11.9 -0.7,4.3 -1.5,8.5 -2.2,12.8 -0.5,4.4 -1.2,8.8 -2.1,13.1 z m 16.6,-39.6 c 0,0.2 0,0.4 0,0.6 0,0.1 -2.9,-0.2 -3.1,-0.1 -1.9,-0.1 -2.3,1.4 -2.2,1.4 0,0 -0.5,1.8 -0.6,2.6 -0.3,2 -0.5,4.1 -0.7,6.1 -0.7,4.7 -1.3,9.3 -2.1,14 -0.8,4.7 -1.8,9.3 -2.5,14 -0.1,0.4 0.1,0.7 0.4,0.9 0,0 0,0 0,0 0,0.2 0.1,0.5 0.3,0.6 0,0 0,0 0.1,0 0.3,0.3 0.7,0.4 1.1,0.6 0.5,0.2 1.1,0.3 1.6,0.4 0.5,0.1 1,0.1 1.5,0.2 0,0 0.1,0 0.1,0 0,0.4 -0.1,0.9 -0.1,1.3 0,0.2 -0.1,0.3 -0.1,0.5 0,0 -0.1,0 -0.1,0 -2.9,-0.3 -5.8,-0.9 -8.4,-2.1 1,-4.8 1.8,-9.6 2.5,-14.4 0.7,-4.8 1.7,-9.7 2.2,-14.5 0.2,-2.4 0.3,-4.8 0.6,-7.1 0.2,-1.9 0.5,-4.2 1.7,-5.9 1,-1.4 2.6,-1.9 4.2,-2 0.8,-0.1 1.6,0.1 2.4,0.2 0,0 1.5,0.3 1.6,0.3 0,0.2 -0.1,0.3 -0.1,0.5 0.1,0.1 -0.3,1.5 -0.3,1.9 z m 15,2.8 c -0.2,-0.4 -0.4,-0.7 -0.7,-1 -0.3,-0.2 -0.6,-0.5 -0.9,-0.7 -0.6,-0.4 -1.3,-0.8 -2,-1.2 -0.4,-0.2 -0.9,-0.3 -1.3,-0.4 0,-0.3 0.1,-0.6 0.1,-0.9 0,0 0,0 0,0 0.2,0 0.3,0.1 0.5,0.1 0.1,0 0.1,0 0.2,0.1 0,0 0,0 0,0 0,0 0.1,0 0.1,0 0.1,0 0.3,0.1 0.4,0.1 0.6,0.2 1.2,0.4 1.8,0.7 0.1,0.1 0.2,0.1 0.3,0.1 0,0 0,0 0,0 0,0 0,0 0,0 0,0 0,0 0,0 0,0 0,0 0,0 0.1,0 0.1,0.1 0.2,0.1 0.2,0.1 0.5,0.3 0.7,0.5 0,0 0,0 0,0 0,0.1 0.1,0.1 0.1,0.2 0.1,0.1 0.2,0.2 0.3,0.4 0,0 0,0 0,0 0,0.1 0.1,0.1 0.1,0.2 0.1,0.1 0.1,0.3 0.2,0.5 0,0 0,0.1 0,0.1 0,0.1 0,0.2 0.1,0.3 0,0.2 0.1,0.4 0.1,0.6 0,0 0,0.1 0,0.1 0,0 0,0 0,0 0,0 0,0 0,0 0,0.1 0,0.2 0,0.3 0,0.2 -0.3,-0.1 -0.3,-0.2 z" />
		</g>
		<path
   id="path84"
   d="m 510.1,226.8 c -1,-3.5 -4.1,-4.8 -7.6,-4.3 -0.1,0 -0.2,0.1 -0.3,0.1 -0.2,-0.4 -0.4,-0.8 -0.7,-1.2 -1.5,-1.9 -3.8,-2.1 -6,-2 -0.7,0 -0.6,1.1 0,1.2 0.5,0.1 1,0.2 1.5,0.4 -0.1,0.1 -0.2,0.3 -0.1,0.5 1.1,2.7 0.8,5.9 0.4,8.8 -0.4,3 -1.2,5.9 -1.8,8.8 -0.7,3.4 -1.1,6.8 -1.8,10.2 -0.4,1.8 -0.9,3.6 -1.5,5.3 -0.4,1.1 -1,2.1 -1.5,3.2 -0.5,-0.2 -1,-0.5 -1.4,-0.6 -1.7,-0.7 -3.5,-1.2 -5.3,-1.6 -1.8,-0.4 -3.6,-0.8 -5.4,-1 -0.6,-0.1 -1.2,-0.1 -1.8,-0.1 -0.1,-0.2 -4,-1 -5.5,-1.5 -1.3,-0.4 -3,-2.2 -3,-2.4 0,-0.9 -0.3,-1.7 -0.4,-2.5 -0.2,-1 -0.3,-2.1 -0.3,-3.1 -0.1,-2.5 0.1,-5 0.5,-7.5 0.7,-5.2 2.1,-10.5 4.4,-15.3 0.6,-1.2 2.5,-3.8 2.5,-3.8 0,0 0.4,-0.5 0.6,-0.7 1.4,1.6 3.9,1.9 6.1,1.6 0.9,-0.1 0.8,-1.4 0,-1.6 -1.8,-0.3 -3.9,-1 -5.1,-2.3 -0.4,-0.5 -1,-0.5 -1.5,-0.1 -3.8,2.6 -5.6,7.8 -6.9,12 -1.6,5.4 -2.7,11.1 -2.6,16.7 0,1.3 0.1,2.6 0.3,3.9 0.1,0.8 0.2,1.7 0.6,2.4 0,0.1 1.2,3.4 4.1,4.3 1.4,0.4 2.7,0.8 4.1,0.9 0.3,0.3 0.9,0.4 1.3,0.5 0.4,0.1 0.7,0.1 1.1,0.2 -0.1,0.2 -0.2,0.5 -0.3,0.7 -0.1,0.4 -0.2,0.8 -0.3,1.1 -0.1,0.3 -0.1,0.5 -0.1,0.8 -0.1,0.7 0.4,1.3 1,1.4 0.3,0.1 0.6,0.1 0.9,-0.1 0.3,-0.1 0.6,-0.4 0.7,-0.7 0,-0.1 0.1,-0.3 0.1,-0.4 0.1,-0.3 0.1,-0.6 0.1,-0.9 0,-0.2 0,-0.4 0.1,-0.6 0,-0.2 0,-0.4 0,-0.6 0,-0.1 0,-0.2 0,-0.4 1.3,0.2 2.5,0.5 3.8,0.7 0,0.1 -0.1,0.2 -0.1,0.3 -0.4,1.8 1.9,3 3.1,3.6 1.7,0.9 3.5,1.6 5.3,2.3 1.1,0.4 2.2,0.9 3.4,1.3 0.8,0.3 1.7,0.6 2.6,0.6 2.2,0 4.3,-1.7 5.1,-3.8 0.4,-0.9 -0.8,-1.9 -1.6,-1.2 -0.8,0.7 -1.3,1.6 -2.2,2.1 -0.6,0.4 -1.1,0.4 -1.8,0.4 -1.4,0 -2.9,-0.7 -4.2,-1.3 0.7,0 1.3,-0.3 2,-0.7 0.3,-0.2 0.6,-0.5 0.8,-0.7 0,0 0,0 0,0 2.6,0.9 6.3,0.1 7.9,-2.2 0.9,-1.2 1.3,-2.8 1.8,-4.2 0.8,-2.5 1.5,-5.1 2.1,-7.7 0.8,-3.6 1.6,-7.2 2.5,-10.8 0.5,-2.5 1.1,-5.6 0.3,-8.4 z m -25,31.4 c -0.1,-0.1 -0.2,-0.3 -0.3,-0.4 0,0 0,0 0,0 0,0 0,0 0,0 1.1,0.3 2.3,0.7 3.4,1.1 0.4,0.6 0.8,1.2 1.3,1.6 -0.8,-0.3 -1.7,-0.7 -2.5,-1.1 -0.6,-0.3 -1.4,-0.7 -1.9,-1.2 z m 9.1,0 c -0.4,0.5 -0.9,1.1 -1.4,1.3 -0.1,-0.2 -0.2,-0.3 -0.3,-0.5 1.9,-2.3 2.7,-5.9 3.3,-8.7 0.8,-3.7 1.2,-7.4 2,-11.1 0.6,-3.2 1.5,-6.3 1.8,-9.6 0.3,-2.8 0.3,-6.2 -1.6,-8.4 0.9,0.4 1.6,0.8 2.1,1.6 1,1.7 0.6,4.1 0.6,5.9 -0.1,3.1 -0.2,6.3 -0.8,9.4 -0.2,1.4 -0.6,2.8 -0.9,4.2 -0.6,2.7 -1.1,5.4 -1.8,8.1 -0.7,2.7 -1.4,5.6 -3,7.8 z m 13,-23.3 c -0.7,2.9 -1.4,5.7 -2,8.5 -0.8,4.1 -1.7,8.2 -3.3,12.1 -0.4,1 -0.9,1.9 -1.9,2.3 -1,0.5 -2.2,0.5 -3.4,0.6 0.1,-0.2 0.2,-0.4 0.3,-0.5 0.1,0.1 0.2,0.1 0.4,0.2 0.2,0 0.4,0.1 0.6,0 0.2,0 0.4,-0.1 0.6,-0.2 0.3,-0.1 0.6,-0.3 0.8,-0.5 0.6,-0.5 0.9,-1.3 1,-2 0,-0.2 -0.1,-0.5 -0.2,-0.7 -0.2,-0.2 -0.4,-0.3 -0.6,-0.3 -0.1,0 -0.1,0 -0.2,0 -0.3,-0.1 -0.7,-0.2 -1,-0.3 0.1,-0.3 0.2,-0.6 0.3,-0.9 1,-3.2 1.6,-6.5 2.2,-9.8 0.2,-1.4 0.6,-2.7 0.8,-4 0.6,-3 0.8,-6.1 0.9,-9.2 0.2,0.2 0.5,0.5 0.9,0.6 0.2,0.1 0.4,0.1 0.6,0.1 0.2,0 0.4,0 0.5,0 0.6,-0.1 1.2,-0.4 1.5,-0.9 0.2,-0.3 0.3,-0.5 0.3,-0.9 0,-0.3 0,-0.6 -0.1,-0.9 -0.2,-0.5 -0.5,-0.9 -1,-1.1 -0.1,-0.1 -0.2,-0.1 -0.3,-0.1 0,0 0,0 -0.1,0 0,0 0,0 0,0 -0.1,0 -0.1,0 -0.2,-0.1 -0.1,0 -0.1,0 -0.2,0 -0.4,0 -0.7,0 -1.1,0.1 -0.3,0.1 -0.5,0.3 -0.5,0.6 0,0.1 0.1,0.3 0.2,0.4 0.1,0.1 0.2,0.1 0.4,0.1 -0.1,0 0,0 0,0 0,0 0.1,0 0.1,0 0.1,0 0.1,0 0.2,0 0.1,0 0.1,0 0.2,0 0,0 0,0 0,0 v 0 c 0.1,0 0.1,0 0.2,0.1 0,0 0,0 0,0 0.1,0 0.1,0.1 0.2,0.1 0,0 0.1,0.1 0.1,0.1 0,0 0,0.1 0,0.1 0,0 0,0.1 0,0.1 0,0 0,0.1 0,0.1 0,0 0,0.1 0,0.1 0,0 0,0 0,0 0,0.1 -0.1,0.1 -0.2,0.1 0,0 -0.1,0 -0.1,0 -0.1,0 -0.2,0 -0.3,0 -0.1,0 -0.2,0 -0.3,0 -0.2,0 -0.4,0 -0.6,0 0.1,0 0.1,0 0.2,0 -0.1,0 -0.3,0 -0.4,0 0,0 0.1,0 0.1,0 -0.1,0 -0.2,0 -0.3,0.1 0,0 0,0 -0.1,0.1 0,-0.2 0,-0.4 0,-0.5 0.1,-1.6 0.2,-3.3 -0.2,-4.9 2.3,0.4 4.6,1.4 5.2,3.8 1,2.4 0.4,5.1 -0.2,7.4 z" />
		<path
   id="path86"
   d="m 478.2,223.8 c 0.3,-0.4 -0.2,-0.8 -0.6,-0.5 -4.1,2.8 -5.3,7.9 -5.7,12.6 -0.4,4.8 0,10 1,14.7 0.2,0.8 1.3,0.6 1.2,-0.2 -0.1,-4.6 -0.9,-9.2 -0.6,-13.9 0.3,-4.7 1.5,-9.2 4.7,-12.7 z" />
		<g
   id="g102">
			<g
   id="g100">
				<path
   id="path88"
   d="m 515.3,259.6 c 0,0 0,0 0,0 z" />
				<g
   id="g98">
					<path
   id="path90"
   d="m 502.3,274 c 0.1,0.1 0.2,0.1 0,0 z" />
					<path
   id="path92"
   d="m 504,273.3 c 0,-0.2 0,-0.3 0,0 z" />
					<path
   id="path94"
   d="m 567.5,227.6 c -1.3,-0.6 -2.7,-1.1 -4.1,-1.5 -0.8,-0.2 -1.6,-0.5 -2.4,-0.5 -0.6,-0.3 -1.3,-0.4 -1.8,-0.4 -1,-0.1 -1.9,0 -2.8,0.3 -0.5,0.1 -0.9,0.4 -1.3,0.6 -0.2,0.1 -0.5,0.3 -0.7,0.4 0,0 0,0 0,0 -0.1,0.1 -0.2,0.1 -0.3,0.2 -0.7,0.5 -1.6,1.3 -1.9,2.2 -1.3,1.3 -2.5,2.9 -2.8,4.7 v 0 c -0.6,0.4 -1.2,0.8 -1.8,1.1 -2.7,-0.4 -5.3,-0.9 -7.9,-1.6 -3,-0.8 -6.1,-1.6 -9.2,-2 -3.5,-0.4 -7,-0.7 -10.5,-1.3 -2.8,-0.4 -5.6,-1.1 -8.5,-1.6 0.3,-0.5 0.7,-0.9 1,-1.4 0.2,-0.5 -0.3,-1.2 -0.8,-1 -0.4,0.1 -0.8,0.3 -1,0.6 -0.3,0.2 -0.5,0.5 -0.7,0.8 -0.1,0.2 -0.3,0.4 -0.4,0.6 -0.6,0 -0.8,0.8 -0.5,1.2 0,0 0,0.1 0,0.1 -0.1,0.3 0.2,0.7 0.5,0.8 0.1,0 0.3,0.1 0.4,0 0.2,0 0.4,-0.2 0.5,-0.3 0,0 -0.1,0.1 0,0 0,0 0,-0.1 0.1,-0.1 2.9,0.9 6,1.5 9.1,1.9 3.6,0.6 7.2,1 10.7,1.4 2,0.2 4,0.7 5.9,1.2 0,0 0,0 0,0 -0.1,-0.1 -0.5,-0.9 -0.6,-0.8 -0.3,0.3 -0.5,-0.3 -0.7,0.1 -0.3,0.8 -1,4.2 -1.3,5.1 -0.4,1.6 -0.7,3.2 -1,4.8 -1.1,0.2 -2.2,0.7 -3.2,1.2 -0.3,0.1 -0.5,0.2 -0.8,0.3 -2.5,-2.3 -5.3,-4.4 -8.1,-6.2 -3,-2 -7.5,-4.2 -11.2,-4.2 -0.7,0 -0.8,1.1 -0.1,1.3 3.6,1 7.7,2.6 10.8,4.7 2.4,1.6 4.6,3.6 7.1,5.1 -0.4,0.1 -0.8,0.3 -1.2,0.4 -0.3,0.1 -0.6,0.2 -0.9,0.3 -1.8,-2.1 -4.4,-3.5 -6.8,-4.8 -1.6,-0.9 -3.1,-1.7 -4.7,-2.5 -1.5,-0.9 -2.9,-1.9 -4.5,-2.7 -0.6,-0.3 -1.2,0.6 -0.8,1.1 1.1,1.3 2.6,2.1 4,2.9 0.3,0.2 0.7,0.4 1.1,0.6 -1,-0.2 -2,-0.4 -3,-0.7 -1.1,-0.2 -2.2,-0.5 -3.3,-0.4 -0.5,0 -0.7,0.8 -0.3,1.1 0.9,0.6 2,0.9 3.1,1.1 1.1,0.3 2.2,0.5 3.4,0.8 1.1,0.3 2.2,0.6 3.3,0.9 1,0.3 3.3,0.9 3.4,0.9 1.1,0.7 2.2,1.5 3.3,2.3 -1.1,0.3 -2.1,0.6 -3.2,0.9 -0.2,0 -0.3,-0.1 -0.5,-0.1 -0.5,-0.1 -1,-0.2 -1.4,-0.3 -1,-0.1 -2,-0.3 -3,-0.5 -2.2,-0.4 -4.4,-1 -6.7,-1.4 -0.7,-0.1 -2.4,-0.6 -2.8,0.3 -0.4,1.1 1.5,1.1 2.1,1.2 2.2,0.4 4.4,1 6.6,1.4 0.7,0.1 1.4,0.3 2.1,0.4 -4.6,1.3 -9.3,2.7 -13.3,5.3 -0.7,0.4 0,1.4 0.7,1.1 5,-2.2 10.1,-3.9 15.4,-5.5 1.8,-0.6 7.3,-2.3 7.5,-2.4 0.8,-0.3 1.7,-0.6 2.5,-0.9 0,0 0.1,0 0.1,0 1.3,-0.5 4,-1.8 4.2,-1.8 -4.1,2.6 -8.2,5.2 -12.2,7.9 -2.8,0.7 -5.6,1.1 -8.4,1.6 -2.9,0.5 -6,0.8 -8.7,1.8 -0.6,0.2 -0.3,1.1 0.3,1.1 3,-0.4 6,-1.1 9,-1.6 1.7,-0.3 3.5,-0.6 5.2,-1.1 -1.5,1 -2.9,2 -4.3,3 -2.1,1.5 -4.3,3 -6.4,4.6 -0.2,-0.1 -0.4,-0.3 -0.6,-0.4 -0.5,-0.3 -1,-0.5 -1.5,-0.6 -1,-0.4 -1.9,-0.7 -2.9,-1 -2,-0.6 -4.1,-1.2 -6.2,-1.3 -0.9,0 -1.3,1.2 -0.4,1.6 1.9,0.8 3.9,1.3 5.9,1.9 1,0.3 1.9,0.6 2.9,0.9 0.3,0.1 0.7,0.2 1,0.4 -0.8,0.6 -1.5,1.2 -2.2,1.9 -0.1,0.1 -0.2,0.1 -0.3,0.2 -0.3,0.2 -0.6,0.4 -0.9,0.6 -0.5,0.4 -1,0.9 -1.5,1.3 v 0 c -0.5,0.2 -1.1,0.5 -1.5,0.9 -0.1,0.1 -0.2,0.3 -0.2,0.4 -0.3,0.4 -0.6,0.9 -0.7,1.4 -0.2,0.8 -0.2,1.8 0,2.6 0.1,0.3 0.1,0.5 0.2,0.8 0,0 0.1,0.2 0.1,0.3 0,0.1 0.1,0.2 0.1,0.4 0.2,0.5 0.5,0.9 0.8,1.3 1,1.3 2.7,2 4.2,1.7 0.7,-0.5 1.4,-1 2.1,-1.5 0.5,-0.3 0.9,-0.6 1.4,-0.9 0.5,-0.4 1,-0.7 1.5,-1 1.9,-1.2 3.8,-2.4 5.8,-3.6 1.7,-1.1 3.4,-2.1 5.1,-3.2 0.9,0.2 2,0.2 2.9,0.4 1.5,0.2 2.9,0.5 4.3,0.7 0.5,0.1 6.1,1.2 7.3,1.5 1.8,0.5 3.5,1.1 5.2,1.6 0,0.7 1,1.4 1.6,0.8 0.1,-0.1 0.2,-0.2 0.2,-0.3 1,0.2 2,0.3 2.9,0.1 -0.2,0.5 0.2,2.7 0.9,2.3 1.2,-0.7 1.6,-1.9 2.2,-3.1 0.7,-1.3 1.2,-2.7 1.8,-4 1.1,-2.8 2.2,-5.6 3.1,-8.5 0.9,-2.8 1.8,-5.6 2.7,-8.4 0,-0.2 0.1,-0.3 0.2,-0.5 0.3,1 1.1,1.6 2,1.3 0.1,0.2 0.1,0.4 0.2,0.6 0.2,0.3 0.4,0.5 0.7,0.6 0.1,0.1 0.3,0.1 0.4,0.1 0.2,0 0.4,0 0.5,0 0.2,0 0.4,-0.1 0.5,-0.2 1.4,0.8 2.9,1.3 4.4,1.7 0.1,-0.7 0.2,-1.3 0.4,-2 -1.3,-0.4 -5.6,-2 -5.7,-1.9 0,-0.1 -0.2,-0.3 -0.3,-0.3 0,0 0,0 0,0 0.7,-1.2 1.1,-2.5 1.7,-3.8 0.7,-1.4 1.4,-2.9 2,-4.4 1.2,-3 2,-6.2 1.2,-9.4 -0.3,-1.5 -1,-3.1 -2.1,-4.2 0,0 0,0 0,0 1.3,0.4 2.6,0.8 3.8,1.3 0.7,0.3 1.5,0.6 2.2,1 0.2,-0.8 0.5,-1.5 0.7,-2.2 -0.2,0.2 -0.4,0.1 -0.7,0 z M 509,271.3 c -0.7,0.5 -1.5,0.9 -2.3,1.4 -0.1,-0.7 -0.4,-1.4 -0.7,-1.9 -0.3,-0.5 -0.6,-1 -1,-1.4 -0.2,-0.2 -0.4,-0.4 -0.7,-0.6 -0.1,-0.1 -0.2,-0.1 -0.3,-0.2 -0.1,0 -0.1,-0.1 -0.2,-0.1 0,0 0,0 0,0 -0.2,-0.1 -0.4,-0.2 -0.6,-0.3 0.7,-0.4 1.3,-0.9 2,-1.3 0.8,-0.6 1.6,-1.2 2.4,-1.8 0,0 0.1,0.1 0.1,0.1 0.5,0.2 1.1,0.5 1.5,0.9 0.4,0.4 0.7,0.9 1,1.4 0.4,0.8 0.7,1.7 1,2.6 -0.7,0.3 -1.5,0.8 -2.2,1.2 z m 5.4,-3.3 c -0.6,0.4 -1.3,0.8 -1.9,1.2 -0.3,-0.9 -0.6,-1.8 -1.2,-2.7 -0.6,-1 -1.6,-2 -2.9,-2.2 0.2,-0.1 0.4,-0.3 0.5,-0.4 1.8,-1.3 3.6,-2.6 5.4,-3.9 0.3,-0.2 0.6,-0.4 0.9,-0.6 0,0 0,0 0,0 0,0 0,0.1 0.1,0.1 0,0 0,0 0,0 0,0 0,0 0,0 0,-0.1 0,-0.1 0,0 0,0 0,0.1 0,0.1 0,0.1 0.1,0.1 0.1,0.2 0.1,0.1 0.2,0.3 0.2,0.5 0.3,0.7 0.5,1.3 0.7,2 0,0.1 0,0.1 0.1,0.2 0,0 0,0.1 0,0.1 0,0.2 0.1,0.4 0.2,0.6 0.1,0.4 0.2,0.8 0.3,1.2 0.1,0.5 0.3,0.9 0.5,1.4 -1,0.7 -2,1.5 -3,2.2 z m 12.2,-4.3 c -0.1,0.2 -0.8,2 -0.7,2.2 -0.9,-0.2 -1.9,-0.3 -2.8,-0.5 -0.1,0 -0.2,0 -0.3,0 1.4,-0.9 2.8,-1.7 4.2,-2.6 0,0 0.1,-0.1 0.1,-0.1 -0.2,0.3 -0.4,0.7 -0.5,1 z m 31.8,-27.2 c -0.2,0.7 -0.3,1.4 -0.5,2 -0.8,0.5 -1.7,1 -2.5,1.4 -2.5,1.4 -4.9,2.9 -7.3,4.5 -2.7,1.8 -5.3,3.6 -7.9,5.4 -1.8,1.2 -3.6,2.4 -5.3,3.7 -1.2,0.6 -2.3,1.4 -3.3,2.1 -1.4,1 -2.8,2 -4.2,3 -2.7,1.9 -5.5,3.9 -8.2,5.9 -0.1,0 -0.1,0.1 -0.2,0.1 0,-0.2 -0.1,-0.5 -0.1,-0.7 -0.2,-0.8 -0.4,-1.6 -0.7,-2.5 -0.2,-0.7 -0.5,-1.5 -0.8,-2.1 -0.2,-0.3 -0.4,-0.7 -0.6,-1 2,-1.4 4.1,-2.8 6.1,-4.2 v 0 c 0,0 0,0 0,0 v 0 c 0.1,0.1 0.1,0.3 0.2,0.4 0.2,0.3 0.3,0.6 0.4,0.9 0.2,0.6 0.5,1.3 0.7,1.9 0.2,0.6 0.4,2.1 0.7,2.6 0.5,0.9 1.8,0.5 1.8,-0.5 0,-0.5 -0.1,-2 -0.2,-2.5 -0.2,-0.6 -0.3,-1.2 -0.6,-1.8 -0.4,-0.8 -0.8,-1.5 -1.4,-2.1 0.6,-0.4 1.3,-0.9 1.9,-1.3 6.8,-4.5 29,-18.9 30.4,-20 0.6,-0.4 1.2,-0.9 1.7,-1.5 0.1,-0.1 0.2,-0.3 0.3,-0.4 -0.1,0.5 -0.3,6.6 -0.4,6.7 z" />
					<path
   id="path96"
   d="m 503.9,274 c 0,0.1 0,0.1 0,0 -0.1,0.1 -0.1,0.1 -0.2,0.2 0,0 -0.1,0 -0.1,0 -0.1,0 -0.1,0 -0.2,0 0,0 0,0 0,0 -0.1,0 -0.3,0 -0.5,0 0,0 0,0 -0.1,0 -0.1,0 -0.2,0 -0.2,-0.1 -0.1,0 -0.3,-0.1 -0.4,-0.2 0,0 0,0 0.1,0 0,0 0,0 -0.1,0 -0.1,0 -0.2,-0.1 -0.2,-0.2 -0.1,0 -0.1,-0.1 -0.2,-0.1 v 0 c -0.1,-0.1 -0.3,-0.3 -0.4,-0.4 -0.1,-0.1 -0.2,-0.3 -0.3,-0.4 0,0 0,0 0,-0.1 0,-0.1 -0.1,-0.1 -0.1,-0.2 -0.1,-0.2 -0.1,-0.3 -0.2,-0.5 0,0 0,0 0,0 0,-0.1 0,-0.2 -0.1,-0.3 0,-0.2 -0.1,-0.4 -0.1,-0.5 0,-0.1 0,-0.1 0,-0.2 0,0 0,-0.1 0,-0.1 0,-0.2 0,-0.4 0,-0.5 0,-0.1 0,-0.2 0,-0.2 0,0 0,0 0,0 0,0 0,0 0,0 0,-0.1 0.1,-0.2 0.1,-0.4 0,0 0,0 0,0 0.1,0 0.2,0.1 0.4,0 0.2,0 0.3,0 0.5,0 0.1,0 0.1,0 0.2,0 -0.3,0 0,0 0.1,0 0.1,0 0.3,0.1 0.1,0 0.1,0 0.1,0 0.2,0.1 0.1,0.1 0.1,0.1 0.2,0.1 v 0 c 0,0 0,0 0.1,0 0,0 0.1,0 0.1,0.1 0,0 0,0 0.1,0.1 0.1,0.1 0.2,0.3 0.3,0.5 0,0 0,0 0,0 0,0 0,0 0,0 0,0.1 0.1,0.1 0.1,0.2 0.1,0.2 0.2,0.4 0.3,0.5 0.2,0.3 0.3,0.7 0.4,1 v 0 c 0,0.1 0,0.2 0.1,0.3 0,0.2 0.1,0.4 0.1,0.6 0,0.1 0,0.2 0,0.2 0,0 0,-0.1 0,-0.1 0,0 0,0 0,0.1 0,0.2 0,0.3 0,0.5 0,-0.1 0,-0.1 -0.1,0 0,0 0,0 0,0 0,0 0,0 0,0 z" />
				</g>
			</g>
		</g>
		<g
   id="g110">
			<path
   id="path104"
   d="m 561.1,267 v 0 c 0,0.1 0,0.1 0,0 0,0.1 0,0.1 0,0 z" />
			<path
   id="path106"
   d="m 561.2,266.9 c 0,0.1 0,0.1 0,0.2 0,0 0,0 0,0 -0.1,-0.1 -0.1,-0.2 0,-0.2 z" />
			<path
   id="path108"
   d="m 575.8,228 c -0.9,-2 -2.9,-3.6 -5.2,-3.4 -1,0.1 -2.1,0.6 -2.8,1.3 0,0 0,0.1 -0.1,0.1 -0.4,0.2 -0.8,0.4 -1.2,0.6 -0.6,0.3 -1.2,0.6 -1.7,0.9 -0.4,0.2 1,1.4 1.2,1.3 0,0.1 0,0.2 0.1,0.4 -0.2,0.1 3.2,3.2 2.7,6.6 0,0 0,0 0,0 0,2 -0.5,4 -0.9,5.4 -0.6,2.5 -1.4,4.9 -2.4,7.3 -0.5,1.2 -1.3,2.4 -1.9,3.7 -0.3,-0.2 -0.7,-0.3 -1,-0.4 -0.2,-0.1 -0.3,-0.1 -0.5,-0.2 0,0 -0.1,-0.1 -0.1,-0.1 0,0 -0.1,-0.1 -0.2,-0.1 -0.3,-0.2 -0.7,-0.4 -1,-0.6 -0.6,-0.4 -1.3,-0.8 -1.9,-1.1 -0.4,-0.2 -0.8,-0.4 -1.1,-0.6 -0.4,-0.2 -2.9,-0.5 -3.4,-0.3 -0.8,0.2 -2.4,10.9 -2.7,11.1 -0.3,0.2 -0.5,0.5 -0.5,0.8 0,0.1 0,0.2 -0.1,0.3 0,0 0,0.1 0,0.1 0,0 0,0 0,0 0,0 0,0.1 0,0.1 0,0.1 0,0.1 0,0.2 0,0.1 -0.1,0.2 -0.1,0.3 -0.1,0.5 -0.3,1 -0.4,1.4 0,0.2 -0.1,0.3 -0.1,0.5 -0.2,0 -0.3,0.1 -0.4,0.2 -0.4,0.2 -0.5,0.7 -0.6,1.1 -0.1,0.4 -0.2,0.8 -0.3,1.1 -0.2,0.8 -0.6,1.5 -0.9,2.3 -0.3,0.8 -0.6,1.6 -1,2.4 0,0 0,0 0,0.1 0,0.1 -0.1,0.1 -0.1,0.2 -0.1,0.2 -0.2,0.3 -0.3,0.5 -0.1,0.2 -0.2,0.3 -0.3,0.4 -0.1,0.1 -0.1,0.2 -0.2,0.2 0,0 0,0.1 -0.1,0.1 0,0 0,0 0,0 -0.2,0.2 -0.4,0.4 -0.6,0.5 0,0 0,0 0,-0.1 0,0 0,-0.1 0,-0.1 0,0 0,0 0,0 0,0 0,-2.1 0,-2.1 0,-0.2 -3,1.5 -3,1.4 0,0 -0.2,-1 -0.2,-1.3 v 0 c 0,0 0,0 0,-0.1 0,-0.1 0,-0.3 0,-0.5 0,-0.1 0,-0.1 0,-0.2 0,0 0,-0.1 0,-0.1 0,-0.6 0,-1.1 -0.3,-1.6 -0.2,-0.2 -0.6,-0.4 -0.9,-0.3 -1.1,0.3 -1.6,1.5 -1.8,2.5 -0.1,0.5 -0.6,1.8 -0.7,2.2 -0.1,0.3 -0.1,0.6 -0.1,0.9 -0.3,0.1 -1,1.9 -0.9,2.2 0.1,0.4 13.6,6.9 17.2,3.8 2,-1.8 3.3,-4.3 4.4,-6.7 0.6,-1.3 2.6,-8.9 2.6,-9 0,-0.1 -1.6,-0.6 -2.3,-0.7 -0.9,-0.2 -1.9,-0.4 -2.8,-0.5 0.1,-0.1 0.1,-0.2 0.2,-0.3 0.2,-0.4 0.4,-0.8 0.5,-1.2 0.3,-0.8 2.4,-6.9 2.6,-7.5 0.6,0.4 1.3,0.7 1.9,1 0.6,0.2 2.7,0.8 3.1,0.6 1.5,-0.7 2.2,-2.6 2.8,-4 1,-2 1.7,-4.2 2.4,-6.3 0.8,-2.7 1.7,-6.1 1.6,-9.2 0.3,-0.1 0.5,-0.2 0.8,-0.4 0.5,-0.2 1,-0.5 1.4,-0.8 0.3,-0.2 0.6,-0.5 0.8,-0.8 1,-0.4 1.6,-1.5 1.7,-2.5 -0.3,-1.1 -0.5,-2.1 -0.9,-3 z m -16.6,37 c 0,0.8 -0.7,1.9 -0.9,2.7 -0.4,1.2 -0.9,2.4 -1.4,3.6 -0.9,2.1 -2.1,4.4 -3.8,5.9 -1.2,1.1 -2.5,1.4 -4.1,1 -0.9,-0.2 -1.7,-0.5 -2.6,-0.9 1.4,-0.4 2.7,-1.1 3.8,-2 1.7,-1.6 2.5,-4 3,-6.3 0.3,-1.4 0.5,-2.8 0.9,-4.2 0.1,-0.4 0.2,-0.7 0.3,-1 0,-0.1 3.4,0.8 4.8,1.2 z m 14.6,-34.8 c 0,0.1 0,0.2 0,0.3 0,0 0,0.1 0,0.1 0,0.1 0,0.1 -0.1,0.2 0,0.1 -0.2,0.3 -0.1,0.1 0.1,-0.2 0,0.1 -0.1,0.2 0,0 -0.1,0.1 -0.1,0.2 -0.2,0.2 -0.3,0.5 -0.4,0.8 0,0 0,0.1 0,0.1 -0.1,0 -0.2,0.1 -0.2,0.1 -0.4,0.2 -0.8,0.4 -1.3,0.6 -0.1,0 -0.2,0.1 -0.3,0.1 -0.1,-0.3 -0.2,-0.6 -0.3,-0.9 0,-0.2 -1.5,-3.7 -1.9,-4 -0.2,-0.1 -0.4,-0.2 -0.7,-0.3 0.2,0 0.4,0 0.5,-0.1 0.3,-0.1 0.6,-0.2 1,-0.4 0.2,-0.1 0.3,-0.1 0.5,-0.2 0,0 0.1,0 0.2,-0.1 0,0 0.1,0 0.1,0 0.2,0 0.3,-0.1 0.5,-0.1 0.1,0 0.2,0 0.3,0 0,0 0.2,0 0.2,0 0,0 0,0 0,0 0.1,0 0.2,0.1 0.3,0.1 0,0 0.1,0 0.1,0.1 0.2,0.1 0.3,0.2 0.5,0.3 0,0 0.1,0.1 0.1,0.1 0.1,0.1 0.2,0.2 0.3,0.3 0.1,0.1 0.2,0.3 0.4,0.4 0,0.1 0.1,0.1 0.2,0.2 0,0 0,0 0,0 0.1,0.2 0.2,0.3 0.2,0.5 0,0.1 0.1,0.2 0.1,0.2 0,0 0,0 0,0.1 0,0.2 0.1,0.3 0.1,0.5 -0.1,0.3 -0.1,0.4 -0.1,0.5 0,0 0,0 0,0 z" />
		</g>
		<path
   id="path112"
   d="M 475.8,213.1" />
		<path
   id="path114"
   d="M 526.5,263.9" />
		<path
   id="path116"
   d="M 564.3,256" />
		<path
   id="path118"
   d="M 559.8,250.1" />
		<path
   id="path120"
   d="M 572.6,236.9" />
		<path
   id="path122"
   d="M 558.3,237.1" />
	</g>
	<path
   style="fill:#969898"
   id="path126"
   d="m 456.8,302.7 c -0.6,-0.2 -0.9,0.1 -1.4,0.3 -0.5,0.2 -0.9,0.4 -1.3,0.7 -0.4,0.2 -0.8,0.5 -1.2,0.7 -0.4,0.2 -0.8,0.4 -1.2,0.7 -1.5,0.9 -3,1.8 -4.3,3 -0.4,0.4 -0.5,1.1 -0.2,1.5 0.4,0.5 1.1,0.5 1.5,0.2 1.3,-1.1 2.7,-2 4.1,-2.9 0.8,-0.5 1.6,-0.9 2.3,-1.4 0.4,-0.2 0.7,-0.4 1,-0.7 0.3,-0.4 0.8,-0.7 0.9,-1.2 0.4,-0.4 0.2,-0.8 -0.2,-0.9 z"
   class="st0" />
	<g
   id="g144">
		<g
   id="g132">
			<path
   style="fill:#969898"
   id="path128"
   d="m 434.9,311.9 c -0.8,-1.2 -2.7,0 -2.1,1.3 0,0 0,0.1 0,0.1 0,0.1 0,0.2 0,0.3 0,0 0,0 0,0.1 0,0 0,0 0,0 0,0 0,0.1 0,0.1 -0.2,-0.4 -0.6,-0.8 -1.1,-0.9 -0.6,-0.1 -1.4,0.1 -1.8,0.6 -0.1,-0.4 -0.2,-0.8 -0.3,-1.2 -0.3,-0.8 -1.6,-1.4 -2.3,-0.9 0.1,0 0.1,0.1 -0.1,0.1 -0.9,0.2 -1.6,1 -1.5,2 -0.2,-0.1 -0.3,-0.1 -0.5,-0.1 -0.7,0 -1.2,0.4 -1.5,1 -0.3,-0.4 -0.6,-0.7 -0.9,-1.1 -1,-1.1 -2.5,-0.5 -2.8,0.8 0,0.2 -0.1,0.4 -0.1,0.6 0,0 -0.1,-0.1 -0.1,-0.1 -0.8,-0.9 -2.2,-0.7 -2.7,0.4 -1.4,3.1 -0.7,6.6 -1.2,9.9 -0.2,0.5 -0.3,1.1 -0.3,1.6 -0.1,0.8 0.4,1.6 1.3,1.8 0.7,0.2 1.7,-0.2 1.9,-1 0,-0.1 0.1,-0.3 0.1,-0.4 v 0 c 0,-0.1 0,-0.1 0,-0.2 0.1,-0.3 0.1,-0.5 0.2,-0.8 0.3,-1.1 1.1,-2.2 1.8,-2.9 0.6,-0.6 1.2,-1.1 1.6,-1.7 0.4,-0.6 0.4,-1.1 0.5,-1.7 0.1,0.4 0.1,0.8 0.2,1.2 0.1,0.4 0.1,0.9 0.1,1.4 0,0.2 0,0.4 0,0.7 0,0 0,0 0,0 0,0 0,-0.1 0,-0.1 0,0 0,0.1 0,0.1 0,0.1 0,0.2 0,0 0,0 0,0.1 0,0.1 0,1.1 -0.1,2.3 0.2,3.4 0.4,1.5 1.6,2.9 3.3,2.6 0.9,-0.1 1.6,-0.7 2.1,-1.3 0.3,0 0.6,-0.2 0.8,-0.4 2.1,-2 3.5,-4.7 4.6,-7.3 1.1,-2.5 2.3,-5.7 0.6,-8.1 z"
   class="st0" />
			<path
   style="fill:#969898"
   id="path130"
   d="m 423.3,322.7 c 0,0 0,0 0,0 0,0 0,0 0,0 0,0 0,0 0,0 z"
   class="st0" />
		</g>
		<g
   id="g138">
			<path
   style="fill:#969898"
   id="path134"
   d="m 479.6,294.4 c 0,0 0.1,0 0,0 0.1,0 0.1,0 0,0 0.1,0 0.1,0 0,0 z"
   class="st0" />
			<path
   style="fill:#969898"
   id="path136"
   d="m 482.1,294.1 c -0.1,-0.6 -0.4,-1.1 -0.9,-1.5 -1.2,-0.9 -2.4,0.8 -1.6,1.8 0,0 0,0 0,0 0,0 0.1,0.1 0.1,0.1 -0.1,-0.1 -0.1,-0.1 -0.1,-0.1 0,0 0,0.1 0,0.2 0,0.2 0,0.4 0,0.6 -0.1,0.7 -0.2,1.4 -0.4,2.1 -0.2,0.7 -0.3,1.4 -0.5,2 0,0 0,0 0,0 -0.4,0 -0.9,0.2 -1.1,0.6 -0.2,0.3 -0.2,0.7 -0.1,1 -0.1,0.2 -0.1,0.4 -0.2,0.6 0,0.1 -0.1,0.2 -0.1,0.3 -0.5,-0.1 -1,-0.1 -1.5,0.3 -1.2,0.8 -1.7,2 -2,3.3 -0.5,-0.1 -1.1,0 -1.6,0.6 -0.8,0.9 -1.3,1.9 -1.7,3.1 -0.5,0.7 -0.9,1.4 -1.3,2 -0.3,0.5 -0.6,1.1 -0.9,1.6 0,0 0,0.1 0,0.1 -0.4,-0.2 -0.8,-0.2 -1.3,0.1 -2.7,1.7 -4.6,4.2 -7.1,6.2 -1.6,1.2 -3.4,2.3 -4.6,4 -0.1,0.1 -0.2,0.2 -0.2,0.4 -0.7,0.4 -1.5,0.7 -2.1,1.3 -2.6,2.4 -4.1,6.2 -5.4,9.4 -1.5,3.5 -2.6,7.2 -3.8,10.8 -1.3,3.7 -2.7,7.3 -3.2,11.3 0,0.3 0,0.5 0.1,0.7 -0.1,0.3 -0.1,0.6 -0.2,0.9 -0.5,1.8 -1.2,3.6 -1,5.5 0.1,0.8 1.3,0.8 1.4,0 0.1,-0.1 0.2,-0.2 0.3,-0.3 1.1,-3.7 2.5,-7.3 3.8,-10.9 1.3,-3.7 2.4,-7.5 4,-11.1 1.5,-3.4 3,-6.8 5.3,-9.8 0.9,-1.1 2,-2 3.2,-2.9 0.1,0 0.2,0 0.3,0 -0.1,0.5 0.1,1.3 0.1,1.8 0.1,1.8 0.2,3.6 0.4,5.4 0.2,1.7 0.7,4.5 3,4.1 1.7,-0.3 2.6,-2.4 3.2,-3.8 0.7,-1.6 1.3,-3.3 1.8,-5 0.5,-1.7 0.8,-3.4 1.3,-5.2 0.3,-1.1 0.7,-2.1 1.2,-3.1 -0.1,0.8 -0.3,1.5 -0.4,2.2 -0.7,4.9 -0.9,9.8 -1.4,14.8 -0.5,4.8 -1.3,9.6 -2.4,14.3 -1.1,4.6 -2,9.3 -2.1,14.1 0,0.9 0.9,1.8 1.8,1.3 3.3,-1.8 4.7,-5.5 5.6,-9 1.1,-4.3 1.7,-8.6 2.7,-12.9 1.4,-5.8 2.9,-11.5 4.3,-17.2 1.4,-5.5 2.7,-10.9 3.4,-16.5 0.8,-6.2 1,-12.6 2.5,-18.6 0.4,-0.6 -0.1,-1 -0.6,-1 z"
   class="st0" />
		</g>
		<path
   id="path140"
   d="m 477.9,289.8 c -0.7,-0.3 -1.3,0.6 -0.8,1.1 0.9,1.1 2,2 3,3.1 0.9,1.1 1.2,2.4 1.3,3.8 0.2,4.6 -1,9.4 -1.9,13.9 -1.9,9.3 -3.6,18.6 -5.7,27.9 -1,4.5 -1.8,9 -2.9,13.4 -0.8,3.7 -1.6,7.7 -3.4,11 -0.6,1 -1.2,2.1 -2,3 -0.2,0.2 -0.7,0.8 -1,0.8 0.2,0 -0.1,-0.2 -0.2,-0.5 -0.7,-1.7 -0.2,-3.7 0.2,-5.4 0.1,-0.6 0.2,-1.1 0.3,-1.7 0.7,-2 1.1,-4.1 1.4,-6.1 0.3,-2 0.4,-4 0.3,-6 0.3,-1.7 0.4,-3.4 0.5,-5.1 0.2,-2.6 0.4,-5.1 0.6,-7.7 0.4,-4.9 1.6,-9.6 0.9,-14.5 0,-0.1 -0.2,-0.2 -0.3,-0.1 0,0 0,0 0,0 0,-0.1 -0.1,-0.2 -0.2,-0.2 -0.1,-0.3 -0.5,-0.4 -0.6,-0.1 -0.6,1 -0.9,2.2 -1.1,3.3 -0.2,1.3 -0.5,2.6 -0.7,4 -0.1,0.8 -0.3,1.6 -0.4,2.4 0,0 -0.1,0.1 -0.1,0.1 -0.3,1 -0.8,2 -1.2,2.9 0,0.1 -0.1,0.2 -0.2,0.3 0,0 -0.2,0.3 -0.2,0.3 -0.2,0.3 -0.3,0.6 -0.5,0.9 -0.3,0.5 -0.7,1.1 -1.1,1.5 0,0 -0.1,0.1 -0.1,0.1 0,0 0,0 0,0 -0.1,0.1 -0.2,0.2 -0.3,0.3 -0.1,0.1 -0.2,0.2 -0.4,0.3 0,0 0,-0.1 0,-0.1 -1,-2.8 -1.5,-5.8 -2.4,-8.7 -0.2,-0.6 -1,-0.6 -1.4,-0.3 -0.1,0.1 -0.3,0.2 -0.4,0.3 -2.1,1.5 -3.5,3.8 -4.7,6 -1.5,2.8 -2.8,5.7 -4.2,8.5 -1.8,3.7 -3.8,7.3 -5.4,11.1 -0.7,1.6 -1.4,3.2 -2.1,4.8 0.3,-2.1 0.7,-4.2 1.2,-6.4 0.6,-2.5 1.2,-5 1.8,-7.5 0.8,-3.2 1.6,-6.4 2.5,-9.5 1,-3.1 2,-6.6 4.4,-8.9 0.5,-0.4 -0.1,-1.2 -0.6,-0.8 -2.5,2.1 -3.9,5.3 -5.1,8.3 -1.2,3.3 -2.1,6.6 -3,10 -1.3,4.8 -2.8,9.7 -3.5,14.6 -0.6,4.1 -4.1,8.4 -3,12.7 0,0.1 0.1,0.2 0.1,0.2 -0.2,0.6 -0.5,1.1 -0.7,1.7 -0.4,0.8 0.9,1.5 1.3,0.7 2.5,-3.8 3.7,-8.1 5.5,-12.2 1.8,-4.2 4.1,-8.1 5.7,-12.3 1.5,-4 3.8,-7.6 5.6,-11.4 1.2,-2.5 2.4,-5.6 4.5,-7.6 0,0.3 0.1,0.6 0.1,0.9 0,1.2 -0.2,2.3 -0.1,3.5 0.1,1.8 0.6,4.1 2.4,4.9 0.5,0.2 1.1,0.3 1.6,0.2 0.7,0.1 1.4,-0.4 1.9,-1 0.1,-0.1 0.1,-0.1 0.2,-0.2 0.7,-0.7 1.2,-1.4 1.7,-2.3 -0.1,1.1 -0.3,2.3 -0.4,3.4 -0.5,5.2 -0.7,10.3 -1.2,15.5 -0.2,2.3 -0.4,4.6 -0.9,6.9 -0.4,1.9 -0.8,3.8 -0.3,5.7 0.3,1 0.9,2.1 2.1,2.2 1.1,0.1 2,-0.8 2.7,-1.5 2.1,-2.3 3.2,-5.2 4.1,-8.1 1.5,-4.8 2.5,-9.6 3.5,-14.5 1.1,-5.1 2.3,-10.2 3.4,-15.2 1.2,-5.1 2.1,-10.3 3.2,-15.4 1.1,-5.6 2.8,-11.5 2.6,-17.3 -0.2,-3.8 -2.6,-6.3 -5.9,-7.9 z" />
		<path
   id="path142"
   d="m 426,328.2 c -1.4,-0.7 -1.5,-2.4 -1.7,-3.8 -0.2,-1.6 -0.2,-3.4 -1.1,-4.9 -0.2,-0.4 -0.9,-0.4 -1.2,-0.1 -1.5,1.5 -1.7,3.7 -2.8,5.4 -0.5,0.8 -1.1,1.4 -1.7,2 0.5,-2.1 0.8,-4.1 0.8,-6.3 -0.1,-4.1 -1,-8.6 -3.5,-11.9 -0.4,-0.6 -1.3,0 -1,0.6 1.5,3.7 2.4,8 2.3,12 -0.1,2.3 -0.6,4.5 -1.1,6.7 -0.5,2.1 -1.3,4.4 -1,6.6 0.1,0.9 1.4,1.1 1.8,0.2 0.5,-1.4 0.8,-2.8 1.1,-4.3 0.2,-0.1 0.3,-0.3 0.5,-0.4 0.4,-0.4 0.8,-0.7 1.2,-1.1 0.8,-0.9 1.7,-1.8 2.3,-2.8 0.7,-1.2 1,-2.7 1.7,-4 0,0.2 0.1,0.3 0.1,0.5 0.1,0.9 0.2,1.8 0.3,2.7 0.1,0.9 0.3,1.8 0.8,2.5 0.5,0.8 1.1,1.3 2,1.5 0.4,0.2 0.8,-0.8 0.2,-1.1 z" />
	</g>
</g>
<path
   style="fill:#020202"
   id="path148"
   d="m 492.82342,288.15946 c -1.3,0 -1.5,2 -0.2,2 1.2,0 1.5,-2 0.2,-2 z"
   class="st1" />
<path
   style="fill:#969898"
   id="path150"
   d="m 245.82342,244.05946 c -1.5,-0.2 -2.9,0.3 -4.2,1 -2.8,-1.3 -6.5,0.3 -9.1,1.9 -2.1,1.3 -4.2,2.6 -6.1,4.2 -1.6,1.3 -3,2.8 -4.5,4.2 -0.6,-0.8 -1.8,-1.2 -2.5,-0.1 -0.4,0.6 -0.7,1.1 -0.9,1.7 -0.4,0 -0.7,0.1 -1,0.5 -1.3,2.4 -1.8,4.9 -2.1,7.6 -0.1,-0.8 -0.3,-1.5 -0.9,-2 -0.2,-0.2 -0.5,-0.3 -0.8,-0.1 -0.8,0.7 -0.9,1.6 -1,2.7 -0.2,1.3 -0.3,2.5 -0.4,3.8 0,0.9 -0.1,1.8 -0.1,2.8 -0.8,-0.6 -2.1,-0.7 -2.6,0.3 -1,1.9 -1.9,3.9 -2.5,5.9 -0.7,2.2 -0.6,4.1 -0.1,6.3 0.5,2.4 0.8,4.8 1,7.2 0.2,2.5 -0.1,5.1 0.2,7.6 0.2,1.6 2.4,1.7 3,0.3 0.7,-1.6 0.8,-3.3 0.8,-5 0.9,0.1 2,-0.4 2.2,-1.6 0.7,-3.2 1.1,-6.3 1.3,-9.5 0.7,0.1 1.5,-0.2 1.8,-1 0.5,-1.3 0.9,-2.6 1.2,-3.9 0.7,0 1.3,-0.3 1.6,-1.1 0.2,-0.6 0.4,-1.3 0.7,-1.9 1.2,-1.2 2.3,-2.5 3.4,-3.8 2.2,-1.4 4.2,-3.2 6,-5.1 2.6,0.1 5.1,-2.1 6.8,-3.8 2.5,-2.5 4.8,-5.4 6.3,-8.6 0.8,-1.6 1.4,-3.7 1.1,-5.5 1.5,-0.3 2.6,-1.1 3,-2.9 0.3,-1.1 -0.7,-2 -1.6,-2.1 z"
   class="st0" />
<path
   id="path152"
   d="m 209.82342,295.25946 c -0.1,-2.2 -0.4,-4.3 -1,-6.3 -0.3,-1.5 -0.7,-3 -1.6,-4 -0.2,-0.2 -0.6,-0.1 -0.6,0.2 -0.1,1.2 0.3,2.4 0.4,3.5 0.2,1.3 0.3,2.6 0.2,4 -0.1,2.6 -0.5,5.2 -1,7.7 -0.5,2.6 -1.2,5.1 -1.8,7.6 -0.6,2.3 -1.5,5 -1.1,7.4 0.1,0.8 1.2,0.8 1.5,0.2 0.5,-1 0.7,-2 0.9,-3.1 1,-1.2 1.7,-2.8 2.2,-4.2 0.7,-2.2 1.2,-4.5 1.6,-6.9 0.2,-2 0.3,-4 0.3,-6.1 z" />
</svg>