<?xml version="1.0" encoding="UTF-8" standalone="no"?>
<svg
   xmlns:dc="http://purl.org/dc/elements/1.1/"
   xmlns:cc="http://creativecommons.org/ns#"
   xmlns:rdf="http://www.w3.org/1999/02/22-rdf-syntax-ns#"
   xmlns:svg="http://www.w3.org/2000/svg"
   xmlns="http://www.w3.org/2000/svg"
   viewBox="0 0 2777.022 1852.7246"
   height="1852.7246"
   width="2777.022"
   id="svg75"
   version="1.1">
  <metadata
     id="metadata81">
    <rdf:RDF>
      <cc:Work
         rdf:about="">
        <dc:format>image/svg+xml</dc:format>
        <dc:type
           rdf:resource="http://purl.org/dc/dcmitype/StillImage" />
        <dc:title></dc:title>
      </cc:Work>
    </rdf:RDF>
  </metadata>
  <defs
     id="defs79" />
  <path
     id="path85"
     d="m 791.42723,1852.5627 c -26.0102,-1.7852 -50.3427,-6.0213 -76.5,-13.318 -7.7,-2.1479 -27.275,-7.5706 -43.5,-12.0504 -69.7312,-19.2531 -100.04284,-32.2908 -170.42558,-73.3038 -43.96305,-25.6179 -57.40065,-34.6431 -93.57442,-62.8485 -25.9101,-20.2025 -38.56466,-30.9208 -56.12939,-47.5408 -8.04617,-7.6134 -24.88436,-23.5176 -37.4182,-35.3426 -36.43612,-34.3755 -52.4485,-52.37 -93.65012,-105.2425 -39.63251,-50.859 -61.42245,-86.9507 -104.38283,-172.8943 -30.802573,-61.6215 -34.584123,-70.1892 -54.228163,-122.8632 -11.09571,-29.7523 -14.66412,-41.8184 -27.79952,-94 -22.7015,-90.1839 -27.8834804,-125.74451 -33.43928041,-229.47241 -1.00245,-18.716 0.0838,-63.9686 2.04100001,-85.0276 3.51556,-37.8266 12.7208304,-84.03558 27.5904704,-138.5 14.4316,-52.85993 25.25153,-81.48654 43.53489,-115.18151 19.46469,-35.87208 32.807773,-53.76402 77.796443,-104.31849 37.4964,-42.13529 53.64338,-56.30513 90.7316,-79.62187 36.5032,-22.94894 91.94274,-43.96803 162.98712,-61.79416 41.56554,-10.42944 81.03676,-12.58692 129.86598,-7.09841 31.85081,3.5801 47.38664,6.62513 87.09276,17.07025 55.96541,14.72229 84.84198,24.18793 110.81204,36.32381 5.1786,2.41997 9.7935,4.02693 10.2554,3.57102 0.9618,-0.94931 10.7607,-4.63903 34.3398,-12.93046 9.075,-3.19115 29.8658,-10.79406 46.2019,-16.89534 90.4371,-33.77706 147.8829,-50.10314 260.29807,-73.97669 40.7176,-8.64718 54.3443,-11.13164 176.5,-32.17998 27.7868,-4.78788 44.4739,-8.14837 50.5,-10.16983 11.7461,-3.94024 33.3962,-14.38478 68,-32.80486 26.5117,-14.11255 35.4054,-18.38674 89.5,-43.01246 91.4801,-41.644914 101.2581,-45.879014 145.5,-63.004824 41.7221,-16.1504 62.2922,-25.51282 82.5,-37.54971 3.025,-1.80186 8.2,-3.82052 11.5,-4.48593 7.4284,-1.49785 23.2919,-1.72421 38.6266,-0.55118 6.3946,0.48916 12.8259,0.58837 14.2917,0.22047 1.4659,-0.36789 5.9672,-3.73058 10.003,-7.47264 C 1783.8409,2.2490659 1791.6817,-0.0117641 1820.4272,4.5897928e-5 1854.3357,0.0139459 1916.8888,4.4551059 1971.9272,10.756206 c 29.6361,3.3929 44.9027,6.09251 78,13.79283 15.4,3.58292 41.5,9.26294 58,12.62228 86.9732,17.70738 95.0408,20.27345 122.5,38.96346 22.2851,15.1683 32.7274,21.8627 44.401,28.464924 17.4866,9.88981 75.5631,39.22302 104.099,52.57816 32.9848,15.43731 45.3498,22.16827 89.8645,48.91858 44.592,26.79675 46.1516,27.80102 70.4262,45.34894 10.8401,7.83627 28.7093,20.54 39.7093,28.23049 30.2278,21.13335 37.3603,28.79117 55.8678,59.98272 14.3766,24.22946 31.5763,42.87836 66.1322,71.70405 39.8828,33.26926 60.1318,55.2413 71.2715,77.33587 12.9472,25.67974 -0.2337,45.65584 -38.7963,58.79699 -4.1387,1.41035 -17.4137,5.30758 -29.5,8.66052 -30.2899,8.40288 -42.2341,12.547 -61.9752,21.50268 -26.0942,11.83783 -44.0345,20.92395 -67,33.93325 -45.6259,25.84574 -49.4044,28.47516 -91.7784,63.86683 -14.1782,11.84189 -35.5532,28.94849 -47.5,38.01466 -11.9469,9.06617 -29.5966,23.34395 -39.2216,31.72835 -36.4184,31.7245 -55.8625,43.711 -131.2835,80.9309 -38.3656,18.9332 -39.0955,19.3472 -114.2165,64.7836 -46.5047,28.128 -77.9408,45.1115 -110.5,59.698 -24.694,11.0628 -50.1047,23.8703 -59.5931,30.036 -14.263,9.2681 -38.1234,30.21221 -68.4069,60.04591 -31.0758,30.6141 -43.6678,41.3985 -69.0243,59.1154 -15.0844,10.5396 -20.8778,14.2071 -71.4757,45.2472 -13.2,8.0977 -35.475,22.1666 -49.5,31.2642 -39.0411,25.3247 -89.5009,57.2614 -109.5,69.3041 -9.9,5.9614 -30.825,18.8068 -46.5,28.5455 -36.5362,22.6993 -43.0982,26.4629 -74.5,42.7287 -30.9383,16.0258 -35.4694,18.6257 -54.9658,31.5393 -16.918,11.2057 -23.3466,14.5998 -46.0342,24.3048 -41.3857,17.7033 -49.9134,23.8507 -76.8692,55.4132 -7.7505,9.075 -17.7066,20.325 -22.1248,25 -17.9098,18.951 -16.8548,17.3858 -19.8917,29.5113 -6.1879,24.7071 -15.3202,48.8659 -31.5595,83.4887 -25.8277,55.0653 -42.1006,80.1049 -83.5102,128.5 -34.2957,40.0811 -74.5905,74.6518 -115.0446,98.7018 -32.9685,19.5998 -55.44927,30.9187 -72.34827,36.4267 -43.6342,14.2218 -94.1069,22.0943 -146.1517,22.7959 -14.575,0.1965 -28.975,0.1873 -32,-0.02 z m 77,-18.3187 c 39.7988,-4.706 54.8849,-7.544 82.8379,-15.5838 23.1216,-6.6501 28.1976,-8.7502 50.45277,-20.8734 72.4829,-39.4842 110.2675,-71.6539 166.4617,-141.725 19.0998,-23.8164 31.5723,-43.5872 47.22,-74.8508 29.5658,-59.0714 41.243,-92.5628 49.5285,-142.0524 4.716,-28.1691 6.6949,-62.6605 4.6186,-80.5 -0.6821,-5.8601 -1.1729,-25.5247 -1.1855,-47.5 -0.033,-56.8484 -1.2993,-74.3778 -9.4293,-130.5 -1.9122,-13.2 -5.071,-37.2637 -7.0196,-53.4749 -1.9485,-16.2111 -4.6744,-37.1361 -6.0574,-46.5 -12.3837,-83.84311 -43.3244,-179.86381 -81.8544,-254.02511 -12.6453,-24.3392 -44.7223,-82.1043 -54.1274,-97.47395 -17.1325,-27.99748 -48.0036,-70.43646 -70.9428,-97.52605 -47.20257,-55.74307 -68.44627,-78.07896 -121.00307,-127.22436 -36.6895,-34.30803 -40.9963,-38.04898 -70.505,-61.24227 -12.9222,-10.15665 -30.245,-24.02336 -38.495,-30.8149 -16.692,-13.7411 -30.9687,-23.77392 -43,-30.21764 -4.4,-2.35656 -9.6439,-5.55698 -11.6532,-7.11205 -4.9559,-3.83568 -28.583,-15.62759 -43.72427,-21.82213 -29.89323,-12.2298 -105.28773,-33.54879 -143.19741,-40.49135 -29.6552,-5.43088 -47.96784,-7.00295 -81.42512,-6.99004 -36.87076,0.0142 -46.41435,1.18818 -81.03229,9.96775 -40.30438,10.22172 -62.77338,17.315 -95.46771,30.13838 -45.72556,17.93448 -83.35205,41.2499 -113.38565,70.25989 -17.96054,17.34841 -64.1953,70.04316 -80.47546,91.71963 -18.959883,25.24441 -38.414703,61.51482 -51.278813,95.6012 -16.28569,43.15262 -37.62,129.32119 -43.80846,176.94089 -4.20218,32.3355 -6.03026,80.2316 -4.13306,108.287 0.63228,9.35 1.80718,27.35 2.61088,40 0.8037,12.65 1.92698,27.5 2.49618,33 2.16072,20.8786 8.23251,61.75471 11.96651,80.56031 4.00868,20.1889 17.25283,73.793 20.92712,84.7 1.14441,3.3971 2.08075,7.4787 2.08075,9.0701 0,11.8464 28.82095,92.8419 48.275823,135.6696 6.30526,13.8803 41.28021,83.8001 51.02192,102 18.77936,35.0844 43.42298,74.8868 60.88564,98.3376 13.16694,17.6821 45.93434,59.1312 56.65235,71.6624 10.83294,12.6655 44.37486,46.2322 76.66427,76.7209 28.79914,27.193 36.44894,33.861 60.5,52.7357 38.10834,29.9063 54.16762,41.0264 87.5,60.5883 72.40987,42.4954 105.40714,57.5798 159.5,72.9142 104.9531,29.7525 110.1192,30.696 164.5,30.0435 21.1268,-0.2535 33.751,-0.9098 46.5,-2.4172 z m -110.5,-93.7578 c -25.5076,-1.023 -45.75885,-3.3759 -50.59911,-5.8789 -5.29713,-2.7392 -5.51071,-9.6926 -0.40055,-13.0409 2.2913,-1.5013 3.42087,-1.5686 9.30379,-0.5544 16.48797,2.8427 32.06387,3.5939 73.69587,3.5543 24.806,-0.024 49.3467,-0.5609 58,-1.2699 62.6055,-5.1296 114.9923,-23.2297 155.99567,-53.8979 5.4977,-4.112 11.0102,-7.8619 12.25,-8.3333 4.6223,-1.7574 9.5876,2.049 9.5876,7.3498 0,4.1309 -7.4265,10.9632 -23.8333,21.926 -38.05697,25.4293 -88.90397,42.4785 -142.49997,47.7808 -22.3767,2.2138 -74.8032,3.435 -101.5,2.3644 z M 475.12678,1620.7136 c -30.70364,-16.3252 -72.10913,-49.8005 -116.24738,-93.9831 -26.42966,-26.4561 -37.07048,-38.5134 -67.5763,-76.5719 -20.96581,-26.1565 -30.3954,-39.2375 -31.52268,-43.7289 -0.90122,-3.5907 0.7085,-7.4484 3.84194,-9.2071 4.65502,-2.6128 7.5058,-0.645 15.1458,10.455 8.01697,11.6477 39.74664,51.4036 58.24704,72.981 24.34177,28.3904 65.0418,67.2593 97.5409,93.1525 12.82202,10.2158 31.13958,22.945 43.50899,30.2353 3.92582,2.3138 7.93832,5.0914 8.91666,6.1724 2.71486,2.9999 2.28566,7.8204 -0.94362,10.5981 -3.43516,2.9548 -5.19125,2.9382 -10.91135,-0.1033 z m 614.76572,-31.5065 c -3.1258,-1.267 -4.666,-3.6714 -4.6581,-7.2715 0.016,-7.5209 10.6168,-41.6448 18.503,-59.5639 l 4.4156,-10.0332 -11.6129,11.7412 c -16.9095,17.0963 -32.3518,26.8125 -60.329,37.959 -44.66947,17.7968 -81.25827,24.1326 -131.78387,22.82 -35.7182,-0.9279 -65.4978,-6.9327 -97.2962,-19.6188 -27.5277,-10.9823 -80.572,-36.2807 -107.7038,-51.3671 -42.82591,-23.8129 -65.02456,-39.1778 -106.53764,-73.7402 -50.82254,-42.3132 -61.89536,-53.1841 -107.43347,-105.474 -26.38238,-30.294 -38.23901,-44.5918 -50.17043,-60.5 -13.64049,-18.1869 -53.32229,-78.9519 -61.75342,-94.5634 -1.16929,-2.1651 -2.56807,-4.6116 -3.10839,-5.4366 -1.1815,-1.804 -17.0794,-36.5295 -24.72208,-54 -8.41718,-19.2409 -12.63715,-31.1265 -20.17955,-56.8357 -11.26018,-38.3817 -12.04833,-41.8511 -17.64343,-77.66431 -2.08467,-13.3436 -3.13867,-81.992 -1.51232,-98.5 6.36013,-64.5576 30.84801,-165.88826 52.19923,-216 20.5008,-48.1158 56.2494,-103.0464 93.56819,-143.77503 20.87116,-22.77818 58.48739,-52.20954 86.7133,-67.84546 5.76662,-3.19445 10.26725,-6.0256 10.00141,-6.29144 -2.91538,-2.91539 -59.87731,-5.13964 -81.02986,-3.16406 -53.5421,5.00066 -107.60261,22.43144 -168.39154,54.29464 -39.99073,20.9616 -58.49332,34.48169 -75.1694,54.92731 -12.32442,15.11028 -13.13043,15.85404 -17.1811,15.85404 -3.95229,0 -7.6495,-3.62269 -7.6495,-7.49531 0,-6.85287 26.67766,-35.91665 45.32329,-49.37712 23.23299,-16.77214 78.17051,-44.94325 114.62603,-58.77846 29.011,-11.00995 64.3212,-19.97987 94.55068,-24.01891 18.57644,-2.48205 67.72324,-2.4729 86,0.016 44.53381,6.06457 83.85184,17.5559 120.06962,35.09229 20.37473,9.8653 34.22658,17.85447 73.43038,42.35158 55.6803,34.7927 100.0852,68.33499 136.5,103.10853 10.45,9.979 29.35,27.97027 42,39.98061 41.9773,39.85464 61.6878,61.42726 90.72047,99.29089 20.1037,26.2187 30.2413,42.151 54.2945,85.3299 37.9609,68.1451 55.7916,114.8801 72.4847,189.98601 15.5817,70.1049 22.3079,116.2705 24.9893,171.514 0.5739,11.825 1.7074,32.3 2.5189,45.5 0.8115,13.2 2.1729,36.15 3.0254,51 0.8525,14.85 2.2001,34.65 2.9947,44 0.7946,9.35 1.7445,26.4736 2.1108,38.0525 0.5679,17.9507 0.441,21.4132 -0.8614,23.5 -0.8402,1.3461 -2.5323,6.9475 -3.7604,12.4475 -5.5668,24.9318 -16.6112,55.6386 -33.2698,92.5 -13.6506,30.2057 -17.0237,39.3409 -25.7355,69.6987 -1.4352,5.0011 -2.862,7.825 -4.6736,9.25 -2.8177,2.2164 -3.75,2.3656 -6.8728,1.0998 z m -145.96527,-21.0797 c 27.1335,-2.1197 49.784,-7.2353 77.62537,-17.5314 30.1178,-11.138 44.9937,-19.6653 60.5613,-34.7154 20.1653,-19.495 36.4847,-45.2727 47.6333,-75.24 12.3614,-33.2274 16.7001,-56.3112 16.8187,-89.482 0.038,-10.725 -0.1983,-21.075 -0.5259,-23 -0.3276,-1.925 -1.0626,-12.5 -1.6332,-23.5 -0.5707,-11 -1.7006,-30.35 -2.5109,-43 -0.8104,-12.65 -2.1509,-36.5 -2.979,-53 -1.6596,-33.0679 -2.6003,-44.4368 -5.5847,-67.5 -4.5943,-35.5025 -12.8018,-79.3751 -22.5428,-120.5 -2.4752,-10.45 -5.7865,-24.91601 -7.3583,-32.14671 -1.5718,-7.2308 -3.8123,-15.0177 -4.9789,-17.3043 -1.1665,-2.2866 -4.3916,-10.7307 -7.1667,-18.7645 -5.9545,-17.2377 -13.9807,-36.4931 -23.4427,-56.2402 l -6.8389,-14.2727 -5.0384,0.6182 c -15.0725,1.8496 -50.497,5.1554 -103.03827,9.6155 -32.45,2.7546 -78.125,6.7773 -101.5,8.9394 -58.4496,5.4064 -77.6272,6.6096 -79.5758,4.9924 -2.2327,-1.853 -1.349,-5.2766 1.5758,-6.1045 1.375,-0.3893 13.3,-1.4054 26.5,-2.2581 13.2,-0.8527 40.65,-3.1329 61,-5.0672 20.35,-1.9342 61.075,-5.5503 90.5,-8.0359 86.61257,-7.3161 104.99997,-9.206 104.99997,-10.7925 0,-2.1102 -12.3511,-23.7288 -12.9776,-22.7152 -0.3558,0.5758 -1.3991,-0.5305 -2.3185,-2.4584 -0.9193,-1.9279 -1.248,-3.5053 -0.7303,-3.5053 1.9799,0 -22.8727,-41.9343 -35.6116,-60.0883 -10.58727,-15.0878 -31.48367,-41.7447 -46.06487,-58.76383 -12.3003,-14.35683 -35.1666,-37.61117 -59.5449,-60.5554 l -16.7479,-15.76263 -14.7521,2.13858 c -19.668,2.85119 -30.1241,5.24765 -46.0541,10.55523 -16.4125,5.46833 -33.0918,12.4293 -52.6981,21.99305 -20.4151,9.95832 -28.0808,14.50498 -64,37.95969 -34.07342,22.24941 -40.39034,25.97351 -51.5,30.36101 -9.47152,3.7406 -14.94004,4.6815 -17.18733,2.9572 -1.85127,-1.4204 -5.17582,-15.6847 -4.23003,-18.1494 1.39767,-3.6422 7.4087,-1.8123 7.42294,2.2598 0.003,0.8772 0.46048,3.2328 1.01649,5.2345 l 1.01091,3.6395 3.95049,-1.0028 c 8.15023,-2.0687 25.44028,-11.9489 55.10722,-31.49023 32.36391,-21.31784 48.81461,-31.01949 68.44601,-40.36542 37.4421,-17.82511 67.2064,-27.61661 94.2661,-31.01053 5.3335,-0.66894 10.059,-1.5316 10.5011,-1.91703 1.1801,-1.02873 -27.5892,-28.39739 -43.8039,-41.67129 -28.4137,-23.26038 -62.4299,-48.20653 -85.8406,-62.9521 -6.6877,-4.2123 -14.5159,-10.04298 -17.396,-12.95706 -4.26864,-4.31899 -8.88964,-7.16093 -24.99998,-15.37509 -10.86988,-5.54221 -26.17143,-13.60173 -34.00345,-17.91004 -23.35365,-12.84661 -49.76691,-23.26859 -77.70462,-30.66023 -11.1737,-2.95629 -13.15744,-3.23347 -14.5,-2.02602 -0.85544,0.76935 -4.70535,2.58097 -8.55535,4.02584 -27.29736,10.24439 -70.87981,41.53065 -100.50098,72.14601 -35.13851,36.31787 -73.20695,94.27812 -93.35714,142.13882 -10.83104,25.72587 -17.98309,48.67135 -29.53278,94.74817 -9.39428,37.478 -16.132,72.8913 -20.73828,109 -4.17336,32.7151 -0.70232,95.185 7.68356,138.28451 4.99059,25.6494 21.62655,75.7168 35.06441,105.5295 16.62476,36.883 26.11245,54.1781 46.02902,83.9065 4.31871,6.4463 7.85219,12.1496 7.85219,12.6741 0,1.4309 17.09936,27.0127 26.80721,40.1054 21.27635,28.6947 66.52115,81.0957 96.14803,111.3554 28.22086,28.8237 86.4389,77.3148 118.04476,98.3221 35.19911,23.3957 78.1047,45.9449 138.5,72.7893 46.8563,20.8265 89.9145,27.8055 145,23.502 z m 28.5108,-41.4558 c -2.4221,-2.9184 -0.2296,-6.3001 7.7536,-11.9595 13.7051,-9.7156 47.97537,-26.1248 75.47977,-36.1409 5.9093,-2.1519 10.7468,-4.1912 10.75,-4.5318 0.01,-0.9169 -6.6851,-1.8573 -13.3099,-1.8698 -6.5615,-0.012 -9.6843,-1.2526 -9.6843,-3.8462 0,-3.0554 2.209,-4.1648 8.2929,-4.1648 6.3706,0 24.6457,3.3913 28.7071,5.3271 3.6669,1.7478 3.8331,5.3472 0.3183,6.8929 -1.5501,0.6816 -3.0433,1.5401 -3.3183,1.9078 -0.275,0.3676 -7.3439,3.1591 -15.7087,6.2032 -36.6545,13.3393 -74.89427,32.2308 -83.25457,41.1299 -2.7272,2.903 -4.2667,3.1718 -6.0259,1.0521 z m -254.51298,-33.876 c -2.14158,-3.2684 -4.66178,-15.7549 -4.84516,-24.0056 -0.12287,-5.5281 0.18522,-7.0861 1.57858,-7.9831 2.82777,-1.8203 4.59957,1.0752 5.72525,9.3562 0.5604,4.1225 1.7594,10.7272 2.66446,14.6771 0.90505,3.9498 1.37475,7.8873 1.04365,8.75 -0.89944,2.344 -4.40638,1.8921 -6.16678,-0.7946 z m 386.50215,-54.7177 c -5.3756,-0.992 -33.8253,-1.3073 -36.1868,-0.4011 -2.3285,0.8935 -5.8132,-1.2154 -5.8132,-3.5182 0,-1.0613 0.932,-2.4284 2.0712,-3.0381 3.3697,-1.8034 23.1086,-2.3661 36.7638,-1.048 12.6294,1.2191 12.6825,1.2154 18.8951,-1.3457 7.1339,-2.9407 10.793,-3.2533 11.6593,-0.9958 1.1347,2.957 -1.2687,5.0674 -9.3919,8.2471 -8.3861,3.2826 -10.3476,3.5114 -17.9975,2.0998 z m -447.34498,-4.748 c -1.43136,-1.5817 -1.65057,-4.6558 -1.62227,-22.75 0.0386,-24.6927 0.98243,-33.8809 3.76624,-36.6647 1.64085,-1.6409 2.31572,-1.7656 4.17345,-0.7714 1.64218,0.8789 2.05151,1.7465 1.5806,3.3504 -1.31921,4.4932 -2.72806,31.6447 -2.25441,43.4472 0.3991,9.9448 0.21365,12.5621 -0.97426,13.75 -1.90919,1.9092 -2.6675,1.8505 -4.66935,-0.3615 z m -20.67401,-49.6942 c -1.3304,-1.6031 -1.06993,-7.0967 1.17414,-24.7645 0.90923,-7.1584 1.49566,-8.9905 3.1635,-9.8831 1.66715,-0.8923 2.34862,-0.7237 3.66947,0.9075 1.49742,1.8492 1.48635,3.1738 -0.14413,17.2338 -0.97142,8.3768 -2.28881,15.8603 -2.92753,16.6299 -1.51229,1.8222 -3.35896,1.7759 -4.93545,-0.1236 z m 328.59042,-81.0485 c -0.8643,-0.8643 -1.5714,-1.9085 -1.5714,-2.3205 0,-1.5477 14.5034,-26.0009 21.2535,-35.8341 3.8609,-5.6243 7.8799,-10.4989 8.9311,-10.8326 1.9967,-0.6337 4.8154,1.0407 4.8154,2.8605 0,0.5813 -3.9924,7.1637 -8.872,14.6275 -4.8797,7.4638 -11.0232,17.3956 -13.6525,22.0706 -6.2024,11.0286 -7.8658,12.4669 -10.9041,9.4286 z m 42.42307,-24.9352 c -1.6333,-1.9681 -0.6776,-9.2277 2.567,-19.4988 2.8213,-8.931 5.3022,-12.6446 7.8054,-11.684 2.9748,1.1415 2.9289,3.5591 -0.2496,13.1444 -1.7145,5.1706 -3.1173,10.6834 -3.1173,12.2506 0,3.2412 -2.4639,7.2944 -4.4343,7.2944 -0.7264,0 -1.8835,-0.678 -2.5712,-1.5066 z m -158.38017,-34.0219 c -2.2569,-2.257 -2.0108,-4.355 0.6357,-5.4191 1.2375,-0.4975 10.35,-1.4167 20.25,-2.0425 35.1586,-2.2226 74.1377,-6.5979 103.5,-11.6177 21.515,-3.6782 40.86877,-8.6005 63.08747,-16.0451 16.4802,-5.522 20.1039,-6.4331 21.3782,-5.3756 4.343,3.6044 0.9652,5.8992 -18.3282,12.4514 -44.79237,15.2118 -91.95457,22.8125 -180.27317,29.0527 -7.1733,0.5069 -8.909,0.3368 -10.25,-1.0041 z M 409.0939,1189.4919 c -1.54392,-1.5439 -0.44087,-4.3244 2.86813,-7.2297 1.94413,-1.707 4.13903,-3.1036 4.87755,-3.1036 2.109,0 3.8165,2.7036 3.11113,4.926 -1.22499,3.8596 -8.68768,7.5765 -10.85681,5.4073 z m 178.33333,-8.7876 c -32.1552,-9.3953 -54.25216,-22.5215 -60.70976,-36.0632 -1.33809,-2.8061 -1.41766,-3.9074 -0.43765,-6.0583 1.05882,-2.3239 4.10462,-28.5445 4.13564,-35.6028 0.0113,-2.5832 2.24293,-5.8214 4.01177,-5.8214 0.47143,0 1.5895,0.7324 2.4846,1.6275 1.26292,1.2629 1.49386,2.7749 1.03099,6.75 -0.32805,2.8174 -1.23259,12.5475 -2.01008,21.6225 l -1.41361,16.5 2.35965,2.3829 2.35966,2.3829 1.59437,-3.0832 c 2.00367,-3.8747 4.44825,-5.3312 6.8186,-4.0626 2.27237,1.2161 2.2352,2.652 -0.20766,8.0208 l -1.98347,4.3592 2.23347,1.8631 c 5.68047,4.7384 22.75493,12.0583 41.15153,17.6419 14.49329,4.3989 16.54741,5.8867 13.01052,9.4236 -1.95081,1.9508 -0.78939,2.1023 -14.42857,-1.8829 z m -114,-1.4993 c -19.38515,-3.454 -31.37283,-6.4469 -41,-10.2363 -9.48752,-3.7344 -12,-5.3671 -12,-7.798 0,-3.8549 3.03812,-4.0105 11.51784,-0.5897 11.53529,4.6535 22.27157,7.3662 45.37466,11.4647 20.88241,3.7045 23.27269,4.6341 21.79803,8.477 -0.8909,2.3216 -7.03329,2.0066 -25.69053,-1.3177 z m -76.52025,-5.4375 c -1.52665,-1.1164 -1.70643,-2.2748 -1.19678,-7.7113 1.12713,-12.0233 4.69137,-18.3518 8.3022,-14.741 1.49692,1.4969 1.47905,2.4139 -0.23068,11.8314 -1.96823,10.8413 -3.44762,13.1268 -6.87474,10.6209 z m 302.82072,-40.6696 c -17.18592,-3.0451 -22.94161,-4.8406 -23.95127,-7.4717 -0.34465,-0.8981 0.09,-2.3353 0.97333,-3.2187 1.46137,-1.4614 2.16897,-1.4588 8.38675,0.03 3.7349,0.8946 12.64072,2.6005 19.79072,3.791 13.61921,2.2675 15.5,2.9976 15.5,6.0169 0,1.5 -2.94864,4.1902 -4.18426,3.8174 -0.17366,-0.052 -7.60553,-1.3868 -16.51527,-2.9654 z m 5.62996,-15.5231 c -1.77161,-2.1347 -0.1442,-4.6124 3.65192,-5.5601 5.7196,-1.4279 33.61845,-3.8561 44.30435,-3.8561 11.8283,0 14.2743,0.9622 12.2171,4.8061 -0.9187,1.7165 -2.6417,2.0151 -15.3194,2.6551 -7.8564,0.3966 -19.6844,1.3512 -26.2844,2.1212 -15.24806,1.7792 -16.96778,1.7638 -18.56957,-0.1662 z m 203.31957,-77.0785 c -1.6101,-0.6497 -1.6245,-4.9882 -0.02,-5.98 0.6766,-0.4181 8.8891,-3.3087 18.25,-6.4236 9.3609,-3.1148 26.2448,-9.0467 37.5198,-13.1819 11.275,-4.1353 29.725,-10.5119 40.99997,-14.1704 11.275,-3.65841 21.1377,-6.87571 21.9172,-7.14951 1.0802,-0.3795 1.1396,-0.7755 0.25,-1.6651 -1.739,-1.739 -1.4117,-4.566 0.6569,-5.6731 1.372,-0.7342 3.7751,-0.1281 9.6947,2.4453 9.2342,4.0142 10.9409,5.4368 10.0166,8.3491 -0.7536,2.3744 -3.9623,2.7854 -7.8646,1.0074 -1.8867,-0.8597 -2.949,-0.7748 -4.7971,0.383 -1.3055,0.8179 -11.8237,4.51041 -23.3737,8.20561 -11.55,3.6952 -32.47497,10.896 -46.49997,16.0017 -25.2518,9.1927 -53.1209,18.5872 -54.6879,18.4349 -0.4466,-0.043 -1.3746,-0.306 -2.0621,-0.5834 z m 148.85517,-60.71101 c -1.5565,-1.8755 -0.3603,-4.5246 2.3504,-5.2049 6.8151,-1.7105 13.5488,1.4581 10.614,4.9944 -1.6936,2.0406 -11.3159,2.1969 -12.9644,0.2105 z m -399.60517,-46.9418 c -25.12387,-12.8649 -41.51313,-21.8615 -46.30729,-25.4195 -2.53469,-1.8812 -3.23551,-3.0749 -3,-5.11 0.46368,-4.0068 3.6092,-3.7991 10.37496,0.6852 5.81853,3.8564 30.66944,17.2601 53.43233,28.8195 9.29585,4.7206 11.56469,6.2974 11.83749,8.2268 0.32116,2.2714 -1.17206,4.0936 -3.33749,4.0729 -0.55,-0.01 -10.9,-5.079 -23,-11.2749 z M 582.555,915.82469 c -19.16269,-10.1108 -25.41686,-14.6307 -24.93376,-18.0196 0.49518,-3.4737 4.26461,-3.212 9.57404,0.6647 2.60257,1.9003 11.25695,6.7125 19.23195,10.6939 17.73538,8.854 20.20905,10.5217 19.80545,13.3525 -0.61657,4.3246 -5.31636,2.9964 -23.67768,-6.6915 z m 74.37223,-5.2019 c -10.81107,-7.385 -11.67655,-8.208 -11.31369,-10.7589 0.5786,-4.0676 4.17365,-3.1584 14.81395,3.7464 9.17258,5.9523 10.10034,6.8325 9.81494,9.311 -0.52503,4.5595 -4.20558,3.9242 -13.3152,-2.2985 z m 52.54681,-1.9078 c -1.55029,-1.868 -4.01967,-11.1605 -4.03494,-15.184 -0.0148,-3.9097 2.10621,-5.9148 4.75646,-4.4964 2.63909,1.4124 6.08799,17.3873 4.23569,19.6192 -1.57431,1.8969 -3.41485,1.9196 -4.95721,0.061 z m -259.84681,-64.7564 c -3.06036,-3.0604 -0.24957,-5.7195 9.3,-8.7982 12.3132,-3.9696 66.2914,-25.9368 85.97001,-34.9867 10.4665,-4.8134 22.51749,-10.2029 26.77999,-11.9767 4.2625,-1.7738 7.75,-3.3965 7.75,-3.606 0,-0.2096 -1.35,-1.0792 -3,-1.9324 -3.84665,-1.9892 -4.21022,-6.1582 -0.61573,-7.0603 2.57596,-0.6465 7.13883,1.361 16.05057,7.0618 5.72237,3.6605 7.26282,5.9529 5.45997,8.1252 -1.51905,1.8304 -4.41314,1.735 -7.435,-0.245 -1.68733,-1.1056 -2.86426,-1.3052 -3.71482,-0.6301 -0.68474,0.5435 -5.74499,2.8922 -11.24499,5.2193 -5.5,2.3272 -18.1,7.9518 -28,12.4991 -27.53832,12.6491 -90.13466,37.53 -94.41929,37.53 -0.92439,0 -2.22071,-0.54 -2.88071,-1.2 z m 158.96881,-61.2627 c -4.49284,-5.8097 -8.16881,-11.1772 -8.16881,-11.9277 0,-2.1099 2.68641,-3.8439 4.87758,-3.1485 1.08545,0.3446 5.40615,5.1617 9.60154,10.7047 8.18094,10.809 9.17445,14.0838 4.43969,14.6343 -2.2248,0.2587 -3.70904,-1.1583 -10.75,-10.2628 z m -228.59738,-39.1087 c -0.86429,-0.8643 -1.57143,-1.9196 -1.57143,-2.345 0,-1.8633 3.98066,-3.8861 10,-5.0817 6.73377,-1.3375 79.16475,-22.77444 101.48127,-30.03479 6.97978,-2.27076 12.45668,-4.36249 12.1709,-4.64828 -0.28579,-0.28578 -9.85952,-3.39805 -21.27497,-6.91614 -11.41545,-3.51809 -21.11971,-6.96042 -21.56503,-7.64961 -1.13184,-1.7517 -0.59806,-3.8587 1.27658,-5.03907 1.9108,-1.20313 47.27375,12.39909 50.20879,15.05526 1.71109,1.54852 3.5769,1.06907 30.09106,-7.73229 16.95041,-5.62668 28.96315,-9.11598 30.0061,-8.71576 1.19633,0.45907 1.6403,1.5276 1.42227,3.42309 -0.31005,2.69554 -1.21187,3.05667 -41.31697,16.54515 -59.03519,19.85521 -141.34924,44.60364 -148.67857,44.70144 -0.37322,0 -1.38572,-0.698 -2.25,-1.5623 z m 258.42857,-88.45318 c -5.225,-2.17971 -12.29161,-4.89561 -15.70359,-6.03535 -6.54698,-2.18695 -8.58757,-4.67939 -6.19316,-7.56448 1.76497,-2.12666 5.41674,-1.27771 20.65455,4.8017 13.72224,5.47475 16.88731,7.7488 15.1925,10.91557 -1.42269,2.65832 -3.1197,2.40074 -13.9503,-2.11744 z m 34.2,-10.17542 c -1.6762,-1.6762 -1.49615,-4.53489 0.35072,-5.56845 1.35355,-0.75748 1.40896,-2.00354 0.43582,-9.79969 -1.23768,-9.91541 -0.5245,-19.7405 1.5584,-21.46916 0.7475,-0.62036 2.22137,-0.85426 3.27527,-0.51976 1.72533,0.5476 1.96298,1.9042 2.38606,13.62069 0.25843,7.15688 0.88301,13.42565 1.38796,13.9306 0.55745,0.55745 3.71348,0.10263 8.03438,-1.15783 l 7.1163,-2.07592 0.56242,-5.44931 c 0.6415,-6.21548 2.10376,-8.53826 5.10516,-8.10943 1.76698,0.25246 2.13392,1.10438 2.38977,5.54826 0.16624,2.8875 0.61624,5.24441 1,5.23758 0.38376,-0.007 4.74774,-1.14393 9.69774,-2.52688 25.7281,-7.18803 74.5495,-18.4607 79.9524,-18.4607 1.4241,0 2.9165,0.82075 3.5104,1.93055 1.4351,2.68147 -0.6976,4.58048 -6.6756,5.94413 -2.6329,0.60061 -14.0122,3.12471 -25.2872,5.6091 -19.2063,4.23201 -46.15601,11.08075 -61,15.50195 -34.73027,10.34423 -31.9198,9.69447 -33.8,7.81427 z m -25.37226,-8.10088 c -8.15517,-6.22015 -4.11227,-11.9403 4.31267,-6.10182 4.90702,3.40057 6.45992,5.97442 4.80654,7.96662 -1.85966,2.24075 -4.42398,1.71637 -9.11921,-1.8648 z M 175.57193,1237.8911 c -1.62134,-0.7793 -4.31823,-5.1988 -8.65447,-14.1823 -30.49797,-63.1837 -52.01493,-136.8669 -59.44064,-203.5502 -3.70173,-33.24171 -4.55116,-51.41751 -4.48648,-96.00001 0.0967,-66.6271 3.57813,-104.1704 13.39975,-144.5 4.71904,-19.3773 17.29004,-60.71084 19.48159,-64.05556 3.14187,-4.7951 10.90494,-4.28888 13.37868,0.8724 1.21579,2.53667 0.6765,4.89624 -6.39427,27.97676 -18.45856,60.2527 -22.85897,90.6004 -24.09985,166.2064 -1.42635,86.9062 6.10323,145.91551 27.68912,217.00001 8.65603,28.5052 23.70488,66.9174 35.45535,90.5 2.32942,4.675 4.52792,9.7117 4.88558,11.1927 0.83837,3.4715 -0.92417,7.2881 -4.01638,8.697 -2.94702,1.3428 -4.13123,1.3169 -7.19798,-0.1572 z m 1124.69547,181.7675 c 30.1855,-35.2412 40.5781,-42.8644 83.1598,-60.9997 20.3701,-8.6754 31.0919,-14.3355 46.5,-24.5472 19.0694,-12.6382 19.81,-13.062 55,-31.4696 32.2882,-16.8897 40.7302,-21.7188 69,-39.4698 9.35,-5.8711 28.025,-17.3504 41.5,-25.5097 32.4785,-19.6661 80.7328,-50.1641 125,-79.0034 17.2637,-11.247 38.7638,-24.6604 66.5,-41.4878 56.3303,-34.1753 74.4687,-48.1983 119.0028,-92.002 29.4554,-28.97231 49.0673,-46.29501 64.3147,-56.80761 8.2758,-5.7058 39.2589,-21.3571 66.6825,-33.6851 33.4751,-15.0483 69.8352,-35.1934 129.8048,-71.9175 43.7683,-26.8028 49.9783,-30.2471 94.6952,-52.5215 53.358,-26.5786 75.8303,-39.1494 96.3831,-53.9155 7.5749,-5.4422 11.5126,-8.7155 36.72,-30.52359 6.2683,-5.42299 21.0719,-17.18739 32.8969,-26.1431 11.825,-8.95571 32.75,-25.67496 46.5,-37.15389 42.7561,-35.69417 46.0371,-38.01438 85,-60.11013 31.4583,-17.83991 48.3998,-26.53131 76,-38.98985 21.9224,-9.89563 34.6353,-14.32562 65.3076,-22.75743 42.9261,-11.80032 56.8044,-18.87271 60.3908,-30.77519 1.6189,-5.37276 -0.7425,-12.15932 -8.0978,-23.27239 -13.1858,-19.92245 -29.0077,-35.87808 -66.6006,-67.16357 -20.0244,-16.66461 -41.5463,-38.18265 -51.6336,-51.62421 -3.6485,-4.8617 -10.7529,-15.76617 -15.7875,-24.23215 -10.7308,-18.04436 -18.4251,-27.95238 -27.2196,-35.05117 -3.4976,-2.82319 -15.5843,-11.62313 -26.8593,-19.55541 -11.275,-7.93228 -27.025,-19.15223 -35,-24.93322 -21.7623,-15.77525 -26.7371,-18.9783 -69.2817,-44.60698 -38.7482,-23.34176 -63.1797,-36.44212 -100.2183,-53.73796 -24.816,-11.58829 -84.9798,-42.4639 -99.5569,-51.0919 -6.2937,-3.72517 -21.1066,-13.29743 -32.9174,-21.271694 -11.8109,-7.97425 -24.3422,-15.79899 -27.8474,-17.3883 -11.6955,-5.303 -35.4529,-11.09305 -97.2664,-23.70537 -16.2734,-3.32041 -42.1484,-8.93351 -57.5,-12.47357 -15.3515,-3.54006 -31.7369,-7.13482 -36.4119,-7.98834 -44.5402,-8.13184 -175.2129,-18.4008 -201.4455,-15.83068 -6.2559,0.61292 -13.0828,1.82822 -15.1709,2.70067 -2.088,0.87244 -6.8212,4.50639 -10.5181,8.07544 -11.4047,11.0103 -16.9521,12.4234 -40.9565,10.43284 -21.3327,-1.76901 -28.8769,-0.75023 -39.6478,5.35408 -22.3202,12.64978 -39.8209,20.50568 -82.7565,37.14868 -43.4835,16.85538 -51.2421,20.22439 -144.5047,62.748164 -10.175,4.63936 -24.8,11.27053 -32.5,14.73593 -29.91,13.46103 -65.4667,32.1554 -62.8833,33.06163 1.2306,0.43166 -1.6872,2.55556 -10.1964,7.42219 -6.5562,3.74962 -14.9562,8.57352 -18.6668,10.71978 -4.9105,2.84027 -10.0814,4.68605 -19,6.78216 -6.7394,1.58393 -15.8535,3.80853 -20.2535,4.94355 -4.4,1.13502 -31.625,6.13202 -60.5,11.10445 -116.7627,20.10716 -126.3987,21.90086 -180.5,33.59928 -94.08087,20.34327 -157.67617,38.76619 -240.49997,69.67037 -18.425,6.87496 -40.925,15.09295 -50,18.26222 -9.075,3.16926 -16.8378,6.05346 -17.2507,6.40934 -0.4128,0.35587 2.7115,2.61686 6.9431,5.02443 15.2375,8.6695 34.1283,21.97862 51.3076,36.14765 9.625,7.93846 26.95,21.8403 38.5,30.89297 30.8996,24.21853 34.1364,27.0904 92.5762,82.13913 35.6193,33.55247 47.3889,46.0766 91.00747,96.84154 33.3446,38.80778 65.4345,82.61219 86.1534,117.60389 11.4097,19.26981 44.6976,80.13771 54.3584,99.39611 21.8928,43.6426 37.7957,84.1967 53.5272,136.5 16.1462,53.68231 23.9104,92.53441 31.8744,159.50001 1.6679,14.025 5.0447,39.6905 7.5039,57.0344 6.1329,43.2532 7.329,54.7938 8.495,81.9656 1.7697,41.2419 2.8705,118.6227 1.934,135.9475 -0.8696,16.0891 -3.5662,40.5654 -4.688,42.5525 -1.7482,3.0968 6.848,-6.1143 19.5982,-21 z m 147.8265,-117.1667 c -0.3667,-0.3666 -0.6667,-1.6626 -0.6667,-2.8799 0,-1.6014 4.0705,-5.7711 14.7245,-15.0833 26.1994,-22.8999 45.6548,-43.4423 63.6569,-67.2135 7.1931,-9.4982 27.543,-39.8937 33.8612,-50.5765 1.5085,-2.5505 3.4821,-4.921 4.386,-5.2678 2.3534,-0.9031 4.9136,1.1014 4.6256,3.6218 -0.2865,2.5084 -15.8761,27.4709 -27.5199,44.0659 -19.7367,28.1291 -43.5824,54.3165 -72.9888,80.1563 -14.3657,12.6233 -18.1494,15.1064 -20.0788,13.177 z m -138.6849,-17.8813 c -1.7015,-4.4752 2.0336,-16.5775 10.0131,-32.4441 7.0462,-14.0106 17.6393,-28.3936 27.993,-38.0079 3.5688,-3.3139 3.8279,-3.9762 4.8733,-12.4549 1.2801,-10.3822 3.2709,-13.6151 7.1166,-11.557 1.7247,0.9231 2.0945,1.7841 1.6535,3.8504 -0.3125,1.4638 -1.0689,8.2865 -1.6809,15.1615 -0.612,6.875 -1.6448,13.625 -2.2951,15 -1.4863,3.143 -4.7249,3.2448 -6.2447,0.1963 -1.1107,-2.2278 -1.3623,-2.0468 -7.6435,5.5 -13.9526,16.7639 -23.4255,35.7304 -27.2469,54.5537 -0.7654,3.7703 -5.1305,3.9052 -6.5384,0.202 z m 73.1726,-48.202 c -2.0499,-3.9161 -7.1544,-28.0398 -7.1544,-33.8112 0,-4.3652 2.2565,-6.1746 5.5213,-4.4274 2.8244,1.5116 0.2328,2.1359 33.9284,-8.1735 23.7187,-7.2568 41.6129,-13.5793 52.8372,-18.6686 6.734,-3.0533 26.2407,-17.2349 47.7131,-34.688 26.9947,-21.9417 53.1072,-40.1301 78.5,-54.6786 27.9881,-16.0353 95.0399,-49.2372 98.1849,-48.6179 2.5824,0.5085 3.9175,3.3844 2.4129,5.1974 -0.7075,0.8524 -9.0064,5.2581 -18.4421,9.7905 -76.4441,36.7194 -107.8896,55.7573 -156.6557,94.8433 -7.975,6.392 -19,15.0709 -24.5,19.2865 -5.5,4.2156 -11.35,8.7284 -13,10.0284 -3.4476,2.7164 -16.9799,8.6484 -33.2413,14.5716 -9.5978,3.496 -63.1605,20.0975 -64.8421,20.0975 -0.668,0 -0.1879,2.5496 3.2543,17.2829 2.0063,8.5871 2.2714,11.0817 1.3018,12.25 -1.6572,1.9967 -4.7026,1.8486 -5.8183,-0.2829 z m 175.5544,-30.8745 c -1.9883,-1.9884 -0.072,-5.9687 7.3551,-15.2729 6.1386,-7.6905 8.6295,-10.1026 10.4326,-10.1026 2.7546,0 4.1292,3.0044 2.6137,5.7122 -0.5504,0.9833 -4.3101,5.8378 -8.3549,10.7878 -6.7262,8.2316 -10.1603,10.7617 -12.0465,8.8755 z m -154.7088,-174.4819 c -13.2616,-1.3304 -34.0416,-4.5787 -37.3588,-5.8399 -2.244,-0.8532 -2.7135,-1.58 -2.4576,-3.8042 0.2893,-2.5141 0.6589,-2.7385 4.3164,-2.6207 2.2,0.071 10.3,1.0699 18,2.2201 26.2101,3.915 55.861,4.8574 78.6516,2.4997 5.1368,-0.5314 5.7609,-0.3806 6.8504,1.6552 1.0177,1.9015 0.8833,2.5554 -0.8898,4.3284 -2.0067,2.0068 -3.1767,2.097 -29.8504,2.3015 -15.269,0.1171 -32.0368,-0.216 -37.2618,-0.7401 z m 26.0247,-21.3638 c -2.4115,-2.9057 0.037,-4.8614 9.0749,-7.2487 10.8835,-2.87481 20.6176,-6.30201 35.1422,-12.37311 6.458,-2.6994 12.4047,-4.908 13.2148,-4.908 2.6404,0 3.7328,3.5639 1.7789,5.8035 -3.4142,3.9134 -42.914,18.65971 -53.2688,19.88661 -3.5046,0.4153 -4.8529,0.152 -5.942,-1.1603 z m -108.7685,-50.77981 c -0.5438,-0.6875 -2.4617,-5.75 -4.262,-11.25 -4.3383,-13.254 -7.4697,-19.2963 -11.0538,-21.3292 -3.4362,-1.9491 -4.6075,-4.6621 -2.9006,-6.7188 2.9046,-3.4998 9.5903,0.2293 13.9067,7.7566 3.4729,6.0564 10.0535,24.9968 10.0535,28.9363 0,3.4773 -3.7196,5.1643 -5.7438,2.6051 z m -46.8681,-28.3399 c -0.8858,-3.5291 1.125,-20.2455 3.5392,-29.4236 2.7931,-10.6184 9.8836,-27.8504 19.128,-46.4865 10.5568,-21.2816 13.4017,-25.7173 16.2364,-25.3141 4.0786,0.5801 3.334,4.9064 -2.6759,15.5492 -16.6097,29.4133 -28.6158,62.7439 -28.6158,79.4411 0,6.1936 -1.3461,8.8238 -4.5161,8.8238 -1.7975,0 -2.6181,-0.6865 -3.0958,-2.5899 z m 489.6119,-3.553 c -5.775,-3.4202 -15.675,-8.9746 -22,-12.3432 -9.7316,-5.1828 -11.5474,-6.5258 -11.8081,-8.7334 -0.5383,-4.5573 2.6979,-4.3574 12.9881,0.8025 11.6263,5.8299 34.2808,19.0624 35.8289,20.9277 1.8187,2.1914 0.7617,4.9561 -2.0175,5.277 -1.6243,0.1876 -6.1456,-1.8764 -12.9914,-5.9306 z m -396.8381,-14.331 c -7.4957,-2.7227 -8.5813,-3.6294 -7.6938,-6.4254 0.8527,-2.6869 6.124,-2.7625 12.4958,-0.1792 5.3021,2.1495 7.0135,4.3042 5.4238,6.8285 -1.5365,2.4398 -2.9795,2.4082 -10.2258,-0.2239 z m 429.3381,-3.6771 c -2.2,-1.1345 -6.1614,-3.4268 -8.8031,-5.0941 -3.9916,-2.5194 -4.7519,-3.4727 -4.5,-5.6432 0.473,-4.0758 3.5007,-3.6912 12.739,1.6181 9.3791,5.3904 11.1449,7.263 9.1337,9.6864 -1.7212,2.0738 -3.7022,1.9427 -8.5696,-0.5672 z m 40.7278,-11.8442 c -2.8555,-1.2024 -3.8203,-3.586 -2.228,-5.5045 1.0262,-1.2366 6.7283,-1.5167 35.3619,-1.7373 l 34.1383,-0.263 7.5449,-15 c 4.1497,-8.25 12.0775,-23.1 17.6174,-33 5.5399,-9.9 16.4935,-30.15 24.3412,-45 7.8478,-14.85 22.0301,-40.95 31.5164,-58 35.8586,-64.45004 65.8641,-125.15314 82.4062,-166.71278 2.956,-7.42664 4.863,-10.90291 6.2169,-11.33262 2.1249,-0.6744 4.857,1.03874 4.857,3.04549 0,1.75588 -9.9765,26.2545 -17.5081,42.99362 -14.6684,32.60053 -43.2585,89.09334 -62.5047,123.50629 -17.4473,31.1964 -24.7408,44.5603 -38.4765,70.5 -7.5721,14.3 -19.7418,36.8 -27.0437,50 -7.3019,13.2 -15.5924,29.175 -18.4233,35.5 l -5.1472,11.5 -35.1982,0.2308 c -20.7247,0.1359 -36.1326,-0.1626 -37.4705,-0.726 z m 194.0222,-80.6671 c -2.3971,-0.9672 -1.3035,-5.0835 2.1579,-8.1227 7.8055,-6.8533 28.5203,-19.0021 46.5267,-27.2868 8.1619,-3.7554 10.8432,-4.5823 12.3107,-3.7969 1.1526,0.6168 1.7563,1.8456 1.5654,3.1864 -0.2442,1.7153 -3.8682,4.0013 -16.9348,10.6823 -20.1772,10.3167 -27.4688,14.5822 -35.9129,21.0086 -6.4284,4.8923 -7.3259,5.2923 -9.713,4.3291 z m 121.7121,-3.4085 c -0.9736,-1.8192 -0.5248,-2.5783 3.6959,-6.25 10.2698,-8.934 21.6237,-20.2629 48.2855,-48.1792 49.0352,-51.34242 55.4498,-58.38726 85.1024,-93.46391 18.6466,-22.05742 29.954,-34.57702 51.9654,-57.53609 33.5075,-34.95023 58.7141,-66.15151 104.0129,-128.74945 6.2683,-8.6622 12.2238,-16.01188 13.2344,-16.33262 2.0311,-0.64467 4.7414,1.12105 4.7414,3.08901 0,2.39005 -48.699,68.57971 -68.2887,92.81509 -14.1872,17.55174 -32.4188,38.11219 -50.3073,56.73339 -21.4929,22.37321 -30.0523,31.87004 -50.4226,55.94458 -29.7654,35.17817 -28.8741,34.19826 -80.043,88.0033 -50.9866,53.6134 -58.5988,60.2368 -61.9763,53.9259 z m -800.0317,-8.513 c -2.2043,-2.6561 0.038,-4.493 11.1311,-9.1167 5.7412,-2.3931 23.0385,-10.5938 38.4385,-18.2238 37.7042,-18.6807 47.4322,-22.2722 50.4565,-18.6281 2.1773,2.6235 -0.3989,4.6637 -10.8849,8.6204 -5.6284,2.1237 -22.9095,10.1551 -38.4025,17.8474 -28.8711,14.3346 -44.0746,21.0846 -47.49,21.0846 -1.0638,0 -2.5257,-0.7127 -3.2487,-1.5838 z m 70.6802,-4.9886 c -0.3319,-0.8649 -0.166,-2.3899 0.3687,-3.3889 1.1618,-2.1708 3.4633,-2.6175 41.8338,-8.1192 29.7275,-4.2624 31.1869,-4.2519 31.1869,0.2244 0,2.8352 -2.7221,3.5752 -23.5,6.3886 -10.45,1.4149 -24.4,3.4488 -31,4.5198 -14.6781,2.3819 -18.0934,2.4497 -18.8894,0.3753 z m -38.2074,-52.8194 c -1.7967,-4.6819 1.4109,-6.1766 27.0968,-12.62657 27.949,-7.01826 57.0808,-11.58551 96,-15.05075 19.1151,-1.70194 103.0177,-2.33272 132.7936,-0.99834 37.3749,1.67492 100.7435,6.80087 106.864,8.64433 2.5694,0.77388 3.1414,3.57365 1.1313,5.53761 -1.7033,1.66427 -2.9135,1.63433 -25.2889,-0.62565 -93.7133,-9.46532 -190.531,-9.62353 -256.5,-0.41915 -20.1339,2.8092 -46.1384,8.06952 -62,12.54162 -16.5914,4.6779 -19.297,5.0814 -20.0968,2.9969 z m -166.4307,-80.14138 c -1.6454,-1.98256 -1.7339,-3.32494 -3.4908,-52.96682 -1.9634,-55.47594 -1.9765,-54.20819 0.5663,-55.01523 5.2523,-1.66703 5.2285,-1.86636 7.5329,62.97626 1.4877,41.86106 1.4782,44.0226 -0.2004,45.25 -2.2638,1.65537 -2.8589,1.6224 -4.408,-0.24421 z m 74.8212,-23.21682 c -1.4192,-1.5125 -7.5982,-10.16685 -13.7311,-19.23188 -11.8871,-17.57039 -13.227,-21.20716 -8.0366,-21.81293 2.2608,-0.26385 3.8571,1.68358 15.2045,18.54964 6.9732,10.36444 12.9499,19.55158 13.2815,20.41587 0.5687,1.48188 -1.7855,4.8293 -3.3963,4.8293 -0.4079,0 -1.9027,-1.2375 -3.322,-2.75 z m -121.3387,-10.9379 c -1.458,-1.45799 -1.602,-3.12665 -1.0569,-12.25 1.3297,-22.25343 2.7017,-64.03456 2.4487,-74.56989 -0.1453,-6.05428 0.081,-11.56678 0.5035,-12.25 1.1671,-1.8884 4.4501,-1.48374 5.6145,0.69205 2.4762,4.62688 0.1125,93.4798 -2.6022,97.81574 -1.6852,2.69167 -2.6658,2.80397 -4.9076,0.5621 z m 75.2219,0.4379 c -2.0739,-1.52003 -15.8109,-36.43984 -15.4405,-39.25 0.3718,-2.82074 5.2604,-3.30873 6.6746,-0.66628 1.9214,3.59015 14.089,35.79597 14.089,37.29145 0,1.476 -1.8627,3.87483 -3.0089,3.87483 -0.3348,0 -1.3763,-0.5625 -2.3142,-1.25 z m 131.6731,-23.07207 c -13.4661,-10.84504 -65.2151,-47.83653 -78.85,-56.3639 -6.4801,-4.05273 -18.002,-9.77162 -22.67,-11.25225 -2.0185,-0.64025 -4.1872,-1.7873 -4.8194,-2.54901 -1.6675,-2.0092 0.4629,-5.51277 3.3522,-5.51277 3.3641,0 13.0196,4.15315 23.1982,9.97826 10.1151,5.78877 60.8487,41.34059 78.7747,55.20179 13.1217,10.14629 15.6262,12.95602 13.6601,15.32496 -2.1541,2.59559 -4.5782,1.67028 -12.6458,-4.82708 z m 701.6263,4.79355 c -1.0401,-1.25331 -0.7991,-3.09879 1.3386,-10.25 2.6719,-8.93808 5.6851,-24.38954 5.6851,-29.15247 0,-4.64053 3.4234,-6.50279 6.4289,-3.49724 1.1444,1.14442 1.4194,2.7078 1.0115,5.75 -1.6943,12.63485 -2.9222,19.02392 -5.126,26.67304 -3.194,11.08559 -6.1139,14.36155 -9.3381,10.47667 z m 329.0183,-2.48159 c -1.5987,-2.98723 -0.2115,-4.2724 9.1159,-8.4454 4.0642,-1.81831 24.0395,-11.28022 44.3895,-21.02648 66.147,-31.6799 76.0198,-36.29669 92.9756,-43.47802 22.7773,-9.64693 47.1817,-18.29113 52.0244,-18.42742 3.494,-0.0983 4.0427,0.1894 4.3375,2.27434 0.4228,2.98998 -0.2115,3.37726 -11.8375,7.22833 -30.2658,10.02542 -54.4457,20.85896 -165.0534,73.95051 -21.4947,10.31744 -24.225,11.15111 -25.952,7.92414 z m -470.6697,-50.23989 c -1.113,-1.2375 -5.4873,-6.86835 -9.7207,-12.513 -8.9071,-11.87662 -14.5778,-18.2085 -34.3851,-38.39438 -11.4544,-11.67336 -14.3149,-15.13431 -14.0508,-17 0.6287,-4.44043 4.5059,-3.58879 10.5652,2.32069 19.6121,19.12722 46.5111,49.96879 53.2594,61.0654 3.4055,5.59993 -1.3127,9.36359 -5.668,4.52129 z m -442.5568,-4.85989 c -0.8861,-0.49589 -6.0891,-6.63652 -11.5623,-13.64586 -15.5751,-19.94658 -28.233,-34.2106 -47.7058,-53.75928 -24.6814,-24.77751 -56.8274,-51.95998 -77.5,-65.53337 -13.8553,-9.09725 -14.3055,-9.5123 -12.9877,-11.97452 0.5856,-1.09433 2.0905,-1.97708 3.3703,-1.97708 5.4715,0 36.4116,22.9183 65.6174,48.6048 33.202,29.20123 87.4569,90.22956 85.5517,96.23241 -0.774,2.43845 -2.6534,3.24502 -4.7836,2.0529 z m 1108.8986,-1.55678 c -1.2321,-1.23201 -0.6815,-5.38376 1.2098,-9.12317 3.4219,-6.76575 9.0296,-23.62561 10.2765,-30.89666 0.9676,-5.64257 0.9703,-8.82666 0.013,-14.98455 -1.0902,-7.01247 -1.0441,-7.94495 0.4473,-9.03546 2.3611,-1.72644 4.9864,-0.0364 6.3469,4.0858 1.347,4.08155 1.419,19.73066 0.1132,24.62071 -3.6175,13.54714 -8.6355,27.1854 -12.0498,32.75 -1.841,3.00035 -4.7555,4.18475 -6.3569,2.58333 z m -1172.0674,-7.85758 c -6.3545,-1.74454 -8.4055,-4.73185 -5.1205,-7.45814 1.1686,-0.9699 2.5842,-0.96786 6.75,0.01 7.2098,1.69192 8.7712,2.65332 8.7712,5.40088 0,3.76078 -2.4229,4.23776 -10.4007,2.04756 z m 690.0903,-1.62958 c -1.4195,-0.7944 -1.6896,-2.63094 -1.6896,-11.48878 0,-6.67296 -0.7486,-14.21672 -2.0393,-20.55044 -2.0668,-10.14185 -1.7533,-12.80695 1.5068,-12.80695 4.0964,0 7.7706,13.66373 7.9212,29.45723 0.1342,14.07489 -1.2703,17.86742 -5.6991,15.38894 z m -701.6896,-12.71204 c -4.675,-1.5204 -9.5125,-3.3134 -10.75,-3.98443 -2.5902,-1.40456 -3.0895,-5.89031 -0.7553,-6.78603 2.0019,-0.7682 24.0186,6.34495 25.6231,8.27832 1.7038,2.05293 -0.04,4.79329 -3.2187,5.05726 -1.3195,0.1096 -6.2241,-1.04471 -10.8991,-2.56512 z m 446,-17.13241 c -11.97,-9.09927 -13.8749,-11.24266 -11.9997,-13.50204 2.3201,-2.79559 5.4759,-1.45295 15.9997,6.80719 9.1348,7.16987 10.5,8.62837 10.5,11.21729 0,5.10951 -3.1021,4.14201 -14.5,-4.52244 z m 785.3105,0.35617 c -0.6542,-0.26632 -2.1587,-3.39663 -3.3432,-6.95624 -1.7156,-5.15544 -1.9065,-6.77001 -0.9381,-7.93684 1.9115,-2.30322 4.7883,-1.71958 6.3348,1.28519 4.6828,9.09855 3.6518,15.93041 -2.0535,13.60789 z m -616.3105,-19.91303 c -15.675,-3.99113 -45.375,-11.16247 -66,-15.93631 -20.625,-4.77384 -52.2792,-12.25488 -70.3426,-16.62452 -62.1695,-15.03914 -82.5247,-19.05249 -121.1283,-23.88236 -19.5025,-2.44004 -24.3213,-3.34945 -25.8504,-4.87855 -1.5678,-1.56779 -1.6827,-2.24708 -0.693,-4.09642 0.9648,-1.80264 1.7778,-2.11083 4.3504,-1.649 1.7401,0.31238 12.3889,1.71721 23.6639,3.12183 37.103,4.62224 58.1468,8.78158 121.5,24.01456 21.45,5.15756 52.95,12.58558 70,16.50671 42.0533,9.67135 93.431,22.67705 95.1196,24.07849 1.922,1.59505 1.724,4.6564 -0.3696,5.71625 -1.2075,0.61126 -10.5857,-1.36381 -30.25,-6.37068 z m 685.5229,-3.27904 c -6.0578,-3.24467 -10.607,-3.27627 -23.0458,-0.16007 -8.4762,2.12347 -8.8968,2.14074 -10.1571,0.41713 -2.559,-3.49959 0.3853,-5.67724 11.3882,-8.42288 l 10.0184,-2.5 -2.0854,-2.78603 c -1.614,-2.15608 -1.8426,-3.17359 -1.0112,-4.5 2.1876,-3.49026 4.9725,-2.59018 9.5263,3.07897 2.6476,3.29597 6.399,6.4928 9.6072,8.18693 3.3848,1.78738 5.4707,3.6052 5.8441,5.09295 1.288,5.1315 -2.3928,5.71292 -10.0847,1.593 z m -1102.4768,-1.61026 c -1.7542,-2.11372 -1.9045,-1.91475 23.4628,-31.05556 38.7275,-44.48816 73.5282,-77.05076 127.4911,-119.29185 18.0449,-14.12518 23.1597,-17.22473 25.7471,-15.60275 3.7413,2.34532 2.6191,5.0397 -7.5458,18.11778 -8.5759,11.0338 -17.2766,23.53588 -24.722,35.52342 -2.225,3.58248 -5.1532,4.2188 -6.8703,1.49301 -1.4408,-2.2871 2.196,-9.35836 12.0588,-23.44644 3.9633,-5.66125 6.9854,-10.29317 6.7157,-10.29317 -1.3076,0 -32.3444,25.52656 -53.3835,43.90574 -25.0433,21.87721 -45.6485,42.72165 -72.2551,73.09426 -25.1367,28.69469 -27.7825,31.06952 -30.6988,27.55556 z m -296.5386,-23.90369 c -2.4135,-3.6835 -11.1159,-25.62874 -13.4217,-33.84613 -2.5708,-9.16186 -2.6383,-12.4397 -0.2819,-13.70078 2.9689,-1.5889 4.1907,0.13126 7.0991,9.99456 2.3844,8.08617 6.7161,19.55335 12.4228,32.88645 2.5912,6.05423 -2.3252,9.99695 -5.8183,4.6659 z m 897.4908,-0.15393 c -1.0128,-1.22032 -0.6411,-3.7056 1.9815,-13.25 3.7706,-13.72189 4.4645,-15.24794 6.9329,-15.24794 4.2244,0 4.392,2.27446 1.0824,14.68909 -3.8115,14.29668 -6.5046,18.01674 -9.9968,13.80885 z M 897.22973,440.44561 c -5.2639,-5.97446 -9.753,-19.61098 -13.9151,-42.26953 -1.6687,-9.08462 -3.901,-20.24742 -4.9607,-24.80622 -2.4328,-10.46575 -2.4125,-11.88091 0.19,-13.27371 1.6371,-0.87618 2.4146,-0.82752 3.432,0.21482 1.7528,1.79571 4.6579,13.65161 8.4164,34.34762 3.7773,20.79974 5.149,25.81829 9.7929,35.82926 2.7978,6.03137 3.3902,8.21293 2.5797,9.5 -1.4873,2.36187 -3.6966,2.54458 -5.5352,0.45776 z m 1348.41187,0.46298 c -0.5667,-0.6875 -1.3523,-7.78633 -1.7458,-15.77518 -0.6167,-12.5229 -0.5004,-14.70358 0.8441,-15.81939 2.4511,-2.03424 5.3061,0.11972 6.0393,4.55642 1.1286,6.82936 0.7421,25.79401 -0.552,27.08815 -1.5456,1.54557 -3.2859,1.52659 -4.5856,-0.05 z M 1128.116,433.57944 c -3.166,-1.74433 -3.3689,-4.97808 -0.4277,-6.81872 2.7292,-1.70809 9.2389,2.09656 9.2389,5.39981 0,2.05677 -0.53,2.53954 -3,2.73289 -1.65,0.12916 -4.265,-0.46213 -5.8112,-1.31398 z m 415.9829,-10.67085 c -2.7067,-3.61989 -9.7582,-15.97153 -14.5285,-25.44848 -3.1128,-6.18415 -3.2573,-8.66001 -0.5659,-9.69282 2.6404,-1.0132 4.2393,0.51365 7.9675,7.60859 2.0429,3.88759 6.3336,11.57567 9.5348,17.08462 4.6138,7.93975 5.6162,10.39792 4.8353,11.85718 -1.498,2.79904 -4.539,2.20745 -7.2432,-1.40909 z m -390.6717,-4.34194 c -0.825,-0.15415 -6.225,-1.01714 -12,-1.91775 -14.0317,-2.18825 -26.095,-5.28578 -28.294,-7.26514 -2.2328,-2.00973 -1.8381,-5.58418 0.6693,-6.06242 1.0315,-0.19672 4.2788,0.39828 7.2163,1.32223 2.9374,0.92395 12.3709,2.91827 20.9632,4.43182 14.7874,2.60482 17.9713,3.81294 17.1241,6.49762 -0.4496,1.42493 -4.0152,3.30451 -5.6789,2.99364 z m 1160.9826,-1.92904 c -2.3131,-2.7871 0.4055,-36.66575 4.9772,-62.02583 2.5769,-14.29456 7.6234,-34.24607 9.1175,-36.04628 1.5039,-1.81208 4.3499,-1.80196 5.8627,0.0208 0.926,1.1157 0.7438,2.85616 -0.8336,7.96307 -5.4913,17.77871 -10.8289,51.33538 -11.7879,74.10917 -0.3243,7.7 -0.9945,14.7875 -1.4893,15.75 -1.1074,2.15427 -4.1499,2.27344 -5.8466,0.22902 z m -842.1742,-5.05468 c -16.2166,-10.9389 -21.8084,-18.76926 -21.8084,-30.5389 0,-8.28574 0.5741,-9.88544 3.548,-9.88544 3.2244,0 3.8905,1.48695 4.0565,9.05634 0.081,3.68798 0.8215,7.86686 1.6929,9.55187 2.0575,3.97876 8.8662,10.15475 17.5914,15.95657 5.301,3.52498 7.1112,5.30044 7.1112,6.97495 0,2.12477 -1.7347,3.49808 -4.3318,3.42936 -0.6425,-0.017 -4.1794,-2.06214 -7.8598,-4.54475 z m 1145.3222,0.67755 c -1.9835,-1.25655 -7.5177,-37.93052 -5.9998,-39.75952 1.4,-1.68684 4.3114,-1.73468 5.6214,-0.0924 0.5485,0.6875 2.2399,9.45493 3.7589,19.48318 2.2406,14.79283 2.5242,18.51938 1.5029,19.75 -1.4177,1.7082 -2.8726,1.89253 -4.8834,0.61871 z M 1489.1772,402.03894 c -4.6571,-2.35887 -5.75,-3.3809 -5.75,-5.37733 0,-3.32587 3.6964,-4.21738 8.1423,-1.96381 4.679,2.3717 6.8577,4.46238 6.8577,6.58059 0,3.59319 -3.1467,3.85192 -9.25,0.76055 z m 59.3952,-15.20536 c -0.6048,-0.72876 -1.6323,-3.63284 -2.2834,-6.45352 -1.3018,-5.63969 -0.2964,-8.22147 3.2016,-8.22147 2.2936,0 2.7069,0.69777 4.5078,7.61194 1.1081,4.25424 1.188,5.97331 0.3259,7.01201 -1.4488,1.74578 -4.3242,1.77129 -5.7519,0.051 z m -302.6452,-41.62452 c -69.7058,-10.16162 -101.7014,-16.15664 -120.6812,-22.6121 -7.3058,-2.48485 -8.7759,-3.59052 -8.8035,-6.62098 -0.027,-3.00709 3.7217,-2.99553 13.2027,0.0407 20.3469,6.51601 55.202,12.80874 128.282,23.15997 23.65,3.34984 43.3756,6.46427 43.8347,6.92094 0.459,0.45668 0.684,1.89472 0.5,3.19565 -0.2901,2.05036 -0.9339,2.39211 -4.8347,2.56637 -2.475,0.11057 -25.65,-2.88218 -51.5,-6.65056 z m -359.99997,4.7965 c -12.0654,-1.0577 -14.5,-1.94197 -14.5,-5.26651 0,-1.35434 0.4361,-2.73195 0.9691,-3.06136 0.9275,-0.57323 25.1783,1.08349 29.7142,2.02997 2.6362,0.55006 3.9425,3.99194 2.2769,5.99892 -1.3225,1.59345 -3.3241,1.62587 -18.4602,0.29898 z m 12.155,-16.67571 c -2.0422,-2.25658 -2.0491,-2.63435 -0.084,-4.59983 1.8057,-1.80571 9.5049,-2.13615 12.4943,-0.53625 2.4886,1.33183 2.4886,4.59781 0,5.92964 -3.2418,1.73499 -10.545,1.26802 -12.4107,-0.79356 z m 310.59497,-10.83354 c -0.6875,-0.27741 -1.25,-1.57605 -1.25,-2.88587 0,-2.58837 3.2418,-4.95677 5.5647,-4.06541 0.7746,0.29725 11.8237,0.073 24.5535,-0.49836 12.7298,-0.57135 24.2108,-0.77133 25.5134,-0.4444 2.6944,0.67625 3.1741,3.64276 0.8949,5.53431 -2.4758,2.05474 -50.9084,4.1223 -55.2765,2.35973 z M 2296.8112,292.717 c -1.3789,-3.59333 0.2256,-4.9335 10.9608,-9.15521 5.9646,-2.34565 11.6251,-4.97096 12.5787,-5.83401 2.3437,-2.12096 4.7885,-1.97584 6.0377,0.35837 2.2351,4.17625 -1.2288,6.9361 -15.7389,12.53989 -9.9598,3.8465 -12.989,4.3042 -13.8383,2.09096 z m -896.8126,-5.12984 c -1.2085,-1.20856 -1.5765,-3.80634 -1.5934,-11.25 -0.027,-11.89253 -1.819,-16.5615 -7.976,-20.78112 -8.4548,-5.79436 -10.6094,-8.10728 -9.3999,-10.09045 1.9119,-3.13461 4.7584,-2.53586 11.948,2.5132 10.1178,7.10549 12.5358,11.91844 13.2179,26.31022 0.4521,9.53766 0.2923,11.14551 -1.2807,12.88362 -2.1692,2.39693 -2.874,2.45636 -4.9159,0.41453 z m 13.2536,-16.46669 c -2.5032,-1.46053 -4.3243,-7.65536 -2.7929,-9.50058 1.4861,-1.79067 4.3816,-1.898 5.7004,-0.2113 0.5375,0.6875 1.4669,2.70602 2.0654,4.48561 0.8773,2.60886 0.7947,3.52895 -0.4264,4.75 -1.7526,1.75262 -2.2667,1.80647 -4.5465,0.47627 z m 817.6396,-1.07339 c -0.4059,-1.27894 -0.1216,-2.66005 0.721,-3.5027 1.3949,-1.39489 16.7504,-3.48517 65.8144,-8.95902 24.9706,-2.78585 30.7347,-2.82066 32.3806,-0.19553 2.1802,3.47718 -0.9713,4.579 -17.8806,6.25134 -8.8,0.87032 -28.825,3.14148 -44.5,5.04702 -34.1525,4.15177 -35.6315,4.20678 -36.5354,1.35889 z m 84.1124,-48.44694 c -26.9148,-15.44647 -42.4637,-25.61109 -62.577,-40.90764 -27.9197,-21.23348 -32.9572,-24.85639 -56.3611,-40.53391 -19.8815,-13.31797 -23.1389,-15.85194 -23.1389,-18 0,-1.95361 0.573,-2.56645 2.6216,-2.80403 3.5915,-0.41651 39.6837,23.6779 71.9368,48.02343 33.3218,25.15229 45.1575,32.88856 83.5915,54.63838 7.7252,4.37174 10.3501,6.56609 10.3501,8.65258 0,0.64133 -3.1356,3.48964 -3.8417,3.48964 -0.3843,0 -10.5459,-5.6513 -22.5813,-12.55845 z m -306.7915,0.64801 c -16.8274,-9.91566 -17.9549,-10.80961 -17.5915,-13.94753 0.4456,-3.84775 3.5958,-3.82119 9.3917,0.0792 2.7099,1.82358 9.3272,5.78232 14.7052,8.79719 9.4883,5.31907 12.0321,8.0319 10.2442,10.92474 -1.3785,2.23054 -5.438,0.81184 -16.7496,-5.8536 z m 107.7145,-7.47745 c -37.649,-12.92343 -63.8128,-22.38101 -83.5371,-30.19664 -7.5169,-2.97851 -14.0007,-5.41547 -14.4085,-5.41547 -0.4078,0 6.6131,6.11852 15.6021,13.59671 8.9889,7.47819 16.745,14.44248 17.2357,15.4762 1.0487,2.20921 -0.7616,4.92709 -3.2818,4.92709 -0.9046,0 -3.887,-1.95211 -6.6276,-4.33801 -8.7015,-7.57548 -63.5973,-52.69089 -66.1436,-54.35931 -3.364,-2.20415 -2.9259,-6.67592 0.6953,-7.09831 1.9299,-0.2251 5.1901,1.8471 13.6652,8.68553 8.4137,6.78888 11.8239,8.96145 13.9706,8.90041 1.5621,-0.0444 4.8125,0.92552 7.2233,2.1554 12.0377,6.14116 57.3975,23.07065 109.1064,40.72141 18.425,6.28934 34.1674,12.09559 34.983,12.90279 1.9626,1.94209 0.2231,4.84689 -3.0839,5.14995 -1.3195,0.12093 -17.2491,-4.87756 -35.3991,-11.10775 z m -710.75,-5.69221 c -2.0211,-1.17721 -2.2906,-3.97932 -0.55,-5.7199 0.7338,-0.7338 4.3274,-1.20158 9.25,-1.20407 11.665,-0.006 30.8839,-1.52655 75.55,-5.97772 21.725,-2.165 50.075,-4.86709 63,-6.00465 53.3658,-4.69684 108.0042,-12.86166 116.9189,-17.47162 4.5123,-2.33339 8.264,-14.53443 12.1588,-39.54194 2.8445,-18.26318 2.7102,-17.70463 4.4137,-18.35831 1.9775,-0.75887 4.212,0.14312 4.9191,1.98566 1.3174,3.43313 -5.062,39.46473 -8.9265,50.41789 -1.3373,3.79029 -1.3083,3.95476 0.6956,3.95476 3.3237,0 25.3791,-4.79479 36.3204,-7.89597 10.4583,-2.96428 13.5,-2.78207 13.5,0.80871 0,1.0133 -0.5981,2.33872 -1.329,2.94537 -1.9439,1.61324 -24.2989,7.53741 -38.171,10.11546 -6.6,1.22657 -22.125,4.17469 -34.5,6.55137 -36.1176,6.93659 -56.5659,9.59985 -115,14.97804 -21.175,1.94891 -51.55,4.85871 -67.5,6.46622 -27.2469,2.74607 -57.6131,5.0635 -65.5,4.99873 -1.925,-0.0158 -4.2875,-0.48742 -5.25,-1.04803 z m 169.7149,-52.97674 c -1.5932,-2.57788 0.8524,-5.71045 8.4642,-10.84157 6.7216,-4.531 8.2544,-5.19421 9.5396,-4.12755 3.4033,2.82447 1.0157,6.37971 -8.6489,12.87874 -4.7806,3.21475 -8.1893,3.97643 -9.3549,2.09038 z m 5.2018,-21.60983 c -1.7566,-1.75654 -0.079,-4.5649 6.5833,-11.01993 10.27,-9.9507 17.4225,-13.21511 19.1413,-8.73608 0.8862,2.30949 -0.2504,3.9752 -4.2442,6.21983 -2.0681,1.16235 -6.7287,4.8335 -10.357,8.15811 -6.034,5.5291 -9.3629,7.13859 -11.1234,5.37807 z m 279.2889,-48.089924 c -6.3538,-4.35347 -46.756,-36.34318 -49.2893,-39.02628 -5.9242,-6.27456 -1.0588,-10.95657 5.3587,-5.15679 1.9113,1.72725 14.1625,11.46591 27.225,21.64146 18.7085,14.57375 23.75,18.98743 23.75,20.7926 0,1.9928 -1.6728,3.5203 -3.8318,3.49901 -0.3675,-0.004 -1.8132,-0.79112 -3.2126,-1.75 z m -71.2889,-45.91008 c -0.3667,-0.36666 -0.6667,-1.70511 -0.6667,-2.97432 0,-2.42591 2.7237,-4.29179 10.0257,-6.86807 4.4248,-1.56116 7.4413,-0.20362 6.833,3.07516 -0.6192,3.33819 -14.0203,8.93898 -16.192,6.76723 z"
     style="fill:#000000" />
</svg>
